# Blender MTL File: 'sanfrancisco.blend'
# Material Count: 1

newmtl HighRise01OffsetMaterial.002
Ns 179.999996
Ka 1.000000 1.000000 1.000000
Kd 0.990566 0.990566 0.990566
Ks 0.500000 0.500000 0.500000
Ke 1.000000 1.000000 1.000000
Ni 1.450000
d 1.000000
illum 2
map_Kd HighRise01Diffuse.png
map_d HighRise01Diffuse.png
norm HighRise01Normal.png 
map_ka HighRise01Emission.png 
