# Blender v2.92.0 OBJ File: 'sanfrancisco.blend'
# www.blender.org
mtllib _1highrise11windowtiled.mtl
o _1highrise11:windowtiled_Scene.3128
v -130599.992188 -0.000061 33799.996094
v -130599.992188 1049.999878 33799.996094
v -138649.984375 0.000000 33800.000000
v -138649.984375 1050.000000 33800.000000
v -130599.992188 2100.000000 33799.996094
v -138649.984375 2100.000000 33800.000000
v -138649.984375 0.000000 41850.000000
v -138649.984375 1050.000000 41850.000000
v -138649.984375 2100.000000 41850.000000
v -130599.992188 -0.000061 41849.996094
v -130599.992188 1049.999878 41849.996094
v -130599.992188 2100.000000 41849.996094
vt 0.000000 0.000000
vt 3.354167 0.000000
vt 0.000000 0.437500
vt 3.354167 0.437500
vt 0.000000 0.875000
vt 3.354167 0.875000
vt 0.000000 0.000000
vt 3.354167 0.000000
vt 0.000000 0.437500
vt 3.354167 0.437500
vt 0.000000 0.875000
vt 3.354167 0.875000
vt 0.000000 0.000000
vt 3.354167 0.000000
vt 0.000000 0.437500
vt 3.354167 0.437500
vt 0.000000 0.875000
vt 3.354167 0.875000
vt 0.000000 0.000000
vt 3.354167 0.000000
vt 0.000000 0.437500
vt 3.354167 0.437500
vt 0.000000 0.875000
vt 3.354167 0.875000
vn -0.0000 0.0000 -1.0000
vn -1.0000 0.0000 0.0000
vn 0.0000 0.0000 1.0000
vn 1.0000 0.0000 0.0000
usemtl HighRise01OffsetMaterial.002
s 1
f 1/1/1 3/2/1 2/3/1
f 3/2/1 4/4/1 2/3/1
f 2/3/1 4/4/1 5/5/1
f 4/4/1 6/6/1 5/5/1
f 3/7/2 7/8/2 4/9/2
f 7/8/2 8/10/2 4/9/2
f 4/9/2 8/10/2 6/11/2
f 8/10/2 9/12/2 6/11/2
f 7/13/3 10/14/3 8/15/3
f 10/14/3 11/16/3 8/15/3
f 8/15/3 11/16/3 9/17/3
f 11/16/3 12/18/3 9/17/3
f 10/19/4 1/20/4 11/21/4
f 1/20/4 2/22/4 11/21/4
f 11/21/4 2/22/4 12/23/4
f 2/22/4 5/24/4 12/23/4
