# Blender v2.92.0 OBJ File: 'sanfrancisco.blend'
# www.blender.org
mtllib _1hirise03redbricks.mtl
o _1hirise03:redbricks_Scene.3161
v -133200.000000 5399.999512 39599.996094
v -133210.000000 5699.999512 39609.996094
v -136400.000000 5400.000000 39600.000000
v -136390.000000 5700.000000 39610.000000
v -136400.000000 5400.000000 43199.992188
v -136390.000000 5700.000000 43189.992188
v -133200.000000 5399.999512 43199.988281
v -133210.000000 5699.999512 43189.988281
vt 4.000000 4.000000
vt 36.000000 4.000000
vt 4.099976 0.998334
vt 35.900021 0.998334
vt 4.000002 4.000000
vt 40.000011 3.999996
vt 4.100008 0.998334
vt 39.900009 0.998334
vt -4.000000 -4.000000
vt -36.000000 -4.000000
vt -4.099976 -0.998334
vt -35.900021 -0.998334
vt 4.000000 4.000001
vt 40.000011 4.000006
vt 4.100006 0.998335
vt 39.900002 0.998335
vn -0.0000 0.0333 -0.9994
vn -0.9994 0.0333 0.0000
vn -0.9994 0.0334 0.0000
vn 0.0000 0.0333 0.9994
vn 0.9994 0.0333 0.0000
vn 0.9994 0.0334 0.0000
usemtl Brick00Material.002
s 1
f 1/1/1 3/2/1 2/3/1
f 3/2/1 4/4/1 2/3/1
f 3/5/2 5/6/2 4/7/2
f 5/6/3 6/8/3 4/7/3
f 5/9/4 7/10/4 6/11/4
f 7/10/4 8/12/4 6/11/4
f 7/13/5 1/14/5 8/15/5
f 1/14/6 2/16/6 8/15/6
