# Blender v2.92.0 OBJ File: 'sanfrancisco.blend'
# www.blender.org
mtllib _1highrise12basewindowtiled.mtl
o _1highrise12base:windowtiled_Scene.3134
v -136200.000000 0.000122 26599.998047
v -136200.000000 900.000061 26599.998047
v -138600.000000 0.000122 26599.998047
v -138600.000000 900.000061 26599.998047
v -138600.000000 0.000122 37000.000000
v -138600.000000 900.000061 37000.000000
v -132200.000000 0.000122 36999.996094
v -132200.000000 900.000000 36999.996094
v -132200.000000 0.000122 34999.996094
v -132200.000000 900.000000 34999.996094
v -133800.000000 0.000000 33799.996094
v -133800.000000 900.000061 33799.996094
vt 0.000000 0.000000
vt 1.000000 0.000000
vt 0.000000 0.375000
vt 1.000000 0.375000
vt 0.000000 0.000000
vt 4.333333 0.000000
vt 0.000000 0.375000
vt 4.333333 0.375000
vt 0.000000 0.000000
vt 2.666667 0.000000
vt 0.000000 0.375000
vt 2.666667 0.375000
vt 0.000000 0.000000
vt 0.833333 0.000000
vt 0.000000 0.375000
vt 0.833333 0.375000
vt 0.000000 0.000000
vt 0.833333 0.000000
vt 0.000000 0.375000
vt 0.833333 0.375000
vt 0.000000 0.000000
vt 3.162277 0.000000
vt 0.000000 0.375000
vt 3.162277 0.375000
vn 0.0000 0.0000 -1.0000
vn -1.0000 0.0000 0.0000
vn 0.0000 0.0000 1.0000
vn 1.0000 0.0000 0.0000
vn 0.6000 0.0000 -0.8000
vn 0.9487 0.0000 -0.3162
usemtl HighRise01OffsetMaterial.002
s 1
f 1/1/1 3/2/1 2/3/1
f 3/2/1 4/4/1 2/3/1
f 3/5/2 5/6/2 4/7/2
f 5/6/2 6/8/2 4/7/2
f 5/9/3 7/10/3 6/11/3
f 7/10/3 8/12/3 6/11/3
f 7/13/4 9/14/4 8/15/4
f 9/14/4 10/16/4 8/15/4
f 9/17/5 11/18/5 10/19/5
f 11/18/5 12/20/5 10/19/5
f 11/21/6 1/22/6 12/23/6
f 1/22/6 2/24/6 12/23/6
