# Blender v2.92.0 OBJ File: 'sanfrancisco.blend'
# www.blender.org
mtllib _1market02redbrick.mtl
o _1market02:redbrick_Scene.3491
v 3900.000000 13499.999023 1299.999878
v 3800.000000 13899.999023 1399.999878
v 100.000000 13499.999023 1299.999878
v 200.000000 13899.999023 1399.999878
v 100.000000 13499.999023 5099.999512
v 200.000061 13899.999023 4999.999512
v 3899.999756 13499.999023 5099.999512
v 3799.999756 13899.999023 4999.999512
vt 5.000000 5.000000
vt 43.000000 5.000000
vt 6.000000 0.876894
vt 42.000000 0.876894
vt 5.000003 5.000000
vt 43.000011 4.999996
vt 6.000003 0.876894
vt 42.000011 0.876895
vt -5.000000 -5.000000
vt -43.000000 -5.000000
vt -6.000000 -0.876895
vt -42.000000 -0.876895
vt 5.000000 5.000002
vt 43.000011 5.000006
vt 6.000000 0.876895
vt 42.000000 0.876894
vn 0.0000 0.2425 -0.9701
vn -0.9701 0.2425 0.0000
vn 0.0000 0.2425 0.9701
vn 0.9701 0.2425 0.0000
usemtl Brick02BrownMaterial.002
s 1
f 1/1/1 3/2/1 2/3/1
f 3/2/1 4/4/1 2/3/1
f 3/5/2 5/6/2 4/7/2
f 5/6/2 6/8/2 4/7/2
f 5/9/3 7/10/3 6/11/3
f 7/10/3 8/12/3 6/11/3
f 7/13/4 1/14/4 8/15/4
f 1/14/4 2/16/4 8/15/4
