# Blender v2.92.0 OBJ File: 'sanfrancisco.blend'
# www.blender.org
mtllib _industrial08brickswhite.mtl
o _industrial08:brickswhite_Scene.3439
v -152900.015625 4125.000000 40699.996094
v -153000.000000 4324.999512 40799.996094
v -154800.015625 4125.000488 40699.996094
v -154700.015625 4325.000000 40799.996094
v -154800.015625 4125.000488 45299.992188
v -154700.015625 4325.000000 45199.992188
v -152900.015625 4125.000000 45299.992188
v -153000.000000 4324.999512 45199.992188
v -155285.921875 4125.000000 40214.136719
v -155285.906250 4225.000000 40214.136719
v -152414.093750 4125.000488 40214.136719
v -152414.093750 4225.000000 40214.136719
v -155307.109375 4225.000000 40192.925781
v -152392.906250 4225.000000 40192.925781
v -152392.906250 4125.000488 40192.925781
v -155307.109375 4125.000000 40192.925781
v -155285.921875 4125.000000 45785.851562
v -155285.906250 4225.000000 45785.851562
v -155307.109375 4224.999512 45807.058594
v -155307.109375 4124.999512 45807.058594
v -152414.093750 4125.000488 45785.851562
v -152414.093750 4225.000000 45785.851562
v -152392.906250 4224.999512 45807.058594
v -152392.906250 4125.000000 45807.058594
vt 5.000000 5.000000
vt 24.000000 5.000000
vt 6.000000 2.763932
vt 23.000000 2.763932
vt 5.000003 5.000000
vt 51.000019 4.999995
vt 6.000003 2.763931
vt 50.000019 2.763931
vt -5.000000 -5.000000
vt -24.000000 -5.000000
vt -6.000000 -2.763932
vt -23.000000 -2.763932
vt 5.000000 5.000002
vt 51.000011 5.000007
vt 6.000000 2.763933
vt 50.000019 2.763933
vt 0.000000 0.000000
vt 9.572347 0.000000
vt 0.000000 0.333333
vt 9.572347 0.333333
vt -28.717039 0.000000
vt 0.212158 -0.212128
vt 0.000000 0.000000
vt -28.929199 -0.212128
vt 0.000000 0.000000
vt 9.713786 0.000000
vt 0.000000 0.333333
vt 9.713786 0.333333
vt 28.717039 0.000000
vt -0.212158 0.212128
vt 0.000000 0.000000
vt 28.929199 0.212128
vt 0.000000 0.000000
vt 18.572390 0.000000
vt 0.000000 0.333333
vt 18.572390 0.333333
vt -55.717171 0.000007
vt 0.212128 -0.212158
vt 0.000000 0.000000
vt -55.929310 -0.212152
vt 0.000000 0.000000
vt 18.713810 0.000000
vt 0.000000 0.333333
vt 18.713810 0.333333
vt 55.717171 0.000007
vt -0.212128 0.212158
vt 55.929298 0.212165
vt 0.000000 0.000000
vt 9.572347 0.000000
vt 0.000000 0.333333
vt 9.572347 0.333333
vt 28.717039 0.000000
vt -0.212158 0.212128
vt 0.000000 0.000000
vt 28.929199 0.212128
vt 0.000000 0.000000
vt 9.713786 0.000000
vt 0.000000 0.333333
vt 9.713786 0.333333
vt -28.717039 0.000000
vt 0.212158 -0.212128
vt -28.929199 -0.212128
vt 18.572390 0.000000
vt 0.000000 0.333333
vt 18.572390 0.333333
vt -55.717171 -0.000007
vt 0.212128 -0.212158
vt 0.000000 0.000000
vt -55.929298 -0.212165
vt 0.000000 0.000000
vt 18.713810 0.000000
vt 0.000000 0.333333
vt 18.713810 0.333333
vt 55.717171 -0.000007
vt -0.212128 0.212158
vt 55.929310 0.212152
vn 0.0000 0.4472 -0.8944
vn -0.8944 0.4472 0.0000
vn -0.8945 0.4472 0.0000
vn 0.0000 0.4472 0.8944
vn 0.8945 0.4471 0.0000
vn 0.8945 0.4472 0.0000
vn 0.0000 0.0000 1.0000
vn 0.0000 1.0000 -0.0000
vn 0.0000 0.0000 -1.0000
vn 0.0000 -1.0000 -0.0000
vn 1.0000 -0.0005 0.0000
vn 1.0000 -0.0000 0.0000
vn -1.0000 0.0000 0.0000
usemtl HighRise07WallTiling_5Material.002
s 1
f 1/1/1 3/2/1 2/3/1
f 3/2/1 4/4/1 2/3/1
f 3/5/2 5/6/2 4/7/2
f 5/6/3 6/8/3 4/7/3
f 5/9/4 7/10/4 6/11/4
f 7/10/4 8/12/4 6/11/4
f 7/13/5 1/14/5 8/15/5
f 1/14/6 2/16/6 8/15/6
f 9/17/7 11/18/7 10/19/7
f 11/18/7 12/20/7 10/19/7
f 12/21/8 13/22/8 10/23/8
f 12/21/8 14/24/8 13/22/8
f 15/25/9 16/26/9 14/27/9
f 16/26/9 13/28/9 14/27/9
f 9/29/10 15/30/10 11/31/10
f 9/29/10 16/32/10 15/30/10
f 17/33/11 9/34/12 18/35/11
f 9/34/12 10/36/12 18/35/11
f 10/37/8 19/38/8 18/39/8
f 10/37/8 13/40/8 19/38/8
f 16/41/13 20/42/13 13/43/13
f 20/42/13 19/44/13 13/43/13
f 17/45/10 16/46/10 9/17/10
f 17/45/10 20/47/10 16/46/10
f 21/48/9 17/49/9 22/50/9
f 17/49/9 18/51/9 22/50/9
f 18/52/8 23/53/8 22/54/8
f 18/52/8 19/55/8 23/53/8
f 20/56/7 24/57/7 19/58/7
f 24/57/7 23/59/7 19/58/7
f 21/60/10 20/61/10 17/33/10
f 21/60/10 24/62/10 20/61/10
f 11/31/13 21/63/13 12/64/13
f 21/63/13 22/65/13 12/64/13
f 22/66/8 14/67/8 12/68/8
f 22/66/8 23/69/8 14/67/8
f 24/70/12 15/71/12 23/72/12
f 15/71/12 14/73/12 23/72/12
f 11/74/10 24/75/10 21/48/10
f 11/74/10 15/76/10 24/75/10
