# Blender MTL File: 'sanfrancisco.blend'
# Material Count: 1

newmtl BlocksCinderBlueMaterial.002
Ns 179.999996
Ka 1.000000 1.000000 1.000000
Kd 0.631719 0.718091 0.792453
Ks 0.500000 0.500000 0.500000
Ke 1.000000 1.000000 1.000000
Ni 1.450000
d 1.000000
illum 2
map_Kd BlocksCinderDiffuse.png
map_d BlocksCinderDiffuse.png
norm BlocksCinderNormal.png 
