# Blender v2.92.0 OBJ File: 'sanfrancisco.blend'
# www.blender.org
mtllib BlocksCinder_3.mtl
o BlocksCinder_3_Scene.3682
v 400.000031 0.000008 -1799.999756
v 400.000031 300.000000 -1799.999756
v -399.999878 0.000015 -1799.999756
v -399.999878 300.000000 -1799.999756
v 400.000061 600.000000 -1799.999756
v -399.999939 599.999939 -1799.999756
v 400.000031 899.999939 -1799.999756
v -399.999939 899.999878 -1799.999756
v 400.000031 1199.999878 -1799.999756
v -399.999939 1199.999878 -1799.999756
v -399.999939 0.000015 1799.999878
v -399.999939 300.000000 1799.999878
v -399.999939 599.999939 1799.999878
v -399.999939 899.999878 1799.999878
v -399.999939 1199.999878 1799.999878
v -344.249878 0.000015 1799.999878
v -344.249878 200.000000 1799.999878
v -344.249878 0.000015 1789.999878
v -344.249878 200.000000 1789.999878
v -169.249939 200.000000 1799.999878
v -169.249939 0.000015 1799.999878
v -169.249939 200.000000 1789.999878
v -169.249939 0.000015 1789.999878
v -399.999939 200.000000 1799.999878
v -344.249878 300.000000 1799.999878
v -169.249939 300.000000 1799.999878
v -137.500000 200.000000 1799.999878
v -137.500000 300.000000 1799.999878
v -137.500000 0.000015 1799.999878
v -344.249878 300.000000 1775.999878
v -169.249939 300.000000 1775.999878
v -137.500000 300.000000 1775.999878
v -137.500000 200.000000 1775.999878
v -137.500000 0.000015 1775.999878
v -80.749939 2.750015 1799.999878
v -80.749939 252.749969 1799.999878
v -80.749939 2.750015 1781.999878
v -80.749939 252.749969 1781.999878
v 319.250061 252.749969 1799.999878
v 319.250061 2.750008 1799.999878
v 319.250061 252.749969 1781.999878
v 319.250061 2.750008 1781.999878
v -137.500000 2.750008 1799.999878
v -80.749939 0.000008 1799.999878
v 319.250061 0.000015 1799.999878
v -137.500000 252.749969 1799.999878
v 400.000031 0.000008 1799.999878
v 400.000031 2.750008 1799.999878
v -80.749939 300.000000 1799.999878
v 400.000031 252.749985 1799.999878
v 319.250061 299.999969 1799.999878
v 400.000000 300.000000 1799.999878
v -80.749939 300.000000 1775.999878
v 319.250061 299.999969 1775.999878
v -137.500000 252.749969 1775.999878
v -137.500000 2.750008 1775.999878
v -350.799927 391.049988 1799.999878
v -350.799927 541.049927 1799.999878
v -350.799927 391.049988 1775.999878
v -350.799927 541.049927 1775.999878
v -250.799866 541.049927 1799.999878
v -250.799866 391.049988 1799.999878
v -250.799866 541.049927 1775.999878
v -250.799866 391.049988 1775.999878
v -250.799866 300.000000 1799.999878
v -350.799927 300.000000 1799.999878
v -399.999939 391.049988 1799.999878
v -399.999939 541.049927 1799.999878
v -350.799927 599.999939 1799.999878
v -250.799866 599.999939 1799.999878
v -350.799927 300.000000 1775.999878
v -250.799866 300.000000 1775.999878
v -200.399963 391.049988 1799.999878
v -200.399963 541.049927 1799.999878
v -200.399963 391.049988 1775.999878
v -200.399963 541.049927 1775.999878
v -100.399902 541.049927 1799.999878
v -100.399902 391.049988 1799.999878
v -100.399902 541.049927 1775.999878
v -100.399902 391.049988 1775.999878
v -100.399963 300.000000 1799.999878
v -200.399963 300.000000 1799.999878
v -200.399963 599.999939 1799.999878
v -100.399902 600.000000 1799.999878
v -100.399963 300.000000 1775.999878
v -200.399963 300.000000 1775.999878
v -49.999939 391.049988 1799.999878
v -49.999939 541.049927 1799.999878
v -49.999939 391.049988 1775.999878
v -49.999939 541.049927 1775.999878
v 50.000031 541.049927 1799.999878
v 50.000031 391.049988 1799.999878
v 50.000031 541.049927 1775.999878
v 50.000031 391.049988 1775.999878
v 50.000031 300.000000 1799.999878
v -49.999939 300.000000 1799.999878
v -49.999939 600.000000 1799.999878
v 50.000031 600.000000 1799.999878
v 50.000031 300.000000 1775.999878
v -49.999939 300.000000 1775.999878
v 100.400055 391.049988 1799.999878
v 100.400055 541.049927 1799.999878
v 100.400055 391.049988 1775.999878
v 100.400055 541.049927 1775.999878
v 200.400024 541.049927 1799.999878
v 200.400024 391.050018 1799.999878
v 200.400024 541.049927 1775.999878
v 200.400024 391.050018 1775.999878
v 200.400024 300.000000 1799.999878
v 100.400024 300.000000 1799.999878
v 100.400055 600.000000 1799.999878
v 200.400024 600.000000 1799.999878
v 200.400024 300.000000 1775.999878
v 100.400024 300.000000 1775.999878
v 250.800018 391.050018 1799.999878
v 250.800018 541.049927 1799.999878
v 250.800018 391.050018 1775.999878
v 250.800018 541.049927 1775.999878
v 350.800049 541.049927 1799.999878
v 350.799988 391.050018 1799.999878
v 350.800049 541.049927 1775.999878
v 350.799988 391.050018 1775.999878
v 250.800018 299.999969 1799.999878
v 350.800018 300.000000 1799.999878
v 400.000000 391.050018 1799.999878
v 250.800018 600.000000 1799.999878
v 400.000061 541.049927 1799.999878
v 350.800049 600.000000 1799.999878
v 400.000061 600.000000 1799.999878
v 350.800018 300.000000 1775.999878
v 250.800018 299.999969 1775.999878
v -350.799927 691.049805 1799.999878
v -350.799927 841.049805 1799.999878
v -350.799927 691.049805 1775.999878
v -350.799927 841.049805 1775.999878
v -250.799866 841.049805 1799.999878
v -250.799866 691.049805 1799.999878
v -250.799866 841.049805 1775.999878
v -250.799866 691.049805 1775.999878
v -399.999939 691.049805 1799.999878
v -399.999939 841.049805 1799.999878
v -350.799927 899.999878 1799.999878
v -250.799866 899.999878 1799.999878
v -200.399963 691.049805 1799.999878
v -200.399963 841.049805 1799.999878
v -200.399963 691.049805 1775.999878
v -200.399963 841.049805 1775.999878
v -100.399902 841.049866 1799.999878
v -100.399902 691.049866 1799.999878
v -100.399902 841.049866 1775.999878
v -100.399902 691.049866 1775.999878
v -200.399963 899.999878 1799.999878
v -100.399902 899.999939 1799.999878
v -49.999939 691.049866 1799.999878
v -49.999939 841.049866 1799.999878
v -49.999939 691.049866 1775.999878
v -49.999939 841.049866 1775.999878
v 50.000092 841.049866 1799.999878
v 50.000031 691.049866 1799.999878
v 50.000092 841.049866 1775.999878
v 50.000031 691.049866 1775.999878
v -49.999939 899.999939 1799.999878
v 50.000092 899.999939 1799.999878
v 100.400055 691.049866 1799.999878
v 100.400055 841.049866 1799.999878
v 100.400055 691.049866 1775.999878
v 100.400055 841.049866 1775.999878
v 200.400055 841.049866 1799.999878
v 200.400055 691.049866 1799.999878
v 200.400055 841.049866 1775.999878
v 200.400055 691.049866 1775.999878
v 100.400055 899.999939 1799.999878
v 200.400055 899.999939 1799.999878
v 250.800018 691.049866 1799.999878
v 250.800018 841.049866 1799.999878
v 250.800018 691.049866 1775.999878
v 250.800018 841.049866 1775.999878
v 350.800018 841.049866 1799.999878
v 350.800049 691.049866 1799.999878
v 350.800018 841.049866 1775.999878
v 350.800049 691.049866 1775.999878
v 400.000061 691.049866 1799.999878
v 250.800018 899.999939 1799.999878
v 400.000031 841.049866 1799.999878
v 350.800018 899.999939 1799.999878
v 400.000031 899.999939 1799.999878
v -350.799927 991.049744 1799.999878
v -350.799927 1141.050049 1799.999878
v -350.799927 991.049744 1775.999878
v -350.799927 1141.050049 1775.999878
v -250.799866 1141.050049 1799.999878
v -250.799866 991.049744 1799.999878
v -250.799866 1141.050049 1775.999878
v -250.799866 991.049744 1775.999878
v -399.999939 991.049744 1799.999878
v -399.999939 1141.050049 1799.999878
v -350.799927 1199.999878 1799.999878
v -250.799866 1199.999878 1799.999878
v -200.399963 991.049744 1799.999878
v -200.399841 1141.050049 1799.999878
v -200.399963 991.049744 1775.999878
v -200.399841 1141.050049 1775.999878
v -100.399902 1141.050049 1799.999878
v -100.399902 991.049805 1799.999878
v -100.399902 1141.050049 1775.999878
v -100.399902 991.049805 1775.999878
v -200.399841 1199.999878 1799.999878
v -100.399902 1199.999878 1799.999878
v -49.999939 991.049805 1799.999878
v -49.999939 1141.050049 1799.999878
v -49.999939 991.049805 1775.999878
v -49.999939 1141.050049 1775.999878
v 50.000061 1141.050049 1799.999878
v 50.000061 991.049805 1799.999878
v 50.000061 1141.050049 1775.999878
v 50.000061 991.049805 1775.999878
v -49.999939 1199.999878 1799.999878
v 50.000061 1199.999878 1799.999878
v 100.400024 991.049805 1799.999878
v 100.400024 1141.050049 1799.999878
v 100.400024 991.049805 1775.999878
v 100.400024 1141.050049 1775.999878
v 200.400055 1141.050049 1799.999878
v 200.400024 991.049805 1799.999878
v 200.400055 1141.050049 1775.999878
v 200.400024 991.049805 1775.999878
v 100.400024 1199.999878 1799.999878
v 200.400055 1199.999878 1799.999878
v 250.799988 991.049805 1799.999878
v 250.800018 1141.050049 1799.999878
v 250.799988 991.049805 1775.999878
v 250.800018 1141.050049 1775.999878
v 350.799988 1141.050049 1799.999878
v 350.800018 991.049805 1799.999878
v 350.799988 1141.050049 1775.999878
v 350.800018 991.049805 1775.999878
v 400.000031 991.049805 1799.999878
v 250.800018 1199.999878 1799.999878
v 400.000031 1141.050049 1799.999878
v 350.799988 1199.999878 1799.999878
v 400.000031 1199.999878 1799.999878
v 376.000031 899.999939 -1799.999756
v 376.000031 899.999939 1799.999878
v 400.000031 991.049805 1748.782837
v 400.000031 1141.050049 1748.782837
v 376.000031 991.049805 1748.782837
v 376.000000 1141.050049 1748.782837
v 400.000031 1141.050049 1648.782837
v 400.000031 991.049805 1648.782837
v 376.000000 1141.050049 1648.782837
v 376.000000 991.049805 1648.782837
v 400.000031 899.999939 1648.782837
v 400.000031 899.999939 1748.782837
v 400.000031 1199.999878 1748.782837
v 400.000000 1199.999878 1648.782837
v 376.000031 899.999939 1748.782837
v 376.000031 899.999939 1648.782837
v 400.000031 991.049805 1594.347778
v 400.000000 1141.050049 1594.347778
v 376.000000 991.049805 1594.347778
v 376.000000 1141.050049 1594.347778
v 400.000000 1141.050049 1494.347778
v 400.000031 991.049805 1494.347778
v 376.000000 1141.050049 1494.347778
v 376.000000 991.049805 1494.347778
v 400.000031 899.999939 1494.347778
v 400.000031 899.999939 1594.347778
v 400.000000 1199.999878 1594.347778
v 400.000000 1199.999878 1494.347778
v 376.000000 899.999939 1494.347778
v 376.000000 899.999939 1594.347778
v 400.000000 991.049805 1439.912598
v 400.000000 1141.050049 1439.912598
v 376.000000 991.049805 1439.912598
v 376.000000 1141.050049 1439.912598
v 400.000061 1141.050049 1339.912842
v 400.000061 991.049805 1339.912842
v 376.000031 1141.050049 1339.912842
v 376.000031 991.049805 1339.912842
v 400.000061 899.999939 1339.912842
v 400.000031 899.999939 1439.912598
v 400.000000 1199.999878 1439.912598
v 400.000061 1199.999878 1339.912842
v 376.000061 899.999939 1339.912842
v 376.000000 899.999939 1439.912598
v 400.000061 991.049805 1285.477783
v 400.000061 1141.050049 1285.477783
v 376.000031 991.049805 1285.477783
v 376.000031 1141.050049 1285.477783
v 400.000031 1141.050049 1185.477905
v 400.000061 991.049805 1185.477905
v 376.000031 1141.050049 1185.477905
v 376.000031 991.049805 1185.477905
v 400.000061 899.999939 1185.477905
v 400.000061 899.999939 1285.477783
v 400.000031 1199.999878 1285.477783
v 400.000031 1199.999878 1185.477905
v 376.000031 899.999939 1185.477905
v 376.000061 899.999939 1285.477783
v 400.000061 991.049805 1131.042847
v 400.000031 1141.050049 1131.042847
v 376.000031 991.049805 1131.042847
v 376.000000 1141.050049 1131.042847
v 400.000031 1141.050049 1031.042847
v 400.000031 991.049805 1031.042847
v 376.000000 1141.050049 1031.042847
v 376.000031 991.049805 1031.042847
v 400.000061 899.999939 1031.042847
v 400.000061 899.999939 1131.042847
v 400.000031 1199.999878 1131.042847
v 400.000031 1199.999878 1031.042847
v 376.000031 899.999939 1031.042847
v 376.000031 899.999939 1131.042847
v 400.000031 991.049805 976.608521
v 400.000031 1141.050049 976.608521
v 376.000000 991.049805 976.608521
v 376.000000 1141.050049 976.608521
v 400.000031 1141.050049 876.608521
v 400.000031 991.049805 876.608521
v 376.000000 1141.050049 876.608521
v 376.000000 991.049805 876.608521
v 400.000031 899.999939 876.608521
v 400.000031 899.999939 976.608521
v 400.000031 1199.999878 976.608521
v 400.000031 1199.999878 876.608521
v 376.000000 899.999939 876.608521
v 376.000031 899.999939 976.608521
v 400.000031 991.049805 822.173828
v 400.000031 1141.050049 822.173828
v 376.000000 991.049805 822.173828
v 376.000000 1141.050049 822.173828
v 400.000000 1141.050049 722.173828
v 400.000031 991.049805 722.173828
v 376.000000 1141.050049 722.173828
v 376.000000 991.049805 722.173828
v 400.000031 899.999939 722.173828
v 400.000031 899.999939 822.173828
v 400.000031 1199.999878 822.173828
v 400.000000 1199.999878 722.173828
v 376.000000 899.999939 722.173828
v 376.000000 899.999939 822.173828
v 400.000031 991.049805 667.739075
v 400.000000 1141.050049 667.739075
v 376.000000 991.049805 667.739075
v 376.000000 1141.050049 667.739075
v 400.000000 1141.050049 567.739014
v 400.000000 991.049805 567.739014
v 376.000000 1141.050049 567.739014
v 376.000000 991.049805 567.739014
v 400.000031 899.999939 567.739014
v 400.000031 899.999939 667.739075
v 400.000000 1199.999878 667.739075
v 400.000000 1199.999878 567.739014
v 376.000000 899.999939 567.739014
v 376.000000 899.999939 667.739075
v 400.000000 991.049805 513.304260
v 400.000000 1141.050049 513.304260
v 376.000000 991.049805 513.304260
v 376.000000 1141.050049 513.304260
v 400.000061 1141.050049 413.304199
v 400.000061 991.049805 413.304199
v 376.000031 1141.050049 413.304199
v 376.000061 991.049805 413.304199
v 400.000061 899.999939 413.304199
v 400.000031 899.999939 513.304260
v 400.000000 1199.999878 513.304260
v 400.000031 1199.999878 413.304199
v 376.000061 899.999939 413.304199
v 376.000000 899.999939 513.304260
v 400.000061 991.049805 358.869507
v 400.000031 1141.050049 358.869507
v 376.000061 991.049805 358.869507
v 376.000031 1141.050049 358.869507
v 400.000031 1141.050049 258.869568
v 400.000061 991.049805 258.869568
v 376.000031 1141.050049 258.869568
v 376.000031 991.049805 258.869568
v 400.000061 899.999939 258.869568
v 400.000061 899.999939 358.869507
v 400.000031 1199.999878 358.869507
v 400.000031 1199.999878 258.869568
v 376.000061 899.999939 258.869568
v 376.000061 899.999939 358.869507
v 400.000031 991.049805 204.434769
v 400.000031 1141.050049 204.434769
v 376.000031 991.049805 204.434769
v 376.000031 1141.050049 204.434769
v 400.000031 1141.050049 104.434784
v 400.000031 991.049805 104.434784
v 376.000000 1141.050049 104.434784
v 376.000031 991.049805 104.434784
v 400.000031 899.999939 104.434784
v 400.000061 899.999939 204.434769
v 400.000031 1199.999878 204.434769
v 400.000031 1199.999878 104.434784
v 376.000031 899.999939 104.434784
v 376.000031 899.999939 204.434769
v 400.000031 991.049805 49.999985
v 400.000031 1141.050049 49.999985
v 376.000031 991.049805 49.999977
v 376.000000 1141.050049 49.999977
v 400.000031 1141.050049 -50.000011
v 400.000031 991.049805 -50.000011
v 376.000000 1141.050049 -50.000015
v 376.000000 991.049805 -50.000015
v 400.000031 899.999939 -50.000011
v 400.000031 899.999939 49.999985
v 400.000031 1199.999878 49.999985
v 400.000031 1199.999878 -50.000011
v 376.000031 899.999939 -50.000015
v 376.000031 899.999939 49.999977
v 400.000031 991.049805 -104.434799
v 400.000031 1141.050049 -104.434799
v 376.000000 991.049805 -104.434792
v 376.000000 1141.050049 -104.434792
v 400.000000 1141.050049 -204.434799
v 400.000031 991.049805 -204.434799
v 376.000000 1141.050049 -204.434799
v 376.000000 991.049805 -204.434799
v 400.000031 899.999939 -204.434799
v 400.000031 899.999939 -104.434799
v 400.000000 1199.999878 -104.434799
v 400.000000 1199.999878 -204.434799
v 376.000000 899.999939 -204.434799
v 376.000031 899.999939 -104.434792
v 400.000031 991.049805 -258.869568
v 400.000000 1141.050049 -258.869568
v 376.000000 991.049805 -258.869568
v 376.000000 1141.050049 -258.869568
v 400.000000 1141.050049 -358.869568
v 400.000000 991.049805 -358.869568
v 376.000000 1141.050049 -358.869568
v 376.000000 991.049805 -358.869568
v 400.000031 899.999939 -358.869568
v 400.000031 899.999939 -258.869568
v 400.000000 1199.999878 -258.869568
v 400.000000 1199.999878 -358.869568
v 376.000000 899.999939 -358.869568
v 376.000000 899.999939 -258.869568
v 400.000000 991.049805 -413.304260
v 400.000000 1141.050049 -413.304260
v 376.000000 991.049805 -413.304260
v 376.000000 1141.050049 -413.304260
v 400.000031 1141.050049 -513.304321
v 400.000061 991.049805 -513.304321
v 376.000061 1141.050049 -513.304321
v 376.000061 991.049805 -513.304321
v 400.000061 899.999939 -513.304321
v 400.000000 899.999939 -413.304260
v 400.000000 1199.999878 -413.304260
v 400.000031 1199.999878 -513.304321
v 376.000061 899.999939 -513.304321
v 376.000000 899.999939 -413.304260
v 400.000061 991.049805 -567.739014
v 400.000031 1141.050049 -567.739014
v 376.000061 991.049805 -567.739014
v 376.000061 1141.050049 -567.739014
v 400.000031 1141.050049 -667.739075
v 400.000031 991.049805 -667.739075
v 376.000031 1141.050049 -667.739075
v 376.000061 991.049805 -667.739075
v 400.000061 899.999939 -667.739075
v 400.000061 899.999939 -567.739014
v 400.000031 1199.999878 -567.739014
v 400.000031 1199.999878 -667.739075
v 376.000061 899.999939 -667.739075
v 376.000061 899.999939 -567.739014
v 400.000031 991.049805 -722.173767
v 400.000031 1141.050049 -722.173767
v 376.000061 991.049805 -722.173767
v 376.000031 1141.050049 -722.173767
v 400.000031 1141.050049 -822.173767
v 400.000031 991.049805 -822.173767
v 376.000031 1141.050049 -822.173767
v 376.000031 991.049805 -822.173767
v 400.000031 899.999939 -822.173767
v 400.000061 899.999939 -722.173767
v 400.000031 1199.999878 -722.173767
v 400.000031 1199.999878 -822.173767
v 376.000031 899.999939 -822.173767
v 376.000061 899.999939 -722.173767
v 400.000031 991.049805 -876.608459
v 400.000031 1141.050049 -876.608459
v 376.000031 991.049805 -876.608459
v 376.000031 1141.050049 -876.608459
v 400.000031 1141.050049 -976.608459
v 400.000031 991.049805 -976.608459
v 376.000000 1141.050049 -976.608459
v 376.000031 991.049805 -976.608459
v 400.000031 899.999939 -976.608459
v 400.000031 899.999939 -876.608459
v 400.000031 1199.999878 -876.608459
v 400.000000 1199.999878 -976.608459
v 376.000031 899.999939 -976.608459
v 376.000031 899.999939 -876.608459
v 400.000031 991.049805 -1031.042847
v 400.000000 1141.050049 -1031.042847
v 376.000031 991.049805 -1031.042847
v 376.000000 1141.050049 -1031.042847
v 400.000000 1141.050049 -1131.042847
v 400.000031 991.049805 -1131.042847
v 376.000000 1141.050049 -1131.042847
v 376.000000 991.049805 -1131.042847
v 400.000031 899.999939 -1131.042847
v 400.000031 899.999939 -1031.042847
v 400.000000 1199.999878 -1031.042847
v 400.000000 1199.999878 -1131.042847
v 376.000031 899.999939 -1131.042847
v 376.000031 899.999939 -1031.042847
v 400.000000 991.049805 -1185.477905
v 400.000000 1141.050049 -1185.477905
v 376.000000 991.049805 -1185.477905
v 376.000000 1141.050049 -1185.477905
v 400.000000 1141.050049 -1285.477783
v 400.000000 991.049805 -1285.477783
v 376.000000 1141.050049 -1285.477783
v 376.000000 991.049805 -1285.477783
v 400.000000 899.999939 -1285.477783
v 400.000031 899.999939 -1185.477905
v 400.000000 1199.999878 -1185.477905
v 400.000000 1199.999878 -1285.477783
v 376.000000 899.999939 -1285.477783
v 376.000000 899.999939 -1185.477905
v 400.000000 991.049805 -1339.912720
v 400.000000 1141.050049 -1339.912720
v 376.000000 991.049805 -1339.912720
v 376.000000 1141.050049 -1339.912720
v 400.000031 1141.050049 -1439.912598
v 400.000061 991.049805 -1439.912598
v 376.000031 1141.050049 -1439.912598
v 376.000031 991.049805 -1439.912598
v 400.000061 899.999939 -1439.912598
v 400.000000 899.999939 -1339.912720
v 400.000000 1199.999878 -1339.912720
v 400.000031 1199.999878 -1439.912598
v 376.000061 899.999939 -1439.912598
v 376.000000 899.999939 -1339.912720
v 400.000061 991.049805 -1494.347778
v 400.000031 1141.050049 -1494.347778
v 376.000031 991.049805 -1494.347778
v 376.000031 1141.050049 -1494.347778
v 400.000031 1141.050049 -1594.347778
v 400.000031 991.049805 -1594.347778
v 376.000031 1141.050049 -1594.347778
v 376.000031 991.049805 -1594.347778
v 400.000061 899.999939 -1594.347778
v 400.000061 899.999939 -1494.347778
v 400.000031 1199.999878 -1494.347778
v 400.000031 1199.999878 -1594.347778
v 376.000031 899.999939 -1594.347778
v 376.000061 899.999939 -1494.347778
v 400.000031 991.049805 -1648.782715
v 400.000031 1141.050049 -1648.782715
v 376.000031 991.049805 -1648.782715
v 376.000000 1141.050049 -1648.782715
v 400.000031 1141.050049 -1748.782715
v 400.000031 991.049805 -1748.782715
v 376.000000 1141.050049 -1748.782715
v 376.000031 991.049805 -1748.782715
v 400.000031 899.999939 -1648.782715
v 400.000031 899.999939 -1748.782715
v 400.000031 991.049805 -1799.999756
v 400.000031 1199.999878 -1648.782715
v 400.000031 1141.050049 -1799.999756
v 400.000031 1199.999878 -1748.782715
v 376.000031 899.999939 -1748.782715
v 376.000031 899.999939 -1648.782715
vt 0.000000 0.000000
vt 2.666667 0.000000
vt 0.000000 1.000000
vt 2.666667 1.000000
vt 0.000000 2.000000
vt 2.666667 2.000000
vt 0.000000 3.000000
vt 2.666667 3.000000
vt 0.000000 4.000000
vt 2.666667 4.000000
vt 0.000000 6.000000
vt 2.666667 6.000000
vt 0.000000 7.000000
vt 2.666667 7.000000
vt 0.000000 0.000000
vt 12.000000 0.000000
vt 0.000000 1.000000
vt 12.000000 1.000000
vt 0.000000 2.000000
vt 12.000000 2.000000
vt 0.000000 3.000000
vt 12.000000 3.000000
vt 0.000000 4.000000
vt 12.000000 4.000000
vt 0.000000 6.000000
vt 12.000000 6.000000
vt 0.000000 7.000000
vt 12.000000 7.000000
vt 0.875000 0.000000
vt 0.841667 0.000000
vt 0.875000 0.666667
vt 0.841667 0.666667
vt 1.538333 0.000000
vt 1.458333 0.000000
vt 1.538333 0.666667
vt 1.458333 0.666667
vt 0.875000 0.000000
vt 1.458333 0.000000
vt 0.875000 -0.033333
vt 1.458333 -0.033333
vt 0.689167 0.000000
vt 0.689167 0.666667
vt 0.689167 1.000000
vt 0.875000 1.000000
vt 1.458333 0.666667
vt 1.458333 1.000000
vt 1.564167 0.666667
vt 1.564167 1.000000
vt 1.564167 0.000000
vt 1.458333 0.000000
vt 0.875000 0.000000
vt 1.458333 0.000000
vt 0.875000 -0.080000
vt 1.458333 -0.080000
vt 1.564167 0.000000
vt 1.564167 -0.080000
vt 0.689167 0.000000
vt 0.609167 0.000000
vt 0.689167 0.666667
vt 0.609167 0.666667
vt 0.689167 0.000000
vt 0.609167 0.000000
vt 0.689167 0.333333
vt 0.609167 0.333333
vt 2.480833 0.009167
vt 2.420833 0.009167
vt 2.480833 0.842500
vt 2.420833 0.842500
vt 3.894167 0.009167
vt 3.814167 0.009167
vt 3.894167 0.842500
vt 3.814167 0.842500
vt 2.480833 0.000000
vt 3.814167 0.000000
vt 2.480833 -0.060000
vt 3.814167 -0.060000
vt 2.480833 0.000000
vt 3.814167 0.000000
vt 2.480833 -0.060000
vt 3.814167 -0.060000
vt 2.291667 0.000000
vt 2.480833 0.000000
vt 2.291667 0.009167
vt 3.814167 0.000000
vt 2.291667 0.842500
vt 3.814167 0.009167
vt 4.083333 0.000000
vt 4.083333 0.009167
vt 2.291667 1.000000
vt 2.480833 1.000000
vt 3.814167 0.842500
vt 4.083333 0.842500
vt 3.814167 1.000000
vt 4.083333 1.000000
vt 3.814167 0.000000
vt 3.814167 -0.080000
vt 2.480833 -0.080000
vt 2.480833 0.000000
vt 2.291667 -0.080000
vt 2.291667 0.000000
vt 2.291667 0.009167
vt 2.211667 0.009167
vt 2.291667 0.842500
vt 2.211667 0.842500
vt 2.291667 0.000000
vt 2.211667 0.000000
vt 2.291667 0.009167
vt 2.211667 0.009167
vt 2.211667 0.000000
vt 2.291667 0.157500
vt 2.211667 0.157500
vt 0.497333 1.303500
vt 0.417333 1.303500
vt 0.497333 1.803500
vt 0.417333 1.803500
vt 0.910667 1.303500
vt 0.830667 1.303500
vt 0.910667 1.803500
vt 0.830667 1.803500
vt 0.497333 1.000000
vt 0.830667 1.000000
vt 0.497333 0.920000
vt 0.830667 0.920000
vt 0.497333 1.000000
vt 0.830667 1.000000
vt 0.497333 0.920000
vt 0.830667 0.920000
vt 0.830667 1.000000
vt 0.830667 1.303500
vt 0.497333 1.000000
vt 0.333333 1.303500
vt 0.333333 1.000000
vt 0.333333 1.803500
vt 0.333333 2.000000
vt 0.497333 2.000000
vt 0.830667 1.803500
vt 0.830667 2.000000
vt 0.497333 1.000000
vt 0.830667 1.000000
vt 0.497333 0.920000
vt 0.830667 0.920000
vt 0.834667 1.303500
vt 0.754667 1.303500
vt 0.834667 1.803500
vt 0.754667 1.803500
vt 1.248000 1.303500
vt 1.168000 1.303500
vt 1.248000 1.803500
vt 1.168000 1.803500
vt 0.834667 1.000000
vt 1.168000 1.000000
vt 0.834667 0.920000
vt 1.168000 0.920000
vt 0.834667 1.000000
vt 1.168000 1.000000
vt 0.834667 0.920000
vt 1.168000 0.920000
vt 1.168000 1.000000
vt 1.168000 1.303500
vt 0.834667 1.000000
vt 0.666667 1.303500
vt 0.666667 1.000000
vt 0.666667 1.803500
vt 0.666667 2.000000
vt 0.834667 2.000000
vt 1.168000 1.803500
vt 1.168000 2.000000
vt 1.168000 1.000000
vt 1.168000 0.920000
vt 0.834667 0.920000
vt 0.834667 1.000000
vt 0.666667 0.920000
vt 0.666667 1.000000
vt 1.168000 1.303500
vt 1.088000 1.303500
vt 1.168000 1.803500
vt 1.088000 1.803500
vt 1.581333 1.303500
vt 1.501333 1.303500
vt 1.581333 1.803500
vt 1.501333 1.803500
vt 1.168000 1.000000
vt 1.501333 1.000000
vt 1.168000 0.920000
vt 1.501333 0.920000
vt 1.168000 1.000000
vt 1.501333 1.000000
vt 1.168000 0.920000
vt 1.501333 0.920000
vt 1.501333 1.000000
vt 1.501333 1.303500
vt 1.168000 1.000000
vt 1.000000 1.303500
vt 1.000000 1.000000
vt 1.000000 1.803500
vt 1.000000 2.000000
vt 1.168000 2.000000
vt 1.501333 1.803500
vt 1.501333 2.000000
vt 1.501333 1.000000
vt 1.501333 0.920000
vt 1.168000 0.920000
vt 1.168000 1.000000
vt 1.000000 0.920000
vt 1.000000 1.000000
vt 1.501333 1.303500
vt 1.421333 1.303500
vt 1.501333 1.803500
vt 1.421333 1.803500
vt 1.914667 1.303500
vt 1.834667 1.303500
vt 1.914667 1.803500
vt 1.834667 1.803500
vt 1.501333 1.000000
vt 1.834667 1.000000
vt 1.501333 0.920000
vt 1.834667 0.920000
vt 1.501333 1.000000
vt 1.834667 1.000000
vt 1.501333 0.920000
vt 1.834667 0.920000
vt 1.834667 1.000000
vt 1.834667 1.303500
vt 1.501333 1.000000
vt 1.333333 1.303500
vt 1.333333 1.000000
vt 1.333333 1.803500
vt 1.333333 2.000000
vt 1.501333 2.000000
vt 1.834667 1.803500
vt 1.834667 2.000000
vt 1.834667 1.000000
vt 1.834667 0.920000
vt 1.501333 0.920000
vt 1.501333 1.000000
vt 1.333333 0.920000
vt 1.333333 1.000000
vt 1.834667 1.303500
vt 1.754667 1.303500
vt 1.834667 1.803500
vt 1.754667 1.803500
vt 2.248000 1.303500
vt 2.168000 1.303500
vt 2.248000 1.803500
vt 2.168000 1.803500
vt 1.834667 1.000000
vt 2.168000 1.000000
vt 1.834667 0.920000
vt 2.168000 0.920000
vt 1.834667 1.000000
vt 2.168000 1.000000
vt 1.834667 0.920000
vt 2.168000 0.920000
vt 1.666667 1.000000
vt 1.834667 1.000000
vt 1.666667 1.303500
vt 2.168000 1.000000
vt 1.666667 1.803500
vt 2.168000 1.303500
vt 2.332000 1.000000
vt 2.332000 1.303500
vt 1.666667 2.000000
vt 1.834667 2.000000
vt 2.168000 1.803500
vt 2.332000 1.803500
vt 2.168000 2.000000
vt 2.332000 2.000000
vt 2.168000 1.000000
vt 2.168000 0.920000
vt 1.834667 0.920000
vt 1.834667 1.000000
vt 1.666667 0.920000
vt 1.666667 1.000000
vt 0.497333 3.303500
vt 0.417333 3.303500
vt 0.497333 3.803500
vt 0.417333 3.803500
vt 0.910667 3.303500
vt 0.830667 3.303500
vt 0.910667 3.803500
vt 0.830667 3.803500
vt 0.497333 3.000000
vt 0.830667 3.000000
vt 0.497333 2.920000
vt 0.830667 2.920000
vt 0.497333 3.000000
vt 0.830667 3.000000
vt 0.497333 2.920000
vt 0.830667 2.920000
vt 0.830667 3.000000
vt 0.830667 3.303500
vt 0.497333 3.000000
vt 0.333333 3.303500
vt 0.333333 3.000000
vt 0.333333 3.803500
vt 0.333333 4.000000
vt 0.497333 4.000000
vt 0.830667 3.803500
vt 0.830667 4.000000
vt 0.834667 3.303500
vt 0.754667 3.303500
vt 0.834667 3.803500
vt 0.754667 3.803500
vt 1.248000 3.303500
vt 1.168000 3.303500
vt 1.248000 3.803500
vt 1.168000 3.803500
vt 0.834667 3.000000
vt 1.168000 3.000000
vt 0.834667 2.920000
vt 1.168000 2.920000
vt 0.834667 3.000000
vt 1.168000 3.000000
vt 0.834667 2.920000
vt 1.168000 2.920000
vt 1.168000 3.000000
vt 1.168000 3.303500
vt 0.834667 3.000000
vt 0.666667 3.303500
vt 0.666667 3.000000
vt 0.666667 3.803500
vt 0.666667 4.000000
vt 0.834667 4.000000
vt 1.168000 3.803500
vt 1.168000 4.000000
vt 1.168000 3.303500
vt 1.088000 3.303500
vt 1.168000 3.803500
vt 1.088000 3.803500
vt 1.581333 3.303500
vt 1.501333 3.303500
vt 1.581333 3.803500
vt 1.501333 3.803500
vt 1.168000 3.000000
vt 1.501333 3.000000
vt 1.168000 2.920000
vt 1.501333 2.920000
vt 1.168000 3.000000
vt 1.501333 3.000000
vt 1.168000 2.920000
vt 1.501333 2.920000
vt 1.501333 3.000000
vt 1.501333 3.303500
vt 1.168000 3.000000
vt 1.000000 3.303500
vt 1.000000 3.000000
vt 1.000000 3.803500
vt 1.000000 4.000000
vt 1.168000 4.000000
vt 1.501333 3.803500
vt 1.501333 4.000000
vt 1.501333 3.303500
vt 1.421333 3.303500
vt 1.501333 3.803500
vt 1.421333 3.803500
vt 1.914667 3.303500
vt 1.834667 3.303500
vt 1.914667 3.803500
vt 1.834667 3.803500
vt 1.501333 3.000000
vt 1.834667 3.000000
vt 1.501333 2.920000
vt 1.834667 2.920000
vt 1.501333 3.000000
vt 1.834667 3.000000
vt 1.501333 2.920000
vt 1.834667 2.920000
vt 1.834667 3.000000
vt 1.834667 3.303500
vt 1.501333 3.000000
vt 1.333333 3.303500
vt 1.333333 3.000000
vt 1.333333 3.803500
vt 1.333333 4.000000
vt 1.501333 4.000000
vt 1.834667 3.803500
vt 1.834667 4.000000
vt 1.834667 3.303500
vt 1.754667 3.303500
vt 1.834667 3.803500
vt 1.754667 3.803500
vt 2.248000 3.303500
vt 2.168000 3.303500
vt 2.248000 3.803500
vt 2.168000 3.803500
vt 1.834667 3.000000
vt 2.168000 3.000000
vt 1.834667 2.920000
vt 2.168000 2.920000
vt 1.834667 3.000000
vt 2.168000 3.000000
vt 1.834667 2.920000
vt 2.168000 2.920000
vt 1.666667 3.000000
vt 1.834667 3.000000
vt 1.666667 3.303500
vt 2.168000 3.000000
vt 1.666667 3.803500
vt 2.168000 3.303500
vt 2.332000 3.000000
vt 2.332000 3.303500
vt 1.666667 4.000000
vt 1.834667 4.000000
vt 2.168000 3.803500
vt 2.332000 3.803500
vt 2.168000 4.000000
vt 2.332000 4.000000
vt 0.497333 6.303500
vt 0.417333 6.303500
vt 0.497333 6.803500
vt 0.417333 6.803500
vt 0.910667 6.303500
vt 0.830667 6.303500
vt 0.910667 6.803500
vt 0.830667 6.803500
vt 0.497333 6.000000
vt 0.830667 6.000000
vt 0.497333 5.920000
vt 0.830667 5.920000
vt 0.497333 6.000000
vt 0.830667 6.000000
vt 0.497333 5.920000
vt 0.830667 5.920000
vt 0.830667 6.000000
vt 0.830667 6.303500
vt 0.497333 6.000000
vt 0.333333 6.303500
vt 0.333333 6.000000
vt 0.333333 6.803500
vt 0.333333 7.000000
vt 0.497333 7.000000
vt 0.830667 6.803500
vt 0.830667 7.000000
vt 0.834667 6.303500
vt 0.754667 6.303500
vt 0.834667 6.803500
vt 0.754667 6.803500
vt 1.248000 6.303500
vt 1.168000 6.303500
vt 1.248000 6.803500
vt 1.168000 6.803500
vt 0.834667 6.000000
vt 1.168000 6.000000
vt 0.834667 5.920000
vt 1.168000 5.920000
vt 0.834667 6.000000
vt 1.168000 6.000000
vt 0.834667 5.920000
vt 1.168000 5.920000
vt 1.168000 6.000000
vt 1.168000 6.303500
vt 0.834667 6.000000
vt 0.666667 6.303500
vt 0.666667 6.000000
vt 0.666667 6.803500
vt 0.666667 7.000000
vt 0.834667 7.000000
vt 1.168000 6.803500
vt 1.168000 7.000000
vt 1.168000 6.303500
vt 1.088000 6.303500
vt 1.168000 6.803500
vt 1.088000 6.803500
vt 1.581333 6.303500
vt 1.501333 6.303500
vt 1.581333 6.803500
vt 1.501333 6.803500
vt 1.168000 6.000000
vt 1.501333 6.000000
vt 1.168000 5.920000
vt 1.501333 5.920000
vt 1.168000 6.000000
vt 1.501333 6.000000
vt 1.168000 5.920000
vt 1.501333 5.920000
vt 1.501333 6.000000
vt 1.501333 6.303500
vt 1.168000 6.000000
vt 1.000000 6.303500
vt 1.000000 6.000000
vt 1.000000 6.803500
vt 1.000000 7.000000
vt 1.168000 7.000000
vt 1.501333 6.803500
vt 1.501333 7.000000
vt 1.501333 6.303500
vt 1.421333 6.303500
vt 1.501333 6.803500
vt 1.421333 6.803500
vt 1.914667 6.303500
vt 1.834667 6.303500
vt 1.914667 6.803500
vt 1.834667 6.803500
vt 1.501333 6.000000
vt 1.834667 6.000000
vt 1.501333 5.920000
vt 1.834667 5.920000
vt 1.501333 6.000000
vt 1.834667 6.000000
vt 1.501333 5.920000
vt 1.834667 5.920000
vt 1.834667 6.000000
vt 1.834667 6.303500
vt 1.501333 6.000000
vt 1.333333 6.303500
vt 1.333333 6.000000
vt 1.333333 6.803500
vt 1.333333 7.000000
vt 1.501333 7.000000
vt 1.834667 6.803500
vt 1.834667 7.000000
vt 1.834667 6.303500
vt 1.754667 6.303500
vt 1.834667 6.803500
vt 1.754667 6.803500
vt 2.248000 6.303500
vt 2.168000 6.303500
vt 2.248000 6.803500
vt 2.168000 6.803500
vt 1.834667 6.000000
vt 2.168000 6.000000
vt 1.834667 5.920000
vt 2.168000 5.920000
vt 1.834667 6.000000
vt 2.168000 6.000000
vt 1.834667 5.920000
vt 2.168000 5.920000
vt 1.666667 6.000000
vt 1.834667 6.000000
vt 1.666667 6.303500
vt 2.168000 6.000000
vt 1.666667 6.803500
vt 2.168000 6.303500
vt 2.332000 6.000000
vt 2.332000 6.303500
vt 1.666667 7.000000
vt 1.834667 7.000000
vt 2.168000 6.803500
vt 2.332000 6.803500
vt 2.168000 7.000000
vt 2.332000 7.000000
vt 0.000000 0.000000
vt 12.000000 0.000000
vt 0.000000 1.000000
vt 12.000000 1.000000
vt 0.000000 2.000000
vt 12.000000 2.000000
vt 0.000000 3.000000
vt 12.000000 3.000000
vt 0.000000 4.000000
vt 12.000000 4.000000
vt 0.000000 3.000000
vt 11.840000 3.000000
vt 0.000000 0.333333
vt 11.840000 0.333333
vt 0.504058 6.303500
vt 0.424058 6.303500
vt 0.504058 6.803500
vt 0.424058 6.803500
vt 0.917391 6.303500
vt 0.837391 6.303500
vt 0.917391 6.803500
vt 0.837391 6.803500
vt 0.504058 6.000000
vt 0.837391 6.000000
vt 0.504058 5.920000
vt 0.837391 5.920000
vt 0.504058 6.000000
vt 0.837391 6.000000
vt 0.504058 5.920000
vt 0.837391 5.920000
vt 0.837391 6.000000
vt 0.837391 6.303500
vt 0.504058 6.000000
vt 0.333333 6.303500
vt 0.333333 6.000000
vt 0.333333 6.803500
vt 0.333333 7.000000
vt 0.504058 7.000000
vt 0.837391 6.803500
vt 0.837391 7.000000
vt 0.504058 6.000000
vt 0.837391 6.000000
vt 0.504058 5.920000
vt 0.837391 5.920000
vt 0.848116 6.303500
vt 0.768116 6.303500
vt 0.848116 6.803500
vt 0.768116 6.803500
vt 1.261449 6.303500
vt 1.181449 6.303500
vt 1.261449 6.803500
vt 1.181449 6.803500
vt 0.848116 6.000000
vt 1.181449 6.000000
vt 0.848116 5.920000
vt 1.181449 5.920000
vt 0.848116 6.000000
vt 1.181449 6.000000
vt 0.848116 5.920000
vt 1.181449 5.920000
vt 1.181449 6.000000
vt 1.181449 6.303500
vt 0.848116 6.000000
vt 0.666667 6.303500
vt 0.666667 6.000000
vt 0.666667 6.803500
vt 0.666667 7.000000
vt 0.848116 7.000000
vt 1.181449 6.803500
vt 1.181449 7.000000
vt 1.181449 6.000000
vt 1.181449 5.920000
vt 0.848116 5.920000
vt 0.848116 6.000000
vt 0.666667 5.920000
vt 0.666667 6.000000
vt 1.181449 6.303500
vt 1.101449 6.303500
vt 1.181449 6.803500
vt 1.101449 6.803500
vt 1.594782 6.303500
vt 1.514783 6.303500
vt 1.594782 6.803500
vt 1.514783 6.803500
vt 1.181449 6.000000
vt 1.514783 6.000000
vt 1.181449 5.920000
vt 1.514783 5.920000
vt 1.181449 6.000000
vt 1.514783 6.000000
vt 1.181449 5.920000
vt 1.514783 5.920000
vt 1.514783 6.000000
vt 1.514783 6.303500
vt 1.181449 6.000000
vt 1.000000 6.303500
vt 1.000000 6.000000
vt 1.000000 6.803500
vt 1.000000 7.000000
vt 1.181449 7.000000
vt 1.514783 6.803500
vt 1.514783 7.000000
vt 1.514783 6.000000
vt 1.514783 5.920000
vt 1.181449 5.920000
vt 1.181449 6.000000
vt 1.000000 5.920000
vt 1.000000 6.000000
vt 1.514783 6.303500
vt 1.434783 6.303500
vt 1.514783 6.803500
vt 1.434783 6.803500
vt 1.928116 6.303500
vt 1.848116 6.303500
vt 1.928116 6.803500
vt 1.848116 6.803500
vt 1.514783 6.000000
vt 1.848116 6.000000
vt 1.514783 5.920000
vt 1.848116 5.920000
vt 1.514783 6.000000
vt 1.848116 6.000000
vt 1.514783 5.920000
vt 1.848116 5.920000
vt 1.848116 6.000000
vt 1.848116 6.303500
vt 1.514783 6.000000
vt 1.333333 6.303500
vt 1.333333 6.000000
vt 1.333333 6.803500
vt 1.333333 7.000000
vt 1.514783 7.000000
vt 1.848116 6.803500
vt 1.848116 7.000000
vt 1.848116 6.000000
vt 1.848116 5.920000
vt 1.514783 5.920000
vt 1.514783 6.000000
vt 1.333333 5.920000
vt 1.333333 6.000000
vt 1.848116 6.303500
vt 1.768116 6.303500
vt 1.848116 6.803500
vt 1.768116 6.803500
vt 2.261449 6.303500
vt 2.181449 6.303500
vt 2.261449 6.803500
vt 2.181449 6.803500
vt 1.848116 6.000000
vt 2.181449 6.000000
vt 1.848116 5.920000
vt 2.181449 5.920000
vt 1.848116 6.000000
vt 2.181449 6.000000
vt 1.848116 5.920000
vt 2.181449 5.920000
vt 2.181449 6.000000
vt 2.181449 6.303500
vt 1.848116 6.000000
vt 1.666667 6.303500
vt 1.666667 6.000000
vt 1.666667 6.803500
vt 1.666667 7.000000
vt 1.848116 7.000000
vt 2.181449 6.803500
vt 2.181449 7.000000
vt 2.181449 6.000000
vt 2.181449 5.920000
vt 1.848116 5.920000
vt 1.848116 6.000000
vt 1.666667 5.920000
vt 1.666667 6.000000
vt 2.181449 6.303500
vt 2.101449 6.303500
vt 2.181449 6.803500
vt 2.101449 6.803500
vt 2.594783 6.303500
vt 2.514783 6.303500
vt 2.594783 6.803500
vt 2.514783 6.803500
vt 2.181449 6.000000
vt 2.514783 6.000000
vt 2.181449 5.920000
vt 2.514783 5.920000
vt 2.181449 6.000000
vt 2.514783 6.000000
vt 2.181449 5.920000
vt 2.514783 5.920000
vt 2.514783 6.000000
vt 2.514783 6.303500
vt 2.181449 6.000000
vt 2.000000 6.303500
vt 2.000000 6.000000
vt 2.000000 6.803500
vt 2.000000 7.000000
vt 2.181449 7.000000
vt 2.514783 6.803500
vt 2.514783 7.000000
vt 2.514783 6.000000
vt 2.514783 5.920000
vt 2.181449 5.920000
vt 2.181449 6.000000
vt 2.000000 5.920000
vt 2.000000 6.000000
vt 2.514783 6.303500
vt 2.434783 6.303500
vt 2.514783 6.803500
vt 2.434783 6.803500
vt 2.928116 6.303500
vt 2.848116 6.303500
vt 2.928116 6.803500
vt 2.848116 6.803500
vt 2.514783 6.000000
vt 2.848116 6.000000
vt 2.514783 5.920000
vt 2.848116 5.920000
vt 2.514783 6.000000
vt 2.848116 6.000000
vt 2.514783 5.920000
vt 2.848116 5.920000
vt 2.848116 6.000000
vt 2.848116 6.303500
vt 2.514783 6.000000
vt 2.333333 6.303500
vt 2.333333 6.000000
vt 2.333333 6.803500
vt 2.333333 7.000000
vt 2.514783 7.000000
vt 2.848116 6.803500
vt 2.848116 7.000000
vt 2.848116 6.000000
vt 2.848116 5.920000
vt 2.514783 5.920000
vt 2.514783 6.000000
vt 2.333333 5.920000
vt 2.333333 6.000000
vt 2.848116 6.303500
vt 2.768116 6.303500
vt 2.848116 6.803500
vt 2.768116 6.803500
vt 3.261449 6.303500
vt 3.181449 6.303500
vt 3.261449 6.803500
vt 3.181449 6.803500
vt 2.848116 6.000000
vt 3.181449 6.000000
vt 2.848116 5.920000
vt 3.181449 5.920000
vt 2.848116 6.000000
vt 3.181449 6.000000
vt 2.848116 5.920000
vt 3.181449 5.920000
vt 3.181449 6.000000
vt 3.181449 6.303500
vt 2.848116 6.000000
vt 2.666667 6.303500
vt 2.666667 6.000000
vt 2.666667 6.803500
vt 2.666667 7.000000
vt 2.848116 7.000000
vt 3.181449 6.803500
vt 3.181449 7.000000
vt 3.181449 6.000000
vt 3.181449 5.920000
vt 2.848116 5.920000
vt 2.848116 6.000000
vt 2.666667 5.920000
vt 2.666667 6.000000
vt 3.181449 6.303500
vt 3.101449 6.303500
vt 3.181449 6.803500
vt 3.101449 6.803500
vt 3.594783 6.303500
vt 3.514783 6.303500
vt 3.594783 6.803500
vt 3.514783 6.803500
vt 3.181449 6.000000
vt 3.514783 6.000000
vt 3.181449 5.920000
vt 3.514783 5.920000
vt 3.181449 6.000000
vt 3.514783 6.000000
vt 3.181449 5.920000
vt 3.514783 5.920000
vt 3.514783 6.000000
vt 3.514783 6.303500
vt 3.181449 6.000000
vt 3.000000 6.303500
vt 3.000000 6.000000
vt 3.000000 6.803500
vt 3.000000 7.000000
vt 3.181449 7.000000
vt 3.514783 6.803500
vt 3.514783 7.000000
vt 3.514783 6.000000
vt 3.514783 5.920000
vt 3.181449 5.920000
vt 3.181449 6.000000
vt 3.000000 5.920000
vt 3.000000 6.000000
vt 3.514783 6.303500
vt 3.434783 6.303500
vt 3.514783 6.803500
vt 3.434783 6.803500
vt 3.928116 6.303500
vt 3.848116 6.303500
vt 3.928116 6.803500
vt 3.848116 6.803500
vt 3.514783 6.000000
vt 3.848116 6.000000
vt 3.514783 5.920000
vt 3.848116 5.920000
vt 3.514783 6.000000
vt 3.848116 6.000000
vt 3.514783 5.920000
vt 3.848116 5.920000
vt 3.848116 6.000000
vt 3.848116 6.303500
vt 3.514783 6.000000
vt 3.333333 6.303500
vt 3.333333 6.000000
vt 3.333333 6.803500
vt 3.333333 7.000000
vt 3.514783 7.000000
vt 3.848116 6.803500
vt 3.848116 7.000000
vt 3.848116 6.000000
vt 3.848116 5.920000
vt 3.514783 5.920000
vt 3.514783 6.000000
vt 3.333333 5.920000
vt 3.333333 6.000000
vt 3.848116 6.303500
vt 3.768116 6.303500
vt 3.848116 6.803500
vt 3.768116 6.803500
vt 4.261449 6.303500
vt 4.181449 6.303500
vt 4.261449 6.803500
vt 4.181449 6.803500
vt 3.848116 6.000000
vt 4.181449 6.000000
vt 3.848116 5.920000
vt 4.181449 5.920000
vt 3.848116 6.000000
vt 4.181449 6.000000
vt 3.848116 5.920000
vt 4.181449 5.920000
vt 4.181449 6.000000
vt 4.181449 6.303500
vt 3.848116 6.000000
vt 3.666667 6.303500
vt 3.666667 6.000000
vt 3.666667 6.803500
vt 3.666667 7.000000
vt 3.848116 7.000000
vt 4.181449 6.803500
vt 4.181449 7.000000
vt 4.181449 6.000000
vt 4.181449 5.920000
vt 3.848116 5.920000
vt 3.848116 6.000000
vt 3.666667 5.920000
vt 3.666667 6.000000
vt 4.181449 6.303500
vt 4.101449 6.303500
vt 4.181449 6.803500
vt 4.101449 6.803500
vt 4.594782 6.303500
vt 4.514782 6.303500
vt 4.594782 6.803500
vt 4.514782 6.803500
vt 4.181449 6.000000
vt 4.514782 6.000000
vt 4.181449 5.920000
vt 4.514782 5.920000
vt 4.181449 6.000000
vt 4.514782 6.000000
vt 4.181449 5.920000
vt 4.514782 5.920000
vt 4.514782 6.000000
vt 4.514782 6.303500
vt 4.181449 6.000000
vt 4.000000 6.303500
vt 4.000000 6.000000
vt 4.000000 6.803500
vt 4.000000 7.000000
vt 4.181449 7.000000
vt 4.514782 6.803500
vt 4.514782 7.000000
vt 4.514782 6.000000
vt 4.514782 5.920000
vt 4.181449 5.920000
vt 4.181449 6.000000
vt 4.000000 5.920000
vt 4.000000 6.000000
vt 4.514782 6.303500
vt 4.434783 6.303500
vt 4.514782 6.803500
vt 4.434783 6.803500
vt 4.928116 6.303500
vt 4.848116 6.303500
vt 4.928116 6.803500
vt 4.848116 6.803500
vt 4.514782 6.000000
vt 4.848116 6.000000
vt 4.514782 5.920000
vt 4.848116 5.920000
vt 4.514782 6.000000
vt 4.848116 6.000000
vt 4.514782 5.920000
vt 4.848116 5.920000
vt 4.848116 6.000000
vt 4.848116 6.303500
vt 4.514782 6.000000
vt 4.333333 6.303500
vt 4.333333 6.000000
vt 4.333333 6.803500
vt 4.333333 7.000000
vt 4.514782 7.000000
vt 4.848116 6.803500
vt 4.848116 7.000000
vt 4.848116 6.000000
vt 4.848116 5.920000
vt 4.514782 5.920000
vt 4.514782 6.000000
vt 4.333333 5.920000
vt 4.333333 6.000000
vt 4.848116 6.303500
vt 4.768116 6.303500
vt 4.848116 6.803500
vt 4.768116 6.803500
vt 5.261449 6.303500
vt 5.181449 6.303500
vt 5.261449 6.803500
vt 5.181449 6.803500
vt 4.848116 6.000000
vt 5.181449 6.000000
vt 4.848116 5.920000
vt 5.181449 5.920000
vt 4.848116 6.000000
vt 5.181449 6.000000
vt 4.848116 5.920000
vt 5.181449 5.920000
vt 5.181449 6.000000
vt 5.181449 6.303500
vt 4.848116 6.000000
vt 4.666667 6.303500
vt 4.666667 6.000000
vt 4.666667 6.803500
vt 4.666667 7.000000
vt 4.848116 7.000000
vt 5.181449 6.803500
vt 5.181449 7.000000
vt 5.181449 6.000000
vt 5.181449 5.920000
vt 4.848116 5.920000
vt 4.848116 6.000000
vt 4.666667 5.920000
vt 4.666667 6.000000
vt 5.181449 6.303500
vt 5.101449 6.303500
vt 5.181449 6.803500
vt 5.101449 6.803500
vt 5.594782 6.303500
vt 5.514782 6.303500
vt 5.594782 6.803500
vt 5.514782 6.803500
vt 5.181449 6.000000
vt 5.514782 6.000000
vt 5.181449 5.920000
vt 5.514782 5.920000
vt 5.181449 6.000000
vt 5.514782 6.000000
vt 5.181449 5.920000
vt 5.514782 5.920000
vt 5.514782 6.000000
vt 5.514782 6.303500
vt 5.181449 6.000000
vt 5.000000 6.303500
vt 5.000000 6.000000
vt 5.000000 6.803500
vt 5.000000 7.000000
vt 5.181449 7.000000
vt 5.514782 6.803500
vt 5.514782 7.000000
vt 5.514782 6.000000
vt 5.514782 5.920000
vt 5.181449 5.920000
vt 5.181449 6.000000
vt 5.000000 5.920000
vt 5.000000 6.000000
vt 5.514782 6.303500
vt 5.434783 6.303500
vt 5.514782 6.803500
vt 5.434783 6.803500
vt 5.928116 6.303500
vt 5.848116 6.303500
vt 5.928116 6.803500
vt 5.848116 6.803500
vt 5.514782 6.000000
vt 5.848116 6.000000
vt 5.514782 5.920000
vt 5.848116 5.920000
vt 5.514782 6.000000
vt 5.848116 6.000000
vt 5.514782 5.920000
vt 5.848116 5.920000
vt 5.848116 6.000000
vt 5.848116 6.303500
vt 5.514782 6.000000
vt 5.333333 6.303500
vt 5.333333 6.000000
vt 5.333333 6.803500
vt 5.333333 7.000000
vt 5.514782 7.000000
vt 5.848116 6.803500
vt 5.848116 7.000000
vt 5.848116 6.000000
vt 5.848116 5.920000
vt 5.514782 5.920000
vt 5.514782 6.000000
vt 5.333333 5.920000
vt 5.333333 6.000000
vt 5.848116 6.303500
vt 5.768116 6.303500
vt 5.848116 6.803500
vt 5.768116 6.803500
vt 6.261449 6.303500
vt 6.181449 6.303500
vt 6.261449 6.803500
vt 6.181449 6.803500
vt 5.848116 6.000000
vt 6.181449 6.000000
vt 5.848116 5.920000
vt 6.181449 5.920000
vt 5.848116 6.000000
vt 6.181449 6.000000
vt 5.848116 5.920000
vt 6.181449 5.920000
vt 6.181449 6.000000
vt 6.181449 6.303500
vt 5.848116 6.000000
vt 5.666667 6.303500
vt 5.666667 6.000000
vt 5.666667 6.803500
vt 5.666667 7.000000
vt 5.848116 7.000000
vt 6.181449 6.803500
vt 6.181449 7.000000
vt 6.181449 6.000000
vt 6.181449 5.920000
vt 5.848116 5.920000
vt 5.848116 6.000000
vt 5.666667 5.920000
vt 5.666667 6.000000
vt 6.181449 6.303500
vt 6.101449 6.303500
vt 6.181449 6.803500
vt 6.101449 6.803500
vt 6.594782 6.303500
vt 6.514782 6.303500
vt 6.594782 6.803500
vt 6.514782 6.803500
vt 6.181449 6.000000
vt 6.514782 6.000000
vt 6.181449 5.920000
vt 6.514782 5.920000
vt 6.181449 6.000000
vt 6.514782 6.000000
vt 6.181449 5.920000
vt 6.514782 5.920000
vt 6.514782 6.000000
vt 6.514782 6.303500
vt 6.181449 6.000000
vt 6.000000 6.303500
vt 6.000000 6.000000
vt 6.000000 6.803500
vt 6.000000 7.000000
vt 6.181449 7.000000
vt 6.514782 6.803500
vt 6.514782 7.000000
vt 6.514782 6.000000
vt 6.514782 5.920000
vt 6.181449 5.920000
vt 6.181449 6.000000
vt 6.000000 5.920000
vt 6.000000 6.000000
vt 6.514782 6.303500
vt 6.434783 6.303500
vt 6.514782 6.803500
vt 6.434783 6.803500
vt 6.928116 6.303500
vt 6.848116 6.303500
vt 6.928116 6.803500
vt 6.848116 6.803500
vt 6.514782 6.000000
vt 6.848116 6.000000
vt 6.514782 5.920000
vt 6.848116 5.920000
vt 6.514782 6.000000
vt 6.848116 6.000000
vt 6.514782 5.920000
vt 6.848116 5.920000
vt 6.848116 6.000000
vt 6.848116 6.303500
vt 6.514782 6.000000
vt 6.333333 6.303500
vt 6.333333 6.000000
vt 6.333333 6.803500
vt 6.333333 7.000000
vt 6.514782 7.000000
vt 6.848116 6.803500
vt 6.848116 7.000000
vt 6.848116 6.000000
vt 6.848116 5.920000
vt 6.514782 5.920000
vt 6.514782 6.000000
vt 6.333333 5.920000
vt 6.333333 6.000000
vt 6.848116 6.303500
vt 6.768116 6.303500
vt 6.848116 6.803500
vt 6.768116 6.803500
vt 7.261449 6.303500
vt 7.181449 6.303500
vt 7.261449 6.803500
vt 7.181449 6.803500
vt 6.848116 6.000000
vt 7.181449 6.000000
vt 6.848116 5.920000
vt 7.181449 5.920000
vt 6.848116 6.000000
vt 7.181449 6.000000
vt 6.848116 5.920000
vt 7.181449 5.920000
vt 7.181449 6.000000
vt 7.181449 6.303500
vt 6.848116 6.000000
vt 6.666667 6.303500
vt 6.666667 6.000000
vt 6.666667 6.803500
vt 6.666667 7.000000
vt 6.848116 7.000000
vt 7.181449 6.803500
vt 7.181449 7.000000
vt 7.181449 6.000000
vt 7.181449 5.920000
vt 6.848116 5.920000
vt 6.848116 6.000000
vt 6.666667 5.920000
vt 6.666667 6.000000
vt 7.181449 6.303500
vt 7.101449 6.303500
vt 7.181449 6.803500
vt 7.101449 6.803500
vt 7.594782 6.303500
vt 7.514782 6.303500
vt 7.594782 6.803500
vt 7.514782 6.803500
vt 7.181449 6.000000
vt 7.514782 6.000000
vt 7.181449 5.920000
vt 7.514782 5.920000
vt 7.181449 6.000000
vt 7.514782 6.000000
vt 7.181449 5.920000
vt 7.514782 5.920000
vt 7.514782 6.000000
vt 7.514782 6.303500
vt 7.181449 6.000000
vt 7.000000 6.303500
vt 7.000000 6.000000
vt 7.000000 6.803500
vt 7.000000 7.000000
vt 7.181449 7.000000
vt 7.514782 6.803500
vt 7.514782 7.000000
vt 7.514782 6.000000
vt 7.514782 5.920000
vt 7.181449 5.920000
vt 7.181449 6.000000
vt 7.000000 5.920000
vt 7.000000 6.000000
vt 7.514782 6.303500
vt 7.434783 6.303500
vt 7.514782 6.803500
vt 7.434783 6.803500
vt 7.928116 6.303500
vt 7.848116 6.303500
vt 7.928116 6.803500
vt 7.848116 6.803500
vt 7.514782 6.000000
vt 7.848116 6.000000
vt 7.514782 5.920000
vt 7.848116 5.920000
vt 7.514782 6.000000
vt 7.848116 6.000000
vt 7.514782 5.920000
vt 7.848116 5.920000
vt 7.848116 6.000000
vt 7.848116 6.303500
vt 7.514782 6.000000
vt 7.333333 6.303500
vt 7.333333 6.000000
vt 7.333333 6.803500
vt 7.333333 7.000000
vt 7.514782 7.000000
vt 7.848116 6.803500
vt 7.848116 7.000000
vt 7.848116 6.000000
vt 7.848116 5.920000
vt 7.514782 5.920000
vt 7.514782 6.000000
vt 7.333333 5.920000
vt 7.333333 6.000000
vt 7.848116 6.303500
vt 7.768116 6.303500
vt 7.848116 6.803500
vt 7.768116 6.803500
vt 8.261449 6.303500
vt 8.181449 6.303500
vt 8.261449 6.803500
vt 8.181449 6.803500
vt 7.848116 6.000000
vt 8.181449 6.000000
vt 7.848116 5.920000
vt 8.181449 5.920000
vt 7.848116 6.000000
vt 8.181449 6.000000
vt 7.848116 5.920000
vt 8.181449 5.920000
vt 7.666667 6.000000
vt 7.848116 6.000000
vt 7.666667 6.303500
vt 8.181449 6.000000
vt 7.666667 6.803500
vt 8.181449 6.303500
vt 8.352174 6.000000
vt 8.352174 6.303500
vt 7.666667 7.000000
vt 7.848116 7.000000
vt 8.181449 6.803500
vt 8.352174 6.803500
vt 8.181449 7.000000
vt 8.352174 7.000000
vt 8.181449 6.000000
vt 8.181449 5.920000
vt 7.848116 5.920000
vt 7.848116 6.000000
vt 7.666667 5.920000
vt 7.666667 6.000000
vn 0.0000 0.0000 -1.0000
vn -1.0000 0.0000 -0.0000
vn 1.0000 0.0000 0.0000
vn 0.0000 -1.0000 0.0000
vn 0.0000 0.0000 1.0000
vn 0.0000 1.0000 0.0000
usemtl BlocksCinderMaterial.002
s 1
f 1/1/1 3/2/1 2/3/1
f 3/2/1 4/4/1 2/3/1
f 2/3/1 4/4/1 5/5/1
f 4/4/1 6/6/1 5/5/1
f 5/7/1 6/8/1 7/9/1
f 6/8/1 8/10/1 7/9/1
f 7/11/1 8/12/1 9/13/1
f 8/12/1 10/14/1 9/13/1
f 3/15/2 11/16/2 4/17/2
f 11/16/2 12/18/2 4/17/2
f 4/17/2 12/18/2 6/19/2
f 12/18/2 13/20/2 6/19/2
f 6/21/2 13/22/2 8/23/2
f 13/22/2 14/24/2 8/23/2
f 8/25/2 14/26/2 10/27/2
f 14/26/2 15/28/2 10/27/2
f 16/29/3 18/30/3 17/31/3
f 18/30/3 19/32/3 17/31/3
f 20/33/2 22/34/2 21/35/2
f 22/34/2 23/36/2 21/35/2
f 20/37/4 17/38/4 22/39/4
f 17/38/4 19/40/4 22/39/4
f 11/41/5 16/29/5 24/42/5
f 16/29/5 17/31/5 24/42/5
f 24/42/5 17/31/5 12/43/5
f 17/31/5 25/44/5 12/43/5
f 17/31/5 20/45/5 25/44/5
f 20/45/5 26/46/5 25/44/5
f 20/45/5 27/47/5 26/46/5
f 27/47/5 28/48/5 26/46/5
f 29/49/5 27/47/5 20/45/5
f 21/50/5 29/49/5 20/45/5
f 25/51/6 26/52/6 30/53/6
f 26/52/6 31/54/6 30/53/6
f 26/52/6 28/55/6 31/54/6
f 28/55/6 32/56/6 31/54/6
f 33/57/3 27/58/3 34/59/3
f 27/58/3 29/60/3 34/59/3
f 32/61/3 28/62/3 33/63/3
f 28/62/3 27/64/3 33/63/3
f 35/65/3 37/66/3 36/67/3
f 37/66/3 38/68/3 36/67/3
f 39/69/2 41/70/2 40/71/2
f 41/70/2 42/72/2 40/71/2
f 35/73/6 40/74/6 37/75/6
f 40/74/6 42/76/6 37/75/6
f 39/77/4 36/78/4 41/79/4
f 36/78/4 38/80/4 41/79/4
f 29/81/5 44/82/5 43/83/5
f 44/82/5 35/65/5 43/83/5
f 44/82/5 45/84/5 35/65/5
f 43/83/5 35/65/5 46/85/5
f 45/84/5 40/86/5 35/65/5
f 45/84/5 47/87/5 40/86/5
f 47/87/5 48/88/5 40/86/5
f 35/65/5 36/67/5 46/85/5
f 46/85/5 36/67/5 28/89/5
f 36/67/5 49/90/5 28/89/5
f 40/86/5 48/88/5 39/91/5
f 36/67/5 39/91/5 49/90/5
f 48/88/5 50/92/5 39/91/5
f 39/91/5 51/93/5 49/90/5
f 39/91/5 50/92/5 51/93/5
f 50/92/5 52/94/5 51/93/5
f 51/95/6 54/96/6 53/97/6
f 49/98/6 51/95/6 53/97/6
f 49/98/6 53/97/6 32/99/6
f 28/100/6 49/98/6 32/99/6
f 46/101/2 55/102/2 43/103/2
f 55/102/2 56/104/2 43/103/2
f 43/105/2 56/106/2 29/107/2
f 56/106/2 34/108/2 29/107/2
f 28/100/2 32/109/2 46/110/2
f 32/109/2 55/111/2 46/110/2
f 57/112/3 59/113/3 58/114/3
f 59/113/3 60/115/3 58/114/3
f 61/116/2 63/117/2 62/118/2
f 63/117/2 64/119/2 62/118/2
f 57/120/6 62/121/6 59/122/6
f 62/121/6 64/123/6 59/122/6
f 61/124/4 58/125/4 63/126/4
f 58/125/4 60/127/4 63/126/4
f 65/128/5 62/129/5 57/112/5
f 66/130/5 65/128/5 57/112/5
f 66/130/5 57/112/5 67/131/5
f 12/132/5 66/130/5 67/131/5
f 67/131/5 57/112/5 68/133/5
f 57/112/5 58/114/5 68/133/5
f 68/133/5 58/114/5 13/134/5
f 58/114/5 69/135/5 13/134/5
f 58/114/5 61/136/5 69/135/5
f 61/136/5 70/137/5 69/135/5
f 71/138/4 72/139/4 66/140/4
f 72/139/4 65/141/4 66/140/4
f 73/142/3 75/143/3 74/144/3
f 75/143/3 76/145/3 74/144/3
f 77/146/2 79/147/2 78/148/2
f 79/147/2 80/149/2 78/148/2
f 73/150/6 78/151/6 75/152/6
f 78/151/6 80/153/6 75/152/6
f 77/154/4 74/155/4 79/156/4
f 74/155/4 76/157/4 79/156/4
f 81/158/5 78/159/5 73/142/5
f 82/160/5 81/158/5 73/142/5
f 82/160/5 73/142/5 62/161/5
f 65/162/5 82/160/5 62/161/5
f 62/161/5 73/142/5 61/163/5
f 73/142/5 74/144/5 61/163/5
f 61/163/5 74/144/5 70/164/5
f 74/144/5 83/165/5 70/164/5
f 74/144/5 77/166/5 83/165/5
f 77/166/5 84/167/5 83/165/5
f 85/168/4 81/169/4 82/170/4
f 86/171/4 85/168/4 82/170/4
f 86/171/4 82/170/4 65/172/4
f 72/173/4 86/171/4 65/172/4
f 87/174/3 89/175/3 88/176/3
f 89/175/3 90/177/3 88/176/3
f 91/178/2 93/179/2 92/180/2
f 93/179/2 94/181/2 92/180/2
f 87/182/6 92/183/6 89/184/6
f 92/183/6 94/185/6 89/184/6
f 91/186/4 88/187/4 93/188/4
f 88/187/4 90/189/4 93/188/4
f 95/190/5 92/191/5 87/174/5
f 96/192/5 95/190/5 87/174/5
f 96/192/5 87/174/5 78/193/5
f 81/194/5 96/192/5 78/193/5
f 78/193/5 87/174/5 77/195/5
f 87/174/5 88/176/5 77/195/5
f 77/195/5 88/176/5 84/196/5
f 88/176/5 97/197/5 84/196/5
f 88/176/5 91/198/5 97/197/5
f 91/198/5 98/199/5 97/197/5
f 99/200/4 95/201/4 96/202/4
f 100/203/4 99/200/4 96/202/4
f 100/203/4 96/202/4 81/204/4
f 85/205/4 100/203/4 81/204/4
f 101/206/3 103/207/3 102/208/3
f 103/207/3 104/209/3 102/208/3
f 105/210/2 107/211/2 106/212/2
f 107/211/2 108/213/2 106/212/2
f 101/214/6 106/215/6 103/216/6
f 106/215/6 108/217/6 103/216/6
f 105/218/4 102/219/4 107/220/4
f 102/219/4 104/221/4 107/220/4
f 109/222/5 106/223/5 101/206/5
f 110/224/5 109/222/5 101/206/5
f 110/224/5 101/206/5 92/225/5
f 95/226/5 110/224/5 92/225/5
f 92/225/5 101/206/5 91/227/5
f 101/206/5 102/208/5 91/227/5
f 91/227/5 102/208/5 98/228/5
f 102/208/5 111/229/5 98/228/5
f 102/208/5 105/230/5 111/229/5
f 105/230/5 112/231/5 111/229/5
f 113/232/4 109/233/4 110/234/4
f 114/235/4 113/232/4 110/234/4
f 114/235/4 110/234/4 95/236/4
f 99/237/4 114/235/4 95/236/4
f 115/238/3 117/239/3 116/240/3
f 117/239/3 118/241/3 116/240/3
f 119/242/2 121/243/2 120/244/2
f 121/243/2 122/245/2 120/244/2
f 115/246/6 120/247/6 117/248/6
f 120/247/6 122/249/6 117/248/6
f 119/250/4 116/251/4 121/252/4
f 116/251/4 118/253/4 121/252/4
f 109/254/5 123/255/5 106/256/5
f 123/255/5 115/238/5 106/256/5
f 123/255/5 124/257/5 115/238/5
f 106/256/5 115/238/5 105/258/5
f 124/257/5 120/259/5 115/238/5
f 124/257/5 52/260/5 120/259/5
f 52/260/5 125/261/5 120/259/5
f 115/238/5 116/240/5 105/258/5
f 105/258/5 116/240/5 112/262/5
f 116/240/5 126/263/5 112/262/5
f 120/259/5 125/261/5 119/264/5
f 116/240/5 119/264/5 126/263/5
f 125/261/5 127/265/5 119/264/5
f 119/264/5 128/266/5 126/263/5
f 119/264/5 127/265/5 128/266/5
f 127/265/5 129/267/5 128/266/5
f 130/268/4 124/269/4 123/270/4
f 131/271/4 130/268/4 123/270/4
f 131/271/4 123/270/4 109/272/4
f 113/273/4 131/271/4 109/272/4
f 132/274/3 134/275/3 133/276/3
f 134/275/3 135/277/3 133/276/3
f 136/278/2 138/279/2 137/280/2
f 138/279/2 139/281/2 137/280/2
f 132/282/6 137/283/6 134/284/6
f 137/283/6 139/285/6 134/284/6
f 136/286/4 133/287/4 138/288/4
f 133/287/4 135/289/4 138/288/4
f 70/290/5 137/291/5 132/274/5
f 69/292/5 70/290/5 132/274/5
f 69/292/5 132/274/5 140/293/5
f 13/294/5 69/292/5 140/293/5
f 140/293/5 132/274/5 141/295/5
f 132/274/5 133/276/5 141/295/5
f 141/295/5 133/276/5 14/296/5
f 133/276/5 142/297/5 14/296/5
f 133/276/5 136/298/5 142/297/5
f 136/298/5 143/299/5 142/297/5
f 144/300/3 146/301/3 145/302/3
f 146/301/3 147/303/3 145/302/3
f 148/304/2 150/305/2 149/306/2
f 150/305/2 151/307/2 149/306/2
f 144/308/6 149/309/6 146/310/6
f 149/309/6 151/311/6 146/310/6
f 148/312/4 145/313/4 150/314/4
f 145/313/4 147/315/4 150/314/4
f 84/316/5 149/317/5 144/300/5
f 83/318/5 84/316/5 144/300/5
f 83/318/5 144/300/5 137/319/5
f 70/320/5 83/318/5 137/319/5
f 137/319/5 144/300/5 136/321/5
f 144/300/5 145/302/5 136/321/5
f 136/321/5 145/302/5 143/322/5
f 145/302/5 152/323/5 143/322/5
f 145/302/5 148/324/5 152/323/5
f 148/324/5 153/325/5 152/323/5
f 154/326/3 156/327/3 155/328/3
f 156/327/3 157/329/3 155/328/3
f 158/330/2 160/331/2 159/332/2
f 160/331/2 161/333/2 159/332/2
f 154/334/6 159/335/6 156/336/6
f 159/335/6 161/337/6 156/336/6
f 158/338/4 155/339/4 160/340/4
f 155/339/4 157/341/4 160/340/4
f 98/342/5 159/343/5 154/326/5
f 97/344/5 98/342/5 154/326/5
f 97/344/5 154/326/5 149/345/5
f 84/346/5 97/344/5 149/345/5
f 149/345/5 154/326/5 148/347/5
f 154/326/5 155/328/5 148/347/5
f 148/347/5 155/328/5 153/348/5
f 155/328/5 162/349/5 153/348/5
f 155/328/5 158/350/5 162/349/5
f 158/350/5 163/351/5 162/349/5
f 164/352/3 166/353/3 165/354/3
f 166/353/3 167/355/3 165/354/3
f 168/356/2 170/357/2 169/358/2
f 170/357/2 171/359/2 169/358/2
f 164/360/6 169/361/6 166/362/6
f 169/361/6 171/363/6 166/362/6
f 168/364/4 165/365/4 170/366/4
f 165/365/4 167/367/4 170/366/4
f 112/368/5 169/369/5 164/352/5
f 111/370/5 112/368/5 164/352/5
f 111/370/5 164/352/5 159/371/5
f 98/372/5 111/370/5 159/371/5
f 159/371/5 164/352/5 158/373/5
f 164/352/5 165/354/5 158/373/5
f 158/373/5 165/354/5 163/374/5
f 165/354/5 172/375/5 163/374/5
f 165/354/5 168/376/5 172/375/5
f 168/376/5 173/377/5 172/375/5
f 174/378/3 176/379/3 175/380/3
f 176/379/3 177/381/3 175/380/3
f 178/382/2 180/383/2 179/384/2
f 180/383/2 181/385/2 179/384/2
f 174/386/6 179/387/6 176/388/6
f 179/387/6 181/389/6 176/388/6
f 178/390/4 175/391/4 180/392/4
f 175/391/4 177/393/4 180/392/4
f 112/394/5 126/395/5 169/396/5
f 126/395/5 174/378/5 169/396/5
f 126/395/5 128/397/5 174/378/5
f 169/396/5 174/378/5 168/398/5
f 128/397/5 179/399/5 174/378/5
f 128/397/5 129/400/5 179/399/5
f 129/400/5 182/401/5 179/399/5
f 174/378/5 175/380/5 168/398/5
f 168/398/5 175/380/5 173/402/5
f 175/380/5 183/403/5 173/402/5
f 179/399/5 182/401/5 178/404/5
f 175/380/5 178/404/5 183/403/5
f 182/401/5 184/405/5 178/404/5
f 178/404/5 185/406/5 183/403/5
f 178/404/5 184/405/5 185/406/5
f 184/405/5 186/407/5 185/406/5
f 187/408/3 189/409/3 188/410/3
f 189/409/3 190/411/3 188/410/3
f 191/412/2 193/413/2 192/414/2
f 193/413/2 194/415/2 192/414/2
f 187/416/6 192/417/6 189/418/6
f 192/417/6 194/419/6 189/418/6
f 191/420/4 188/421/4 193/422/4
f 188/421/4 190/423/4 193/422/4
f 143/424/5 192/425/5 187/408/5
f 142/426/5 143/424/5 187/408/5
f 142/426/5 187/408/5 195/427/5
f 14/428/5 142/426/5 195/427/5
f 195/427/5 187/408/5 196/429/5
f 187/408/5 188/410/5 196/429/5
f 196/429/5 188/410/5 15/430/5
f 188/410/5 197/431/5 15/430/5
f 188/410/5 191/432/5 197/431/5
f 191/432/5 198/433/5 197/431/5
f 199/434/3 201/435/3 200/436/3
f 201/435/3 202/437/3 200/436/3
f 203/438/2 205/439/2 204/440/2
f 205/439/2 206/441/2 204/440/2
f 199/442/6 204/443/6 201/444/6
f 204/443/6 206/445/6 201/444/6
f 203/446/4 200/447/4 205/448/4
f 200/447/4 202/449/4 205/448/4
f 153/450/5 204/451/5 199/434/5
f 152/452/5 153/450/5 199/434/5
f 152/452/5 199/434/5 192/453/5
f 143/454/5 152/452/5 192/453/5
f 192/453/5 199/434/5 191/455/5
f 199/434/5 200/436/5 191/455/5
f 191/455/5 200/436/5 198/456/5
f 200/436/5 207/457/5 198/456/5
f 200/436/5 203/458/5 207/457/5
f 203/458/5 208/459/5 207/457/5
f 209/460/3 211/461/3 210/462/3
f 211/461/3 212/463/3 210/462/3
f 213/464/2 215/465/2 214/466/2
f 215/465/2 216/467/2 214/466/2
f 209/468/6 214/469/6 211/470/6
f 214/469/6 216/471/6 211/470/6
f 213/472/4 210/473/4 215/474/4
f 210/473/4 212/475/4 215/474/4
f 163/476/5 214/477/5 209/460/5
f 162/478/5 163/476/5 209/460/5
f 162/478/5 209/460/5 204/479/5
f 153/480/5 162/478/5 204/479/5
f 204/479/5 209/460/5 203/481/5
f 209/460/5 210/462/5 203/481/5
f 203/481/5 210/462/5 208/482/5
f 210/462/5 217/483/5 208/482/5
f 210/462/5 213/484/5 217/483/5
f 213/484/5 218/485/5 217/483/5
f 219/486/3 221/487/3 220/488/3
f 221/487/3 222/489/3 220/488/3
f 223/490/2 225/491/2 224/492/2
f 225/491/2 226/493/2 224/492/2
f 219/494/6 224/495/6 221/496/6
f 224/495/6 226/497/6 221/496/6
f 223/498/4 220/499/4 225/500/4
f 220/499/4 222/501/4 225/500/4
f 173/502/5 224/503/5 219/486/5
f 172/504/5 173/502/5 219/486/5
f 172/504/5 219/486/5 214/505/5
f 163/506/5 172/504/5 214/505/5
f 214/505/5 219/486/5 213/507/5
f 219/486/5 220/488/5 213/507/5
f 213/507/5 220/488/5 218/508/5
f 220/488/5 227/509/5 218/508/5
f 220/488/5 223/510/5 227/509/5
f 223/510/5 228/511/5 227/509/5
f 229/512/3 231/513/3 230/514/3
f 231/513/3 232/515/3 230/514/3
f 233/516/2 235/517/2 234/518/2
f 235/517/2 236/519/2 234/518/2
f 229/520/6 234/521/6 231/522/6
f 234/521/6 236/523/6 231/522/6
f 233/524/4 230/525/4 235/526/4
f 230/525/4 232/527/4 235/526/4
f 173/528/5 183/529/5 224/530/5
f 183/529/5 229/512/5 224/530/5
f 183/529/5 185/531/5 229/512/5
f 224/530/5 229/512/5 223/532/5
f 185/531/5 234/533/5 229/512/5
f 185/531/5 186/534/5 234/533/5
f 186/534/5 237/535/5 234/533/5
f 229/512/5 230/514/5 223/532/5
f 223/532/5 230/514/5 228/536/5
f 230/514/5 238/537/5 228/536/5
f 234/533/5 237/535/5 233/538/5
f 230/514/5 233/538/5 238/537/5
f 237/535/5 239/539/5 233/538/5
f 233/538/5 240/540/5 238/537/5
f 233/538/5 239/539/5 240/540/5
f 239/539/5 241/541/5 240/540/5
f 47/542/3 1/543/3 52/544/3
f 1/543/3 2/545/3 52/544/3
f 52/544/3 2/545/3 129/546/3
f 2/545/3 5/547/3 129/546/3
f 129/548/3 5/549/3 186/550/3
f 5/549/3 7/551/3 186/550/3
f 7/552/6 242/553/6 186/554/6
f 242/553/6 243/555/6 186/554/6
f 244/556/1 246/557/1 245/558/1
f 246/557/1 247/559/1 245/558/1
f 248/560/5 250/561/5 249/562/5
f 250/561/5 251/563/5 249/562/5
f 244/564/6 249/565/6 246/566/6
f 249/565/6 251/567/6 246/566/6
f 248/568/4 245/569/4 250/570/4
f 245/569/4 247/571/4 250/570/4
f 252/572/3 249/573/3 244/556/3
f 253/574/3 252/572/3 244/556/3
f 253/574/3 244/556/3 237/575/3
f 186/576/3 253/574/3 237/575/3
f 237/575/3 244/556/3 239/577/3
f 244/556/3 245/558/3 239/577/3
f 239/577/3 245/558/3 241/578/3
f 245/558/3 254/579/3 241/578/3
f 245/558/3 248/580/3 254/579/3
f 248/580/3 255/581/3 254/579/3
f 256/582/4 257/583/4 253/584/4
f 257/583/4 252/585/4 253/584/4
f 258/586/1 260/587/1 259/588/1
f 260/587/1 261/589/1 259/588/1
f 262/590/5 264/591/5 263/592/5
f 264/591/5 265/593/5 263/592/5
f 258/594/6 263/595/6 260/596/6
f 263/595/6 265/597/6 260/596/6
f 262/598/4 259/599/4 264/600/4
f 259/599/4 261/601/4 264/600/4
f 266/602/3 263/603/3 258/586/3
f 267/604/3 266/602/3 258/586/3
f 267/604/3 258/586/3 249/605/3
f 252/606/3 267/604/3 249/605/3
f 249/605/3 258/586/3 248/607/3
f 258/586/3 259/588/3 248/607/3
f 248/607/3 259/588/3 255/608/3
f 259/588/3 268/609/3 255/608/3
f 259/588/3 262/610/3 268/609/3
f 262/610/3 269/611/3 268/609/3
f 270/612/4 266/613/4 267/614/4
f 271/615/4 270/612/4 267/614/4
f 271/615/4 267/614/4 252/616/4
f 257/617/4 271/615/4 252/616/4
f 272/618/1 274/619/1 273/620/1
f 274/619/1 275/621/1 273/620/1
f 276/622/5 278/623/5 277/624/5
f 278/623/5 279/625/5 277/624/5
f 272/626/6 277/627/6 274/628/6
f 277/627/6 279/629/6 274/628/6
f 276/630/4 273/631/4 278/632/4
f 273/631/4 275/633/4 278/632/4
f 280/634/3 277/635/3 272/618/3
f 281/636/3 280/634/3 272/618/3
f 281/636/3 272/618/3 263/637/3
f 266/638/3 281/636/3 263/637/3
f 263/637/3 272/618/3 262/639/3
f 272/618/3 273/620/3 262/639/3
f 262/639/3 273/620/3 269/640/3
f 273/620/3 282/641/3 269/640/3
f 273/620/3 276/642/3 282/641/3
f 276/642/3 283/643/3 282/641/3
f 284/644/4 280/645/4 281/646/4
f 285/647/4 284/644/4 281/646/4
f 285/647/4 281/646/4 266/648/4
f 270/649/4 285/647/4 266/648/4
f 286/650/1 288/651/1 287/652/1
f 288/651/1 289/653/1 287/652/1
f 290/654/5 292/655/5 291/656/5
f 292/655/5 293/657/5 291/656/5
f 286/658/6 291/659/6 288/660/6
f 291/659/6 293/661/6 288/660/6
f 290/662/4 287/663/4 292/664/4
f 287/663/4 289/665/4 292/664/4
f 294/666/3 291/667/3 286/650/3
f 295/668/3 294/666/3 286/650/3
f 295/668/3 286/650/3 277/669/3
f 280/670/3 295/668/3 277/669/3
f 277/669/3 286/650/3 276/671/3
f 286/650/3 287/652/3 276/671/3
f 276/671/3 287/652/3 283/672/3
f 287/652/3 296/673/3 283/672/3
f 287/652/3 290/674/3 296/673/3
f 290/674/3 297/675/3 296/673/3
f 298/676/4 294/677/4 295/678/4
f 299/679/4 298/676/4 295/678/4
f 299/679/4 295/678/4 280/680/4
f 284/681/4 299/679/4 280/680/4
f 300/682/1 302/683/1 301/684/1
f 302/683/1 303/685/1 301/684/1
f 304/686/5 306/687/5 305/688/5
f 306/687/5 307/689/5 305/688/5
f 300/690/6 305/691/6 302/692/6
f 305/691/6 307/693/6 302/692/6
f 304/694/4 301/695/4 306/696/4
f 301/695/4 303/697/4 306/696/4
f 308/698/3 305/699/3 300/682/3
f 309/700/3 308/698/3 300/682/3
f 309/700/3 300/682/3 291/701/3
f 294/702/3 309/700/3 291/701/3
f 291/701/3 300/682/3 290/703/3
f 300/682/3 301/684/3 290/703/3
f 290/703/3 301/684/3 297/704/3
f 301/684/3 310/705/3 297/704/3
f 301/684/3 304/706/3 310/705/3
f 304/706/3 311/707/3 310/705/3
f 312/708/4 308/709/4 309/710/4
f 313/711/4 312/708/4 309/710/4
f 313/711/4 309/710/4 294/712/4
f 298/713/4 313/711/4 294/712/4
f 314/714/1 316/715/1 315/716/1
f 316/715/1 317/717/1 315/716/1
f 318/718/5 320/719/5 319/720/5
f 320/719/5 321/721/5 319/720/5
f 314/722/6 319/723/6 316/724/6
f 319/723/6 321/725/6 316/724/6
f 318/726/4 315/727/4 320/728/4
f 315/727/4 317/729/4 320/728/4
f 322/730/3 319/731/3 314/714/3
f 323/732/3 322/730/3 314/714/3
f 323/732/3 314/714/3 305/733/3
f 308/734/3 323/732/3 305/733/3
f 305/733/3 314/714/3 304/735/3
f 314/714/3 315/716/3 304/735/3
f 304/735/3 315/716/3 311/736/3
f 315/716/3 324/737/3 311/736/3
f 315/716/3 318/738/3 324/737/3
f 318/738/3 325/739/3 324/737/3
f 326/740/4 322/741/4 323/742/4
f 327/743/4 326/740/4 323/742/4
f 327/743/4 323/742/4 308/744/4
f 312/745/4 327/743/4 308/744/4
f 328/746/1 330/747/1 329/748/1
f 330/747/1 331/749/1 329/748/1
f 332/750/5 334/751/5 333/752/5
f 334/751/5 335/753/5 333/752/5
f 328/754/6 333/755/6 330/756/6
f 333/755/6 335/757/6 330/756/6
f 332/758/4 329/759/4 334/760/4
f 329/759/4 331/761/4 334/760/4
f 336/762/3 333/763/3 328/746/3
f 337/764/3 336/762/3 328/746/3
f 337/764/3 328/746/3 319/765/3
f 322/766/3 337/764/3 319/765/3
f 319/765/3 328/746/3 318/767/3
f 328/746/3 329/748/3 318/767/3
f 318/767/3 329/748/3 325/768/3
f 329/748/3 338/769/3 325/768/3
f 329/748/3 332/770/3 338/769/3
f 332/770/3 339/771/3 338/769/3
f 340/772/4 336/773/4 337/774/4
f 341/775/4 340/772/4 337/774/4
f 341/775/4 337/774/4 322/776/4
f 326/777/4 341/775/4 322/776/4
f 342/778/1 344/779/1 343/780/1
f 344/779/1 345/781/1 343/780/1
f 346/782/5 348/783/5 347/784/5
f 348/783/5 349/785/5 347/784/5
f 342/786/6 347/787/6 344/788/6
f 347/787/6 349/789/6 344/788/6
f 346/790/4 343/791/4 348/792/4
f 343/791/4 345/793/4 348/792/4
f 350/794/3 347/795/3 342/778/3
f 351/796/3 350/794/3 342/778/3
f 351/796/3 342/778/3 333/797/3
f 336/798/3 351/796/3 333/797/3
f 333/797/3 342/778/3 332/799/3
f 342/778/3 343/780/3 332/799/3
f 332/799/3 343/780/3 339/800/3
f 343/780/3 352/801/3 339/800/3
f 343/780/3 346/802/3 352/801/3
f 346/802/3 353/803/3 352/801/3
f 354/804/4 350/805/4 351/806/4
f 355/807/4 354/804/4 351/806/4
f 355/807/4 351/806/4 336/808/4
f 340/809/4 355/807/4 336/808/4
f 356/810/1 358/811/1 357/812/1
f 358/811/1 359/813/1 357/812/1
f 360/814/5 362/815/5 361/816/5
f 362/815/5 363/817/5 361/816/5
f 356/818/6 361/819/6 358/820/6
f 361/819/6 363/821/6 358/820/6
f 360/822/4 357/823/4 362/824/4
f 357/823/4 359/825/4 362/824/4
f 364/826/3 361/827/3 356/810/3
f 365/828/3 364/826/3 356/810/3
f 365/828/3 356/810/3 347/829/3
f 350/830/3 365/828/3 347/829/3
f 347/829/3 356/810/3 346/831/3
f 356/810/3 357/812/3 346/831/3
f 346/831/3 357/812/3 353/832/3
f 357/812/3 366/833/3 353/832/3
f 357/812/3 360/834/3 366/833/3
f 360/834/3 367/835/3 366/833/3
f 368/836/4 364/837/4 365/838/4
f 369/839/4 368/836/4 365/838/4
f 369/839/4 365/838/4 350/840/4
f 354/841/4 369/839/4 350/840/4
f 370/842/1 372/843/1 371/844/1
f 372/843/1 373/845/1 371/844/1
f 374/846/5 376/847/5 375/848/5
f 376/847/5 377/849/5 375/848/5
f 370/850/6 375/851/6 372/852/6
f 375/851/6 377/853/6 372/852/6
f 374/854/4 371/855/4 376/856/4
f 371/855/4 373/857/4 376/856/4
f 378/858/3 375/859/3 370/842/3
f 379/860/3 378/858/3 370/842/3
f 379/860/3 370/842/3 361/861/3
f 364/862/3 379/860/3 361/861/3
f 361/861/3 370/842/3 360/863/3
f 370/842/3 371/844/3 360/863/3
f 360/863/3 371/844/3 367/864/3
f 371/844/3 380/865/3 367/864/3
f 371/844/3 374/866/3 380/865/3
f 374/866/3 381/867/3 380/865/3
f 382/868/4 378/869/4 379/870/4
f 383/871/4 382/868/4 379/870/4
f 383/871/4 379/870/4 364/872/4
f 368/873/4 383/871/4 364/872/4
f 384/874/1 386/875/1 385/876/1
f 386/875/1 387/877/1 385/876/1
f 388/878/5 390/879/5 389/880/5
f 390/879/5 391/881/5 389/880/5
f 384/882/6 389/883/6 386/884/6
f 389/883/6 391/885/6 386/884/6
f 388/886/4 385/887/4 390/888/4
f 385/887/4 387/889/4 390/888/4
f 392/890/3 389/891/3 384/874/3
f 393/892/3 392/890/3 384/874/3
f 393/892/3 384/874/3 375/893/3
f 378/894/3 393/892/3 375/893/3
f 375/893/3 384/874/3 374/895/3
f 384/874/3 385/876/3 374/895/3
f 374/895/3 385/876/3 381/896/3
f 385/876/3 394/897/3 381/896/3
f 385/876/3 388/898/3 394/897/3
f 388/898/3 395/899/3 394/897/3
f 396/900/4 392/901/4 393/902/4
f 397/903/4 396/900/4 393/902/4
f 397/903/4 393/902/4 378/904/4
f 382/905/4 397/903/4 378/904/4
f 398/906/1 400/907/1 399/908/1
f 400/907/1 401/909/1 399/908/1
f 402/910/5 404/911/5 403/912/5
f 404/911/5 405/913/5 403/912/5
f 398/914/6 403/915/6 400/916/6
f 403/915/6 405/917/6 400/916/6
f 402/918/4 399/919/4 404/920/4
f 399/919/4 401/921/4 404/920/4
f 406/922/3 403/923/3 398/906/3
f 407/924/3 406/922/3 398/906/3
f 407/924/3 398/906/3 389/925/3
f 392/926/3 407/924/3 389/925/3
f 389/925/3 398/906/3 388/927/3
f 398/906/3 399/908/3 388/927/3
f 388/927/3 399/908/3 395/928/3
f 399/908/3 408/929/3 395/928/3
f 399/908/3 402/930/3 408/929/3
f 402/930/3 409/931/3 408/929/3
f 410/932/4 406/933/4 407/934/4
f 411/935/4 410/932/4 407/934/4
f 411/935/4 407/934/4 392/936/4
f 396/937/4 411/935/4 392/936/4
f 412/938/1 414/939/1 413/940/1
f 414/939/1 415/941/1 413/940/1
f 416/942/5 418/943/5 417/944/5
f 418/943/5 419/945/5 417/944/5
f 412/946/6 417/947/6 414/948/6
f 417/947/6 419/949/6 414/948/6
f 416/950/4 413/951/4 418/952/4
f 413/951/4 415/953/4 418/952/4
f 420/954/3 417/955/3 412/938/3
f 421/956/3 420/954/3 412/938/3
f 421/956/3 412/938/3 403/957/3
f 406/958/3 421/956/3 403/957/3
f 403/957/3 412/938/3 402/959/3
f 412/938/3 413/940/3 402/959/3
f 402/959/3 413/940/3 409/960/3
f 413/940/3 422/961/3 409/960/3
f 413/940/3 416/962/3 422/961/3
f 416/962/3 423/963/3 422/961/3
f 424/964/4 420/965/4 421/966/4
f 425/967/4 424/964/4 421/966/4
f 425/967/4 421/966/4 406/968/4
f 410/969/4 425/967/4 406/968/4
f 426/970/1 428/971/1 427/972/1
f 428/971/1 429/973/1 427/972/1
f 430/974/5 432/975/5 431/976/5
f 432/975/5 433/977/5 431/976/5
f 426/978/6 431/979/6 428/980/6
f 431/979/6 433/981/6 428/980/6
f 430/982/4 427/983/4 432/984/4
f 427/983/4 429/985/4 432/984/4
f 434/986/3 431/987/3 426/970/3
f 435/988/3 434/986/3 426/970/3
f 435/988/3 426/970/3 417/989/3
f 420/990/3 435/988/3 417/989/3
f 417/989/3 426/970/3 416/991/3
f 426/970/3 427/972/3 416/991/3
f 416/991/3 427/972/3 423/992/3
f 427/972/3 436/993/3 423/992/3
f 427/972/3 430/994/3 436/993/3
f 430/994/3 437/995/3 436/993/3
f 438/996/4 434/997/4 435/998/4
f 439/999/4 438/996/4 435/998/4
f 439/999/4 435/998/4 420/1000/4
f 424/1001/4 439/999/4 420/1000/4
f 440/1002/1 442/1003/1 441/1004/1
f 442/1003/1 443/1005/1 441/1004/1
f 444/1006/5 446/1007/5 445/1008/5
f 446/1007/5 447/1009/5 445/1008/5
f 440/1010/6 445/1011/6 442/1012/6
f 445/1011/6 447/1013/6 442/1012/6
f 444/1014/4 441/1015/4 446/1016/4
f 441/1015/4 443/1017/4 446/1016/4
f 448/1018/3 445/1019/3 440/1002/3
f 449/1020/3 448/1018/3 440/1002/3
f 449/1020/3 440/1002/3 431/1021/3
f 434/1022/3 449/1020/3 431/1021/3
f 431/1021/3 440/1002/3 430/1023/3
f 440/1002/3 441/1004/3 430/1023/3
f 430/1023/3 441/1004/3 437/1024/3
f 441/1004/3 450/1025/3 437/1024/3
f 441/1004/3 444/1026/3 450/1025/3
f 444/1026/3 451/1027/3 450/1025/3
f 452/1028/4 448/1029/4 449/1030/4
f 453/1031/4 452/1028/4 449/1030/4
f 453/1031/4 449/1030/4 434/1032/4
f 438/1033/4 453/1031/4 434/1032/4
f 454/1034/1 456/1035/1 455/1036/1
f 456/1035/1 457/1037/1 455/1036/1
f 458/1038/5 460/1039/5 459/1040/5
f 460/1039/5 461/1041/5 459/1040/5
f 454/1042/6 459/1043/6 456/1044/6
f 459/1043/6 461/1045/6 456/1044/6
f 458/1046/4 455/1047/4 460/1048/4
f 455/1047/4 457/1049/4 460/1048/4
f 462/1050/3 459/1051/3 454/1034/3
f 463/1052/3 462/1050/3 454/1034/3
f 463/1052/3 454/1034/3 445/1053/3
f 448/1054/3 463/1052/3 445/1053/3
f 445/1053/3 454/1034/3 444/1055/3
f 454/1034/3 455/1036/3 444/1055/3
f 444/1055/3 455/1036/3 451/1056/3
f 455/1036/3 464/1057/3 451/1056/3
f 455/1036/3 458/1058/3 464/1057/3
f 458/1058/3 465/1059/3 464/1057/3
f 466/1060/4 462/1061/4 463/1062/4
f 467/1063/4 466/1060/4 463/1062/4
f 467/1063/4 463/1062/4 448/1064/4
f 452/1065/4 467/1063/4 448/1064/4
f 468/1066/1 470/1067/1 469/1068/1
f 470/1067/1 471/1069/1 469/1068/1
f 472/1070/5 474/1071/5 473/1072/5
f 474/1071/5 475/1073/5 473/1072/5
f 468/1074/6 473/1075/6 470/1076/6
f 473/1075/6 475/1077/6 470/1076/6
f 472/1078/4 469/1079/4 474/1080/4
f 469/1079/4 471/1081/4 474/1080/4
f 476/1082/3 473/1083/3 468/1066/3
f 477/1084/3 476/1082/3 468/1066/3
f 477/1084/3 468/1066/3 459/1085/3
f 462/1086/3 477/1084/3 459/1085/3
f 459/1085/3 468/1066/3 458/1087/3
f 468/1066/3 469/1068/3 458/1087/3
f 458/1087/3 469/1068/3 465/1088/3
f 469/1068/3 478/1089/3 465/1088/3
f 469/1068/3 472/1090/3 478/1089/3
f 472/1090/3 479/1091/3 478/1089/3
f 480/1092/4 476/1093/4 477/1094/4
f 481/1095/4 480/1092/4 477/1094/4
f 481/1095/4 477/1094/4 462/1096/4
f 466/1097/4 481/1095/4 462/1096/4
f 482/1098/1 484/1099/1 483/1100/1
f 484/1099/1 485/1101/1 483/1100/1
f 486/1102/5 488/1103/5 487/1104/5
f 488/1103/5 489/1105/5 487/1104/5
f 482/1106/6 487/1107/6 484/1108/6
f 487/1107/6 489/1109/6 484/1108/6
f 486/1110/4 483/1111/4 488/1112/4
f 483/1111/4 485/1113/4 488/1112/4
f 490/1114/3 487/1115/3 482/1098/3
f 491/1116/3 490/1114/3 482/1098/3
f 491/1116/3 482/1098/3 473/1117/3
f 476/1118/3 491/1116/3 473/1117/3
f 473/1117/3 482/1098/3 472/1119/3
f 482/1098/3 483/1100/3 472/1119/3
f 472/1119/3 483/1100/3 479/1120/3
f 483/1100/3 492/1121/3 479/1120/3
f 483/1100/3 486/1122/3 492/1121/3
f 486/1122/3 493/1123/3 492/1121/3
f 494/1124/4 490/1125/4 491/1126/4
f 495/1127/4 494/1124/4 491/1126/4
f 495/1127/4 491/1126/4 476/1128/4
f 480/1129/4 495/1127/4 476/1128/4
f 496/1130/1 498/1131/1 497/1132/1
f 498/1131/1 499/1133/1 497/1132/1
f 500/1134/5 502/1135/5 501/1136/5
f 502/1135/5 503/1137/5 501/1136/5
f 496/1138/6 501/1139/6 498/1140/6
f 501/1139/6 503/1141/6 498/1140/6
f 500/1142/4 497/1143/4 502/1144/4
f 497/1143/4 499/1145/4 502/1144/4
f 504/1146/3 501/1147/3 496/1130/3
f 505/1148/3 504/1146/3 496/1130/3
f 505/1148/3 496/1130/3 487/1149/3
f 490/1150/3 505/1148/3 487/1149/3
f 487/1149/3 496/1130/3 486/1151/3
f 496/1130/3 497/1132/3 486/1151/3
f 486/1151/3 497/1132/3 493/1152/3
f 497/1132/3 506/1153/3 493/1152/3
f 497/1132/3 500/1154/3 506/1153/3
f 500/1154/3 507/1155/3 506/1153/3
f 508/1156/4 504/1157/4 505/1158/4
f 509/1159/4 508/1156/4 505/1158/4
f 509/1159/4 505/1158/4 490/1160/4
f 494/1161/4 509/1159/4 490/1160/4
f 510/1162/1 512/1163/1 511/1164/1
f 512/1163/1 513/1165/1 511/1164/1
f 514/1166/5 516/1167/5 515/1168/5
f 516/1167/5 517/1169/5 515/1168/5
f 510/1170/6 515/1171/6 512/1172/6
f 515/1171/6 517/1173/6 512/1172/6
f 514/1174/4 511/1175/4 516/1176/4
f 511/1175/4 513/1177/4 516/1176/4
f 518/1178/3 515/1179/3 510/1162/3
f 519/1180/3 518/1178/3 510/1162/3
f 519/1180/3 510/1162/3 501/1181/3
f 504/1182/3 519/1180/3 501/1181/3
f 501/1181/3 510/1162/3 500/1183/3
f 510/1162/3 511/1164/3 500/1183/3
f 500/1183/3 511/1164/3 507/1184/3
f 511/1164/3 520/1185/3 507/1184/3
f 511/1164/3 514/1186/3 520/1185/3
f 514/1186/3 521/1187/3 520/1185/3
f 522/1188/4 518/1189/4 519/1190/4
f 523/1191/4 522/1188/4 519/1190/4
f 523/1191/4 519/1190/4 504/1192/4
f 508/1193/4 523/1191/4 504/1192/4
f 524/1194/1 526/1195/1 525/1196/1
f 526/1195/1 527/1197/1 525/1196/1
f 528/1198/5 530/1199/5 529/1200/5
f 530/1199/5 531/1201/5 529/1200/5
f 524/1202/6 529/1203/6 526/1204/6
f 529/1203/6 531/1205/6 526/1204/6
f 528/1206/4 525/1207/4 530/1208/4
f 525/1207/4 527/1209/4 530/1208/4
f 532/1210/3 529/1211/3 524/1194/3
f 533/1212/3 532/1210/3 524/1194/3
f 533/1212/3 524/1194/3 515/1213/3
f 518/1214/3 533/1212/3 515/1213/3
f 515/1213/3 524/1194/3 514/1215/3
f 524/1194/3 525/1196/3 514/1215/3
f 514/1215/3 525/1196/3 521/1216/3
f 525/1196/3 534/1217/3 521/1216/3
f 525/1196/3 528/1218/3 534/1217/3
f 528/1218/3 535/1219/3 534/1217/3
f 536/1220/4 532/1221/4 533/1222/4
f 537/1223/4 536/1220/4 533/1222/4
f 537/1223/4 533/1222/4 518/1224/4
f 522/1225/4 537/1223/4 518/1224/4
f 538/1226/1 540/1227/1 539/1228/1
f 540/1227/1 541/1229/1 539/1228/1
f 542/1230/5 544/1231/5 543/1232/5
f 544/1231/5 545/1233/5 543/1232/5
f 538/1234/6 543/1235/6 540/1236/6
f 543/1235/6 545/1237/6 540/1236/6
f 542/1238/4 539/1239/4 544/1240/4
f 539/1239/4 541/1241/4 544/1240/4
f 546/1242/3 543/1243/3 538/1226/3
f 547/1244/3 546/1242/3 538/1226/3
f 547/1244/3 538/1226/3 529/1245/3
f 532/1246/3 547/1244/3 529/1245/3
f 529/1245/3 538/1226/3 528/1247/3
f 538/1226/3 539/1228/3 528/1247/3
f 528/1247/3 539/1228/3 535/1248/3
f 539/1228/3 548/1249/3 535/1248/3
f 539/1228/3 542/1250/3 548/1249/3
f 542/1250/3 549/1251/3 548/1249/3
f 550/1252/4 546/1253/4 547/1254/4
f 551/1255/4 550/1252/4 547/1254/4
f 551/1255/4 547/1254/4 532/1256/4
f 536/1257/4 551/1255/4 532/1256/4
f 552/1258/1 554/1259/1 553/1260/1
f 554/1259/1 555/1261/1 553/1260/1
f 556/1262/5 558/1263/5 557/1264/5
f 558/1263/5 559/1265/5 557/1264/5
f 552/1266/6 557/1267/6 554/1268/6
f 557/1267/6 559/1269/6 554/1268/6
f 556/1270/4 553/1271/4 558/1272/4
f 553/1271/4 555/1273/4 558/1272/4
f 546/1274/3 560/1275/3 543/1276/3
f 560/1275/3 552/1258/3 543/1276/3
f 560/1275/3 561/1277/3 552/1258/3
f 543/1276/3 552/1258/3 542/1278/3
f 561/1277/3 557/1279/3 552/1258/3
f 561/1277/3 7/1280/3 557/1279/3
f 7/1280/3 562/1281/3 557/1279/3
f 552/1258/3 553/1260/3 542/1278/3
f 542/1278/3 553/1260/3 549/1282/3
f 553/1260/3 563/1283/3 549/1282/3
f 557/1279/3 562/1281/3 556/1284/3
f 553/1260/3 556/1284/3 563/1283/3
f 562/1281/3 564/1285/3 556/1284/3
f 556/1284/3 565/1286/3 563/1283/3
f 556/1284/3 564/1285/3 565/1286/3
f 564/1285/3 9/1287/3 565/1286/3
f 566/1288/4 561/1289/4 560/1290/4
f 567/1291/4 566/1288/4 560/1290/4
f 567/1291/4 560/1290/4 546/1292/4
f 550/1293/4 567/1291/4 546/1292/4
