# Blender v2.92.0 OBJ File: 'sanfrancisco.blend'
# www.blender.org
mtllib Brick05Tiling2_10.mtl
o Brick05Tiling2_10_Scene.3449
v 2000.000000 0.000008 -1199.999878
v 1999.999756 300.000000 -1199.999878
v -2000.000000 0.000015 -1199.999878
v -2000.000000 299.999969 -1199.999878
v 2000.000000 599.999939 -1199.999878
v -1999.999756 599.999939 -1199.999878
v -1999.999756 30.600006 -1018.749878
v -2000.000000 280.599976 -1018.749878
v -1979.999756 30.600002 -1018.749878
v -1979.999756 280.600006 -1018.749878
v -2000.000000 280.599976 -718.749939
v -1999.999756 30.600006 -718.749939
v -1979.999756 280.600006 -718.749939
v -1979.999756 30.600002 -718.749939
v -2000.000000 0.000015 -718.749939
v -2000.000000 0.000015 -1018.749878
v -1999.999756 30.600006 -1199.999878
v -2000.000000 280.599976 -1199.999878
v -2000.000000 299.999969 -1018.749878
v -2000.000000 299.999969 -718.749939
v -1975.000000 299.999969 -1018.749878
v -1975.000000 299.999969 -718.749939
v -1999.999756 30.600006 -406.249969
v -2000.000000 280.599976 -406.249969
v -1979.999756 30.600002 -406.249969
v -1979.999756 280.600006 -406.249969
v -2000.000000 280.599976 -106.249992
v -1999.999756 30.600006 -106.249992
v -1979.999756 280.600006 -106.249992
v -1979.999756 30.600002 -106.249992
v -2000.000000 0.000015 -406.249969
v -2000.000000 0.000015 -106.249992
v -2000.000000 0.000015 50.000000
v -1999.999756 30.600006 50.000000
v -2000.000000 299.999969 -406.249969
v -2000.000000 280.599976 50.000000
v -2000.000000 299.999969 -106.249992
v -2000.000000 299.999969 50.000000
v -1975.000000 299.999969 -406.249969
v -1975.000000 299.999969 -106.249992
v -1975.000000 299.999969 50.000000
v -1975.000000 280.600006 50.000000
v -1974.999756 30.600006 50.000000
v -1975.000000 0.000008 50.000000
v -2000.000000 0.000015 206.250000
v -1999.999756 259.999969 206.250000
v -1979.999756 0.000008 206.250000
v -1979.999756 260.000000 206.250000
v -1999.999756 259.999969 406.249939
v -2000.000000 0.000015 406.249939
v -1979.999756 260.000000 406.249939
v -1979.999756 0.000008 406.249939
v -1999.999756 259.999969 50.000000
v -2000.000000 299.999969 206.250000
v -2000.000000 299.999969 406.249939
v -1999.999756 259.999969 562.499939
v -2000.000000 299.999969 562.499939
v -2000.000000 0.000015 562.499939
v -1975.000000 299.999969 206.250000
v -1975.000000 299.999969 406.249939
v -1975.000000 299.999969 562.499939
v -1974.999756 260.000000 50.000000
v -1974.999756 260.000000 562.499939
v -1975.000000 0.000008 562.499939
v -1999.999756 30.600006 718.749939
v -2000.000000 280.599976 718.749939
v -1979.999756 30.600002 718.749939
v -1979.999756 280.600006 718.749939
v -2000.000000 280.599976 1018.750000
v -1999.999756 30.600006 1018.750000
v -1979.999756 280.600006 1018.750000
v -1979.999756 30.600002 1018.750000
v -1999.999756 30.600006 562.499939
v -2000.000000 0.000015 718.749939
v -2000.000000 0.000015 1018.750000
v -2000.000000 280.599976 562.499939
v -2000.000000 0.000015 1200.000000
v -1999.999756 30.600006 1200.000000
v -2000.000000 299.999969 718.749939
v -2000.000000 280.599976 1200.000000
v -2000.000000 299.999969 1018.750000
v -2000.000000 299.999969 1200.000000
v -1975.000000 299.999969 718.749939
v -1975.000000 299.999969 1018.750000
v -1975.000000 280.600006 562.499939
v -1974.999756 30.600006 562.499939
v -2000.000000 368.799988 -1064.999878
v -2000.000000 568.799988 -1064.999878
v -1975.000000 368.799957 -1064.999878
v -1975.000000 568.799927 -1064.999878
v -2000.000000 568.799988 -814.999817
v -2000.000000 368.799988 -814.999817
v -1975.000000 568.799927 -814.999817
v -1975.000000 368.799957 -814.999817
v -2000.000000 299.999969 -814.999817
v -2000.000000 299.999969 -1064.999878
v -2000.000000 368.799988 -1199.999878
v -2000.000000 568.799988 -1199.999878
v -1999.999756 599.999817 -1199.999878
v -1999.999756 599.999817 -1064.999878
v -1999.999756 599.999817 -814.999817
v -1975.000000 299.999969 -1064.999878
v -1975.000000 299.999969 -814.999817
v -2000.000000 368.799988 -595.000000
v -2000.000000 568.799988 -595.000000
v -1975.000000 368.799957 -595.000000
v -1975.000000 568.799927 -595.000000
v -2000.000000 568.799988 -344.999969
v -2000.000000 368.799988 -344.999969
v -1975.000000 568.799927 -344.999969
v -1975.000000 368.799957 -344.999969
v -2000.000000 299.999969 -344.999969
v -2000.000000 299.999969 -595.000000
v -1999.999756 599.999817 -595.000000
v -1999.999756 599.999817 -344.999969
v -1975.000000 299.999969 -344.999969
v -1975.000000 299.999969 -595.000000
v -2000.000000 368.799988 -124.999985
v -2000.000000 568.799988 -124.999985
v -1975.000000 368.799957 -124.999985
v -1975.000000 568.799927 -124.999985
v -2000.000000 568.799988 125.000008
v -2000.000000 368.799988 125.000008
v -1975.000000 568.799927 124.999992
v -1975.000000 368.799957 124.999992
v -2000.000000 299.999969 125.000008
v -2000.000000 299.999969 -124.999985
v -1999.999756 599.999817 -124.999985
v -1999.999756 599.999817 125.000008
v -1975.000000 299.999969 124.999992
v -1975.000000 299.999969 -124.999985
v -2000.000000 368.799988 345.000061
v -2000.000000 568.799988 345.000061
v -1975.000000 368.799957 345.000061
v -1975.000000 568.799927 345.000061
v -2000.000000 568.799988 595.000061
v -2000.000000 368.799988 595.000061
v -1975.000000 568.799927 595.000061
v -1975.000000 368.799957 595.000061
v -2000.000000 299.999969 595.000061
v -2000.000000 299.999969 345.000061
v -1999.999756 599.999817 345.000061
v -1999.999756 599.999817 595.000061
v -1975.000000 299.999969 595.000061
v -1975.000000 299.999969 345.000061
v -2000.000000 368.799988 815.000000
v -2000.000000 568.799988 815.000000
v -1975.000000 368.799957 815.000000
v -1975.000000 568.799927 815.000000
v -2000.000000 568.799988 1065.000000
v -2000.000000 368.799988 1065.000000
v -1975.000000 568.799927 1065.000000
v -1975.000000 368.799957 1065.000000
v -2000.000000 299.999969 815.000000
v -2000.000000 299.999969 1065.000000
v -2000.000000 299.999969 1200.000000
v -2000.000000 368.799988 1200.000000
v -1999.999756 599.999817 815.000000
v -2000.000000 568.799988 1200.000000
v -1999.999756 599.999817 1065.000000
v -1999.999756 599.999817 1200.000000
v -1975.000000 299.999969 1065.000000
v -1975.000000 299.999969 815.000000
v 2000.000000 0.000008 1199.999878
v 1999.999756 300.000000 1199.999878
v -1999.999756 599.999939 1200.000000
v 2000.000000 599.999939 1199.999878
vt 0.000000 0.000000
vt 13.333330 0.000000
vt 0.000000 1.000000
vt 13.333330 1.000000
vt 0.000000 2.000000
vt 13.333330 2.000000
vt 1.604167 0.102000
vt 1.537500 0.102000
vt 1.604167 0.935333
vt 1.537500 0.935333
vt 2.687500 0.102000
vt 2.604167 0.102000
vt 2.687500 0.935333
vt 2.604167 0.935333
vt 1.604167 0.000000
vt 2.604167 0.000000
vt 1.604167 -0.066667
vt 2.604167 -0.066667
vt 1.604167 0.000000
vt 2.604167 0.000000
vt 1.604167 -0.066667
vt 2.604167 -0.066667
vt 2.604167 0.000000
vt 2.604167 0.102000
vt 1.604167 0.000000
vt 1.000000 0.102000
vt 1.000000 0.000000
vt 1.000000 0.935333
vt 1.000000 1.000000
vt 1.604167 1.000000
vt 2.604167 0.935333
vt 2.604167 1.000000
vt 1.604167 0.000000
vt 2.604167 0.000000
vt 1.604167 -0.083333
vt 2.604167 -0.083333
vt 3.562500 0.102000
vt 3.495833 0.102000
vt 3.562500 0.935333
vt 3.495833 0.935333
vt 4.645833 0.102000
vt 4.562500 0.102000
vt 4.645833 0.935333
vt 4.562500 0.935333
vt 3.562500 0.000000
vt 4.562500 0.000000
vt 3.562500 -0.066667
vt 4.562500 -0.066667
vt 3.562500 0.000000
vt 4.562500 0.000000
vt 3.562500 -0.066667
vt 4.562500 -0.066667
vt 2.520833 0.000000
vt 3.562500 0.000000
vt 2.520833 0.102000
vt 4.562500 0.000000
vt 2.520833 0.935333
vt 4.562500 0.102000
vt 5.083333 0.000000
vt 5.083333 0.102000
vt 2.520833 1.000000
vt 3.562500 1.000000
vt 4.562500 0.935333
vt 5.083333 0.935333
vt 4.562500 1.000000
vt 5.083333 1.000000
vt 2.520833 0.000000
vt 3.562500 0.000000
vt 2.520833 -0.083333
vt 3.562500 -0.083333
vt 4.562500 0.000000
vt 4.562500 -0.083333
vt 5.083333 0.000000
vt 5.083333 -0.083333
vt 2.520833 0.102000
vt 2.437500 0.102000
vt 2.520833 0.935333
vt 2.437500 0.935333
vt 2.520833 0.000000
vt 2.437500 0.000000
vt 2.520833 0.102000
vt 2.437500 0.102000
vt 2.520833 0.000000
vt 2.437500 0.000000
vt 2.520833 0.064667
vt 2.437500 0.064667
vt 4.229167 0.000000
vt 4.162500 0.000000
vt 4.229167 0.866667
vt 4.162500 0.866667
vt 4.979167 0.000000
vt 4.895833 0.000000
vt 4.979167 0.866667
vt 4.895833 0.866667
vt 4.229167 0.000000
vt 4.895833 0.000000
vt 4.229167 -0.066667
vt 4.895833 -0.066667
vt 3.708333 0.000000
vt 3.708333 0.866667
vt 3.708333 1.000000
vt 4.229167 1.000000
vt 4.895833 0.866667
vt 4.895833 1.000000
vt 5.416667 0.866667
vt 5.416667 1.000000
vt 5.416667 0.000000
vt 4.895833 0.000000
vt 3.708333 0.000000
vt 4.229167 0.000000
vt 3.708333 -0.083333
vt 4.229167 -0.083333
vt 4.895833 0.000000
vt 4.895833 -0.083333
vt 5.416667 0.000000
vt 5.416667 -0.083333
vt 3.708333 0.000000
vt 3.625000 0.000000
vt 3.708333 0.866667
vt 3.625000 0.866667
vt 3.625000 0.000000
vt 3.708333 0.133333
vt 3.625000 0.133333
vt 3.708333 0.000000
vt 3.625000 0.000000
vt 3.708333 0.866667
vt 3.625000 0.866667
vt 3.708333 0.000000
vt 3.625000 0.000000
vt 3.708333 0.133333
vt 3.625000 0.133333
vt 5.229167 0.102000
vt 5.162500 0.102000
vt 5.229167 0.935333
vt 5.162500 0.935333
vt 6.312500 0.102000
vt 6.229167 0.102000
vt 6.312500 0.935333
vt 6.229167 0.935333
vt 5.229167 0.000000
vt 6.229167 0.000000
vt 5.229167 -0.066667
vt 6.229167 -0.066667
vt 5.229167 0.000000
vt 6.229167 0.000000
vt 5.229167 -0.066667
vt 6.229167 -0.066667
vt 4.708333 0.000000
vt 5.229167 0.000000
vt 4.708333 0.102000
vt 6.229167 0.000000
vt 4.708333 0.935333
vt 6.229167 0.102000
vt 6.833333 0.000000
vt 6.833333 0.102000
vt 4.708333 1.000000
vt 5.229167 1.000000
vt 6.229167 0.935333
vt 6.833333 0.935333
vt 6.229167 1.000000
vt 6.833333 1.000000
vt 6.229167 0.000000
vt 6.229167 -0.083333
vt 5.229167 -0.083333
vt 5.229167 0.000000
vt 4.708333 -0.083333
vt 4.708333 0.000000
vt 4.708333 0.102000
vt 4.625000 0.102000
vt 4.708333 0.935333
vt 4.625000 0.935333
vt 4.708333 0.000000
vt 4.625000 0.000000
vt 4.708333 0.102000
vt 4.625000 0.102000
vt 4.625000 0.000000
vt 4.708333 0.064667
vt 4.625000 0.064667
vt 1.283333 1.229333
vt 1.200000 1.229333
vt 1.283333 1.896000
vt 1.200000 1.896000
vt 2.200000 1.229333
vt 2.116667 1.229333
vt 2.200000 1.896000
vt 2.116667 1.896000
vt 1.283333 1.000000
vt 2.116667 1.000000
vt 1.283333 0.916667
vt 2.116667 0.916667
vt 1.283333 1.000000
vt 2.116667 1.000000
vt 1.283333 0.916667
vt 2.116667 0.916667
vt 2.116667 1.000000
vt 2.116667 1.229333
vt 1.283333 1.000000
vt 0.833333 1.229333
vt 0.833333 1.000000
vt 0.833333 1.896000
vt 0.833333 2.000000
vt 1.283333 2.000000
vt 2.116667 1.896000
vt 2.116667 2.000000
vt 1.283333 1.000000
vt 2.116667 1.000000
vt 1.283333 0.916667
vt 2.116667 0.916667
vt 2.400000 1.229333
vt 2.316667 1.229333
vt 2.400000 1.896000
vt 2.316667 1.896000
vt 3.316667 1.229333
vt 3.233333 1.229333
vt 3.316667 1.896000
vt 3.233333 1.896000
vt 2.400000 1.000000
vt 3.233333 1.000000
vt 2.400000 0.916667
vt 3.233333 0.916667
vt 2.400000 1.000000
vt 3.233333 1.000000
vt 2.400000 0.916667
vt 3.233333 0.916667
vt 3.233333 1.000000
vt 3.233333 1.229333
vt 2.400000 1.000000
vt 1.666667 1.229333
vt 1.666667 1.000000
vt 1.666667 1.896000
vt 1.666667 2.000000
vt 2.400000 2.000000
vt 3.233333 1.896000
vt 3.233333 2.000000
vt 3.233333 1.000000
vt 3.233333 0.916667
vt 2.400000 0.916667
vt 2.400000 1.000000
vt 1.666667 0.916667
vt 1.666667 1.000000
vt 3.233333 1.229333
vt 3.150000 1.229333
vt 3.233333 1.896000
vt 3.150000 1.896000
vt 4.150000 1.229333
vt 4.066667 1.229333
vt 4.150000 1.896000
vt 4.066667 1.896000
vt 3.233333 1.000000
vt 4.066667 1.000000
vt 3.233333 0.916667
vt 4.066667 0.916667
vt 3.233333 1.000000
vt 4.066667 1.000000
vt 3.233333 0.916667
vt 4.066667 0.916667
vt 4.066667 1.000000
vt 4.066667 1.229333
vt 3.233333 1.000000
vt 2.500000 1.229333
vt 2.500000 1.000000
vt 2.500000 1.896000
vt 2.500000 2.000000
vt 3.233333 2.000000
vt 4.066667 1.896000
vt 4.066667 2.000000
vt 4.066667 1.000000
vt 4.066667 0.916667
vt 3.233333 0.916667
vt 3.233333 1.000000
vt 2.500000 0.916667
vt 2.500000 1.000000
vt 4.066667 1.229333
vt 3.983333 1.229333
vt 4.066667 1.896000
vt 3.983333 1.896000
vt 4.983333 1.229333
vt 4.900000 1.229333
vt 4.983333 1.896000
vt 4.900000 1.896000
vt 4.066667 1.000000
vt 4.900000 1.000000
vt 4.066667 0.916667
vt 4.900000 0.916667
vt 4.066667 1.000000
vt 4.900000 1.000000
vt 4.066667 0.916667
vt 4.900000 0.916667
vt 4.900000 1.000000
vt 4.900000 1.229333
vt 4.066667 1.000000
vt 3.333333 1.229333
vt 3.333333 1.000000
vt 3.333333 1.896000
vt 3.333333 2.000000
vt 4.066667 2.000000
vt 4.900000 1.896000
vt 4.900000 2.000000
vt 4.900000 1.000000
vt 4.900000 0.916667
vt 4.066667 0.916667
vt 4.066667 1.000000
vt 3.333333 0.916667
vt 3.333333 1.000000
vt 4.900000 1.229333
vt 4.816667 1.229333
vt 4.900000 1.896000
vt 4.816667 1.896000
vt 5.816667 1.229333
vt 5.733334 1.229333
vt 5.816667 1.896000
vt 5.733334 1.896000
vt 4.900000 1.000000
vt 5.733334 1.000000
vt 4.900000 0.916667
vt 5.733334 0.916667
vt 4.900000 1.000000
vt 5.733334 1.000000
vt 4.900000 0.916667
vt 5.733334 0.916667
vt 4.166667 1.000000
vt 4.900000 1.000000
vt 4.166667 1.229333
vt 5.733334 1.000000
vt 4.166667 1.896000
vt 5.733334 1.229333
vt 6.183334 1.000000
vt 6.183334 1.229333
vt 4.166667 2.000000
vt 4.900000 2.000000
vt 5.733334 1.896000
vt 6.183334 1.896000
vt 5.733334 2.000000
vt 6.183334 2.000000
vt 5.733334 1.000000
vt 5.733334 0.916667
vt 4.900000 0.916667
vt 4.900000 1.000000
vt 4.166667 0.916667
vt 4.166667 1.000000
vt 0.000000 0.000000
vt 13.333330 0.000000
vt 0.000000 1.000000
vt 13.333330 1.000000
vt 0.000000 2.000000
vt 13.333330 2.000000
vt 0.000000 0.000000
vt 8.000000 0.000000
vt 0.000000 1.000000
vt 8.000000 1.000000
vt 0.000000 2.000000
vt 8.000000 2.000000
vn 0.0000 0.0000 -1.0000
vn 0.0000 0.0000 1.0000
vn 0.0000 1.0000 0.0000
vn 0.0000 -1.0000 0.0000
vn -1.0000 0.0000 0.0000
vn 1.0000 0.0000 0.0000
usemtl Brick05Tiling2Material.002
s 1
f 1/1/1 3/2/1 2/3/1
f 3/2/1 4/4/1 2/3/1
f 2/3/1 4/4/1 5/5/1
f 4/4/1 6/6/1 5/5/1
f 7/7/2 9/8/2 8/9/2
f 9/8/2 10/10/2 8/9/2
f 11/11/1 13/12/1 12/13/1
f 13/12/1 14/14/1 12/13/1
f 7/15/3 12/16/3 9/17/3
f 12/16/3 14/18/3 9/17/3
f 11/19/4 8/20/4 13/21/4
f 8/20/4 10/22/4 13/21/4
f 15/23/5 12/24/5 7/7/5
f 16/25/5 15/23/5 7/7/5
f 16/25/5 7/7/5 17/26/5
f 3/27/5 16/25/5 17/26/5
f 17/26/5 7/7/5 18/28/5
f 7/7/5 8/9/5 18/28/5
f 18/28/5 8/9/5 4/29/5
f 8/9/5 19/30/5 4/29/5
f 8/9/5 11/31/5 19/30/5
f 11/31/5 20/32/5 19/30/5
f 19/33/3 20/34/3 21/35/3
f 20/34/3 22/36/3 21/35/3
f 23/37/2 25/38/2 24/39/2
f 25/38/2 26/40/2 24/39/2
f 27/41/1 29/42/1 28/43/1
f 29/42/1 30/44/1 28/43/1
f 23/45/3 28/46/3 25/47/3
f 28/46/3 30/48/3 25/47/3
f 27/49/4 24/50/4 29/51/4
f 24/50/4 26/52/4 29/51/4
f 15/53/5 31/54/5 12/55/5
f 31/54/5 23/37/5 12/55/5
f 31/54/5 32/56/5 23/37/5
f 12/55/5 23/37/5 11/57/5
f 32/56/5 28/58/5 23/37/5
f 32/56/5 33/59/5 28/58/5
f 33/59/5 34/60/5 28/58/5
f 23/37/5 24/39/5 11/57/5
f 11/57/5 24/39/5 20/61/5
f 24/39/5 35/62/5 20/61/5
f 28/58/5 34/60/5 27/63/5
f 24/39/5 27/63/5 35/62/5
f 34/60/5 36/64/5 27/63/5
f 27/63/5 37/65/5 35/62/5
f 27/63/5 36/64/5 37/65/5
f 36/64/5 38/66/5 37/65/5
f 20/67/3 35/68/3 22/69/3
f 35/68/3 39/70/3 22/69/3
f 35/68/3 37/71/3 39/70/3
f 37/71/3 40/72/3 39/70/3
f 37/71/3 38/73/3 40/72/3
f 38/73/3 41/74/3 40/72/3
f 42/75/2 36/76/2 43/77/2
f 36/76/2 34/78/2 43/77/2
f 43/79/2 34/80/2 44/81/2
f 34/80/2 33/82/2 44/81/2
f 41/83/2 38/84/2 42/85/2
f 38/84/2 36/86/2 42/85/2
f 45/87/2 47/88/2 46/89/2
f 47/88/2 48/90/2 46/89/2
f 49/91/1 51/92/1 50/93/1
f 51/92/1 52/94/1 50/93/1
f 49/95/4 46/96/4 51/97/4
f 46/96/4 48/98/4 51/97/4
f 33/99/5 45/87/5 53/100/5
f 45/87/5 46/89/5 53/100/5
f 53/100/5 46/89/5 38/101/5
f 46/89/5 54/102/5 38/101/5
f 46/89/5 49/103/5 54/102/5
f 49/103/5 55/104/5 54/102/5
f 49/103/5 56/105/5 55/104/5
f 56/105/5 57/106/5 55/104/5
f 58/107/5 56/105/5 49/103/5
f 50/108/5 58/107/5 49/103/5
f 38/109/3 54/110/3 41/111/3
f 54/110/3 59/112/3 41/111/3
f 54/110/3 55/113/3 59/112/3
f 55/113/3 60/114/3 59/112/3
f 55/113/3 57/115/3 60/114/3
f 57/115/3 61/116/3 60/114/3
f 53/117/1 62/118/1 33/119/1
f 62/118/1 44/120/1 33/119/1
f 38/109/1 41/121/1 53/122/1
f 41/121/1 62/123/1 53/122/1
f 63/124/2 56/125/2 64/126/2
f 56/125/2 58/127/2 64/126/2
f 61/128/2 57/129/2 63/130/2
f 57/129/2 56/131/2 63/130/2
f 65/132/2 67/133/2 66/134/2
f 67/133/2 68/135/2 66/134/2
f 69/136/1 71/137/1 70/138/1
f 71/137/1 72/139/1 70/138/1
f 65/140/3 70/141/3 67/142/3
f 70/141/3 72/143/3 67/142/3
f 69/144/4 66/145/4 71/146/4
f 66/145/4 68/147/4 71/146/4
f 58/148/5 74/149/5 73/150/5
f 74/149/5 65/132/5 73/150/5
f 74/149/5 75/151/5 65/132/5
f 73/150/5 65/132/5 76/152/5
f 75/151/5 70/153/5 65/132/5
f 75/151/5 77/154/5 70/153/5
f 77/154/5 78/155/5 70/153/5
f 65/132/5 66/134/5 76/152/5
f 76/152/5 66/134/5 57/156/5
f 66/134/5 79/157/5 57/156/5
f 70/153/5 78/155/5 69/158/5
f 66/134/5 69/158/5 79/157/5
f 78/155/5 80/159/5 69/158/5
f 69/158/5 81/160/5 79/157/5
f 69/158/5 80/159/5 81/160/5
f 80/159/5 82/161/5 81/160/5
f 81/162/3 84/163/3 83/164/3
f 79/165/3 81/162/3 83/164/3
f 79/165/3 83/164/3 61/166/3
f 57/167/3 79/165/3 61/166/3
f 76/168/1 85/169/1 73/170/1
f 85/169/1 86/171/1 73/170/1
f 73/172/1 86/173/1 58/174/1
f 86/173/1 64/175/1 58/174/1
f 57/167/1 61/176/1 76/177/1
f 61/176/1 85/178/1 76/177/1
f 87/179/2 89/180/2 88/181/2
f 89/180/2 90/182/2 88/181/2
f 91/183/1 93/184/1 92/185/1
f 93/184/1 94/186/1 92/185/1
f 87/187/3 92/188/3 89/189/3
f 92/188/3 94/190/3 89/189/3
f 91/191/4 88/192/4 93/193/4
f 88/192/4 90/194/4 93/193/4
f 95/195/5 92/196/5 87/179/5
f 96/197/5 95/195/5 87/179/5
f 96/197/5 87/179/5 97/198/5
f 4/199/5 96/197/5 97/198/5
f 97/198/5 87/179/5 98/200/5
f 87/179/5 88/181/5 98/200/5
f 98/200/5 88/181/5 99/201/5
f 88/181/5 100/202/5 99/201/5
f 88/181/5 91/203/5 100/202/5
f 91/203/5 101/204/5 100/202/5
f 102/205/4 103/206/4 96/207/4
f 103/206/4 95/208/4 96/207/4
f 104/209/2 106/210/2 105/211/2
f 106/210/2 107/212/2 105/211/2
f 108/213/1 110/214/1 109/215/1
f 110/214/1 111/216/1 109/215/1
f 104/217/3 109/218/3 106/219/3
f 109/218/3 111/220/3 106/219/3
f 108/221/4 105/222/4 110/223/4
f 105/222/4 107/224/4 110/223/4
f 112/225/5 109/226/5 104/209/5
f 113/227/5 112/225/5 104/209/5
f 113/227/5 104/209/5 92/228/5
f 95/229/5 113/227/5 92/228/5
f 92/228/5 104/209/5 91/230/5
f 104/209/5 105/211/5 91/230/5
f 91/230/5 105/211/5 101/231/5
f 105/211/5 114/232/5 101/231/5
f 105/211/5 108/233/5 114/232/5
f 108/233/5 115/234/5 114/232/5
f 116/235/4 112/236/4 113/237/4
f 117/238/4 116/235/4 113/237/4
f 117/238/4 113/237/4 95/239/4
f 103/240/4 117/238/4 95/239/4
f 118/241/2 120/242/2 119/243/2
f 120/242/2 121/244/2 119/243/2
f 122/245/1 124/246/1 123/247/1
f 124/246/1 125/248/1 123/247/1
f 118/249/3 123/250/3 120/251/3
f 123/250/3 125/252/3 120/251/3
f 122/253/4 119/254/4 124/255/4
f 119/254/4 121/256/4 124/255/4
f 126/257/5 123/258/5 118/241/5
f 127/259/5 126/257/5 118/241/5
f 127/259/5 118/241/5 109/260/5
f 112/261/5 127/259/5 109/260/5
f 109/260/5 118/241/5 108/262/5
f 118/241/5 119/243/5 108/262/5
f 108/262/5 119/243/5 115/263/5
f 119/243/5 128/264/5 115/263/5
f 119/243/5 122/265/5 128/264/5
f 122/265/5 129/266/5 128/264/5
f 130/267/4 126/268/4 127/269/4
f 131/270/4 130/267/4 127/269/4
f 131/270/4 127/269/4 112/271/4
f 116/272/4 131/270/4 112/271/4
f 132/273/2 134/274/2 133/275/2
f 134/274/2 135/276/2 133/275/2
f 136/277/1 138/278/1 137/279/1
f 138/278/1 139/280/1 137/279/1
f 132/281/3 137/282/3 134/283/3
f 137/282/3 139/284/3 134/283/3
f 136/285/4 133/286/4 138/287/4
f 133/286/4 135/288/4 138/287/4
f 140/289/5 137/290/5 132/273/5
f 141/291/5 140/289/5 132/273/5
f 141/291/5 132/273/5 123/292/5
f 126/293/5 141/291/5 123/292/5
f 123/292/5 132/273/5 122/294/5
f 132/273/5 133/275/5 122/294/5
f 122/294/5 133/275/5 129/295/5
f 133/275/5 142/296/5 129/295/5
f 133/275/5 136/297/5 142/296/5
f 136/297/5 143/298/5 142/296/5
f 144/299/4 140/300/4 141/301/4
f 145/302/4 144/299/4 141/301/4
f 145/302/4 141/301/4 126/303/4
f 130/304/4 145/302/4 126/303/4
f 146/305/2 148/306/2 147/307/2
f 148/306/2 149/308/2 147/307/2
f 150/309/1 152/310/1 151/311/1
f 152/310/1 153/312/1 151/311/1
f 146/313/3 151/314/3 148/315/3
f 151/314/3 153/316/3 148/315/3
f 150/317/4 147/318/4 152/319/4
f 147/318/4 149/320/4 152/319/4
f 140/321/5 154/322/5 137/323/5
f 154/322/5 146/305/5 137/323/5
f 154/322/5 155/324/5 146/305/5
f 137/323/5 146/305/5 136/325/5
f 155/324/5 151/326/5 146/305/5
f 155/324/5 156/327/5 151/326/5
f 156/327/5 157/328/5 151/326/5
f 146/305/5 147/307/5 136/325/5
f 136/325/5 147/307/5 143/329/5
f 147/307/5 158/330/5 143/329/5
f 151/326/5 157/328/5 150/331/5
f 147/307/5 150/331/5 158/330/5
f 157/328/5 159/332/5 150/331/5
f 150/331/5 160/333/5 158/330/5
f 150/331/5 159/332/5 160/333/5
f 159/332/5 161/334/5 160/333/5
f 162/335/4 155/336/4 154/337/4
f 163/338/4 162/335/4 154/337/4
f 163/338/4 154/337/4 140/339/4
f 144/340/4 163/338/4 140/339/4
f 77/341/2 164/342/2 82/343/2
f 164/342/2 165/344/2 82/343/2
f 82/343/2 165/344/2 166/345/2
f 165/344/2 167/346/2 166/345/2
f 164/347/6 1/348/6 165/349/6
f 1/348/6 2/350/6 165/349/6
f 165/349/6 2/350/6 167/351/6
f 2/350/6 5/352/6 167/351/6
