# Blender MTL File: 'sanfrancisco.blend'
# Material Count: 1

newmtl Brick02BrownMaterial.002
Ns 179.999996
Ka 1.000000 1.000000 1.000000
Kd 0.745283 0.592019 0.558962
Ks 0.500000 0.500000 0.500000
Ke 1.000000 1.000000 1.000000
Ni 1.450000
d 1.000000
illum 2
map_Kd Brick02Diffuse.png
map_d Brick02Diffuse.png
norm Brick02Normal.png 
