# Blender v2.92.0 OBJ File: 'sanfrancisco.blend'
# www.blender.org
mtllib Brick00RedGreenTiling2_6.mtl
o Brick00RedGreenTiling2_6_Scene.3222
v 1740.000244 0.000000 -1824.999756
v 1740.000122 1100.000000 -1824.999756
v 1740.000244 0.000000 -1799.999756
v 1740.000122 1100.000000 -1799.999756
v 1140.000000 1100.000000 -1824.999756
v 1140.000000 0.000031 -1824.999756
v 1140.000000 1100.000000 -1799.999756
v 1140.000000 0.000031 -1799.999756
v 1825.000122 0.000000 -1824.999634
v 1825.000000 1100.000000 -1824.999634
v 1825.000000 1200.000000 -1824.999634
v 1740.000122 1200.000000 -1824.999756
v 1140.000000 1199.999878 -1824.999756
v 1020.000000 0.000031 -1824.999756
v 1020.000061 1100.000000 -1824.999756
v 1020.000000 0.000031 -1799.999756
v 1020.000061 1100.000000 -1799.999756
v 420.000031 1100.000000 -1824.999756
v 420.000031 0.000031 -1824.999756
v 420.000031 1100.000000 -1799.999756
v 420.000031 0.000031 -1799.999756
v 1020.000061 1199.999878 -1824.999756
v 420.000031 1200.000000 -1824.999756
v 300.000061 0.000031 -1824.999756
v 300.000031 1100.000000 -1824.999756
v 300.000061 0.000031 -1799.999756
v 300.000031 1100.000000 -1799.999756
v -299.999878 1100.000000 -1824.999756
v -299.999939 0.000000 -1824.999756
v -299.999878 1100.000000 -1799.999756
v -299.999939 0.000000 -1799.999756
v 300.000061 1200.000000 -1824.999756
v -299.999878 1199.999878 -1824.999756
v -419.999878 0.000000 -1824.999756
v -419.999878 1100.000000 -1824.999756
v -419.999878 0.000000 -1799.999756
v -419.999878 1100.000000 -1799.999756
v -1019.999878 1100.000000 -1824.999634
v -1019.999756 0.000000 -1824.999634
v -1019.999878 1100.000000 -1799.999634
v -1019.999756 0.000000 -1799.999634
v -419.999878 1199.999878 -1824.999756
v -1019.999878 1200.000000 -1824.999634
v -1139.999756 0.000000 -1824.999634
v -1139.999878 1100.000000 -1824.999634
v -1139.999756 0.000000 -1799.999634
v -1139.999878 1100.000000 -1799.999634
v -1739.999756 1100.000000 -1824.999634
v -1739.999756 0.000031 -1824.999634
v -1739.999756 1100.000000 -1799.999634
v -1739.999756 0.000031 -1799.999634
v -1139.999878 1200.000000 -1824.999634
v -1739.999756 1199.999878 -1824.999634
v -1824.999512 1100.000000 -1824.999756
v -1824.999512 1199.999878 -1824.999756
v -1824.999512 0.000031 -1824.999756
v -1825.000000 0.000031 1824.999756
v -1825.000000 1199.999878 1824.999756
v -1740.000000 0.000031 1825.000000
v -1740.000000 1100.000000 1825.000000
v -1740.000000 0.000031 1800.000000
v -1740.000000 1100.000000 1800.000000
v -1139.999878 1100.000000 1825.000000
v -1140.000000 0.000000 1825.000000
v -1139.999878 1100.000000 1800.000000
v -1140.000000 0.000000 1800.000000
v -1825.000000 1100.000000 1824.999756
v -1740.000000 1199.999878 1825.000000
v -1139.999878 1200.000000 1825.000000
v -1019.999878 0.000000 1825.000000
v -1019.999878 1100.000000 1825.000000
v -1019.999878 0.000000 1800.000000
v -1019.999878 1100.000000 1800.000000
v -419.999817 1100.000000 1824.999878
v -419.999817 0.000000 1824.999878
v -419.999817 1100.000000 1799.999878
v -419.999817 0.000000 1799.999878
v -1019.999878 1200.000000 1825.000000
v -419.999817 1199.999878 1824.999878
v -299.999878 0.000000 1824.999878
v -299.999878 1100.000000 1824.999878
v -299.999878 0.000000 1799.999878
v -299.999878 1100.000000 1799.999878
v 300.000061 1100.000000 1824.999878
v 300.000061 0.000031 1824.999878
v 300.000061 1100.000000 1799.999878
v 300.000061 0.000031 1799.999878
v -299.999878 1199.999878 1824.999878
v 300.000092 1200.000000 1824.999878
v 420.000061 0.000031 1824.999878
v 420.000031 1100.000000 1824.999878
v 420.000031 0.000031 1799.999878
v 420.000031 1100.000000 1799.999878
v 1020.000122 1100.000000 1824.999878
v 1020.000000 0.000031 1824.999878
v 1020.000122 1100.000000 1799.999878
v 1020.000000 0.000031 1799.999878
v 420.000031 1200.000000 1824.999878
v 1020.000122 1199.999878 1824.999878
v 1140.000122 0.000031 1824.999878
v 1140.000122 1100.000000 1824.999878
v 1140.000122 0.000031 1799.999878
v 1140.000122 1100.000000 1799.999878
v 1739.999878 1100.000000 1824.999878
v 1740.000000 0.000000 1824.999878
v 1739.999878 1100.000000 1799.999878
v 1740.000000 0.000000 1799.999878
v 1140.000122 1199.999878 1824.999878
v 1739.999878 1200.000000 1824.999878
v 1824.999756 1100.000000 1825.000000
v 1824.999756 1200.000000 1825.000000
v 1824.999878 0.000000 1825.000000
v 1825.000000 0.000000 1740.000000
v 1824.999878 1100.000000 1740.000000
v 1800.000000 0.000000 1740.000000
v 1799.999878 1100.000000 1740.000000
v 1824.999878 1100.000000 1140.000000
v 1825.000000 0.000000 1140.000000
v 1799.999878 1100.000000 1140.000000
v 1800.000000 0.000000 1140.000000
v 1824.999878 1200.000000 1740.000000
v 1824.999878 1200.000000 1140.000000
v 1825.000000 0.000000 1020.000000
v 1824.999878 1100.000000 1020.000000
v 1800.000000 0.000000 1020.000000
v 1799.999878 1100.000000 1020.000000
v 1824.999878 1100.000000 419.999878
v 1824.999878 0.000000 419.999878
v 1799.999878 1100.000000 419.999878
v 1799.999878 0.000000 419.999878
v 1824.999878 1200.000000 1020.000000
v 1824.999878 1200.000000 419.999878
v 1824.999878 0.000000 300.000000
v 1824.999878 1100.000000 300.000000
v 1799.999878 0.000000 300.000000
v 1799.999878 1100.000000 300.000000
v 1824.999878 1100.000000 -300.000000
v 1824.999878 0.000000 -300.000000
v 1799.999878 1100.000000 -300.000000
v 1799.999878 0.000000 -300.000000
v 1824.999878 1200.000000 300.000000
v 1824.999878 1200.000000 -300.000000
v 1824.999878 0.000000 -419.999939
v 1824.999878 1100.000000 -419.999939
v 1799.999878 0.000000 -419.999939
v 1799.999878 1100.000000 -419.999939
v 1824.999756 1100.000000 -1019.999878
v 1824.999878 0.000000 -1019.999878
v 1799.999756 1100.000000 -1019.999878
v 1799.999878 0.000000 -1019.999878
v 1824.999878 1200.000000 -419.999939
v 1824.999756 1200.000000 -1019.999878
v 1824.999878 0.000000 -1139.999756
v 1824.999756 1100.000000 -1139.999756
v 1799.999878 0.000000 -1139.999756
v 1799.999756 1100.000000 -1139.999756
v 1824.999756 1100.000000 -1739.999634
v 1824.999878 0.000000 -1739.999634
v 1799.999756 1100.000000 -1739.999634
v 1799.999878 0.000000 -1739.999634
v 1824.999756 1200.000000 -1139.999756
v 1824.999756 1200.000000 -1739.999634
vt 2.283333 0.000000
vt 2.200000 0.000000
vt 2.283333 3.666667
vt 2.200000 3.666667
vt 4.366667 0.000000
vt 4.283333 0.000000
vt 4.366667 3.666667
vt 4.283333 3.666667
vt 2.283333 0.000000
vt 4.283333 0.000000
vt 2.283333 -0.083333
vt 4.283333 -0.083333
vt 2.000000 0.000000
vt 2.000000 3.666667
vt 2.000000 4.000000
vt 2.283333 4.000000
vt 4.283333 3.666667
vt 4.283333 4.000000
vt 4.400000 0.000000
vt 4.316667 0.000000
vt 4.400000 3.666667
vt 4.316667 3.666667
vt 6.483334 0.000000
vt 6.400000 0.000000
vt 6.483334 3.666667
vt 6.400000 3.666667
vt 4.400000 0.000000
vt 6.400000 0.000000
vt 4.400000 -0.083333
vt 6.400000 -0.083333
vt 4.000000 0.000000
vt 4.000000 3.666667
vt 4.000000 4.000000
vt 4.400000 4.000000
vt 6.400000 3.666667
vt 6.400000 4.000000
vt 6.400000 0.000000
vt 6.316667 0.000000
vt 6.400000 3.666667
vt 6.316667 3.666667
vt 8.483334 0.000000
vt 8.400001 0.000000
vt 8.483334 3.666667
vt 8.400001 3.666667
vt 6.400000 0.000000
vt 8.400001 0.000000
vt 6.400000 -0.083333
vt 8.400001 -0.083333
vt 6.000000 0.000000
vt 6.000000 3.666667
vt 6.000000 4.000000
vt 6.400000 4.000000
vt 8.400001 3.666667
vt 8.400001 4.000000
vt 8.400001 0.000000
vt 8.316667 0.000000
vt 8.400001 3.666667
vt 8.316667 3.666667
vt 10.483330 0.000000
vt 10.400000 0.000000
vt 10.483330 3.666667
vt 10.400000 3.666667
vt 8.400001 0.000000
vt 10.400000 0.000000
vt 8.400001 -0.083333
vt 10.400000 -0.083333
vt 8.000000 0.000000
vt 8.000000 3.666667
vt 8.000000 4.000000
vt 8.400001 4.000000
vt 10.400000 3.666667
vt 10.400000 4.000000
vt 10.400000 0.000000
vt 10.316670 0.000000
vt 10.400000 3.666667
vt 10.316670 3.666667
vt 12.483330 0.000000
vt 12.400000 0.000000
vt 12.483330 3.666667
vt 12.400000 3.666667
vt 10.400000 0.000000
vt 12.400000 0.000000
vt 10.400000 -0.083333
vt 12.400000 -0.083333
vt 10.000000 0.000000
vt 10.000000 3.666667
vt 10.000000 4.000000
vt 10.400000 4.000000
vt 12.400000 3.666667
vt 12.400000 4.000000
vt 12.683330 3.666667
vt 12.683330 4.000000
vt 12.683330 0.000000
vt 12.400000 0.000000
vt 0.000000 0.000000
vt 12.166670 0.000000
vt 0.000000 4.000000
vt 12.166670 4.000000
vt 2.283333 0.000000
vt 2.200000 0.000000
vt 2.283333 3.666667
vt 2.200000 3.666667
vt 4.366667 0.000000
vt 4.283333 0.000000
vt 4.366667 3.666667
vt 4.283333 3.666667
vt 2.283333 0.000000
vt 4.283333 0.000000
vt 2.283333 -0.083333
vt 4.283333 -0.083333
vt 2.000000 0.000000
vt 2.000000 3.666667
vt 2.000000 4.000000
vt 2.283333 4.000000
vt 4.283333 3.666667
vt 4.283333 4.000000
vt 4.400000 0.000000
vt 4.316667 0.000000
vt 4.400000 3.666667
vt 4.316667 3.666667
vt 6.483334 0.000000
vt 6.400000 0.000000
vt 6.483334 3.666667
vt 6.400000 3.666667
vt 4.400000 0.000000
vt 6.400000 0.000000
vt 4.400000 -0.083333
vt 6.400000 -0.083333
vt 4.000000 0.000000
vt 4.000000 3.666667
vt 4.000000 4.000000
vt 4.400000 4.000000
vt 6.400000 3.666667
vt 6.400000 4.000000
vt 6.400000 0.000000
vt 6.316667 0.000000
vt 6.400000 3.666667
vt 6.316667 3.666667
vt 8.483334 0.000000
vt 8.400001 0.000000
vt 8.483334 3.666667
vt 8.400001 3.666667
vt 6.400000 0.000000
vt 8.400001 0.000000
vt 6.400000 -0.083333
vt 8.400001 -0.083333
vt 6.000000 0.000000
vt 6.000000 3.666667
vt 6.000000 4.000000
vt 6.400000 4.000000
vt 8.400001 3.666667
vt 8.400001 4.000000
vt 8.400001 0.000000
vt 8.316667 0.000000
vt 8.400001 3.666667
vt 8.316667 3.666667
vt 10.483330 0.000000
vt 10.400000 0.000000
vt 10.483330 3.666667
vt 10.400000 3.666667
vt 8.400001 0.000000
vt 10.400000 0.000000
vt 8.400001 -0.083333
vt 10.400000 -0.083333
vt 8.000000 0.000000
vt 8.000000 3.666667
vt 8.000000 4.000000
vt 8.400001 4.000000
vt 10.400000 3.666667
vt 10.400000 4.000000
vt 10.400000 0.000000
vt 10.316670 0.000000
vt 10.400000 3.666667
vt 10.316670 3.666667
vt 12.483330 0.000000
vt 12.400000 0.000000
vt 12.483330 3.666667
vt 12.400000 3.666667
vt 10.400000 0.000000
vt 12.400000 0.000000
vt 10.400000 -0.083333
vt 12.400000 -0.083333
vt 10.000000 0.000000
vt 10.000000 3.666667
vt 10.000000 4.000000
vt 10.400000 4.000000
vt 12.400000 3.666667
vt 12.400000 4.000000
vt 12.683330 3.666667
vt 12.683330 4.000000
vt 12.683330 0.000000
vt 12.400000 0.000000
vt 2.283333 0.000000
vt 2.200000 0.000000
vt 2.283333 3.666667
vt 2.200000 3.666667
vt 4.366667 0.000000
vt 4.283333 0.000000
vt 4.366667 3.666667
vt 4.283333 3.666667
vt 2.283333 0.000000
vt 4.283333 0.000000
vt 2.283333 -0.083333
vt 4.283333 -0.083333
vt 2.000000 0.000000
vt 2.000000 3.666667
vt 2.000000 4.000000
vt 2.283333 4.000000
vt 4.283333 3.666667
vt 4.283333 4.000000
vt 4.400000 0.000000
vt 4.316667 0.000000
vt 4.400000 3.666667
vt 4.316667 3.666667
vt 6.483334 0.000000
vt 6.400000 0.000000
vt 6.483334 3.666667
vt 6.400000 3.666667
vt 4.400000 0.000000
vt 6.400000 0.000000
vt 4.400000 -0.083333
vt 6.400000 -0.083333
vt 4.000000 0.000000
vt 4.000000 3.666667
vt 4.000000 4.000000
vt 4.400000 4.000000
vt 6.400000 3.666667
vt 6.400000 4.000000
vt 6.400000 0.000000
vt 6.316667 0.000000
vt 6.400000 3.666667
vt 6.316667 3.666667
vt 8.483334 0.000000
vt 8.400001 0.000000
vt 8.483334 3.666667
vt 8.400001 3.666667
vt 6.400000 0.000000
vt 8.400001 0.000000
vt 6.400000 -0.083333
vt 8.400001 -0.083333
vt 6.000000 0.000000
vt 6.000000 3.666667
vt 6.000000 4.000000
vt 6.400000 4.000000
vt 8.400001 3.666667
vt 8.400001 4.000000
vt 8.400001 0.000000
vt 8.316667 0.000000
vt 8.400001 3.666667
vt 8.316667 3.666667
vt 10.483330 0.000000
vt 10.400000 0.000000
vt 10.483330 3.666667
vt 10.400000 3.666667
vt 8.400001 0.000000
vt 10.400000 0.000000
vt 8.400001 -0.083333
vt 10.400000 -0.083333
vt 8.000000 0.000000
vt 8.000000 3.666667
vt 8.000000 4.000000
vt 8.400001 4.000000
vt 10.400000 3.666667
vt 10.400000 4.000000
vt 10.400000 0.000000
vt 10.316670 0.000000
vt 10.400000 3.666667
vt 10.316670 3.666667
vt 12.483330 0.000000
vt 12.400000 0.000000
vt 12.483330 3.666667
vt 12.400000 3.666667
vt 10.400000 0.000000
vt 12.400000 0.000000
vt 10.400000 -0.083333
vt 12.400000 -0.083333
vt 10.000000 0.000000
vt 10.000000 3.666667
vt 10.000000 4.000000
vt 10.400000 4.000000
vt 12.400000 3.666667
vt 12.400000 4.000000
vt 12.683330 3.666667
vt 12.683330 4.000000
vt 12.683330 0.000000
vt 12.400000 0.000000
vn -1.0000 0.0000 0.0000
vn 1.0000 0.0000 0.0000
vn 0.0000 -1.0000 0.0000
vn 0.0000 0.0000 -1.0000
vn -0.0000 0.0000 1.0000
usemtl Brick00RedGreenTiling2Material.002
s 1
f 1/1/1 3/2/1 2/3/1
f 3/2/1 4/4/1 2/3/1
f 5/5/2 7/6/2 6/7/2
f 7/6/2 8/8/2 6/7/2
f 5/9/3 2/10/3 7/11/3
f 2/10/3 4/12/3 7/11/3
f 9/13/4 1/1/4 10/14/4
f 1/1/4 2/3/4 10/14/4
f 10/14/4 2/3/4 11/15/4
f 2/3/4 12/16/4 11/15/4
f 2/3/4 5/17/4 12/16/4
f 5/17/4 13/18/4 12/16/4
f 14/19/1 16/20/1 15/21/1
f 16/20/1 17/22/1 15/21/1
f 18/23/2 20/24/2 19/25/2
f 20/24/2 21/26/2 19/25/2
f 18/27/3 15/28/3 20/29/3
f 15/28/3 17/30/3 20/29/3
f 6/31/4 14/19/4 5/32/4
f 14/19/4 15/21/4 5/32/4
f 5/32/4 15/21/4 13/33/4
f 15/21/4 22/34/4 13/33/4
f 15/21/4 18/35/4 22/34/4
f 18/35/4 23/36/4 22/34/4
f 24/37/1 26/38/1 25/39/1
f 26/38/1 27/40/1 25/39/1
f 28/41/2 30/42/2 29/43/2
f 30/42/2 31/44/2 29/43/2
f 28/45/3 25/46/3 30/47/3
f 25/46/3 27/48/3 30/47/3
f 19/49/4 24/37/4 18/50/4
f 24/37/4 25/39/4 18/50/4
f 18/50/4 25/39/4 23/51/4
f 25/39/4 32/52/4 23/51/4
f 25/39/4 28/53/4 32/52/4
f 28/53/4 33/54/4 32/52/4
f 34/55/1 36/56/1 35/57/1
f 36/56/1 37/58/1 35/57/1
f 38/59/2 40/60/2 39/61/2
f 40/60/2 41/62/2 39/61/2
f 38/63/3 35/64/3 40/65/3
f 35/64/3 37/66/3 40/65/3
f 29/67/4 34/55/4 28/68/4
f 34/55/4 35/57/4 28/68/4
f 28/68/4 35/57/4 33/69/4
f 35/57/4 42/70/4 33/69/4
f 35/57/4 38/71/4 42/70/4
f 38/71/4 43/72/4 42/70/4
f 44/73/1 46/74/1 45/75/1
f 46/74/1 47/76/1 45/75/1
f 48/77/2 50/78/2 49/79/2
f 50/78/2 51/80/2 49/79/2
f 48/81/3 45/82/3 50/83/3
f 45/82/3 47/84/3 50/83/3
f 39/85/4 44/73/4 38/86/4
f 44/73/4 45/75/4 38/86/4
f 38/86/4 45/75/4 43/87/4
f 45/75/4 52/88/4 43/87/4
f 45/75/4 48/89/4 52/88/4
f 48/89/4 53/90/4 52/88/4
f 48/89/4 54/91/4 53/90/4
f 54/91/4 55/92/4 53/90/4
f 56/93/4 54/91/4 48/89/4
f 49/94/4 56/93/4 48/89/4
f 56/95/1 57/96/1 55/97/1
f 57/96/1 58/98/1 55/97/1
f 59/99/2 61/100/2 60/101/2
f 61/100/2 62/102/2 60/101/2
f 63/103/1 65/104/1 64/105/1
f 65/104/1 66/106/1 64/105/1
f 63/107/3 60/108/3 65/109/3
f 60/108/3 62/110/3 65/109/3
f 57/111/5 59/99/5 67/112/5
f 59/99/5 60/101/5 67/112/5
f 67/112/5 60/101/5 58/113/5
f 60/101/5 68/114/5 58/113/5
f 60/101/5 63/115/5 68/114/5
f 63/115/5 69/116/5 68/114/5
f 70/117/2 72/118/2 71/119/2
f 72/118/2 73/120/2 71/119/2
f 74/121/1 76/122/1 75/123/1
f 76/122/1 77/124/1 75/123/1
f 74/125/3 71/126/3 76/127/3
f 71/126/3 73/128/3 76/127/3
f 64/129/5 70/117/5 63/130/5
f 70/117/5 71/119/5 63/130/5
f 63/130/5 71/119/5 69/131/5
f 71/119/5 78/132/5 69/131/5
f 71/119/5 74/133/5 78/132/5
f 74/133/5 79/134/5 78/132/5
f 80/135/2 82/136/2 81/137/2
f 82/136/2 83/138/2 81/137/2
f 84/139/1 86/140/1 85/141/1
f 86/140/1 87/142/1 85/141/1
f 84/143/3 81/144/3 86/145/3
f 81/144/3 83/146/3 86/145/3
f 75/147/5 80/135/5 74/148/5
f 80/135/5 81/137/5 74/148/5
f 74/148/5 81/137/5 79/149/5
f 81/137/5 88/150/5 79/149/5
f 81/137/5 84/151/5 88/150/5
f 84/151/5 89/152/5 88/150/5
f 90/153/2 92/154/2 91/155/2
f 92/154/2 93/156/2 91/155/2
f 94/157/1 96/158/1 95/159/1
f 96/158/1 97/160/1 95/159/1
f 94/161/3 91/162/3 96/163/3
f 91/162/3 93/164/3 96/163/3
f 85/165/5 90/153/5 84/166/5
f 90/153/5 91/155/5 84/166/5
f 84/166/5 91/155/5 89/167/5
f 91/155/5 98/168/5 89/167/5
f 91/155/5 94/169/5 98/168/5
f 94/169/5 99/170/5 98/168/5
f 100/171/2 102/172/2 101/173/2
f 102/172/2 103/174/2 101/173/2
f 104/175/1 106/176/1 105/177/1
f 106/176/1 107/178/1 105/177/1
f 104/179/3 101/180/3 106/181/3
f 101/180/3 103/182/3 106/181/3
f 95/183/5 100/171/5 94/184/5
f 100/171/5 101/173/5 94/184/5
f 94/184/5 101/173/5 99/185/5
f 101/173/5 108/186/5 99/185/5
f 101/173/5 104/187/5 108/186/5
f 104/187/5 109/188/5 108/186/5
f 104/187/5 110/189/5 109/188/5
f 110/189/5 111/190/5 109/188/5
f 112/191/5 110/189/5 104/187/5
f 105/192/5 112/191/5 104/187/5
f 113/193/4 115/194/4 114/195/4
f 115/194/4 116/196/4 114/195/4
f 117/197/5 119/198/5 118/199/5
f 119/198/5 120/200/5 118/199/5
f 117/201/3 114/202/3 119/203/3
f 114/202/3 116/204/3 119/203/3
f 112/205/2 113/193/2 110/206/2
f 113/193/2 114/195/2 110/206/2
f 110/206/2 114/195/2 111/207/2
f 114/195/2 121/208/2 111/207/2
f 114/195/2 117/209/2 121/208/2
f 117/209/2 122/210/2 121/208/2
f 123/211/4 125/212/4 124/213/4
f 125/212/4 126/214/4 124/213/4
f 127/215/5 129/216/5 128/217/5
f 129/216/5 130/218/5 128/217/5
f 127/219/3 124/220/3 129/221/3
f 124/220/3 126/222/3 129/221/3
f 118/223/2 123/211/2 117/224/2
f 123/211/2 124/213/2 117/224/2
f 117/224/2 124/213/2 122/225/2
f 124/213/2 131/226/2 122/225/2
f 124/213/2 127/227/2 131/226/2
f 127/227/2 132/228/2 131/226/2
f 133/229/4 135/230/4 134/231/4
f 135/230/4 136/232/4 134/231/4
f 137/233/5 139/234/5 138/235/5
f 139/234/5 140/236/5 138/235/5
f 137/237/3 134/238/3 139/239/3
f 134/238/3 136/240/3 139/239/3
f 128/241/2 133/229/2 127/242/2
f 133/229/2 134/231/2 127/242/2
f 127/242/2 134/231/2 132/243/2
f 134/231/2 141/244/2 132/243/2
f 134/231/2 137/245/2 141/244/2
f 137/245/2 142/246/2 141/244/2
f 143/247/4 145/248/4 144/249/4
f 145/248/4 146/250/4 144/249/4
f 147/251/5 149/252/5 148/253/5
f 149/252/5 150/254/5 148/253/5
f 147/255/3 144/256/3 149/257/3
f 144/256/3 146/258/3 149/257/3
f 138/259/2 143/247/2 137/260/2
f 143/247/2 144/249/2 137/260/2
f 137/260/2 144/249/2 142/261/2
f 144/249/2 151/262/2 142/261/2
f 144/249/2 147/263/2 151/262/2
f 147/263/2 152/264/2 151/262/2
f 153/265/4 155/266/4 154/267/4
f 155/266/4 156/268/4 154/267/4
f 157/269/5 159/270/5 158/271/5
f 159/270/5 160/272/5 158/271/5
f 157/273/3 154/274/3 159/275/3
f 154/274/3 156/276/3 159/275/3
f 148/277/2 153/265/2 147/278/2
f 153/265/2 154/267/2 147/278/2
f 147/278/2 154/267/2 152/279/2
f 154/267/2 161/280/2 152/279/2
f 154/267/2 157/281/2 161/280/2
f 157/281/2 162/282/2 161/280/2
f 157/281/2 10/283/2 162/282/2
f 10/283/2 11/284/2 162/282/2
f 9/285/2 10/283/2 157/281/2
f 158/286/2 9/285/2 157/281/2
