# Blender MTL File: 'sanfrancisco.blend'
# Material Count: 1

newmtl Brick05Tiling2Material.002
Ns 179.999996
Ka 1.000000 1.000000 1.000000
Kd 0.915094 0.915094 0.915094
Ks 0.500000 0.500000 0.500000
Ke 1.000000 1.000000 1.000000
Ni 1.450000
d 1.000000
illum 2
map_Kd Brick05Diffuse.png
map_d Brick05Diffuse.png
norm Brick05Normal.png 
