# Blender v2.92.0 OBJ File: 'sanfrancisco.blend'
# www.blender.org
mtllib Brick00RedGreenTiling2_2.mtl
o Brick00RedGreenTiling2_2_Scene.3206
v 2279.166504 0.000000 -2399.999756
v 2279.166504 1000.000000 -2399.999756
v 2279.166504 0.000000 -2374.999756
v 2279.166504 1000.000000 -2374.999756
v 1679.166626 1000.000000 -2400.000000
v 1679.166748 0.000000 -2400.000000
v 1679.166626 1000.000000 -2375.000000
v 1679.166748 0.000000 -2375.000000
v 2400.000000 0.000000 -2399.999756
v 2400.000000 1000.000000 -2399.999756
v 2400.000000 1200.000000 -2399.999756
v 2279.166504 1200.000000 -2399.999756
v 1679.166626 1200.000000 -2400.000000
v 1487.500000 0.000000 -2400.000000
v 1487.500000 1000.000000 -2400.000000
v 1487.500000 0.000000 -2375.000000
v 1487.500000 1000.000000 -2375.000000
v 887.500122 1000.000000 -2400.000000
v 887.500061 0.000031 -2400.000000
v 887.500122 1000.000000 -2375.000000
v 887.500061 0.000031 -2375.000000
v 1487.500000 1200.000000 -2400.000000
v 887.500061 1200.000000 -2400.000000
v 695.833069 0.000031 -2400.000000
v 695.833069 1000.000000 -2400.000000
v 695.833069 0.000031 -2375.000000
v 695.833069 1000.000000 -2375.000000
v 95.833069 1000.000000 -2400.000000
v 95.833069 0.000031 -2400.000000
v 95.833069 1000.000000 -2375.000000
v 95.833069 0.000031 -2375.000000
v 695.833069 1200.000000 -2400.000000
v 95.833069 1200.000000 -2400.000000
v -95.832886 0.000031 -2400.000000
v -95.832886 999.999939 -2400.000000
v -95.832886 0.000031 -2375.000000
v -95.832886 999.999939 -2375.000000
v -695.832886 999.999939 -2400.000000
v -695.832886 0.000031 -2400.000000
v -695.832886 999.999939 -2375.000000
v -695.832886 0.000031 -2375.000000
v -95.832886 1199.999878 -2400.000000
v -695.832886 1199.999878 -2400.000000
v -887.500000 0.000031 -2400.000000
v -887.499756 999.999939 -2400.000000
v -887.500000 0.000031 -2375.000000
v -887.499756 999.999939 -2375.000000
v -1487.499878 999.999939 -2400.000000
v -1487.499634 0.000061 -2400.000000
v -1487.499878 999.999939 -2375.000000
v -1487.499634 0.000061 -2375.000000
v -887.499756 1199.999878 -2400.000000
v -1487.499878 1200.000000 -2400.000000
v -1679.166626 0.000031 -2400.000000
v -1679.166870 999.999939 -2400.000000
v -1679.166626 0.000031 -2375.000000
v -1679.166870 999.999939 -2375.000000
v -2279.166992 999.999939 -2399.999756
v -2279.166504 0.000061 -2399.999756
v -2279.166992 999.999939 -2374.999756
v -2279.166504 0.000061 -2374.999756
v -1679.166870 1200.000000 -2400.000000
v -2279.166992 1200.000000 -2399.999756
v -2400.000000 999.999939 -2399.999756
v -2400.000000 1200.000000 -2399.999756
v -2400.000000 0.000031 -2399.999756
v -2400.000000 0.000031 -2279.166748
v -2400.000000 999.999939 -2279.166748
v -2375.000000 0.000031 -2279.166748
v -2375.000000 999.999939 -2279.166748
v -2400.000000 999.999939 -1679.166870
v -2400.000000 0.000031 -1679.166870
v -2375.000000 999.999939 -1679.166870
v -2375.000000 0.000031 -1679.166870
v -2400.000000 1200.000000 -2279.166748
v -2400.000000 1200.000000 -1679.166870
v -2400.000000 0.000031 -1487.499878
v -2400.000000 999.999939 -1487.499878
v -2375.000000 0.000031 -1487.499878
v -2375.000000 999.999939 -1487.499878
v -2400.000000 999.999939 -887.499756
v -2400.000000 0.000031 -887.499756
v -2375.000000 999.999939 -887.499756
v -2375.000000 0.000031 -887.499756
v -2400.000000 1200.000000 -1487.499878
v -2400.000000 1200.000000 -887.499756
v -2400.000000 0.000031 -695.833008
v -2400.000000 999.999939 -695.833008
v -2375.000000 0.000031 -695.833008
v -2375.000000 999.999939 -695.833008
v -2400.000000 999.999939 -95.833206
v -2400.000000 0.000031 -95.833206
v -2375.000000 999.999939 -95.833214
v -2375.000000 0.000031 -95.833214
v -2400.000000 1200.000000 -695.833008
v -2400.000000 1200.000000 -95.833206
v -2400.000000 0.000031 95.833450
v -2400.000000 999.999939 95.833450
v -2375.000000 0.000031 95.833450
v -2375.000000 999.999939 95.833450
v -2400.000000 999.999939 695.833496
v -2400.000000 0.000031 695.833496
v -2375.000000 999.999939 695.833496
v -2375.000000 0.000031 695.833496
v -2400.000000 1200.000000 95.833450
v -2400.000000 1200.000000 695.833496
v -2400.000000 0.000031 887.500122
v -2400.000000 999.999939 887.500122
v -2375.000000 0.000031 887.500122
v -2375.000000 999.999939 887.500122
v -2400.000000 999.999939 1487.499756
v -2400.000000 0.000031 1487.499756
v -2375.000000 999.999939 1487.499756
v -2375.000000 0.000031 1487.499756
v -2400.000000 1200.000000 887.500122
v -2400.000000 1200.000000 1487.499756
v -2400.000000 0.000031 1679.166870
v -2400.000000 999.999939 1679.166870
v -2375.000000 0.000031 1679.166870
v -2375.000000 999.999939 1679.166870
v -2400.000000 999.999939 2279.166748
v -2400.000000 0.000031 2279.166748
v -2375.000000 999.999939 2279.166748
v -2375.000000 0.000031 2279.166748
v -2400.000000 1200.000000 1679.166870
v -2400.000000 1200.000000 2279.166748
v -2400.000000 999.999939 2399.999756
v -2400.000000 1200.000000 2399.999756
v -2399.999512 0.000031 2399.999756
v -2279.166504 0.000061 2399.999756
v -2279.166992 999.999939 2399.999756
v -2279.166504 0.000061 2374.999756
v -2279.166992 999.999939 2374.999756
v -1679.166870 999.999939 2399.999756
v -1679.166626 0.000031 2399.999756
v -1679.166870 999.999939 2374.999756
v -1679.166626 0.000031 2374.999756
v -2279.166992 1200.000000 2399.999756
v -1679.166870 1200.000000 2399.999756
v -1487.499634 0.000061 2399.999756
v -1487.499878 999.999939 2399.999756
v -1487.499634 0.000061 2374.999756
v -1487.499878 999.999939 2374.999756
v -887.499878 999.999939 2399.999756
v -887.499878 0.000031 2399.999756
v -887.499878 999.999939 2374.999756
v -887.499878 0.000031 2374.999756
v -1487.499878 1200.000000 2399.999756
v -887.499878 1199.999878 2399.999756
v -695.833008 0.000031 2399.999756
v -695.832764 999.999939 2399.999756
v -695.833008 0.000031 2374.999756
v -695.832764 999.999939 2374.999756
v -95.832947 999.999939 2399.999756
v -95.832886 0.000031 2399.999756
v -95.832947 999.999939 2374.999756
v -95.832886 0.000031 2374.999756
v -695.832764 1199.999878 2399.999756
v -95.832947 1199.999878 2399.999756
v 95.833130 0.000031 2399.999756
v 95.833069 1000.000000 2399.999756
v 95.833130 0.000031 2374.999756
v 95.833069 1000.000000 2374.999756
v 695.833130 1000.000000 2399.999756
v 695.833130 0.000031 2399.999756
v 695.833130 1000.000000 2374.999756
v 695.833130 0.000031 2374.999756
v 95.833069 1200.000000 2399.999756
v 695.833130 1200.000000 2399.999756
v 887.500122 0.000031 2399.999756
v 887.500122 1000.000000 2399.999756
v 887.500122 0.000031 2374.999756
v 887.500122 1000.000000 2374.999756
v 1487.499756 1000.000000 2399.999756
v 1487.499756 0.000000 2399.999756
v 1487.499756 1000.000000 2374.999756
v 1487.499756 0.000000 2374.999756
v 887.500122 1200.000000 2399.999756
v 1487.499756 1200.000000 2399.999756
v 1679.166504 0.000000 2399.999756
v 1679.166504 1000.000000 2399.999756
v 1679.166504 0.000000 2374.999756
v 1679.166504 1000.000000 2374.999756
v 2279.166504 1000.000000 2399.999756
v 2279.166504 0.000000 2399.999756
v 2279.166504 1000.000000 2374.999756
v 2279.166504 0.000000 2374.999756
v 1679.166504 1200.000000 2399.999756
v 2279.166504 1200.000000 2399.999756
v 2400.000000 1000.000000 2399.999756
v 2400.000000 1200.000000 2399.999756
v 2400.000000 0.000000 2399.999756
v 2400.000000 0.000000 2279.166992
v 2400.000000 1000.000000 2279.166992
v 2375.000000 0.000000 2279.166992
v 2375.000000 1000.000000 2279.166992
v 2400.000000 1000.000000 1679.166870
v 2400.000000 0.000000 1679.166870
v 2375.000000 1000.000000 1679.166870
v 2375.000000 0.000000 1679.166870
v 2400.000000 1200.000000 2279.166992
v 2400.000000 1200.000000 1679.166870
v 2400.000000 0.000000 1487.499878
v 2400.000000 1000.000000 1487.499878
v 2375.000000 0.000000 1487.499878
v 2375.000000 1000.000000 1487.499878
v 2400.000000 1000.000000 887.499878
v 2400.000000 0.000000 887.499878
v 2375.000000 1000.000000 887.499878
v 2375.000000 0.000000 887.499878
v 2400.000000 1200.000000 1487.499878
v 2400.000000 1200.000000 887.499878
v 2400.000000 0.000000 695.833008
v 2400.000000 1000.000000 695.833008
v 2375.000000 0.000000 695.833008
v 2375.000000 1000.000000 695.833008
v 2400.000000 1000.000000 95.833191
v 2400.000000 0.000000 95.833191
v 2375.000000 1000.000000 95.833191
v 2375.000000 0.000000 95.833191
v 2400.000000 1200.000000 695.833008
v 2400.000000 1200.000000 95.833191
v 2400.000000 0.000000 -95.833458
v 2400.000000 1000.000000 -95.833458
v 2375.000000 0.000000 -95.833458
v 2375.000000 1000.000000 -95.833458
v 2400.000000 1000.000000 -695.833496
v 2400.000000 0.000000 -695.833496
v 2375.000000 1000.000000 -695.833496
v 2375.000000 0.000000 -695.833496
v 2400.000000 1200.000000 -95.833458
v 2399.999756 1200.000000 -695.833496
v 2400.000000 0.000000 -887.500000
v 2399.999756 1000.000000 -887.500000
v 2375.000000 0.000000 -887.500000
v 2374.999756 1000.000000 -887.500000
v 2399.999756 1000.000000 -1487.499756
v 2400.000000 0.000000 -1487.499756
v 2374.999756 1000.000000 -1487.499756
v 2375.000000 0.000000 -1487.499756
v 2399.999756 1200.000000 -887.500000
v 2399.999756 1200.000000 -1487.499756
v 2400.000000 0.000000 -1679.166748
v 2399.999756 1000.000000 -1679.166748
v 2375.000000 0.000000 -1679.166748
v 2374.999756 1000.000000 -1679.166748
v 2400.000000 1000.000000 -2279.166748
v 2400.000000 0.000000 -2279.166748
v 2375.000000 1000.000000 -2279.166748
v 2375.000000 0.000000 -2279.166748
v 2399.999756 1200.000000 -1679.166748
v 2400.000000 1200.000000 -2279.166748
vt 2.402778 0.000000
vt 2.319444 0.000000
vt 2.402778 3.333333
vt 2.319444 3.333333
vt 4.486111 0.000000
vt 4.402778 0.000000
vt 4.486111 3.333333
vt 4.402778 3.333333
vt 2.402778 0.000000
vt 4.402778 0.000000
vt 2.402778 -0.083333
vt 4.402778 -0.083333
vt 2.000000 0.000000
vt 2.000000 3.333333
vt 2.000000 4.000000
vt 2.402778 4.000000
vt 4.402778 3.333333
vt 4.402778 4.000000
vt 4.638889 0.000000
vt 4.555556 0.000000
vt 4.638889 3.333333
vt 4.555556 3.333333
vt 6.722223 0.000000
vt 6.638889 0.000000
vt 6.722223 3.333333
vt 6.638889 3.333333
vt 4.638889 0.000000
vt 6.638889 0.000000
vt 4.638889 -0.083333
vt 6.638889 -0.083333
vt 4.000000 0.000000
vt 4.000000 3.333333
vt 4.000000 4.000000
vt 4.638889 4.000000
vt 6.638889 3.333333
vt 6.638889 4.000000
vt 6.638889 0.000000
vt 6.555555 0.000000
vt 6.638889 3.333333
vt 6.555555 3.333333
vt 8.722222 0.000000
vt 8.638889 0.000000
vt 8.722222 3.333333
vt 8.638889 3.333333
vt 6.638889 0.000000
vt 8.638888 0.000000
vt 6.638889 -0.083333
vt 8.638888 -0.083333
vt 6.000000 0.000000
vt 6.000000 3.333333
vt 6.000000 4.000000
vt 6.638889 4.000000
vt 8.638888 3.333333
vt 8.638888 4.000000
vt 8.638888 0.000000
vt 8.555555 0.000000
vt 8.638888 3.333333
vt 8.555555 3.333333
vt 10.722220 0.000000
vt 10.638890 0.000000
vt 10.722220 3.333333
vt 10.638890 3.333333
vt 8.638888 0.000000
vt 10.638890 0.000000
vt 8.638888 -0.083333
vt 10.638890 -0.083333
vt 8.000000 0.000000
vt 8.000000 3.333333
vt 8.000000 4.000000
vt 8.638888 4.000000
vt 10.638890 3.333333
vt 10.638890 4.000000
vt 10.638890 0.000000
vt 10.555560 0.000000
vt 10.638890 3.333333
vt 10.555560 3.333333
vt 12.722220 0.000000
vt 12.638890 0.000000
vt 12.722220 3.333333
vt 12.638890 3.333333
vt 10.638890 0.000000
vt 12.638890 0.000000
vt 10.638890 -0.083333
vt 12.638890 -0.083333
vt 10.000000 0.000000
vt 10.000000 3.333333
vt 10.000000 4.000000
vt 10.638890 4.000000
vt 12.638890 3.333333
vt 12.638890 4.000000
vt 12.638890 0.000000
vt 12.555560 0.000000
vt 12.638890 3.333333
vt 12.555560 3.333333
vt 14.722220 0.000000
vt 14.638890 0.000000
vt 14.722220 3.333333
vt 14.638890 3.333333
vt 12.638890 0.000000
vt 14.638890 0.000000
vt 12.638890 -0.083333
vt 14.638890 -0.083333
vt 12.000000 0.000000
vt 12.000000 3.333333
vt 12.000000 4.000000
vt 12.638890 4.000000
vt 14.638890 3.333333
vt 14.638890 4.000000
vt 15.041670 3.333333
vt 15.041670 4.000000
vt 15.041670 0.000000
vt 14.638890 0.000000
vt 2.402778 0.000000
vt 2.319444 0.000000
vt 2.402778 3.333333
vt 2.319444 3.333333
vt 4.486111 0.000000
vt 4.402778 0.000000
vt 4.486111 3.333333
vt 4.402778 3.333333
vt 2.402778 0.000000
vt 4.402778 0.000000
vt 2.402778 -0.083333
vt 4.402778 -0.083333
vt 2.000000 0.000000
vt 2.000000 3.333333
vt 2.000000 4.000000
vt 2.402778 4.000000
vt 4.402778 3.333333
vt 4.402778 4.000000
vt 4.638889 0.000000
vt 4.555556 0.000000
vt 4.638889 3.333333
vt 4.555556 3.333333
vt 6.722223 0.000000
vt 6.638889 0.000000
vt 6.722223 3.333333
vt 6.638889 3.333333
vt 4.638889 0.000000
vt 6.638889 0.000000
vt 4.638889 -0.083333
vt 6.638889 -0.083333
vt 4.000000 0.000000
vt 4.000000 3.333333
vt 4.000000 4.000000
vt 4.638889 4.000000
vt 6.638889 3.333333
vt 6.638889 4.000000
vt 6.638889 0.000000
vt 6.555555 0.000000
vt 6.638889 3.333333
vt 6.555555 3.333333
vt 8.722222 0.000000
vt 8.638889 0.000000
vt 8.722222 3.333333
vt 8.638889 3.333333
vt 6.638889 0.000000
vt 8.638888 0.000000
vt 6.638889 -0.083333
vt 8.638888 -0.083333
vt 6.000000 0.000000
vt 6.000000 3.333333
vt 6.000000 4.000000
vt 6.638889 4.000000
vt 8.638888 3.333333
vt 8.638888 4.000000
vt 8.638888 0.000000
vt 8.555555 0.000000
vt 8.638888 3.333333
vt 8.555555 3.333333
vt 10.722220 0.000000
vt 10.638890 0.000000
vt 10.722220 3.333333
vt 10.638890 3.333333
vt 8.638888 0.000000
vt 10.638890 0.000000
vt 8.638888 -0.083333
vt 10.638890 -0.083333
vt 8.000000 0.000000
vt 8.000000 3.333333
vt 8.000000 4.000000
vt 8.638888 4.000000
vt 10.638890 3.333333
vt 10.638890 4.000000
vt 10.638890 0.000000
vt 10.555560 0.000000
vt 10.638890 3.333333
vt 10.555560 3.333333
vt 12.722220 0.000000
vt 12.638890 0.000000
vt 12.722220 3.333333
vt 12.638890 3.333333
vt 10.638890 0.000000
vt 12.638890 0.000000
vt 10.638890 -0.083333
vt 12.638890 -0.083333
vt 10.000000 0.000000
vt 10.000000 3.333333
vt 10.000000 4.000000
vt 10.638890 4.000000
vt 12.638890 3.333333
vt 12.638890 4.000000
vt 12.638890 0.000000
vt 12.555560 0.000000
vt 12.638890 3.333333
vt 12.555560 3.333333
vt 14.722220 0.000000
vt 14.638890 0.000000
vt 14.722220 3.333333
vt 14.638890 3.333333
vt 12.638890 0.000000
vt 14.638890 0.000000
vt 12.638890 -0.083333
vt 14.638890 -0.083333
vt 12.000000 0.000000
vt 12.000000 3.333333
vt 12.000000 4.000000
vt 12.638890 4.000000
vt 14.638890 3.333333
vt 14.638890 4.000000
vt 15.041670 3.333333
vt 15.041670 4.000000
vt 15.041670 0.000000
vt 14.638890 0.000000
vt 2.402778 0.000000
vt 2.319444 0.000000
vt 2.402778 3.333333
vt 2.319444 3.333333
vt 4.486111 0.000000
vt 4.402778 0.000000
vt 4.486111 3.333333
vt 4.402778 3.333333
vt 2.402778 0.000000
vt 4.402778 0.000000
vt 2.402778 -0.083333
vt 4.402778 -0.083333
vt 2.000000 0.000000
vt 2.000000 3.333333
vt 2.000000 4.000000
vt 2.402778 4.000000
vt 4.402778 3.333333
vt 4.402778 4.000000
vt 4.638889 0.000000
vt 4.555556 0.000000
vt 4.638889 3.333333
vt 4.555556 3.333333
vt 6.722223 0.000000
vt 6.638889 0.000000
vt 6.722223 3.333333
vt 6.638889 3.333333
vt 4.638889 0.000000
vt 6.638889 0.000000
vt 4.638889 -0.083333
vt 6.638889 -0.083333
vt 4.000000 0.000000
vt 4.000000 3.333333
vt 4.000000 4.000000
vt 4.638889 4.000000
vt 6.638889 3.333333
vt 6.638889 4.000000
vt 6.638889 0.000000
vt 6.555555 0.000000
vt 6.638889 3.333333
vt 6.555555 3.333333
vt 8.722222 0.000000
vt 8.638889 0.000000
vt 8.722222 3.333333
vt 8.638889 3.333333
vt 6.638889 0.000000
vt 8.638888 0.000000
vt 6.638889 -0.083333
vt 8.638888 -0.083333
vt 6.000000 0.000000
vt 6.000000 3.333333
vt 6.000000 4.000000
vt 6.638889 4.000000
vt 8.638888 3.333333
vt 8.638888 4.000000
vt 8.638888 0.000000
vt 8.555555 0.000000
vt 8.638888 3.333333
vt 8.555555 3.333333
vt 10.722220 0.000000
vt 10.638890 0.000000
vt 10.722220 3.333333
vt 10.638890 3.333333
vt 8.638888 0.000000
vt 10.638890 0.000000
vt 8.638888 -0.083333
vt 10.638890 -0.083333
vt 8.000000 0.000000
vt 8.000000 3.333333
vt 8.000000 4.000000
vt 8.638888 4.000000
vt 10.638890 3.333333
vt 10.638890 4.000000
vt 10.638890 0.000000
vt 10.555560 0.000000
vt 10.638890 3.333333
vt 10.555560 3.333333
vt 12.722220 0.000000
vt 12.638890 0.000000
vt 12.722220 3.333333
vt 12.638890 3.333333
vt 10.638890 0.000000
vt 12.638890 0.000000
vt 10.638890 -0.083333
vt 12.638890 -0.083333
vt 10.000000 0.000000
vt 10.000000 3.333333
vt 10.000000 4.000000
vt 10.638890 4.000000
vt 12.638890 3.333333
vt 12.638890 4.000000
vt 12.638890 0.000000
vt 12.555560 0.000000
vt 12.638890 3.333333
vt 12.555560 3.333333
vt 14.722220 0.000000
vt 14.638890 0.000000
vt 14.722220 3.333333
vt 14.638890 3.333333
vt 12.638890 0.000000
vt 14.638890 0.000000
vt 12.638890 -0.083333
vt 14.638890 -0.083333
vt 12.000000 0.000000
vt 12.000000 3.333333
vt 12.000000 4.000000
vt 12.638890 4.000000
vt 14.638890 3.333333
vt 14.638890 4.000000
vt 15.041670 3.333333
vt 15.041670 4.000000
vt 15.041670 0.000000
vt 14.638890 0.000000
vt 2.402778 0.000000
vt 2.319444 0.000000
vt 2.402778 3.333333
vt 2.319444 3.333333
vt 4.486111 0.000000
vt 4.402778 0.000000
vt 4.486111 3.333333
vt 4.402778 3.333333
vt 2.402778 0.000000
vt 4.402778 0.000000
vt 2.402778 -0.083333
vt 4.402778 -0.083333
vt 2.000000 0.000000
vt 2.000000 3.333333
vt 2.000000 4.000000
vt 2.402778 4.000000
vt 4.402778 3.333333
vt 4.402778 4.000000
vt 4.638889 0.000000
vt 4.555556 0.000000
vt 4.638889 3.333333
vt 4.555556 3.333333
vt 6.722223 0.000000
vt 6.638889 0.000000
vt 6.722223 3.333333
vt 6.638889 3.333333
vt 4.638889 0.000000
vt 6.638889 0.000000
vt 4.638889 -0.083333
vt 6.638889 -0.083333
vt 4.000000 0.000000
vt 4.000000 3.333333
vt 4.000000 4.000000
vt 4.638889 4.000000
vt 6.638889 3.333333
vt 6.638889 4.000000
vt 6.638889 0.000000
vt 6.555555 0.000000
vt 6.638889 3.333333
vt 6.555555 3.333333
vt 8.722222 0.000000
vt 8.638889 0.000000
vt 8.722222 3.333333
vt 8.638889 3.333333
vt 6.638889 0.000000
vt 8.638888 0.000000
vt 6.638889 -0.083333
vt 8.638888 -0.083333
vt 6.000000 0.000000
vt 6.000000 3.333333
vt 6.000000 4.000000
vt 6.638889 4.000000
vt 8.638888 3.333333
vt 8.638888 4.000000
vt 8.638888 0.000000
vt 8.555555 0.000000
vt 8.638888 3.333333
vt 8.555555 3.333333
vt 10.722220 0.000000
vt 10.638890 0.000000
vt 10.722220 3.333333
vt 10.638890 3.333333
vt 8.638888 0.000000
vt 10.638890 0.000000
vt 8.638888 -0.083333
vt 10.638890 -0.083333
vt 8.000000 0.000000
vt 8.000000 3.333333
vt 8.000000 4.000000
vt 8.638888 4.000000
vt 10.638890 3.333333
vt 10.638890 4.000000
vt 10.638890 0.000000
vt 10.555560 0.000000
vt 10.638890 3.333333
vt 10.555560 3.333333
vt 12.722220 0.000000
vt 12.638890 0.000000
vt 12.722220 3.333333
vt 12.638890 3.333333
vt 10.638890 0.000000
vt 12.638890 0.000000
vt 10.638890 -0.083333
vt 12.638890 -0.083333
vt 10.000000 0.000000
vt 10.000000 3.333333
vt 10.000000 4.000000
vt 10.638890 4.000000
vt 12.638890 3.333333
vt 12.638890 4.000000
vt 12.638890 0.000000
vt 12.555560 0.000000
vt 12.638890 3.333333
vt 12.555560 3.333333
vt 14.722220 0.000000
vt 14.638890 0.000000
vt 14.722220 3.333333
vt 14.638890 3.333333
vt 12.638890 0.000000
vt 14.638890 0.000000
vt 12.638890 -0.083333
vt 14.638890 -0.083333
vt 12.000000 0.000000
vt 12.000000 3.333333
vt 12.000000 4.000000
vt 12.638890 4.000000
vt 14.638890 3.333333
vt 14.638890 4.000000
vt 15.041670 3.333333
vt 15.041670 4.000000
vt 15.041670 0.000000
vt 14.638890 0.000000
vn -1.0000 0.0000 0.0000
vn 1.0000 0.0000 0.0000
vn 0.0000 -1.0000 0.0000
vn 0.0000 0.0000 -1.0000
vn 0.0000 0.0000 1.0000
usemtl Brick00RedGreenTiling2Material.002
s 1
f 1/1/1 3/2/1 2/3/1
f 3/2/1 4/4/1 2/3/1
f 5/5/2 7/6/2 6/7/2
f 7/6/2 8/8/2 6/7/2
f 5/9/3 2/10/3 7/11/3
f 2/10/3 4/12/3 7/11/3
f 9/13/4 1/1/4 10/14/4
f 1/1/4 2/3/4 10/14/4
f 10/14/4 2/3/4 11/15/4
f 2/3/4 12/16/4 11/15/4
f 2/3/4 5/17/4 12/16/4
f 5/17/4 13/18/4 12/16/4
f 14/19/1 16/20/1 15/21/1
f 16/20/1 17/22/1 15/21/1
f 18/23/2 20/24/2 19/25/2
f 20/24/2 21/26/2 19/25/2
f 18/27/3 15/28/3 20/29/3
f 15/28/3 17/30/3 20/29/3
f 6/31/4 14/19/4 5/32/4
f 14/19/4 15/21/4 5/32/4
f 5/32/4 15/21/4 13/33/4
f 15/21/4 22/34/4 13/33/4
f 15/21/4 18/35/4 22/34/4
f 18/35/4 23/36/4 22/34/4
f 24/37/1 26/38/1 25/39/1
f 26/38/1 27/40/1 25/39/1
f 28/41/2 30/42/2 29/43/2
f 30/42/2 31/44/2 29/43/2
f 28/45/3 25/46/3 30/47/3
f 25/46/3 27/48/3 30/47/3
f 19/49/4 24/37/4 18/50/4
f 24/37/4 25/39/4 18/50/4
f 18/50/4 25/39/4 23/51/4
f 25/39/4 32/52/4 23/51/4
f 25/39/4 28/53/4 32/52/4
f 28/53/4 33/54/4 32/52/4
f 34/55/1 36/56/1 35/57/1
f 36/56/1 37/58/1 35/57/1
f 38/59/2 40/60/2 39/61/2
f 40/60/2 41/62/2 39/61/2
f 38/63/3 35/64/3 40/65/3
f 35/64/3 37/66/3 40/65/3
f 29/67/4 34/55/4 28/68/4
f 34/55/4 35/57/4 28/68/4
f 28/68/4 35/57/4 33/69/4
f 35/57/4 42/70/4 33/69/4
f 35/57/4 38/71/4 42/70/4
f 38/71/4 43/72/4 42/70/4
f 44/73/1 46/74/1 45/75/1
f 46/74/1 47/76/1 45/75/1
f 48/77/2 50/78/2 49/79/2
f 50/78/2 51/80/2 49/79/2
f 48/81/3 45/82/3 50/83/3
f 45/82/3 47/84/3 50/83/3
f 39/85/4 44/73/4 38/86/4
f 44/73/4 45/75/4 38/86/4
f 38/86/4 45/75/4 43/87/4
f 45/75/4 52/88/4 43/87/4
f 45/75/4 48/89/4 52/88/4
f 48/89/4 53/90/4 52/88/4
f 54/91/1 56/92/1 55/93/1
f 56/92/1 57/94/1 55/93/1
f 58/95/2 60/96/2 59/97/2
f 60/96/2 61/98/2 59/97/2
f 58/99/3 55/100/3 60/101/3
f 55/100/3 57/102/3 60/101/3
f 49/103/4 54/91/4 48/104/4
f 54/91/4 55/93/4 48/104/4
f 48/104/4 55/93/4 53/105/4
f 55/93/4 62/106/4 53/105/4
f 55/93/4 58/107/4 62/106/4
f 58/107/4 63/108/4 62/106/4
f 58/107/4 64/109/4 63/108/4
f 64/109/4 65/110/4 63/108/4
f 66/111/4 64/109/4 58/107/4
f 59/112/4 66/111/4 58/107/4
f 67/113/5 69/114/5 68/115/5
f 69/114/5 70/116/5 68/115/5
f 71/117/4 73/118/4 72/119/4
f 73/118/4 74/120/4 72/119/4
f 71/121/3 68/122/3 73/123/3
f 68/122/3 70/124/3 73/123/3
f 66/125/1 67/113/1 64/126/1
f 67/113/1 68/115/1 64/126/1
f 64/126/1 68/115/1 65/127/1
f 68/115/1 75/128/1 65/127/1
f 68/115/1 71/129/1 75/128/1
f 71/129/1 76/130/1 75/128/1
f 77/131/5 79/132/5 78/133/5
f 79/132/5 80/134/5 78/133/5
f 81/135/4 83/136/4 82/137/4
f 83/136/4 84/138/4 82/137/4
f 81/139/3 78/140/3 83/141/3
f 78/140/3 80/142/3 83/141/3
f 72/143/1 77/131/1 71/144/1
f 77/131/1 78/133/1 71/144/1
f 71/144/1 78/133/1 76/145/1
f 78/133/1 85/146/1 76/145/1
f 78/133/1 81/147/1 85/146/1
f 81/147/1 86/148/1 85/146/1
f 87/149/5 89/150/5 88/151/5
f 89/150/5 90/152/5 88/151/5
f 91/153/4 93/154/4 92/155/4
f 93/154/4 94/156/4 92/155/4
f 91/157/3 88/158/3 93/159/3
f 88/158/3 90/160/3 93/159/3
f 82/161/1 87/149/1 81/162/1
f 87/149/1 88/151/1 81/162/1
f 81/162/1 88/151/1 86/163/1
f 88/151/1 95/164/1 86/163/1
f 88/151/1 91/165/1 95/164/1
f 91/165/1 96/166/1 95/164/1
f 97/167/5 99/168/5 98/169/5
f 99/168/5 100/170/5 98/169/5
f 101/171/4 103/172/4 102/173/4
f 103/172/4 104/174/4 102/173/4
f 101/175/3 98/176/3 103/177/3
f 98/176/3 100/178/3 103/177/3
f 92/179/1 97/167/1 91/180/1
f 97/167/1 98/169/1 91/180/1
f 91/180/1 98/169/1 96/181/1
f 98/169/1 105/182/1 96/181/1
f 98/169/1 101/183/1 105/182/1
f 101/183/1 106/184/1 105/182/1
f 107/185/5 109/186/5 108/187/5
f 109/186/5 110/188/5 108/187/5
f 111/189/4 113/190/4 112/191/4
f 113/190/4 114/192/4 112/191/4
f 111/193/3 108/194/3 113/195/3
f 108/194/3 110/196/3 113/195/3
f 102/197/1 107/185/1 101/198/1
f 107/185/1 108/187/1 101/198/1
f 101/198/1 108/187/1 106/199/1
f 108/187/1 115/200/1 106/199/1
f 108/187/1 111/201/1 115/200/1
f 111/201/1 116/202/1 115/200/1
f 117/203/5 119/204/5 118/205/5
f 119/204/5 120/206/5 118/205/5
f 121/207/4 123/208/4 122/209/4
f 123/208/4 124/210/4 122/209/4
f 121/211/3 118/212/3 123/213/3
f 118/212/3 120/214/3 123/213/3
f 112/215/1 117/203/1 111/216/1
f 117/203/1 118/205/1 111/216/1
f 111/216/1 118/205/1 116/217/1
f 118/205/1 125/218/1 116/217/1
f 118/205/1 121/219/1 125/218/1
f 121/219/1 126/220/1 125/218/1
f 121/219/1 127/221/1 126/220/1
f 127/221/1 128/222/1 126/220/1
f 129/223/1 127/221/1 121/219/1
f 122/224/1 129/223/1 121/219/1
f 130/225/2 132/226/2 131/227/2
f 132/226/2 133/228/2 131/227/2
f 134/229/1 136/230/1 135/231/1
f 136/230/1 137/232/1 135/231/1
f 134/233/3 131/234/3 136/235/3
f 131/234/3 133/236/3 136/235/3
f 129/237/5 130/225/5 127/238/5
f 130/225/5 131/227/5 127/238/5
f 127/238/5 131/227/5 128/239/5
f 131/227/5 138/240/5 128/239/5
f 131/227/5 134/241/5 138/240/5
f 134/241/5 139/242/5 138/240/5
f 140/243/2 142/244/2 141/245/2
f 142/244/2 143/246/2 141/245/2
f 144/247/1 146/248/1 145/249/1
f 146/248/1 147/250/1 145/249/1
f 144/251/3 141/252/3 146/253/3
f 141/252/3 143/254/3 146/253/3
f 135/255/5 140/243/5 134/256/5
f 140/243/5 141/245/5 134/256/5
f 134/256/5 141/245/5 139/257/5
f 141/245/5 148/258/5 139/257/5
f 141/245/5 144/259/5 148/258/5
f 144/259/5 149/260/5 148/258/5
f 150/261/2 152/262/2 151/263/2
f 152/262/2 153/264/2 151/263/2
f 154/265/1 156/266/1 155/267/1
f 156/266/1 157/268/1 155/267/1
f 154/269/3 151/270/3 156/271/3
f 151/270/3 153/272/3 156/271/3
f 145/273/5 150/261/5 144/274/5
f 150/261/5 151/263/5 144/274/5
f 144/274/5 151/263/5 149/275/5
f 151/263/5 158/276/5 149/275/5
f 151/263/5 154/277/5 158/276/5
f 154/277/5 159/278/5 158/276/5
f 160/279/2 162/280/2 161/281/2
f 162/280/2 163/282/2 161/281/2
f 164/283/1 166/284/1 165/285/1
f 166/284/1 167/286/1 165/285/1
f 164/287/3 161/288/3 166/289/3
f 161/288/3 163/290/3 166/289/3
f 155/291/5 160/279/5 154/292/5
f 160/279/5 161/281/5 154/292/5
f 154/292/5 161/281/5 159/293/5
f 161/281/5 168/294/5 159/293/5
f 161/281/5 164/295/5 168/294/5
f 164/295/5 169/296/5 168/294/5
f 170/297/2 172/298/2 171/299/2
f 172/298/2 173/300/2 171/299/2
f 174/301/1 176/302/1 175/303/1
f 176/302/1 177/304/1 175/303/1
f 174/305/3 171/306/3 176/307/3
f 171/306/3 173/308/3 176/307/3
f 165/309/5 170/297/5 164/310/5
f 170/297/5 171/299/5 164/310/5
f 164/310/5 171/299/5 169/311/5
f 171/299/5 178/312/5 169/311/5
f 171/299/5 174/313/5 178/312/5
f 174/313/5 179/314/5 178/312/5
f 180/315/2 182/316/2 181/317/2
f 182/316/2 183/318/2 181/317/2
f 184/319/1 186/320/1 185/321/1
f 186/320/1 187/322/1 185/321/1
f 184/323/3 181/324/3 186/325/3
f 181/324/3 183/326/3 186/325/3
f 175/327/5 180/315/5 174/328/5
f 180/315/5 181/317/5 174/328/5
f 174/328/5 181/317/5 179/329/5
f 181/317/5 188/330/5 179/329/5
f 181/317/5 184/331/5 188/330/5
f 184/331/5 189/332/5 188/330/5
f 184/331/5 190/333/5 189/332/5
f 190/333/5 191/334/5 189/332/5
f 192/335/5 190/333/5 184/331/5
f 185/336/5 192/335/5 184/331/5
f 193/337/4 195/338/4 194/339/4
f 195/338/4 196/340/4 194/339/4
f 197/341/5 199/342/5 198/343/5
f 199/342/5 200/344/5 198/343/5
f 197/345/3 194/346/3 199/347/3
f 194/346/3 196/348/3 199/347/3
f 192/349/2 193/337/2 190/350/2
f 193/337/2 194/339/2 190/350/2
f 190/350/2 194/339/2 191/351/2
f 194/339/2 201/352/2 191/351/2
f 194/339/2 197/353/2 201/352/2
f 197/353/2 202/354/2 201/352/2
f 203/355/4 205/356/4 204/357/4
f 205/356/4 206/358/4 204/357/4
f 207/359/5 209/360/5 208/361/5
f 209/360/5 210/362/5 208/361/5
f 207/363/3 204/364/3 209/365/3
f 204/364/3 206/366/3 209/365/3
f 198/367/2 203/355/2 197/368/2
f 203/355/2 204/357/2 197/368/2
f 197/368/2 204/357/2 202/369/2
f 204/357/2 211/370/2 202/369/2
f 204/357/2 207/371/2 211/370/2
f 207/371/2 212/372/2 211/370/2
f 213/373/4 215/374/4 214/375/4
f 215/374/4 216/376/4 214/375/4
f 217/377/5 219/378/5 218/379/5
f 219/378/5 220/380/5 218/379/5
f 217/381/3 214/382/3 219/383/3
f 214/382/3 216/384/3 219/383/3
f 208/385/2 213/373/2 207/386/2
f 213/373/2 214/375/2 207/386/2
f 207/386/2 214/375/2 212/387/2
f 214/375/2 221/388/2 212/387/2
f 214/375/2 217/389/2 221/388/2
f 217/389/2 222/390/2 221/388/2
f 223/391/4 225/392/4 224/393/4
f 225/392/4 226/394/4 224/393/4
f 227/395/5 229/396/5 228/397/5
f 229/396/5 230/398/5 228/397/5
f 227/399/3 224/400/3 229/401/3
f 224/400/3 226/402/3 229/401/3
f 218/403/2 223/391/2 217/404/2
f 223/391/2 224/393/2 217/404/2
f 217/404/2 224/393/2 222/405/2
f 224/393/2 231/406/2 222/405/2
f 224/393/2 227/407/2 231/406/2
f 227/407/2 232/408/2 231/406/2
f 233/409/4 235/410/4 234/411/4
f 235/410/4 236/412/4 234/411/4
f 237/413/5 239/414/5 238/415/5
f 239/414/5 240/416/5 238/415/5
f 237/417/3 234/418/3 239/419/3
f 234/418/3 236/420/3 239/419/3
f 228/421/2 233/409/2 227/422/2
f 233/409/2 234/411/2 227/422/2
f 227/422/2 234/411/2 232/423/2
f 234/411/2 241/424/2 232/423/2
f 234/411/2 237/425/2 241/424/2
f 237/425/2 242/426/2 241/424/2
f 243/427/4 245/428/4 244/429/4
f 245/428/4 246/430/4 244/429/4
f 247/431/5 249/432/5 248/433/5
f 249/432/5 250/434/5 248/433/5
f 247/435/3 244/436/3 249/437/3
f 244/436/3 246/438/3 249/437/3
f 238/439/2 243/427/2 237/440/2
f 243/427/2 244/429/2 237/440/2
f 237/440/2 244/429/2 242/441/2
f 244/429/2 251/442/2 242/441/2
f 244/429/2 247/443/2 251/442/2
f 247/443/2 252/444/2 251/442/2
f 247/443/2 10/445/2 252/444/2
f 10/445/2 11/446/2 252/444/2
f 9/447/2 10/445/2 247/443/2
f 248/448/2 9/447/2 247/443/2
