# Blender v2.92.0 OBJ File: 'sanfrancisco.blend'
# www.blender.org
mtllib Brick06_27.mtl
o Brick06_27_Scene.4433
v 619.571045 0.000046 -999.999939
v 619.571045 266.171234 -999.999939
v 619.571045 0.000046 -987.122620
v 619.571045 266.171234 -987.122620
v 486.485107 266.171204 -999.999939
v 486.485138 0.000031 -999.999939
v 486.485107 266.171204 -987.122620
v 486.485138 0.000031 -987.122620
v 750.000000 0.000031 -999.999939
v 750.000000 266.171204 -999.999939
v 750.000000 350.000000 -999.999939
v 619.571045 350.000000 -999.999939
v 486.485107 350.000000 -999.999939
v 384.000000 266.171204 -999.999939
v 384.000000 350.000031 -999.999939
v 384.000031 0.000031 -999.999939
v 619.571045 350.000000 -972.055847
v 486.485107 350.000000 -972.055847
v 384.000000 350.000031 -972.055847
v 384.000000 266.171204 -972.055847
v 384.000031 0.000031 -972.055847
v 376.513916 66.700027 -999.999939
v 376.513916 316.700043 -999.999939
v 376.513916 66.700027 -989.589966
v 376.513916 316.700043 -989.589966
v 176.514053 316.700043 -999.999939
v 176.514053 66.700012 -999.999939
v 176.514053 316.700043 -989.589966
v 176.514053 66.700012 -989.589966
v 384.000031 66.700027 -999.999939
v 376.513916 0.000031 -999.999939
v 176.514053 0.000031 -999.999939
v 384.000000 316.700043 -999.999939
v 169.028000 0.000031 -999.999939
v 169.028000 66.700012 -999.999939
v 376.513916 350.000031 -999.999939
v 169.028000 316.700043 -999.999939
v 176.514053 350.000000 -999.999939
v 169.028000 350.000000 -999.999939
v 376.513916 350.000031 -972.055847
v 176.514053 350.000000 -972.055847
v 169.028000 350.000000 -972.055847
v 384.000000 316.700043 -972.055847
v 384.000031 66.700027 -972.055847
v 169.028000 316.700043 -972.055847
v 169.028000 66.700012 -972.055847
v 169.028000 0.000031 -972.055847
v 66.542999 0.000031 -999.999939
v 66.543030 266.171234 -999.999939
v 66.542999 0.000031 -987.122620
v 66.543030 266.171234 -987.122620
v -66.542908 266.171204 -999.999939
v -66.542908 0.000031 -999.999939
v -66.542908 266.171204 -987.122620
v -66.542908 0.000031 -987.122620
v 169.028000 266.171234 -999.999939
v 66.542999 350.000000 -999.999939
v -66.542938 350.000000 -999.999939
v -169.027924 266.171204 -999.999939
v -169.027924 350.000000 -999.999939
v -169.027985 0.000015 -999.999939
v 66.543030 350.000000 -972.055847
v -66.542908 350.000000 -972.055847
v -169.027924 350.000000 -972.055847
v 169.028000 266.171234 -972.055847
v -169.027924 266.171204 -972.055847
v -169.027924 0.000015 -972.055847
v -176.514008 66.700012 -999.999939
v -176.514008 316.700043 -999.999939
v -176.514008 66.700012 -989.589966
v -176.514008 316.700043 -989.589966
v -376.514008 316.700043 -999.999878
v -376.514008 66.700027 -999.999878
v -376.514008 316.700043 -989.589905
v -376.514008 66.700027 -989.589905
v -169.027985 66.700012 -999.999939
v -176.514008 0.000015 -999.999939
v -376.514008 0.000046 -999.999878
v -169.027924 316.700043 -999.999939
v -383.999054 0.000046 -999.999878
v -383.999054 66.700027 -999.999878
v -176.514008 350.000000 -999.999939
v -383.999054 316.700043 -999.999878
v -376.514008 350.000000 -999.999878
v -383.999054 350.000000 -999.999878
v -176.514008 350.000000 -972.055847
v -376.514008 350.000000 -972.055786
v -383.999054 350.000000 -972.055786
v -169.027924 316.700043 -972.055847
v -169.027985 66.700012 -972.055847
v -383.999054 316.700043 -972.055786
v -383.999054 66.700027 -972.055786
v -383.998993 0.000046 -972.055786
v -486.484894 0.000046 -999.999878
v -486.484894 266.171204 -999.999878
v -486.484894 0.000046 -987.122559
v -486.484894 266.171204 -987.122559
v -619.569824 266.171204 -999.999878
v -619.569824 0.000031 -999.999878
v -619.569824 266.171204 -987.122559
v -619.569824 0.000031 -987.122559
v -383.999054 266.171204 -999.999878
v -486.484894 350.000031 -999.999878
v -619.569824 350.000000 -999.999878
v -749.999878 266.171234 -999.999878
v -749.999878 350.000000 -999.999878
v -749.999878 0.000046 -999.999878
v -486.484894 350.000031 -972.055786
v -619.569824 350.000000 -972.055786
v -383.999054 266.171204 -972.055786
v 581.371094 447.949982 -999.999939
v 581.371094 647.949951 -999.999939
v 581.371094 447.949982 -972.055847
v 581.371094 647.949951 -972.055847
v 381.371124 647.950012 -999.999939
v 381.371124 447.950012 -999.999939
v 381.371124 647.950012 -972.055847
v 381.371124 447.950012 -972.055847
v 381.371094 350.000031 -999.999939
v 581.371094 350.000000 -999.999939
v 750.000000 447.949982 -999.999939
v 750.000000 647.949951 -999.999939
v 750.000000 700.000061 -999.999939
v 581.371094 700.000000 -999.999939
v 381.371124 700.000000 -999.999939
v 581.371094 350.000000 -972.055847
v 381.371094 350.000031 -972.055847
v 100.000031 447.950012 -999.999939
v 100.000031 647.950012 -999.999939
v 100.000031 447.950012 -972.055847
v 100.000031 647.950012 -972.055847
v -99.999969 647.949951 -999.999939
v -99.999969 447.950012 -999.999939
v -99.999969 647.949951 -972.055847
v -99.999969 447.950012 -972.055847
v -99.999969 350.000000 -999.999939
v 100.000031 350.000000 -999.999939
v 100.000031 700.000000 -999.999939
v -99.999969 700.000000 -999.999939
v -99.999939 350.000000 -972.055847
v 100.000061 350.000000 -972.055847
v -381.370880 447.949982 -999.999878
v -381.370880 647.949951 -999.999878
v -381.370880 447.949982 -972.055786
v -381.370880 647.949951 -972.055786
v -581.370850 647.949951 -999.999878
v -581.370850 447.950012 -999.999878
v -581.370850 647.949951 -972.055786
v -581.370850 447.950012 -972.055786
v -381.370880 350.000000 -999.999878
v -581.370972 350.000000 -999.999878
v -749.999878 447.950012 -999.999878
v -381.370880 700.000000 -999.999878
v -749.999878 647.949951 -999.999878
v -581.370850 700.000000 -999.999878
v -750.000000 700.000000 -999.999878
v -581.370972 350.000000 -972.055786
v -381.370880 350.000000 -972.055786
v 581.371094 797.949951 -999.999939
v 581.371094 997.949951 -999.999939
v 581.371094 797.949951 -972.055847
v 581.371094 997.949951 -972.055847
v 381.371124 997.949951 -999.999939
v 381.371124 797.949951 -999.999939
v 381.371124 997.949951 -972.055847
v 381.371124 797.949951 -972.055847
v 750.000000 797.949951 -999.999939
v 750.000122 997.949951 -999.999939
v 750.000061 1050.000000 -999.999939
v 581.371094 1050.000000 -999.999939
v 381.371094 1050.000000 -999.999939
v 581.371094 1050.000000 -972.055847
v 381.371124 1050.000000 -972.055847
v 100.000031 797.949951 -999.999939
v 100.000031 997.949951 -999.999939
v 100.000031 797.949951 -972.055847
v 100.000031 997.949951 -972.055847
v -99.999939 997.949951 -999.999939
v -99.999939 797.949951 -999.999939
v -99.999939 997.949951 -972.055847
v -99.999939 797.949951 -972.055847
v 100.000031 1050.000000 -999.999939
v -99.999969 1050.000000 -999.999939
v 100.000061 1050.000000 -972.055847
v -99.999939 1050.000000 -972.055847
v -381.370880 797.949890 -999.999878
v -381.370880 997.949890 -999.999878
v -381.370880 797.949890 -972.055786
v -381.370880 997.949890 -972.055786
v -581.370850 997.949890 -999.999878
v -581.370850 797.949890 -999.999878
v -581.370850 997.949890 -972.055786
v -581.370850 797.949890 -972.055786
v -750.000000 797.949890 -999.999878
v -381.370880 1050.000000 -999.999878
v -749.999878 997.949890 -999.999878
v -581.370850 1050.000000 -999.999878
v -749.999878 1050.000000 -999.999878
v -381.370880 1050.000000 -972.055786
v -581.370850 1050.000000 -972.055786
v -750.000000 97.950035 -829.041748
v -750.000000 297.950043 -829.041748
v -722.055908 97.950035 -829.041748
v -722.055908 297.950043 -829.041748
v -750.000000 297.950043 -629.041809
v -750.000000 97.950035 -629.041809
v -722.055908 297.950043 -629.041809
v -722.055908 97.950035 -629.041809
v -750.000000 0.000046 -629.041809
v -750.000000 0.000046 -829.041748
v -749.999878 97.950035 -999.999878
v -749.999878 297.950043 -999.999878
v -750.000000 350.000000 -829.041748
v -750.000000 350.000000 -629.041809
v -750.000000 447.950012 -829.041748
v -750.000000 447.950012 -629.041809
v -750.000000 647.949951 -829.041748
v -750.000000 700.000000 -829.041748
v -750.000000 647.949951 -629.041809
v -750.000000 700.000000 -629.041809
v -750.000000 97.950035 -343.013855
v -750.000000 297.950043 -343.013855
v -722.055908 97.950035 -343.013855
v -722.055908 297.950043 -343.013855
v -750.000000 297.950043 -143.013885
v -750.000000 97.950035 -143.013885
v -722.055908 297.950043 -143.013885
v -722.055908 97.950035 -143.013885
v -750.000000 0.000046 -143.013885
v -750.000000 0.000046 -343.013855
v -750.000000 350.000000 -343.013855
v -750.000000 350.000000 -143.013885
v -750.000000 447.950012 -343.013855
v -750.000000 447.950012 -143.013885
v -750.000000 647.949951 -343.013855
v -750.000000 700.000000 -343.013855
v -750.000000 647.949951 -143.013885
v -750.000000 700.000000 -143.013885
v -750.000000 97.950035 143.014069
v -750.000000 297.950043 143.014069
v -722.055908 97.950035 143.014069
v -722.055908 297.950043 143.014069
v -750.000000 297.950043 343.013977
v -750.000000 97.950035 343.013977
v -722.055908 297.950043 343.013977
v -722.055908 97.950035 343.013977
v -750.000000 0.000046 343.013977
v -750.000000 0.000046 143.014069
v -750.000000 350.000000 143.014069
v -750.000000 350.000000 343.013977
v -750.000000 447.950012 143.014069
v -750.000000 447.950012 343.013977
v -750.000000 647.949951 143.014069
v -750.000000 700.000000 143.014069
v -750.000000 647.949951 343.013977
v -750.000000 700.000000 343.013977
v -750.000000 97.950035 629.042114
v -750.000000 297.950043 629.042114
v -722.055908 97.950035 629.042114
v -722.055908 297.950043 629.042114
v -750.000000 297.950043 829.041931
v -750.000000 97.950035 829.041931
v -722.055908 297.950043 829.041931
v -722.055908 97.950035 829.041931
v -750.000000 0.000046 629.042114
v -750.000000 0.000046 829.041931
v -750.000000 0.000046 999.999817
v -750.000000 97.950035 999.999817
v -750.000000 297.950043 999.999817
v -750.000000 350.000000 629.042114
v -750.000000 350.000000 829.041931
v -750.000000 350.000000 999.999817
v -750.000000 447.950012 629.042114
v -750.000000 447.950012 829.041931
v -750.000000 447.950012 999.999817
v -750.000000 647.949951 629.042114
v -750.000000 700.000000 629.042114
v -750.000000 647.949951 829.041931
v -750.000000 647.949951 999.999817
v -750.000000 700.000000 829.041931
v -750.000000 700.000000 999.999817
v -722.055908 447.950012 -829.041748
v -722.055908 647.949951 -829.041748
v -722.055908 647.949951 -629.041809
v -722.055908 447.950012 -629.041809
v -722.055908 447.950012 -343.013855
v -722.055908 647.949951 -343.013855
v -722.055908 647.949951 -143.013885
v -722.055908 447.950012 -143.013885
v -722.055908 447.950012 143.014069
v -722.055908 647.949951 143.014069
v -722.055908 647.949951 343.013977
v -722.055908 447.950012 343.013977
v -722.055908 447.950012 629.042114
v -722.055908 647.949951 629.042114
v -722.055908 647.949951 829.041931
v -722.055908 447.950012 829.041931
v -750.000000 797.949890 -829.041748
v -750.000000 997.949890 -829.041748
v -722.055908 797.949890 -829.041748
v -722.056030 997.949890 -829.041748
v -749.999878 997.949890 -629.041809
v -750.000000 797.949890 -629.041809
v -722.055908 997.949890 -629.041809
v -722.055908 797.949890 -629.041809
v -750.000000 1050.000000 -829.041748
v -750.000000 1050.000000 -629.041809
v -750.000000 797.949890 -343.013855
v -749.999878 997.949890 -343.013855
v -722.055908 797.949890 -343.013855
v -722.055908 997.949890 -343.013855
v -749.999878 997.949890 -143.013885
v -750.000000 797.949890 -143.013885
v -722.055908 997.949890 -143.013885
v -722.055908 797.949890 -143.013885
v -749.999878 1050.000000 -343.013855
v -749.999878 1050.000000 -143.013885
v -750.000000 797.949890 143.014069
v -749.999878 997.949890 143.014069
v -722.055908 797.949890 143.014069
v -722.055908 997.949890 143.014069
v -749.999878 997.949890 343.013977
v -750.000000 797.949890 343.013977
v -722.055908 997.949890 343.013977
v -722.055908 797.949890 343.013977
v -749.999878 1050.000000 143.014069
v -749.999878 1050.000000 343.013977
v -750.000000 797.949890 629.042114
v -749.999878 997.949890 629.042114
v -722.055908 797.949890 629.042114
v -722.055908 997.949890 629.042114
v -749.999878 997.949890 829.041931
v -750.000000 797.949890 829.041931
v -722.055908 997.949890 829.041931
v -722.055908 797.949890 829.041931
v -750.000000 797.949890 999.999817
v -749.999878 1050.000000 629.042114
v -750.000000 997.949890 999.999817
v -749.999878 1050.000000 829.041931
v -750.000000 1050.000000 999.999817
v -511.027863 0.000031 999.999817
v -511.027863 300.000000 999.999817
v -511.027863 0.000031 990.000061
v -511.027863 300.000000 990.000061
v -211.027863 300.000000 999.999817
v -211.027863 0.000015 999.999817
v -211.027863 300.000000 990.000061
v -211.027863 0.000015 990.000061
v -750.000000 300.000031 999.999817
v -511.027863 350.000000 999.999817
v -211.027863 350.000000 999.999817
v -511.027863 350.000000 972.055969
v -211.027863 350.000000 972.055969
v 211.028000 0.000046 999.999817
v 211.028000 300.000031 999.999817
v 211.028000 0.000046 990.000061
v 211.028000 300.000031 990.000061
v 511.028076 300.000031 999.999817
v 511.028076 0.000031 999.999817
v 511.028076 300.000031 990.000061
v 511.028076 0.000031 990.000061
v 211.028000 350.000031 999.999817
v 511.028076 350.000000 999.999817
v 749.999939 300.000000 999.999817
v 749.999939 350.000000 999.999817
v 750.000000 0.000031 999.999817
v 211.028000 350.000031 972.055969
v 511.028076 350.000000 972.055969
v -581.370850 447.950012 999.999817
v -581.370850 647.949951 999.999817
v -581.370850 447.950012 972.055969
v -581.370850 647.949951 972.055969
v -381.370941 647.949951 999.999817
v -381.370880 447.949982 999.999817
v -381.370941 647.949951 972.055969
v -381.370880 447.949982 972.055969
v -381.370941 350.000000 999.999817
v -581.370850 350.000000 999.999817
v -581.370850 700.000000 999.999817
v -381.370941 700.000000 999.999817
v -581.370850 350.000000 972.055969
v -381.370941 350.000000 972.055969
v -99.999969 447.950012 999.999817
v -99.999969 647.949951 999.999817
v -99.999969 447.950012 972.055969
v -99.999969 647.949951 972.055969
v 100.000061 647.950012 999.999817
v 100.000061 447.950012 999.999817
v 100.000061 647.950012 972.055969
v 100.000061 447.950012 972.055969
v 100.000061 350.000000 999.999817
v -99.999969 350.000000 999.999817
v -99.999969 700.000000 999.999817
v 100.000061 700.000000 999.999817
v 100.000061 350.000000 972.055969
v -99.999969 350.000000 972.055969
v 381.371155 447.950012 999.999817
v 381.371124 647.950012 999.999817
v 381.371155 447.950012 972.055969
v 381.371124 647.950012 972.055969
v 581.371094 647.949951 999.999817
v 581.371094 447.949982 999.999817
v 581.371094 647.949951 972.055969
v 581.371094 447.949982 972.055969
v 381.371124 350.000031 999.999817
v 581.371094 350.000000 999.999817
v 749.999939 447.949982 999.999817
v 381.371124 700.000000 999.999817
v 749.999939 647.949951 999.999817
v 581.371094 700.000000 999.999817
v 749.999939 700.000061 999.999817
v 581.371094 350.000000 972.055969
v 381.371094 350.000031 972.055969
v -581.370850 797.949890 999.999817
v -581.370850 997.949890 999.999817
v -581.370850 797.949890 972.055969
v -581.370850 997.949890 972.055969
v -381.370941 997.949890 999.999817
v -381.370941 797.949890 999.999817
v -381.370941 997.949890 972.055969
v -381.370941 797.949890 972.055969
v -581.370850 1050.000000 999.999817
v -381.370941 1050.000000 999.999817
v -581.370850 1050.000000 972.055969
v -381.370941 1050.000000 972.055969
v -99.999908 797.949951 999.999817
v -99.999939 997.949951 999.999817
v -99.999908 797.949951 972.055969
v -99.999939 997.949951 972.055969
v 100.000031 997.949951 999.999817
v 100.000061 797.949951 999.999817
v 100.000031 997.949951 972.055969
v 100.000061 797.949951 972.055969
v -99.999939 1050.000000 999.999817
v 100.000031 1050.000000 999.999817
v -99.999939 1050.000000 972.055969
v 100.000031 1050.000000 972.055969
v 381.371124 797.949951 999.999817
v 381.371124 997.949951 999.999817
v 381.371124 797.949951 972.055969
v 381.371124 997.949951 972.055969
v 581.371094 997.949951 999.999817
v 581.371094 797.949951 999.999817
v 581.371094 997.949951 972.055969
v 581.371094 797.949951 972.055969
v 749.999939 797.949951 999.999817
v 381.371124 1050.000000 999.999817
v 750.000000 997.949951 999.999817
v 581.371094 1050.000000 999.999817
v 750.000000 1050.000000 999.999817
v 381.371124 1050.000000 972.055969
v 581.371094 1050.000000 972.055969
v 750.000000 97.950035 829.041748
v 750.000000 297.950012 829.041748
v 722.055908 97.950035 829.041748
v 722.055908 297.950012 829.041748
v 750.000000 297.950012 629.041931
v 750.000000 97.950035 629.041931
v 722.055908 297.950012 629.041931
v 722.055908 97.950035 629.041931
v 750.000000 0.000031 629.041931
v 750.000061 0.000031 829.041748
v 750.000000 97.950035 999.999817
v 749.999939 297.950012 999.999817
v 750.000000 350.000000 829.041748
v 750.000000 350.000000 629.041931
v 750.000000 447.949982 829.041748
v 750.000000 447.949982 629.041931
v 750.000000 647.949951 829.041748
v 750.000000 700.000061 829.041748
v 750.000000 647.949951 629.041931
v 750.000000 700.000061 629.041931
v 750.000000 97.950035 343.013824
v 750.000000 297.950012 343.013824
v 722.055908 97.950035 343.013824
v 722.055908 297.950012 343.013824
v 750.000000 297.950012 143.013855
v 750.000000 97.950035 143.013855
v 722.055908 297.950012 143.013855
v 722.055908 97.950035 143.013855
v 750.000000 0.000031 143.013855
v 750.000000 0.000031 343.013824
v 750.000000 350.000000 343.013824
v 750.000000 350.000000 143.013855
v 750.000000 447.949982 343.013824
v 750.000000 447.949982 143.013855
v 750.000000 647.949951 343.013824
v 750.000000 700.000061 343.013824
v 750.000000 647.949951 143.013855
v 750.000000 700.000061 143.013855
v 750.000000 97.950035 -143.014099
v 750.000000 297.950012 -143.014099
v 722.055908 97.950035 -143.014099
v 722.055908 297.950012 -143.014099
v 750.000000 297.950012 -343.014008
v 750.000000 97.950035 -343.014008
v 722.055908 297.950012 -343.014008
v 722.055908 97.950035 -343.014008
v 750.000000 0.000031 -343.014008
v 750.000000 0.000031 -143.014099
v 750.000000 350.000000 -143.014099
v 750.000000 350.000000 -343.014008
v 750.000000 447.949982 -143.014099
v 750.000000 447.949982 -343.014008
v 750.000000 647.949951 -143.014099
v 750.000000 700.000061 -143.014099
v 750.000000 647.949951 -343.014008
v 750.000000 700.000061 -343.014008
v 750.000000 97.950035 -629.041992
v 750.000000 297.950012 -629.041992
v 722.055908 97.950035 -629.041992
v 722.055908 297.950012 -629.041992
v 750.000000 297.950012 -829.041992
v 750.000000 97.950035 -829.041992
v 722.055908 297.950012 -829.041992
v 722.055908 97.950035 -829.041992
v 750.000000 0.000031 -629.041992
v 750.000000 0.000031 -829.041992
v 750.000000 97.950035 -999.999939
v 750.000000 297.950012 -999.999939
v 750.000000 350.000000 -629.041992
v 750.000000 350.000000 -829.041992
v 750.000000 447.949982 -629.041992
v 750.000000 447.949982 -829.041992
v 750.000000 647.949951 -629.041992
v 749.999939 700.000061 -629.041992
v 749.999939 647.949951 -829.041992
v 749.999939 700.000061 -829.041992
v 722.055908 447.949982 829.041748
v 722.055908 647.949951 829.041748
v 722.055908 647.949951 629.041931
v 722.055908 447.949982 629.041931
v 722.055908 447.949982 343.013824
v 722.055908 647.949951 343.013824
v 722.055908 647.949951 143.013855
v 722.055908 447.949982 143.013855
v 722.055908 447.949982 -143.014099
v 722.055908 647.949951 -143.014099
v 722.055908 647.949951 -343.014008
v 722.055908 447.949982 -343.014008
v 722.055908 447.949982 -629.041992
v 722.055908 647.949951 -629.041992
v 722.055847 647.949951 -829.041992
v 722.055908 447.949982 -829.041992
v 750.000000 797.949951 829.041748
v 750.000061 997.949951 829.041748
v 722.055908 797.949951 829.041748
v 722.056030 997.949951 829.041748
v 750.000061 997.949951 629.041931
v 750.000000 797.949951 629.041931
v 722.056030 997.949951 629.041931
v 722.055908 797.949951 629.041931
v 750.000061 1050.000000 829.041748
v 750.000061 1050.000000 629.041931
v 750.000000 797.949951 343.013824
v 750.000000 997.949951 343.013824
v 722.055908 797.949951 343.013824
v 722.055969 997.949951 343.013824
v 750.000000 997.949951 143.013855
v 750.000000 797.949951 143.013855
v 722.055969 997.949951 143.013855
v 722.055908 797.949951 143.013855
v 750.000000 1050.000000 343.013824
v 750.000000 1050.000000 143.013855
v 750.000000 797.949951 -143.014099
v 750.000000 997.949951 -143.014099
v 722.055908 797.949951 -143.014099
v 722.055969 997.949951 -143.014099
v 750.000000 997.949951 -343.014008
v 750.000000 797.949951 -343.014008
v 722.055908 997.949951 -343.014008
v 722.055908 797.949951 -343.014008
v 750.000000 1050.000000 -143.014099
v 750.000000 1050.000000 -343.014008
v 749.999939 797.949951 -629.041992
v 750.000000 997.949951 -629.041992
v 722.055847 797.949951 -629.041992
v 722.055908 997.949951 -629.041992
v 750.000000 997.949951 -829.041992
v 749.999939 797.949951 -829.041992
v 722.055908 997.949951 -829.041992
v 722.055847 797.949951 -829.041992
v 750.000000 1050.000000 -629.041992
v 750.000000 1050.000000 -829.041992
v -727.913940 1050.000000 -977.913452
v -727.913940 1100.000000 -977.913452
v 727.914124 1050.000000 -977.913513
v 727.914124 1100.000000 -977.913513
v -774.900879 1100.000000 -1024.900879
v 774.900879 1100.000000 -1024.900879
v 774.900879 1050.000000 -1024.900879
v -774.900879 1050.000000 -1024.900879
v -727.913940 1050.000000 977.913635
v -727.913940 1100.000000 977.913635
v -774.900879 1100.000000 1024.900879
v -774.900879 1050.000000 1024.900879
v 727.914062 1050.000000 977.913635
v 727.914062 1100.000000 977.913635
v 774.900879 1100.000000 1024.900879
v 774.900879 1050.000000 1024.900879
vt 1.830003 0.000000
vt 1.765616 0.000000
vt 1.830003 1.330856
vt 1.765616 1.330856
vt 2.635151 0.000000
vt 2.495431 0.000000
vt 2.635151 1.330856
vt 2.495431 1.330856
vt 1.830003 0.000000
vt 2.495431 0.000000
vt 1.830003 -0.064387
vt 2.495431 -0.064387
vt 1.177855 0.000000
vt 1.177855 1.330856
vt 1.177855 1.750000
vt 1.830003 1.750000
vt 2.495431 1.330856
vt 2.495431 1.750000
vt 3.007859 1.330856
vt 3.007859 1.750000
vt 3.007859 0.000000
vt 2.495431 0.000000
vt 1.830003 0.000000
vt 2.495431 0.000000
vt 1.830003 -0.139720
vt 2.495431 -0.139720
vt 3.007859 0.000000
vt 3.007859 -0.139720
vt 1.177855 0.000000
vt 1.038135 0.000000
vt 1.177855 1.330856
vt 1.038135 1.330856
vt 1.177855 0.000000
vt 1.038135 0.000000
vt 1.177855 0.419144
vt 1.038135 0.419144
vt 2.252711 0.333500
vt 2.200661 0.333500
vt 2.252711 1.583500
vt 2.200661 1.583500
vt 3.392431 0.333500
vt 3.252711 0.333500
vt 3.392431 1.583500
vt 3.252711 1.583500
vt 2.252711 0.000000
vt 3.252711 0.000000
vt 2.252711 -0.052049
vt 3.252711 -0.052049
vt 2.252711 0.000000
vt 3.252711 0.000000
vt 2.252711 -0.052049
vt 3.252711 -0.052049
vt 2.215283 0.000000
vt 2.252711 0.000000
vt 2.215283 0.333500
vt 3.252711 0.000000
vt 2.215283 1.583500
vt 3.252711 0.333500
vt 3.290138 0.000000
vt 3.290138 0.333500
vt 2.215283 1.750000
vt 2.252711 1.750000
vt 3.252711 1.583500
vt 3.290138 1.583500
vt 3.252711 1.750000
vt 3.290138 1.750000
vt 2.215283 0.000000
vt 2.252711 0.000000
vt 2.215283 -0.139720
vt 2.252711 -0.139720
vt 3.252711 0.000000
vt 3.252711 -0.139720
vt 3.290138 0.000000
vt 3.290138 -0.139720
vt 2.215283 0.333500
vt 2.075563 0.333500
vt 2.215283 1.583500
vt 2.075563 1.583500
vt 2.215283 0.000000
vt 2.075563 0.000000
vt 2.215283 0.333500
vt 2.075563 0.333500
vt 2.075563 0.000000
vt 2.215283 0.166500
vt 2.075563 0.166500
vt 2.215283 0.333500
vt 2.075563 0.333500
vt 2.215283 1.583500
vt 2.075563 1.583500
vt 2.215283 0.000000
vt 2.075563 0.000000
vt 2.215283 0.333500
vt 2.075563 0.333500
vt 2.215283 0.000000
vt 2.075563 0.000000
vt 2.215283 0.166500
vt 2.075563 0.166500
vt 3.905566 0.000000
vt 3.841179 0.000000
vt 3.905566 1.330856
vt 3.841179 1.330856
vt 4.710714 0.000000
vt 4.570994 0.000000
vt 4.710714 1.330856
vt 4.570994 1.330856
vt 3.905566 0.000000
vt 4.570994 0.000000
vt 3.905566 -0.064387
vt 4.570994 -0.064387
vt 3.393139 0.000000
vt 3.393139 1.330856
vt 3.393139 1.750000
vt 3.905566 1.750000
vt 4.570994 1.330856
vt 4.570994 1.750000
vt 5.083422 1.330856
vt 5.083422 1.750000
vt 5.083422 0.000000
vt 4.570994 0.000000
vt 3.393139 0.000000
vt 3.905566 0.000000
vt 3.393139 -0.139720
vt 3.905566 -0.139720
vt 4.570994 0.000000
vt 4.570994 -0.139720
vt 5.083422 0.000000
vt 5.083422 -0.139720
vt 3.393139 0.000000
vt 3.253418 0.000000
vt 3.393139 1.330856
vt 3.253418 1.330856
vt 3.253418 0.000000
vt 3.393139 0.419144
vt 3.253418 0.419144
vt 3.393139 0.000000
vt 3.253418 0.000000
vt 3.393139 1.330856
vt 3.253418 1.330856
vt 3.393139 0.000000
vt 3.253418 0.000000
vt 3.393139 0.419144
vt 3.253418 0.419144
vt 4.467994 0.333500
vt 4.415945 0.333500
vt 4.467994 1.583500
vt 4.415945 1.583500
vt 5.607714 0.333500
vt 5.467994 0.333500
vt 5.607714 1.583500
vt 5.467994 1.583500
vt 4.467994 0.000000
vt 5.467994 0.000000
vt 4.467994 -0.052049
vt 5.467994 -0.052049
vt 4.467994 0.000000
vt 5.467994 0.000000
vt 4.467994 -0.052049
vt 5.467994 -0.052049
vt 4.430566 0.000000
vt 4.467994 0.000000
vt 4.430566 0.333500
vt 5.467994 0.000000
vt 4.430566 1.583500
vt 5.467994 0.333500
vt 5.505421 0.000000
vt 5.505421 0.333500
vt 4.430566 1.750000
vt 4.467994 1.750000
vt 5.467994 1.583500
vt 5.505421 1.583500
vt 5.467994 1.750000
vt 5.505421 1.750000
vt 4.430566 0.000000
vt 4.467994 0.000000
vt 4.430566 -0.139720
vt 4.467994 -0.139720
vt 5.467994 0.000000
vt 5.467994 -0.139720
vt 5.505421 0.000000
vt 5.505421 -0.139720
vt 4.430566 0.333500
vt 4.290846 0.333500
vt 4.430566 1.583500
vt 4.290846 1.583500
vt 4.430566 0.000000
vt 4.290846 0.000000
vt 4.430566 0.333500
vt 4.290846 0.333500
vt 4.290846 0.000000
vt 4.430566 0.166500
vt 4.290846 0.166500
vt 4.430566 0.333500
vt 4.290846 0.333500
vt 4.430566 1.583500
vt 4.290846 1.583500
vt 4.430566 0.000000
vt 4.290846 0.000000
vt 4.430566 0.333500
vt 4.290846 0.333500
vt 4.430566 0.000000
vt 4.290846 0.000000
vt 4.430566 0.166500
vt 4.290846 0.166500
vt 6.260570 0.000000
vt 6.196183 0.000000
vt 6.260570 1.330856
vt 6.196183 1.330856
vt 7.065718 0.000000
vt 6.925998 0.000000
vt 7.065718 1.330856
vt 6.925998 1.330856
vt 6.260570 0.000000
vt 6.925998 0.000000
vt 6.260570 -0.064387
vt 6.925998 -0.064387
vt 5.748142 0.000000
vt 5.748142 1.330856
vt 5.748142 1.750000
vt 6.260570 1.750000
vt 6.925997 1.330856
vt 6.925998 1.750000
vt 7.578145 1.330856
vt 7.578145 1.750000
vt 7.578145 0.000000
vt 6.925997 0.000000
vt 6.925998 0.000000
vt 6.925998 -0.139720
vt 6.260570 -0.139720
vt 6.260570 0.000000
vt 5.748142 -0.139720
vt 5.748142 0.000000
vt 5.748142 0.000000
vt 5.608422 0.000000
vt 5.748142 1.330856
vt 5.608422 1.330856
vt 5.608422 0.000000
vt 5.748142 0.419144
vt 5.608422 0.419144
vt 1.843147 2.239750
vt 1.703427 2.239750
vt 1.843147 3.239750
vt 1.703427 3.239750
vt 2.982867 2.239750
vt 2.843147 2.239750
vt 2.982867 3.239750
vt 2.843147 3.239750
vt 1.843147 1.750000
vt 2.843147 1.750000
vt 1.843147 1.610280
vt 2.843147 1.610280
vt 1.843147 1.750000
vt 2.843147 1.750000
vt 1.843147 1.610280
vt 2.843147 1.610280
vt 2.843147 1.750000
vt 2.843147 2.239750
vt 1.843147 1.750000
vt 1.000000 2.239750
vt 1.000000 1.750000
vt 1.000000 3.239750
vt 1.000000 3.500000
vt 1.843147 3.500000
vt 2.843147 3.239750
vt 2.843147 3.500000
vt 1.843147 1.750000
vt 2.843147 1.750000
vt 1.843147 1.610280
vt 2.843147 1.610280
vt 3.406853 2.239750
vt 3.267133 2.239750
vt 3.406853 3.239750
vt 3.267133 3.239750
vt 4.546574 2.239750
vt 4.406854 2.239750
vt 4.546574 3.239750
vt 4.406854 3.239750
vt 3.406853 1.750000
vt 4.406853 1.750000
vt 3.406853 1.610280
vt 4.406853 1.610280
vt 3.406853 1.750000
vt 4.406853 1.750000
vt 3.406853 1.610280
vt 4.406853 1.610280
vt 4.406853 1.750000
vt 4.406853 2.239750
vt 3.406853 1.750000
vt 2.000000 2.239750
vt 2.000000 1.750000
vt 2.000000 3.239750
vt 2.000000 3.500000
vt 3.406853 3.500000
vt 4.406853 3.239750
vt 4.406853 3.500000
vt 4.406853 1.750000
vt 4.406853 1.610280
vt 3.406853 1.610280
vt 3.406853 1.750000
vt 2.000000 1.610280
vt 2.000000 1.750000
vt 4.406853 2.239750
vt 4.267133 2.239750
vt 4.406853 3.239750
vt 4.267133 3.239750
vt 5.546574 2.239750
vt 5.406854 2.239750
vt 5.546574 3.239750
vt 5.406854 3.239750
vt 4.406853 1.750000
vt 5.406853 1.750000
vt 4.406853 1.610280
vt 5.406853 1.610280
vt 4.406853 1.750000
vt 5.406853 1.750000
vt 4.406853 1.610280
vt 5.406853 1.610280
vt 3.000000 1.750000
vt 4.406853 1.750000
vt 3.000000 2.239750
vt 5.406853 1.750000
vt 3.000000 3.239750
vt 5.406853 2.239750
vt 6.250000 1.750000
vt 6.250000 2.239750
vt 3.000000 3.500000
vt 4.406853 3.500000
vt 5.406853 3.239750
vt 6.250000 3.239750
vt 5.406853 3.500000
vt 6.250000 3.500000
vt 5.406853 1.750000
vt 5.406853 1.610280
vt 4.406853 1.610280
vt 4.406853 1.750000
vt 3.000000 1.610280
vt 3.000000 1.750000
vt 1.843147 5.739750
vt 1.703427 5.739750
vt 1.843147 6.739750
vt 1.703427 6.739750
vt 2.982867 5.739750
vt 2.843147 5.739750
vt 2.982867 6.739750
vt 2.843147 6.739750
vt 1.843147 5.250000
vt 2.843147 5.250000
vt 1.843147 5.110280
vt 2.843147 5.110280
vt 1.843147 5.250000
vt 2.843147 5.250000
vt 1.843147 5.110280
vt 2.843147 5.110280
vt 2.843147 5.250000
vt 2.843147 5.739750
vt 1.843147 5.250000
vt 1.000000 5.739750
vt 1.000000 5.250000
vt 1.000000 6.739750
vt 1.000000 7.000000
vt 1.843147 7.000000
vt 2.843147 6.739750
vt 2.843147 7.000000
vt 1.843147 5.250000
vt 2.843147 5.250000
vt 1.843147 5.110280
vt 2.843147 5.110280
vt 3.406853 5.739750
vt 3.267133 5.739750
vt 3.406853 6.739750
vt 3.267133 6.739750
vt 4.546574 5.739750
vt 4.406854 5.739750
vt 4.546574 6.739750
vt 4.406854 6.739750
vt 3.406853 5.250000
vt 4.406853 5.250000
vt 3.406853 5.110280
vt 4.406853 5.110280
vt 3.406853 5.250000
vt 4.406853 5.250000
vt 3.406853 5.110280
vt 4.406853 5.110280
vt 4.406853 5.250000
vt 4.406853 5.739750
vt 3.406853 5.250000
vt 2.000000 5.739750
vt 2.000000 5.250000
vt 2.000000 6.739750
vt 2.000000 7.000000
vt 3.406853 7.000000
vt 4.406853 6.739750
vt 4.406853 7.000000
vt 4.406853 5.250000
vt 4.406853 5.110280
vt 3.406853 5.110280
vt 3.406853 5.250000
vt 2.000000 5.110280
vt 2.000000 5.250000
vt 4.406853 5.739750
vt 4.267133 5.739750
vt 4.406853 6.739750
vt 4.267133 6.739750
vt 5.546574 5.739750
vt 5.406854 5.739750
vt 5.546574 6.739750
vt 5.406854 6.739750
vt 4.406853 5.250000
vt 5.406853 5.250000
vt 4.406853 5.110280
vt 5.406853 5.110280
vt 4.406853 5.250000
vt 5.406853 5.250000
vt 4.406853 5.110280
vt 5.406853 5.110280
vt 3.000000 5.250000
vt 4.406853 5.250000
vt 3.000000 5.739750
vt 5.406853 5.250000
vt 3.000000 6.739750
vt 5.406853 5.739750
vt 6.250000 5.250000
vt 6.250000 5.739750
vt 3.000000 7.000000
vt 4.406853 7.000000
vt 5.406853 6.739750
vt 6.250000 6.739750
vt 5.406853 7.000000
vt 6.250000 7.000000
vt 5.406853 5.250000
vt 5.406853 5.110280
vt 4.406853 5.110280
vt 4.406853 5.250000
vt 3.000000 5.110280
vt 3.000000 5.250000
vt 1.854790 0.489750
vt 1.715070 0.489750
vt 1.854790 1.489750
vt 1.715070 1.489750
vt 2.994510 0.489750
vt 2.854790 0.489750
vt 2.994510 1.489750
vt 2.854790 1.489750
vt 1.854790 0.000000
vt 2.854790 0.000000
vt 1.854790 -0.139720
vt 2.854790 -0.139720
vt 1.854790 0.000000
vt 2.854790 0.000000
vt 1.854790 -0.139720
vt 2.854790 -0.139720
vt 2.854790 0.000000
vt 2.854790 0.489750
vt 1.854790 0.000000
vt 1.000000 0.489750
vt 1.000000 0.000000
vt 1.000000 1.489750
vt 1.000000 1.750000
vt 1.854790 1.750000
vt 2.854790 1.489750
vt 1.000000 2.239750
vt 2.854790 1.750000
vt 1.854790 2.239750
vt 2.854790 2.239750
vt 1.000000 3.239750
vt 1.854790 3.239750
vt 1.000000 3.500000
vt 1.854790 3.500000
vt 2.854790 3.239750
vt 2.854790 3.500000
vt 3.430140 0.489750
vt 3.290420 0.489750
vt 3.430140 1.489750
vt 3.290420 1.489750
vt 4.569860 0.489750
vt 4.430140 0.489750
vt 4.569860 1.489750
vt 4.430140 1.489750
vt 3.430140 0.000000
vt 4.430140 0.000000
vt 3.430140 -0.139720
vt 4.430140 -0.139720
vt 3.430140 0.000000
vt 4.430140 0.000000
vt 3.430140 -0.139720
vt 4.430140 -0.139720
vt 4.430140 0.000000
vt 4.430140 0.489750
vt 3.430140 0.000000
vt 2.000000 0.489750
vt 2.000000 0.000000
vt 2.000000 1.489750
vt 2.000000 1.750000
vt 3.430140 1.750000
vt 4.430140 1.489750
vt 2.000000 2.239750
vt 4.430140 1.750000
vt 3.430140 2.239750
vt 4.430140 2.239750
vt 2.000000 3.239750
vt 3.430140 3.239750
vt 2.000000 3.500000
vt 3.430140 3.500000
vt 4.430140 3.239750
vt 4.430140 3.500000
vt 4.430140 0.489750
vt 4.290420 0.489750
vt 4.430140 1.489750
vt 4.290420 1.489750
vt 5.569860 0.489750
vt 5.430140 0.489750
vt 5.569860 1.489750
vt 5.430140 1.489750
vt 4.430140 0.000000
vt 5.430140 0.000000
vt 4.430140 -0.139720
vt 5.430140 -0.139720
vt 4.430140 0.000000
vt 5.430140 0.000000
vt 4.430140 -0.139720
vt 5.430140 -0.139720
vt 5.430140 0.000000
vt 5.430140 0.489750
vt 4.430140 0.000000
vt 3.000000 0.489750
vt 3.000000 0.000000
vt 3.000000 1.489750
vt 3.000000 1.750000
vt 4.430140 1.750000
vt 5.430140 1.489750
vt 3.000000 2.239750
vt 5.430140 1.750000
vt 4.430140 2.239750
vt 5.430140 2.239750
vt 3.000000 3.239750
vt 4.430140 3.239750
vt 3.000000 3.500000
vt 4.430140 3.500000
vt 5.430140 3.239750
vt 5.430140 3.500000
vt 5.430140 0.489750
vt 5.290420 0.489750
vt 5.430140 1.489750
vt 5.290420 1.489750
vt 6.569860 0.489750
vt 6.430140 0.489750
vt 6.569860 1.489750
vt 6.430140 1.489750
vt 5.430140 0.000000
vt 6.430140 0.000000
vt 5.430140 -0.139720
vt 6.430140 -0.139720
vt 5.430140 0.000000
vt 6.430140 0.000000
vt 5.430140 -0.139720
vt 6.430140 -0.139720
vt 4.000000 0.000000
vt 5.430140 0.000000
vt 4.000000 0.489750
vt 6.430140 0.000000
vt 4.000000 1.489750
vt 6.430140 0.489750
vt 7.284930 0.000000
vt 7.284930 0.489750
vt 6.430140 1.489750
vt 4.000000 1.750000
vt 7.284930 1.489750
vt 5.430140 1.750000
vt 4.000000 2.239750
vt 6.430140 1.750000
vt 7.284930 1.750000
vt 5.430140 2.239750
vt 4.000000 3.239750
vt 6.430140 2.239750
vt 7.284930 2.239750
vt 5.430140 3.239750
vt 4.000000 3.500000
vt 5.430140 3.500000
vt 6.430140 3.239750
vt 7.284930 3.239750
vt 6.430140 3.500000
vt 7.284930 3.500000
vt 1.715070 2.239750
vt 1.715070 3.239750
vt 2.994510 2.239750
vt 2.854790 2.239750
vt 2.994510 3.239750
vt 2.854790 3.239750
vt 1.854790 1.750000
vt 2.854790 1.750000
vt 1.854790 1.610280
vt 2.854790 1.610280
vt 1.854790 1.750000
vt 2.854790 1.750000
vt 1.854790 1.610280
vt 2.854790 1.610280
vt 3.290420 2.239750
vt 3.290420 3.239750
vt 4.569860 2.239750
vt 4.430140 2.239750
vt 4.569860 3.239750
vt 4.430140 3.239750
vt 3.430140 1.750000
vt 4.430140 1.750000
vt 3.430140 1.610280
vt 4.430140 1.610280
vt 3.430140 1.750000
vt 4.430140 1.750000
vt 3.430140 1.610280
vt 4.430140 1.610280
vt 4.290420 2.239750
vt 4.290420 3.239750
vt 5.569860 2.239750
vt 5.430140 2.239750
vt 5.569860 3.239750
vt 5.430140 3.239750
vt 4.430140 1.750000
vt 5.430140 1.750000
vt 4.430140 1.610280
vt 5.430140 1.610280
vt 4.430140 1.750000
vt 5.430140 1.750000
vt 4.430140 1.610280
vt 5.430140 1.610280
vt 5.290420 2.239750
vt 5.290420 3.239750
vt 6.569860 2.239750
vt 6.430140 2.239750
vt 6.569860 3.239750
vt 6.430140 3.239750
vt 5.430140 1.750000
vt 6.430140 1.750000
vt 5.430140 1.610280
vt 6.430140 1.610280
vt 5.430140 1.750000
vt 6.430140 1.750000
vt 5.430140 1.610280
vt 6.430140 1.610280
vt 1.854790 5.739750
vt 1.715070 5.739750
vt 1.854790 6.739750
vt 1.715070 6.739750
vt 2.994510 5.739750
vt 2.854790 5.739750
vt 2.994510 6.739750
vt 2.854790 6.739750
vt 1.854790 5.250000
vt 2.854790 5.250000
vt 1.854790 5.110280
vt 2.854790 5.110280
vt 1.854790 5.250000
vt 2.854790 5.250000
vt 1.854790 5.110280
vt 2.854790 5.110280
vt 2.854790 5.250000
vt 2.854790 5.739750
vt 1.854790 5.250000
vt 1.000000 5.739750
vt 1.000000 5.250000
vt 1.000000 6.739750
vt 1.000000 7.000000
vt 1.854790 7.000000
vt 2.854790 6.739750
vt 2.854790 7.000000
vt 3.430140 5.739750
vt 3.290420 5.739750
vt 3.430140 6.739750
vt 3.290420 6.739750
vt 4.569860 5.739750
vt 4.430140 5.739750
vt 4.569860 6.739750
vt 4.430140 6.739750
vt 3.430140 5.250000
vt 4.430140 5.250000
vt 3.430140 5.110280
vt 4.430140 5.110280
vt 3.430140 5.250000
vt 4.430140 5.250000
vt 3.430140 5.110280
vt 4.430140 5.110280
vt 4.430140 5.250000
vt 4.430140 5.739750
vt 3.430140 5.250000
vt 2.000000 5.739750
vt 2.000000 5.250000
vt 2.000000 6.739750
vt 2.000000 7.000000
vt 3.430140 7.000000
vt 4.430140 6.739750
vt 4.430140 7.000000
vt 4.430140 5.739750
vt 4.290420 5.739750
vt 4.430140 6.739750
vt 4.290420 6.739750
vt 5.569860 5.739750
vt 5.430140 5.739750
vt 5.569860 6.739750
vt 5.430140 6.739750
vt 4.430140 5.250000
vt 5.430140 5.250000
vt 4.430140 5.110280
vt 5.430140 5.110280
vt 4.430140 5.250000
vt 5.430140 5.250000
vt 4.430140 5.110280
vt 5.430140 5.110280
vt 5.430140 5.250000
vt 5.430140 5.739750
vt 4.430140 5.250000
vt 3.000000 5.739750
vt 3.000000 5.250000
vt 3.000000 6.739750
vt 3.000000 7.000000
vt 4.430140 7.000000
vt 5.430140 6.739750
vt 5.430140 7.000000
vt 5.430140 5.739750
vt 5.290420 5.739750
vt 5.430140 6.739750
vt 5.290420 6.739750
vt 6.569860 5.739750
vt 6.430140 5.739750
vt 6.569860 6.739750
vt 6.430140 6.739750
vt 5.430140 5.250000
vt 6.430140 5.250000
vt 5.430140 5.110280
vt 6.430140 5.110280
vt 5.430140 5.250000
vt 6.430140 5.250000
vt 5.430140 5.110280
vt 6.430140 5.110280
vt 4.000000 5.250000
vt 5.430140 5.250000
vt 4.000000 5.739750
vt 6.430140 5.250000
vt 4.000000 6.739750
vt 6.430140 5.739750
vt 7.284930 5.250000
vt 7.284930 5.739750
vt 4.000000 7.000000
vt 5.430140 7.000000
vt 6.430140 6.739750
vt 7.284930 6.739750
vt 6.430140 7.000000
vt 7.284930 7.000000
vt 2.694860 0.000000
vt 2.644860 0.000000
vt 2.694860 1.500000
vt 2.644860 1.500000
vt 4.334580 0.000000
vt 4.194860 0.000000
vt 4.334580 1.500000
vt 4.194860 1.500000
vt 2.694860 0.000000
vt 4.194860 0.000000
vt 2.694860 -0.050000
vt 4.194860 -0.050000
vt 1.500000 0.000000
vt 1.500000 1.500000
vt 1.500000 1.750000
vt 2.694860 1.750000
vt 4.194860 1.500000
vt 4.194860 1.750000
vt 2.694860 0.000000
vt 4.194860 0.000000
vt 2.694860 -0.139720
vt 4.194860 -0.139720
vt 5.110280 0.000000
vt 5.060280 0.000000
vt 5.110280 1.500000
vt 5.060280 1.500000
vt 6.750000 0.000000
vt 6.610280 0.000000
vt 6.750000 1.500000
vt 6.610280 1.500000
vt 5.110280 0.000000
vt 6.610280 0.000000
vt 5.110280 -0.050000
vt 6.610280 -0.050000
vt 3.000000 0.000000
vt 3.000000 1.500000
vt 3.000000 1.750000
vt 5.110280 1.750000
vt 6.610280 1.500000
vt 6.610280 1.750000
vt 7.805140 1.500000
vt 7.805140 1.750000
vt 7.805140 0.000000
vt 6.610280 0.000000
vt 6.610280 0.000000
vt 6.610280 -0.139720
vt 5.110280 -0.139720
vt 5.110280 0.000000
vt 3.000000 -0.139720
vt 3.000000 0.000000
vt 1.843147 2.239750
vt 1.703427 2.239750
vt 1.843147 3.239750
vt 1.703427 3.239750
vt 2.982867 2.239750
vt 2.843147 2.239750
vt 2.982867 3.239750
vt 2.843147 3.239750
vt 1.843147 1.750000
vt 2.843147 1.750000
vt 1.843147 1.610280
vt 2.843147 1.610280
vt 1.843147 1.750000
vt 2.843147 1.750000
vt 1.843147 1.610280
vt 2.843147 1.610280
vt 2.843147 1.750000
vt 2.843147 2.239750
vt 1.843147 1.750000
vt 1.000000 2.239750
vt 1.000000 1.750000
vt 1.000000 3.239750
vt 1.000000 3.500000
vt 1.843147 3.500000
vt 2.843147 3.239750
vt 2.843147 3.500000
vt 1.843147 1.750000
vt 2.843147 1.750000
vt 1.843147 1.610280
vt 2.843147 1.610280
vt 3.406853 2.239750
vt 3.267133 2.239750
vt 3.406853 3.239750
vt 3.267133 3.239750
vt 4.546574 2.239750
vt 4.406854 2.239750
vt 4.546574 3.239750
vt 4.406854 3.239750
vt 3.406853 1.750000
vt 4.406853 1.750000
vt 3.406853 1.610280
vt 4.406853 1.610280
vt 3.406853 1.750000
vt 4.406853 1.750000
vt 3.406853 1.610280
vt 4.406853 1.610280
vt 4.406853 1.750000
vt 4.406853 2.239750
vt 3.406853 1.750000
vt 2.000000 2.239750
vt 2.000000 1.750000
vt 2.000000 3.239750
vt 2.000000 3.500000
vt 3.406853 3.500000
vt 4.406853 3.239750
vt 4.406853 3.500000
vt 4.406853 1.750000
vt 4.406853 1.610280
vt 3.406853 1.610280
vt 3.406853 1.750000
vt 2.000000 1.610280
vt 2.000000 1.750000
vt 4.406853 2.239750
vt 4.267133 2.239750
vt 4.406853 3.239750
vt 4.267133 3.239750
vt 5.546574 2.239750
vt 5.406854 2.239750
vt 5.546574 3.239750
vt 5.406854 3.239750
vt 4.406853 1.750000
vt 5.406853 1.750000
vt 4.406853 1.610280
vt 5.406853 1.610280
vt 4.406853 1.750000
vt 5.406853 1.750000
vt 4.406853 1.610280
vt 5.406853 1.610280
vt 3.000000 1.750000
vt 4.406853 1.750000
vt 3.000000 2.239750
vt 5.406853 1.750000
vt 3.000000 3.239750
vt 5.406853 2.239750
vt 6.250000 1.750000
vt 6.250000 2.239750
vt 3.000000 3.500000
vt 4.406853 3.500000
vt 5.406853 3.239750
vt 6.250000 3.239750
vt 5.406853 3.500000
vt 6.250000 3.500000
vt 5.406853 1.750000
vt 5.406853 1.610280
vt 4.406853 1.610280
vt 4.406853 1.750000
vt 3.000000 1.610280
vt 3.000000 1.750000
vt 1.843147 5.739750
vt 1.703427 5.739750
vt 1.843147 6.739750
vt 1.703427 6.739750
vt 2.982867 5.739750
vt 2.843147 5.739750
vt 2.982867 6.739750
vt 2.843147 6.739750
vt 1.843147 5.250000
vt 2.843147 5.250000
vt 1.843147 5.110280
vt 2.843147 5.110280
vt 1.843147 5.250000
vt 2.843147 5.250000
vt 1.843147 5.110280
vt 2.843147 5.110280
vt 2.843147 5.250000
vt 2.843147 5.739750
vt 1.843147 5.250000
vt 1.000000 5.739750
vt 1.000000 5.250000
vt 1.000000 6.739750
vt 1.000000 7.000000
vt 1.843147 7.000000
vt 2.843147 6.739750
vt 2.843147 7.000000
vt 1.843147 5.250000
vt 2.843147 5.250000
vt 1.843147 5.110280
vt 2.843147 5.110280
vt 3.406853 5.739750
vt 3.267133 5.739750
vt 3.406853 6.739750
vt 3.267133 6.739750
vt 4.546574 5.739750
vt 4.406854 5.739750
vt 4.546574 6.739750
vt 4.406854 6.739750
vt 3.406853 5.250000
vt 4.406853 5.250000
vt 3.406853 5.110280
vt 4.406853 5.110280
vt 3.406853 5.250000
vt 4.406853 5.250000
vt 3.406853 5.110280
vt 4.406853 5.110280
vt 4.406853 5.250000
vt 4.406853 5.739750
vt 3.406853 5.250000
vt 2.000000 5.739750
vt 2.000000 5.250000
vt 2.000000 6.739750
vt 2.000000 7.000000
vt 3.406853 7.000000
vt 4.406853 6.739750
vt 4.406853 7.000000
vt 4.406853 5.250000
vt 4.406853 5.110280
vt 3.406853 5.110280
vt 3.406853 5.250000
vt 2.000000 5.110280
vt 2.000000 5.250000
vt 4.406853 5.739750
vt 4.267133 5.739750
vt 4.406853 6.739750
vt 4.267133 6.739750
vt 5.546574 5.739750
vt 5.406854 5.739750
vt 5.546574 6.739750
vt 5.406854 6.739750
vt 4.406853 5.250000
vt 5.406853 5.250000
vt 4.406853 5.110280
vt 5.406853 5.110280
vt 4.406853 5.250000
vt 5.406853 5.250000
vt 4.406853 5.110280
vt 5.406853 5.110280
vt 3.000000 5.250000
vt 4.406853 5.250000
vt 3.000000 5.739750
vt 5.406853 5.250000
vt 3.000000 6.739750
vt 5.406853 5.739750
vt 6.250000 5.250000
vt 6.250000 5.739750
vt 3.000000 7.000000
vt 4.406853 7.000000
vt 5.406853 6.739750
vt 6.250000 6.739750
vt 5.406853 7.000000
vt 6.250000 7.000000
vt 5.406853 5.250000
vt 5.406853 5.110280
vt 4.406853 5.110280
vt 4.406853 5.250000
vt 3.000000 5.110280
vt 3.000000 5.250000
vt 1.854790 0.489750
vt 1.715070 0.489750
vt 1.854790 1.489750
vt 1.715070 1.489750
vt 2.994510 0.489750
vt 2.854790 0.489750
vt 2.994510 1.489750
vt 2.854790 1.489750
vt 1.854790 0.000000
vt 2.854790 0.000000
vt 1.854790 -0.139720
vt 2.854790 -0.139720
vt 1.854790 0.000000
vt 2.854790 0.000000
vt 1.854790 -0.139720
vt 2.854790 -0.139720
vt 2.854790 0.000000
vt 2.854790 0.489750
vt 1.854790 0.000000
vt 1.000000 0.489750
vt 1.000000 0.000000
vt 1.000000 1.489750
vt 1.000000 1.750000
vt 1.854790 1.750000
vt 2.854790 1.489750
vt 1.000000 2.239750
vt 2.854790 1.750000
vt 1.854790 2.239750
vt 2.854790 2.239750
vt 1.000000 3.239750
vt 1.854790 3.239750
vt 1.000000 3.500000
vt 1.854790 3.500000
vt 2.854790 3.239750
vt 2.854790 3.500000
vt 3.430140 0.489750
vt 3.290420 0.489750
vt 3.430140 1.489750
vt 3.290420 1.489750
vt 4.569860 0.489750
vt 4.430140 0.489750
vt 4.569860 1.489750
vt 4.430140 1.489750
vt 3.430140 0.000000
vt 4.430140 0.000000
vt 3.430140 -0.139720
vt 4.430140 -0.139720
vt 3.430140 0.000000
vt 4.430140 0.000000
vt 3.430140 -0.139720
vt 4.430140 -0.139720
vt 4.430140 0.000000
vt 4.430140 0.489750
vt 3.430140 0.000000
vt 2.000000 0.489750
vt 2.000000 0.000000
vt 2.000000 1.489750
vt 2.000000 1.750000
vt 3.430140 1.750000
vt 4.430140 1.489750
vt 2.000000 2.239750
vt 4.430140 1.750000
vt 3.430140 2.239750
vt 4.430140 2.239750
vt 2.000000 3.239750
vt 3.430140 3.239750
vt 2.000000 3.500000
vt 3.430140 3.500000
vt 4.430140 3.239750
vt 4.430140 3.500000
vt 4.430140 0.489750
vt 4.290420 0.489750
vt 4.430140 1.489750
vt 4.290420 1.489750
vt 5.569860 0.489750
vt 5.430140 0.489750
vt 5.569860 1.489750
vt 5.430140 1.489750
vt 4.430140 0.000000
vt 5.430140 0.000000
vt 4.430140 -0.139720
vt 5.430140 -0.139720
vt 4.430140 0.000000
vt 5.430140 0.000000
vt 4.430140 -0.139720
vt 5.430140 -0.139720
vt 5.430140 0.000000
vt 5.430140 0.489750
vt 4.430140 0.000000
vt 3.000000 0.489750
vt 3.000000 0.000000
vt 3.000000 1.489750
vt 3.000000 1.750000
vt 4.430140 1.750000
vt 5.430140 1.489750
vt 3.000000 2.239750
vt 5.430140 1.750000
vt 4.430140 2.239750
vt 5.430140 2.239750
vt 3.000000 3.239750
vt 4.430140 3.239750
vt 3.000000 3.500000
vt 4.430140 3.500000
vt 5.430140 3.239750
vt 5.430140 3.500000
vt 5.430140 0.489750
vt 5.290420 0.489750
vt 5.430140 1.489750
vt 5.290420 1.489750
vt 6.569860 0.489750
vt 6.430140 0.489750
vt 6.569860 1.489750
vt 6.430140 1.489750
vt 5.430140 0.000000
vt 6.430140 0.000000
vt 5.430140 -0.139720
vt 6.430140 -0.139720
vt 5.430140 0.000000
vt 6.430140 0.000000
vt 5.430140 -0.139720
vt 6.430140 -0.139720
vt 4.000000 0.000000
vt 5.430140 0.000000
vt 4.000000 0.489750
vt 6.430140 0.000000
vt 4.000000 1.489750
vt 6.430140 0.489750
vt 7.284930 0.000000
vt 7.284930 0.489750
vt 6.430140 1.489750
vt 4.000000 1.750000
vt 7.284930 1.489750
vt 5.430140 1.750000
vt 4.000000 2.239750
vt 6.430140 1.750000
vt 7.284930 1.750000
vt 5.430140 2.239750
vt 4.000000 3.239750
vt 6.430140 2.239750
vt 7.284930 2.239750
vt 5.430140 3.239750
vt 4.000000 3.500000
vt 5.430140 3.500000
vt 6.430140 3.239750
vt 7.284930 3.239750
vt 6.430140 3.500000
vt 7.284930 3.500000
vt 1.715070 2.239750
vt 1.715070 3.239750
vt 2.994510 2.239750
vt 2.854790 2.239750
vt 2.994510 3.239750
vt 2.854790 3.239750
vt 1.854790 1.750000
vt 2.854790 1.750000
vt 1.854790 1.610280
vt 2.854790 1.610280
vt 1.854790 1.750000
vt 2.854790 1.750000
vt 1.854790 1.610280
vt 2.854790 1.610280
vt 3.290420 2.239750
vt 3.290420 3.239750
vt 4.569860 2.239750
vt 4.430140 2.239750
vt 4.569860 3.239750
vt 4.430140 3.239750
vt 3.430140 1.750000
vt 4.430140 1.750000
vt 3.430140 1.610280
vt 4.430140 1.610280
vt 3.430140 1.750000
vt 4.430140 1.750000
vt 3.430140 1.610280
vt 4.430140 1.610280
vt 4.290420 2.239750
vt 4.290420 3.239750
vt 5.569860 2.239750
vt 5.430140 2.239750
vt 5.569860 3.239750
vt 5.430140 3.239750
vt 4.430140 1.750000
vt 5.430140 1.750000
vt 4.430140 1.610280
vt 5.430140 1.610280
vt 4.430140 1.750000
vt 5.430140 1.750000
vt 4.430140 1.610280
vt 5.430140 1.610280
vt 5.290420 2.239750
vt 5.290420 3.239750
vt 6.569860 2.239750
vt 6.430140 2.239750
vt 6.569860 3.239750
vt 6.430140 3.239750
vt 5.430140 1.750000
vt 6.430140 1.750000
vt 5.430140 1.610280
vt 6.430140 1.610280
vt 5.430140 1.750000
vt 6.430140 1.750000
vt 5.430140 1.610280
vt 6.430140 1.610280
vt 1.854790 5.739750
vt 1.715070 5.739750
vt 1.854790 6.739750
vt 1.715070 6.739750
vt 2.994510 5.739750
vt 2.854790 5.739750
vt 2.994510 6.739750
vt 2.854790 6.739750
vt 1.854790 5.250000
vt 2.854790 5.250000
vt 1.854790 5.110280
vt 2.854790 5.110280
vt 1.854790 5.250000
vt 2.854790 5.250000
vt 1.854790 5.110280
vt 2.854790 5.110280
vt 2.854790 5.250000
vt 2.854790 5.739750
vt 1.854790 5.250000
vt 1.000000 5.739750
vt 1.000000 5.250000
vt 1.000000 6.739750
vt 1.000000 7.000000
vt 1.854790 7.000000
vt 2.854790 6.739750
vt 2.854790 7.000000
vt 3.430140 5.739750
vt 3.290420 5.739750
vt 3.430140 6.739750
vt 3.290420 6.739750
vt 4.569860 5.739750
vt 4.430140 5.739750
vt 4.569860 6.739750
vt 4.430140 6.739750
vt 3.430140 5.250000
vt 4.430140 5.250000
vt 3.430140 5.110280
vt 4.430140 5.110280
vt 3.430140 5.250000
vt 4.430140 5.250000
vt 3.430140 5.110280
vt 4.430140 5.110280
vt 4.430140 5.250000
vt 4.430140 5.739750
vt 3.430140 5.250000
vt 2.000000 5.739750
vt 2.000000 5.250000
vt 2.000000 6.739750
vt 2.000000 7.000000
vt 3.430140 7.000000
vt 4.430140 6.739750
vt 4.430140 7.000000
vt 4.430140 5.739750
vt 4.290420 5.739750
vt 4.430140 6.739750
vt 4.290420 6.739750
vt 5.569860 5.739750
vt 5.430140 5.739750
vt 5.569860 6.739750
vt 5.430140 6.739750
vt 4.430140 5.250000
vt 5.430140 5.250000
vt 4.430140 5.110280
vt 5.430140 5.110280
vt 4.430140 5.250000
vt 5.430140 5.250000
vt 4.430140 5.110280
vt 5.430140 5.110280
vt 5.430140 5.250000
vt 5.430140 5.739750
vt 4.430140 5.250000
vt 3.000000 5.739750
vt 3.000000 5.250000
vt 3.000000 6.739750
vt 3.000000 7.000000
vt 4.430140 7.000000
vt 5.430140 6.739750
vt 5.430140 7.000000
vt 5.430140 5.739750
vt 5.290420 5.739750
vt 5.430140 6.739750
vt 5.290420 6.739750
vt 6.569860 5.739750
vt 6.430140 5.739750
vt 6.569860 6.739750
vt 6.430140 6.739750
vt 5.430140 5.250000
vt 6.430140 5.250000
vt 5.430140 5.110280
vt 6.430140 5.110280
vt 5.430140 5.250000
vt 6.430140 5.250000
vt 5.430140 5.110280
vt 6.430140 5.110280
vt 4.000000 5.250000
vt 5.430140 5.250000
vt 4.000000 5.739750
vt 6.430140 5.250000
vt 4.000000 6.739750
vt 6.430140 5.739750
vt 7.284930 5.250000
vt 7.284930 5.739750
vt 4.000000 7.000000
vt 5.430140 7.000000
vt 6.430140 6.739750
vt 7.284930 6.739750
vt 6.430140 7.000000
vt 7.284930 7.000000
vt 0.000000 0.000000
vt 7.279137 0.000000
vt 0.000000 0.250000
vt 7.279137 0.250000
vt -14.558270 0.000000
vt 0.469873 -0.469873
vt 0.000000 0.000000
vt -15.028150 -0.469873
vt 0.000000 0.000000
vt 7.749010 0.000000
vt 0.000000 0.250000
vt 7.749010 0.250000
vt 14.558270 0.000000
vt -0.469873 0.469873
vt 0.000000 0.000000
vt 15.028150 0.469873
vt 0.000000 0.000000
vt 9.779137 0.000000
vt 0.000000 0.250000
vt 9.779137 0.250000
vt -19.558281 0.000002
vt 0.469873 -0.469874
vt 0.000000 0.000000
vt -20.028151 -0.469871
vt 0.000000 0.000000
vt 10.249010 0.000000
vt 0.000000 0.250000
vt 10.249010 0.250000
vt 19.558281 0.000002
vt -0.469874 0.469873
vt 20.028151 0.469876
vt 0.000000 0.000000
vt 7.279137 0.000000
vt 0.000000 0.250000
vt 7.279137 0.250000
vt 14.558270 0.000000
vt -0.469873 0.469873
vt 0.000000 0.000000
vt 15.028150 0.469873
vt 0.000000 0.000000
vt 7.749010 0.000000
vt 0.000000 0.250000
vt 7.749010 0.250000
vt -14.558270 0.000000
vt 0.469873 -0.469873
vt -15.028150 -0.469873
vt 9.779137 0.000000
vt 0.000000 0.250000
vt 9.779137 0.250000
vt -19.558281 -0.000002
vt 0.469874 -0.469873
vt 0.000000 0.000000
vt -20.028151 -0.469876
vt 0.000000 0.000000
vt 10.249010 0.000000
vt 0.000000 0.250000
vt 10.249010 0.250000
vt 19.558281 -0.000002
vt -0.469873 0.469874
vt 20.028151 0.469871
vn -1.0000 0.0000 0.0000
vn 1.0000 0.0000 0.0000
vn 0.0000 -1.0000 0.0000
vn -0.0000 0.0000 -1.0000
vn 0.0000 1.0000 0.0000
vn 0.0000 0.0000 1.0000
usemtl Brick06Material.002
s 1
f 1/1/1 3/2/1 2/3/1
f 3/2/1 4/4/1 2/3/1
f 5/5/2 7/6/2 6/7/2
f 7/6/2 8/8/2 6/7/2
f 5/9/3 2/10/3 7/11/3
f 2/10/3 4/12/3 7/11/3
f 9/13/4 1/1/4 10/14/4
f 1/1/4 2/3/4 10/14/4
f 10/14/4 2/3/4 11/15/4
f 2/3/4 12/16/4 11/15/4
f 2/3/4 5/17/4 12/16/4
f 5/17/4 13/18/4 12/16/4
f 5/17/4 14/19/4 13/18/4
f 14/19/4 15/20/4 13/18/4
f 16/21/4 14/19/4 5/17/4
f 6/22/4 16/21/4 5/17/4
f 12/23/5 13/24/5 17/25/5
f 13/24/5 18/26/5 17/25/5
f 13/24/5 15/27/5 18/26/5
f 15/27/5 19/28/5 18/26/5
f 20/29/1 14/30/1 21/31/1
f 14/30/1 16/32/1 21/31/1
f 19/33/1 15/34/1 20/35/1
f 15/34/1 14/36/1 20/35/1
f 22/37/1 24/38/1 23/39/1
f 24/38/1 25/40/1 23/39/1
f 26/41/2 28/42/2 27/43/2
f 28/42/2 29/44/2 27/43/2
f 22/45/5 27/46/5 24/47/5
f 27/46/5 29/48/5 24/47/5
f 26/49/3 23/50/3 28/51/3
f 23/50/3 25/52/3 28/51/3
f 16/53/4 31/54/4 30/55/4
f 31/54/4 22/37/4 30/55/4
f 31/54/4 32/56/4 22/37/4
f 30/55/4 22/37/4 33/57/4
f 32/56/4 27/58/4 22/37/4
f 32/56/4 34/59/4 27/58/4
f 34/59/4 35/60/4 27/58/4
f 22/37/4 23/39/4 33/57/4
f 33/57/4 23/39/4 15/61/4
f 23/39/4 36/62/4 15/61/4
f 27/58/4 35/60/4 26/63/4
f 23/39/4 26/63/4 36/62/4
f 35/60/4 37/64/4 26/63/4
f 26/63/4 38/65/4 36/62/4
f 26/63/4 37/64/4 38/65/4
f 37/64/4 39/66/4 38/65/4
f 15/67/5 36/68/5 19/69/5
f 36/68/5 40/70/5 19/69/5
f 36/68/5 38/71/5 40/70/5
f 38/71/5 41/72/5 40/70/5
f 38/71/5 39/73/5 41/72/5
f 39/73/5 42/74/5 41/72/5
f 33/75/2 43/76/2 30/77/2
f 43/76/2 44/78/2 30/77/2
f 30/79/2 44/80/2 16/81/2
f 44/80/2 21/82/2 16/81/2
f 15/67/2 19/83/2 33/84/2
f 19/83/2 43/85/2 33/84/2
f 45/86/1 37/87/1 46/88/1
f 37/87/1 35/89/1 46/88/1
f 46/90/1 35/91/1 47/92/1
f 35/91/1 34/93/1 47/92/1
f 42/94/1 39/95/1 45/96/1
f 39/95/1 37/97/1 45/96/1
f 48/98/1 50/99/1 49/100/1
f 50/99/1 51/101/1 49/100/1
f 52/102/2 54/103/2 53/104/2
f 54/103/2 55/105/2 53/104/2
f 52/106/3 49/107/3 54/108/3
f 49/107/3 51/109/3 54/108/3
f 34/110/4 48/98/4 56/111/4
f 48/98/4 49/100/4 56/111/4
f 56/111/4 49/100/4 39/112/4
f 49/100/4 57/113/4 39/112/4
f 49/100/4 52/114/4 57/113/4
f 52/114/4 58/115/4 57/113/4
f 52/114/4 59/116/4 58/115/4
f 59/116/4 60/117/4 58/115/4
f 61/118/4 59/116/4 52/114/4
f 53/119/4 61/118/4 52/114/4
f 39/120/5 57/121/5 42/122/5
f 57/121/5 62/123/5 42/122/5
f 57/121/5 58/124/5 62/123/5
f 58/124/5 63/125/5 62/123/5
f 58/124/5 60/126/5 63/125/5
f 60/126/5 64/127/5 63/125/5
f 56/128/2 65/129/2 34/130/2
f 65/129/2 47/131/2 34/130/2
f 39/120/2 42/132/2 56/133/2
f 42/132/2 65/134/2 56/133/2
f 66/135/1 59/136/1 67/137/1
f 59/136/1 61/138/1 67/137/1
f 64/139/1 60/140/1 66/141/1
f 60/140/1 59/142/1 66/141/1
f 68/143/1 70/144/1 69/145/1
f 70/144/1 71/146/1 69/145/1
f 72/147/2 74/148/2 73/149/2
f 74/148/2 75/150/2 73/149/2
f 68/151/5 73/152/5 70/153/5
f 73/152/5 75/154/5 70/153/5
f 72/155/3 69/156/3 74/157/3
f 69/156/3 71/158/3 74/157/3
f 61/159/4 77/160/4 76/161/4
f 77/160/4 68/143/4 76/161/4
f 77/160/4 78/162/4 68/143/4
f 76/161/4 68/143/4 79/163/4
f 78/162/4 73/164/4 68/143/4
f 78/162/4 80/165/4 73/164/4
f 80/165/4 81/166/4 73/164/4
f 68/143/4 69/145/4 79/163/4
f 79/163/4 69/145/4 60/167/4
f 69/145/4 82/168/4 60/167/4
f 73/164/4 81/166/4 72/169/4
f 69/145/4 72/169/4 82/168/4
f 81/166/4 83/170/4 72/169/4
f 72/169/4 84/171/4 82/168/4
f 72/169/4 83/170/4 84/171/4
f 83/170/4 85/172/4 84/171/4
f 60/173/5 82/174/5 64/175/5
f 82/174/5 86/176/5 64/175/5
f 82/174/5 84/177/5 86/176/5
f 84/177/5 87/178/5 86/176/5
f 84/177/5 85/179/5 87/178/5
f 85/179/5 88/180/5 87/178/5
f 79/181/2 89/182/2 76/183/2
f 89/182/2 90/184/2 76/183/2
f 76/185/2 90/186/2 61/187/2
f 90/186/2 67/188/2 61/187/2
f 60/173/2 64/189/2 79/190/2
f 64/189/2 89/191/2 79/190/2
f 91/192/1 83/193/1 92/194/1
f 83/193/1 81/195/1 92/194/1
f 92/196/1 81/197/1 93/198/1
f 81/197/1 80/199/1 93/198/1
f 88/200/1 85/201/1 91/202/1
f 85/201/1 83/203/1 91/202/1
f 94/204/1 96/205/1 95/206/1
f 96/205/1 97/207/1 95/206/1
f 98/208/2 100/209/2 99/210/2
f 100/209/2 101/211/2 99/210/2
f 98/212/3 95/213/3 100/214/3
f 95/213/3 97/215/3 100/214/3
f 80/216/4 94/204/4 102/217/4
f 94/204/4 95/206/4 102/217/4
f 102/217/4 95/206/4 85/218/4
f 95/206/4 103/219/4 85/218/4
f 95/206/4 98/220/4 103/219/4
f 98/220/4 104/221/4 103/219/4
f 98/220/4 105/222/4 104/221/4
f 105/222/4 106/223/4 104/221/4
f 107/224/4 105/222/4 98/220/4
f 99/225/4 107/224/4 98/220/4
f 104/226/5 109/227/5 108/228/5
f 103/229/5 104/226/5 108/228/5
f 103/229/5 108/228/5 88/230/5
f 85/231/5 103/229/5 88/230/5
f 102/232/2 110/233/2 80/234/2
f 110/233/2 93/235/2 80/234/2
f 85/231/2 88/236/2 102/237/2
f 88/236/2 110/238/2 102/237/2
f 111/239/1 113/240/1 112/241/1
f 113/240/1 114/242/1 112/241/1
f 115/243/2 117/244/2 116/245/2
f 117/244/2 118/246/2 116/245/2
f 111/247/5 116/248/5 113/249/5
f 116/248/5 118/250/5 113/249/5
f 115/251/3 112/252/3 117/253/3
f 112/252/3 114/254/3 117/253/3
f 119/255/4 116/256/4 111/239/4
f 120/257/4 119/255/4 111/239/4
f 120/257/4 111/239/4 121/258/4
f 11/259/4 120/257/4 121/258/4
f 121/258/4 111/239/4 122/260/4
f 111/239/4 112/241/4 122/260/4
f 122/260/4 112/241/4 123/261/4
f 112/241/4 124/262/4 123/261/4
f 112/241/4 115/263/4 124/262/4
f 115/263/4 125/264/4 124/262/4
f 126/265/3 127/266/3 120/267/3
f 127/266/3 119/268/3 120/267/3
f 128/269/1 130/270/1 129/271/1
f 130/270/1 131/272/1 129/271/1
f 132/273/2 134/274/2 133/275/2
f 134/274/2 135/276/2 133/275/2
f 128/277/5 133/278/5 130/279/5
f 133/278/5 135/280/5 130/279/5
f 132/281/3 129/282/3 134/283/3
f 129/282/3 131/284/3 134/283/3
f 136/285/4 133/286/4 128/269/4
f 137/287/4 136/285/4 128/269/4
f 137/287/4 128/269/4 116/288/4
f 119/289/4 137/287/4 116/288/4
f 116/288/4 128/269/4 115/290/4
f 128/269/4 129/271/4 115/290/4
f 115/290/4 129/271/4 125/291/4
f 129/271/4 138/292/4 125/291/4
f 129/271/4 132/293/4 138/292/4
f 132/293/4 139/294/4 138/292/4
f 140/295/3 136/296/3 137/297/3
f 141/298/3 140/295/3 137/297/3
f 141/298/3 137/297/3 119/299/3
f 127/300/3 141/298/3 119/299/3
f 142/301/1 144/302/1 143/303/1
f 144/302/1 145/304/1 143/303/1
f 146/305/2 148/306/2 147/307/2
f 148/306/2 149/308/2 147/307/2
f 142/309/5 147/310/5 144/311/5
f 147/310/5 149/312/5 144/311/5
f 146/313/3 143/314/3 148/315/3
f 143/314/3 145/316/3 148/315/3
f 136/317/4 150/318/4 133/319/4
f 150/318/4 142/301/4 133/319/4
f 150/318/4 151/320/4 142/301/4
f 133/319/4 142/301/4 132/321/4
f 151/320/4 147/322/4 142/301/4
f 151/320/4 106/323/4 147/322/4
f 106/323/4 152/324/4 147/322/4
f 142/301/4 143/303/4 132/321/4
f 132/321/4 143/303/4 139/325/4
f 143/303/4 153/326/4 139/325/4
f 147/322/4 152/324/4 146/327/4
f 143/303/4 146/327/4 153/326/4
f 152/324/4 154/328/4 146/327/4
f 146/327/4 155/329/4 153/326/4
f 146/327/4 154/328/4 155/329/4
f 154/328/4 156/330/4 155/329/4
f 157/331/3 151/332/3 150/333/3
f 158/334/3 157/331/3 150/333/3
f 158/334/3 150/333/3 136/335/3
f 140/336/3 158/334/3 136/335/3
f 159/337/1 161/338/1 160/339/1
f 161/338/1 162/340/1 160/339/1
f 163/341/2 165/342/2 164/343/2
f 165/342/2 166/344/2 164/343/2
f 159/345/5 164/346/5 161/347/5
f 164/346/5 166/348/5 161/347/5
f 163/349/3 160/350/3 165/351/3
f 160/350/3 162/352/3 165/351/3
f 125/353/4 164/354/4 159/337/4
f 124/355/4 125/353/4 159/337/4
f 124/355/4 159/337/4 167/356/4
f 123/357/4 124/355/4 167/356/4
f 167/356/4 159/337/4 168/358/4
f 159/337/4 160/339/4 168/358/4
f 168/358/4 160/339/4 169/359/4
f 160/339/4 170/360/4 169/359/4
f 160/339/4 163/361/4 170/360/4
f 163/361/4 171/362/4 170/360/4
f 170/363/5 171/364/5 172/365/5
f 171/364/5 173/366/5 172/365/5
f 174/367/1 176/368/1 175/369/1
f 176/368/1 177/370/1 175/369/1
f 178/371/2 180/372/2 179/373/2
f 180/372/2 181/374/2 179/373/2
f 174/375/5 179/376/5 176/377/5
f 179/376/5 181/378/5 176/377/5
f 178/379/3 175/380/3 180/381/3
f 175/380/3 177/382/3 180/381/3
f 139/383/4 179/384/4 174/367/4
f 138/385/4 139/383/4 174/367/4
f 138/385/4 174/367/4 164/386/4
f 125/387/4 138/385/4 164/386/4
f 164/386/4 174/367/4 163/388/4
f 174/367/4 175/369/4 163/388/4
f 163/388/4 175/369/4 171/389/4
f 175/369/4 182/390/4 171/389/4
f 175/369/4 178/391/4 182/390/4
f 178/391/4 183/392/4 182/390/4
f 183/393/5 185/394/5 184/395/5
f 182/396/5 183/393/5 184/395/5
f 182/396/5 184/395/5 173/397/5
f 171/398/5 182/396/5 173/397/5
f 186/399/1 188/400/1 187/401/1
f 188/400/1 189/402/1 187/401/1
f 190/403/2 192/404/2 191/405/2
f 192/404/2 193/406/2 191/405/2
f 186/407/5 191/408/5 188/409/5
f 191/408/5 193/410/5 188/409/5
f 190/411/3 187/412/3 192/413/3
f 187/412/3 189/414/3 192/413/3
f 139/415/4 153/416/4 179/417/4
f 153/416/4 186/399/4 179/417/4
f 153/416/4 155/418/4 186/399/4
f 179/417/4 186/399/4 178/419/4
f 155/418/4 191/420/4 186/399/4
f 155/418/4 156/421/4 191/420/4
f 156/421/4 194/422/4 191/420/4
f 186/399/4 187/401/4 178/419/4
f 178/419/4 187/401/4 183/423/4
f 187/401/4 195/424/4 183/423/4
f 191/420/4 194/422/4 190/425/4
f 187/401/4 190/425/4 195/424/4
f 194/422/4 196/426/4 190/425/4
f 190/425/4 197/427/4 195/424/4
f 190/425/4 196/426/4 197/427/4
f 196/426/4 198/428/4 197/427/4
f 197/429/5 200/430/5 199/431/5
f 195/432/5 197/429/5 199/431/5
f 195/432/5 199/431/5 185/433/5
f 183/434/5 195/432/5 185/433/5
f 201/435/6 203/436/6 202/437/6
f 203/436/6 204/438/6 202/437/6
f 205/439/4 207/440/4 206/441/4
f 207/440/4 208/442/4 206/441/4
f 201/443/5 206/444/5 203/445/5
f 206/444/5 208/446/5 203/445/5
f 205/447/3 202/448/3 207/449/3
f 202/448/3 204/450/3 207/449/3
f 209/451/1 206/452/1 201/435/1
f 210/453/1 209/451/1 201/435/1
f 210/453/1 201/435/1 211/454/1
f 107/455/1 210/453/1 211/454/1
f 211/454/1 201/435/1 212/456/1
f 201/435/1 202/437/1 212/456/1
f 212/456/1 202/437/1 106/457/1
f 202/437/1 213/458/1 106/457/1
f 202/437/1 205/459/1 213/458/1
f 106/457/1 213/458/1 152/460/1
f 205/459/1 214/461/1 213/458/1
f 213/458/1 215/462/1 152/460/1
f 213/458/1 214/461/1 215/462/1
f 214/461/1 216/463/1 215/462/1
f 152/460/1 215/462/1 154/464/1
f 215/462/1 217/465/1 154/464/1
f 154/464/1 217/465/1 156/466/1
f 217/465/1 218/467/1 156/466/1
f 217/465/1 219/468/1 218/467/1
f 219/468/1 220/469/1 218/467/1
f 221/470/6 223/471/6 222/472/6
f 223/471/6 224/473/6 222/472/6
f 225/474/4 227/475/4 226/476/4
f 227/475/4 228/477/4 226/476/4
f 221/478/5 226/479/5 223/480/5
f 226/479/5 228/481/5 223/480/5
f 225/482/3 222/483/3 227/484/3
f 222/483/3 224/485/3 227/484/3
f 229/486/1 226/487/1 221/470/1
f 230/488/1 229/486/1 221/470/1
f 230/488/1 221/470/1 206/489/1
f 209/490/1 230/488/1 206/489/1
f 206/489/1 221/470/1 205/491/1
f 221/470/1 222/472/1 205/491/1
f 205/491/1 222/472/1 214/492/1
f 222/472/1 231/493/1 214/492/1
f 222/472/1 225/494/1 231/493/1
f 214/492/1 231/493/1 216/495/1
f 225/494/1 232/496/1 231/493/1
f 231/493/1 233/497/1 216/495/1
f 231/493/1 232/496/1 233/497/1
f 232/496/1 234/498/1 233/497/1
f 216/495/1 233/497/1 219/499/1
f 233/497/1 235/500/1 219/499/1
f 219/499/1 235/500/1 220/501/1
f 235/500/1 236/502/1 220/501/1
f 235/500/1 237/503/1 236/502/1
f 237/503/1 238/504/1 236/502/1
f 239/505/6 241/506/6 240/507/6
f 241/506/6 242/508/6 240/507/6
f 243/509/4 245/510/4 244/511/4
f 245/510/4 246/512/4 244/511/4
f 239/513/5 244/514/5 241/515/5
f 244/514/5 246/516/5 241/515/5
f 243/517/3 240/518/3 245/519/3
f 240/518/3 242/520/3 245/519/3
f 247/521/1 244/522/1 239/505/1
f 248/523/1 247/521/1 239/505/1
f 248/523/1 239/505/1 226/524/1
f 229/525/1 248/523/1 226/524/1
f 226/524/1 239/505/1 225/526/1
f 239/505/1 240/507/1 225/526/1
f 225/526/1 240/507/1 232/527/1
f 240/507/1 249/528/1 232/527/1
f 240/507/1 243/529/1 249/528/1
f 232/527/1 249/528/1 234/530/1
f 243/529/1 250/531/1 249/528/1
f 249/528/1 251/532/1 234/530/1
f 249/528/1 250/531/1 251/532/1
f 250/531/1 252/533/1 251/532/1
f 234/530/1 251/532/1 237/534/1
f 251/532/1 253/535/1 237/534/1
f 237/534/1 253/535/1 238/536/1
f 253/535/1 254/537/1 238/536/1
f 253/535/1 255/538/1 254/537/1
f 255/538/1 256/539/1 254/537/1
f 257/540/6 259/541/6 258/542/6
f 259/541/6 260/543/6 258/542/6
f 261/544/4 263/545/4 262/546/4
f 263/545/4 264/547/4 262/546/4
f 257/548/5 262/549/5 259/550/5
f 262/549/5 264/551/5 259/550/5
f 261/552/3 258/553/3 263/554/3
f 258/553/3 260/555/3 263/554/3
f 247/556/1 265/557/1 244/558/1
f 265/557/1 257/540/1 244/558/1
f 265/557/1 266/559/1 257/540/1
f 244/558/1 257/540/1 243/560/1
f 266/559/1 262/561/1 257/540/1
f 266/559/1 267/562/1 262/561/1
f 267/562/1 268/563/1 262/561/1
f 257/540/1 258/542/1 243/560/1
f 262/561/1 268/563/1 261/564/1
f 243/560/1 258/542/1 250/565/1
f 268/563/1 269/566/1 261/564/1
f 258/542/1 270/567/1 250/565/1
f 258/542/1 261/564/1 270/567/1
f 250/565/1 270/567/1 252/568/1
f 261/564/1 269/566/1 271/569/1
f 261/564/1 271/569/1 270/567/1
f 269/566/1 272/570/1 271/569/1
f 270/567/1 273/571/1 252/568/1
f 270/567/1 271/569/1 273/571/1
f 252/568/1 273/571/1 255/572/1
f 271/569/1 272/570/1 274/573/1
f 271/569/1 274/573/1 273/571/1
f 272/570/1 275/574/1 274/573/1
f 273/571/1 276/575/1 255/572/1
f 255/572/1 276/575/1 256/576/1
f 276/575/1 277/577/1 256/576/1
f 274/573/1 275/574/1 278/578/1
f 276/575/1 278/578/1 277/577/1
f 275/574/1 279/579/1 278/578/1
f 278/578/1 280/580/1 277/577/1
f 278/578/1 279/579/1 280/580/1
f 279/579/1 281/581/1 280/580/1
f 215/462/6 282/582/6 217/465/6
f 282/582/6 283/583/6 217/465/6
f 219/584/4 284/585/4 216/586/4
f 284/585/4 285/587/4 216/586/4
f 215/588/5 216/589/5 282/590/5
f 216/589/5 285/591/5 282/590/5
f 219/592/3 217/593/3 284/594/3
f 217/593/3 283/595/3 284/594/3
f 233/497/6 286/596/6 235/500/6
f 286/596/6 287/597/6 235/500/6
f 237/598/4 288/599/4 234/600/4
f 288/599/4 289/601/4 234/600/4
f 233/602/5 234/603/5 286/604/5
f 234/603/5 289/605/5 286/604/5
f 237/606/3 235/607/3 288/608/3
f 235/607/3 287/609/3 288/608/3
f 251/532/6 290/610/6 253/535/6
f 290/610/6 291/611/6 253/535/6
f 255/612/4 292/613/4 252/614/4
f 292/613/4 293/615/4 252/614/4
f 251/616/5 252/617/5 290/618/5
f 252/617/5 293/619/5 290/618/5
f 255/620/3 253/621/3 292/622/3
f 253/621/3 291/623/3 292/622/3
f 273/571/6 294/624/6 276/575/6
f 294/624/6 295/625/6 276/575/6
f 278/626/4 296/627/4 274/628/4
f 296/627/4 297/629/4 274/628/4
f 273/630/5 274/631/5 294/632/5
f 274/631/5 297/633/5 294/632/5
f 278/634/3 276/635/3 296/636/3
f 276/635/3 295/637/3 296/636/3
f 298/638/6 300/639/6 299/640/6
f 300/639/6 301/641/6 299/640/6
f 302/642/4 304/643/4 303/644/4
f 304/643/4 305/645/4 303/644/4
f 298/646/5 303/647/5 300/648/5
f 303/647/5 305/649/5 300/648/5
f 302/650/3 299/651/3 304/652/3
f 299/651/3 301/653/3 304/652/3
f 220/654/1 303/655/1 298/638/1
f 218/656/1 220/654/1 298/638/1
f 218/656/1 298/638/1 194/657/1
f 156/658/1 218/656/1 194/657/1
f 194/657/1 298/638/1 196/659/1
f 298/638/1 299/640/1 196/659/1
f 196/659/1 299/640/1 198/660/1
f 299/640/1 306/661/1 198/660/1
f 299/640/1 302/662/1 306/661/1
f 302/662/1 307/663/1 306/661/1
f 308/664/6 310/665/6 309/666/6
f 310/665/6 311/667/6 309/666/6
f 312/668/4 314/669/4 313/670/4
f 314/669/4 315/671/4 313/670/4
f 308/672/5 313/673/5 310/674/5
f 313/673/5 315/675/5 310/674/5
f 312/676/3 309/677/3 314/678/3
f 309/677/3 311/679/3 314/678/3
f 238/680/1 313/681/1 308/664/1
f 236/682/1 238/680/1 308/664/1
f 236/682/1 308/664/1 303/683/1
f 220/684/1 236/682/1 303/683/1
f 303/683/1 308/664/1 302/685/1
f 308/664/1 309/666/1 302/685/1
f 302/685/1 309/666/1 307/686/1
f 309/666/1 316/687/1 307/686/1
f 309/666/1 312/688/1 316/687/1
f 312/688/1 317/689/1 316/687/1
f 318/690/6 320/691/6 319/692/6
f 320/691/6 321/693/6 319/692/6
f 322/694/4 324/695/4 323/696/4
f 324/695/4 325/697/4 323/696/4
f 318/698/5 323/699/5 320/700/5
f 323/699/5 325/701/5 320/700/5
f 322/702/3 319/703/3 324/704/3
f 319/703/3 321/705/3 324/704/3
f 256/706/1 323/707/1 318/690/1
f 254/708/1 256/706/1 318/690/1
f 254/708/1 318/690/1 313/709/1
f 238/710/1 254/708/1 313/709/1
f 313/709/1 318/690/1 312/711/1
f 318/690/1 319/692/1 312/711/1
f 312/711/1 319/692/1 317/712/1
f 319/692/1 326/713/1 317/712/1
f 319/692/1 322/714/1 326/713/1
f 322/714/1 327/715/1 326/713/1
f 328/716/6 330/717/6 329/718/6
f 330/717/6 331/719/6 329/718/6
f 332/720/4 334/721/4 333/722/4
f 334/721/4 335/723/4 333/722/4
f 328/724/5 333/725/5 330/726/5
f 333/725/5 335/727/5 330/726/5
f 332/728/3 329/729/3 334/730/3
f 329/729/3 331/731/3 334/730/3
f 256/732/1 277/733/1 323/734/1
f 277/733/1 328/716/1 323/734/1
f 277/733/1 280/735/1 328/716/1
f 323/734/1 328/716/1 322/736/1
f 280/735/1 333/737/1 328/716/1
f 280/735/1 281/738/1 333/737/1
f 281/738/1 336/739/1 333/737/1
f 328/716/1 329/718/1 322/736/1
f 322/736/1 329/718/1 327/740/1
f 329/718/1 337/741/1 327/740/1
f 333/737/1 336/739/1 332/742/1
f 329/718/1 332/742/1 337/741/1
f 336/739/1 338/743/1 332/742/1
f 332/742/1 339/744/1 337/741/1
f 332/742/1 338/743/1 339/744/1
f 338/743/1 340/745/1 339/744/1
f 341/746/2 343/747/2 342/748/2
f 343/747/2 344/749/2 342/748/2
f 345/750/1 347/751/1 346/752/1
f 347/751/1 348/753/1 346/752/1
f 345/754/3 342/755/3 347/756/3
f 342/755/3 344/757/3 347/756/3
f 267/758/6 341/746/6 349/759/6
f 341/746/6 342/748/6 349/759/6
f 349/759/6 342/748/6 272/760/6
f 342/748/6 350/761/6 272/760/6
f 342/748/6 345/762/6 350/761/6
f 345/762/6 351/763/6 350/761/6
f 350/764/5 351/765/5 352/766/5
f 351/765/5 353/767/5 352/766/5
f 354/768/2 356/769/2 355/770/2
f 356/769/2 357/771/2 355/770/2
f 358/772/1 360/773/1 359/774/1
f 360/773/1 361/775/1 359/774/1
f 358/776/3 355/777/3 360/778/3
f 355/777/3 357/779/3 360/778/3
f 346/780/6 354/768/6 345/781/6
f 354/768/6 355/770/6 345/781/6
f 345/781/6 355/770/6 351/782/6
f 355/770/6 362/783/6 351/782/6
f 355/770/6 358/784/6 362/783/6
f 358/784/6 363/785/6 362/783/6
f 358/784/6 364/786/6 363/785/6
f 364/786/6 365/787/6 363/785/6
f 366/788/6 364/786/6 358/784/6
f 359/789/6 366/788/6 358/784/6
f 363/790/5 368/791/5 367/792/5
f 362/793/5 363/790/5 367/792/5
f 362/793/5 367/792/5 353/794/5
f 351/795/5 362/793/5 353/794/5
f 369/796/2 371/797/2 370/798/2
f 371/797/2 372/799/2 370/798/2
f 373/800/1 375/801/1 374/802/1
f 375/801/1 376/803/1 374/802/1
f 369/804/5 374/805/5 371/806/5
f 374/805/5 376/807/5 371/806/5
f 373/808/3 370/809/3 375/810/3
f 370/809/3 372/811/3 375/810/3
f 377/812/6 374/813/6 369/796/6
f 378/814/6 377/812/6 369/796/6
f 378/814/6 369/796/6 275/815/6
f 272/816/6 378/814/6 275/815/6
f 275/815/6 369/796/6 279/817/6
f 369/796/6 370/798/6 279/817/6
f 279/817/6 370/798/6 281/818/6
f 370/798/6 379/819/6 281/818/6
f 370/798/6 373/820/6 379/819/6
f 373/820/6 380/821/6 379/819/6
f 381/822/3 382/823/3 378/824/3
f 382/823/3 377/825/3 378/824/3
f 383/826/2 385/827/2 384/828/2
f 385/827/2 386/829/2 384/828/2
f 387/830/1 389/831/1 388/832/1
f 389/831/1 390/833/1 388/832/1
f 383/834/5 388/835/5 385/836/5
f 388/835/5 390/837/5 385/836/5
f 387/838/3 384/839/3 389/840/3
f 384/839/3 386/841/3 389/840/3
f 391/842/6 388/843/6 383/826/6
f 392/844/6 391/842/6 383/826/6
f 392/844/6 383/826/6 374/845/6
f 377/846/6 392/844/6 374/845/6
f 374/845/6 383/826/6 373/847/6
f 383/826/6 384/828/6 373/847/6
f 373/847/6 384/828/6 380/848/6
f 384/828/6 393/849/6 380/848/6
f 384/828/6 387/850/6 393/849/6
f 387/850/6 394/851/6 393/849/6
f 395/852/3 391/853/3 392/854/3
f 396/855/3 395/852/3 392/854/3
f 396/855/3 392/854/3 377/856/3
f 382/857/3 396/855/3 377/856/3
f 397/858/2 399/859/2 398/860/2
f 399/859/2 400/861/2 398/860/2
f 401/862/1 403/863/1 402/864/1
f 403/863/1 404/865/1 402/864/1
f 397/866/5 402/867/5 399/868/5
f 402/867/5 404/869/5 399/868/5
f 401/870/3 398/871/3 403/872/3
f 398/871/3 400/873/3 403/872/3
f 391/874/6 405/875/6 388/876/6
f 405/875/6 397/858/6 388/876/6
f 405/875/6 406/877/6 397/858/6
f 388/876/6 397/858/6 387/878/6
f 406/877/6 402/879/6 397/858/6
f 406/877/6 365/880/6 402/879/6
f 365/880/6 407/881/6 402/879/6
f 397/858/6 398/860/6 387/878/6
f 387/878/6 398/860/6 394/882/6
f 398/860/6 408/883/6 394/882/6
f 402/879/6 407/881/6 401/884/6
f 398/860/6 401/884/6 408/883/6
f 407/881/6 409/885/6 401/884/6
f 401/884/6 410/886/6 408/883/6
f 401/884/6 409/885/6 410/886/6
f 409/885/6 411/887/6 410/886/6
f 412/888/3 406/889/3 405/890/3
f 413/891/3 412/888/3 405/890/3
f 413/891/3 405/890/3 391/892/3
f 395/893/3 413/891/3 391/892/3
f 414/894/2 416/895/2 415/896/2
f 416/895/2 417/897/2 415/896/2
f 418/898/1 420/899/1 419/900/1
f 420/899/1 421/901/1 419/900/1
f 414/902/5 419/903/5 416/904/5
f 419/903/5 421/905/5 416/904/5
f 418/906/3 415/907/3 420/908/3
f 415/907/3 417/909/3 420/908/3
f 380/910/6 419/911/6 414/894/6
f 379/912/6 380/910/6 414/894/6
f 379/912/6 414/894/6 336/913/6
f 281/914/6 379/912/6 336/913/6
f 336/913/6 414/894/6 338/915/6
f 414/894/6 415/896/6 338/915/6
f 338/915/6 415/896/6 340/916/6
f 415/896/6 422/917/6 340/916/6
f 415/896/6 418/918/6 422/917/6
f 418/918/6 423/919/6 422/917/6
f 422/920/5 423/921/5 424/922/5
f 423/921/5 425/923/5 424/922/5
f 426/924/2 428/925/2 427/926/2
f 428/925/2 429/927/2 427/926/2
f 430/928/1 432/929/1 431/930/1
f 432/929/1 433/931/1 431/930/1
f 426/932/5 431/933/5 428/934/5
f 431/933/5 433/935/5 428/934/5
f 430/936/3 427/937/3 432/938/3
f 427/937/3 429/939/3 432/938/3
f 394/940/6 431/941/6 426/924/6
f 393/942/6 394/940/6 426/924/6
f 393/942/6 426/924/6 419/943/6
f 380/944/6 393/942/6 419/943/6
f 419/943/6 426/924/6 418/945/6
f 426/924/6 427/926/6 418/945/6
f 418/945/6 427/926/6 423/946/6
f 427/926/6 434/947/6 423/946/6
f 427/926/6 430/948/6 434/947/6
f 430/948/6 435/949/6 434/947/6
f 435/950/5 437/951/5 436/952/5
f 434/953/5 435/950/5 436/952/5
f 434/953/5 436/952/5 425/954/5
f 423/955/5 434/953/5 425/954/5
f 438/956/2 440/957/2 439/958/2
f 440/957/2 441/959/2 439/958/2
f 442/960/1 444/961/1 443/962/1
f 444/961/1 445/963/1 443/962/1
f 438/964/5 443/965/5 440/966/5
f 443/965/5 445/967/5 440/966/5
f 442/968/3 439/969/3 444/970/3
f 439/969/3 441/971/3 444/970/3
f 394/972/6 408/973/6 431/974/6
f 408/973/6 438/956/6 431/974/6
f 408/973/6 410/975/6 438/956/6
f 431/974/6 438/956/6 430/976/6
f 410/975/6 443/977/6 438/956/6
f 410/975/6 411/978/6 443/977/6
f 411/978/6 446/979/6 443/977/6
f 438/956/6 439/958/6 430/976/6
f 430/976/6 439/958/6 435/980/6
f 439/958/6 447/981/6 435/980/6
f 443/977/6 446/979/6 442/982/6
f 439/958/6 442/982/6 447/981/6
f 446/979/6 448/983/6 442/982/6
f 442/982/6 449/984/6 447/981/6
f 442/982/6 448/983/6 449/984/6
f 448/983/6 450/985/6 449/984/6
f 449/986/5 452/987/5 451/988/5
f 447/989/5 449/986/5 451/988/5
f 447/989/5 451/988/5 437/990/5
f 435/991/5 447/989/5 437/990/5
f 453/992/4 455/993/4 454/994/4
f 455/993/4 456/995/4 454/994/4
f 457/996/6 459/997/6 458/998/6
f 459/997/6 460/999/6 458/998/6
f 453/1000/5 458/1001/5 455/1002/5
f 458/1001/5 460/1003/5 455/1002/5
f 457/1004/3 454/1005/3 459/1006/3
f 454/1005/3 456/1007/3 459/1006/3
f 461/1008/2 458/1009/2 453/992/2
f 462/1010/2 461/1008/2 453/992/2
f 462/1010/2 453/992/2 463/1011/2
f 366/1012/2 462/1010/2 463/1011/2
f 463/1011/2 453/992/2 464/1013/2
f 453/992/2 454/994/2 464/1013/2
f 464/1013/2 454/994/2 365/1014/2
f 454/994/2 465/1015/2 365/1014/2
f 454/994/2 457/1016/2 465/1015/2
f 365/1014/2 465/1015/2 407/1017/2
f 457/1016/2 466/1018/2 465/1015/2
f 465/1015/2 467/1019/2 407/1017/2
f 465/1015/2 466/1018/2 467/1019/2
f 466/1018/2 468/1020/2 467/1019/2
f 407/1017/2 467/1019/2 409/1021/2
f 467/1019/2 469/1022/2 409/1021/2
f 409/1021/2 469/1022/2 411/1023/2
f 469/1022/2 470/1024/2 411/1023/2
f 469/1022/2 471/1025/2 470/1024/2
f 471/1025/2 472/1026/2 470/1024/2
f 473/1027/4 475/1028/4 474/1029/4
f 475/1028/4 476/1030/4 474/1029/4
f 477/1031/6 479/1032/6 478/1033/6
f 479/1032/6 480/1034/6 478/1033/6
f 473/1035/5 478/1036/5 475/1037/5
f 478/1036/5 480/1038/5 475/1037/5
f 477/1039/3 474/1040/3 479/1041/3
f 474/1040/3 476/1042/3 479/1041/3
f 481/1043/2 478/1044/2 473/1027/2
f 482/1045/2 481/1043/2 473/1027/2
f 482/1045/2 473/1027/2 458/1046/2
f 461/1047/2 482/1045/2 458/1046/2
f 458/1046/2 473/1027/2 457/1048/2
f 473/1027/2 474/1029/2 457/1048/2
f 457/1048/2 474/1029/2 466/1049/2
f 474/1029/2 483/1050/2 466/1049/2
f 474/1029/2 477/1051/2 483/1050/2
f 466/1049/2 483/1050/2 468/1052/2
f 477/1051/2 484/1053/2 483/1050/2
f 483/1050/2 485/1054/2 468/1052/2
f 483/1050/2 484/1053/2 485/1054/2
f 484/1053/2 486/1055/2 485/1054/2
f 468/1052/2 485/1054/2 471/1056/2
f 485/1054/2 487/1057/2 471/1056/2
f 471/1056/2 487/1057/2 472/1058/2
f 487/1057/2 488/1059/2 472/1058/2
f 487/1057/2 489/1060/2 488/1059/2
f 489/1060/2 490/1061/2 488/1059/2
f 491/1062/4 493/1063/4 492/1064/4
f 493/1063/4 494/1065/4 492/1064/4
f 495/1066/6 497/1067/6 496/1068/6
f 497/1067/6 498/1069/6 496/1068/6
f 491/1070/5 496/1071/5 493/1072/5
f 496/1071/5 498/1073/5 493/1072/5
f 495/1074/3 492/1075/3 497/1076/3
f 492/1075/3 494/1077/3 497/1076/3
f 499/1078/2 496/1079/2 491/1062/2
f 500/1080/2 499/1078/2 491/1062/2
f 500/1080/2 491/1062/2 478/1081/2
f 481/1082/2 500/1080/2 478/1081/2
f 478/1081/2 491/1062/2 477/1083/2
f 491/1062/2 492/1064/2 477/1083/2
f 477/1083/2 492/1064/2 484/1084/2
f 492/1064/2 501/1085/2 484/1084/2
f 492/1064/2 495/1086/2 501/1085/2
f 484/1084/2 501/1085/2 486/1087/2
f 495/1086/2 502/1088/2 501/1085/2
f 501/1085/2 503/1089/2 486/1087/2
f 501/1085/2 502/1088/2 503/1089/2
f 502/1088/2 504/1090/2 503/1089/2
f 486/1087/2 503/1089/2 489/1091/2
f 503/1089/2 505/1092/2 489/1091/2
f 489/1091/2 505/1092/2 490/1093/2
f 505/1092/2 506/1094/2 490/1093/2
f 505/1092/2 507/1095/2 506/1094/2
f 507/1095/2 508/1096/2 506/1094/2
f 509/1097/4 511/1098/4 510/1099/4
f 511/1098/4 512/1100/4 510/1099/4
f 513/1101/6 515/1102/6 514/1103/6
f 515/1102/6 516/1104/6 514/1103/6
f 509/1105/5 514/1106/5 511/1107/5
f 514/1106/5 516/1108/5 511/1107/5
f 513/1109/3 510/1110/3 515/1111/3
f 510/1110/3 512/1112/3 515/1111/3
f 499/1113/2 517/1114/2 496/1115/2
f 517/1114/2 509/1097/2 496/1115/2
f 517/1114/2 518/1116/2 509/1097/2
f 496/1115/2 509/1097/2 495/1117/2
f 518/1116/2 514/1118/2 509/1097/2
f 518/1116/2 9/1119/2 514/1118/2
f 9/1119/2 519/1120/2 514/1118/2
f 509/1097/2 510/1099/2 495/1117/2
f 514/1118/2 519/1120/2 513/1121/2
f 495/1117/2 510/1099/2 502/1122/2
f 519/1120/2 520/1123/2 513/1121/2
f 510/1099/2 521/1124/2 502/1122/2
f 510/1099/2 513/1121/2 521/1124/2
f 502/1122/2 521/1124/2 504/1125/2
f 513/1121/2 520/1123/2 522/1126/2
f 513/1121/2 522/1126/2 521/1124/2
f 520/1123/2 11/1127/2 522/1126/2
f 521/1124/2 523/1128/2 504/1125/2
f 521/1124/2 522/1126/2 523/1128/2
f 504/1125/2 523/1128/2 507/1129/2
f 522/1126/2 11/1127/2 524/1130/2
f 522/1126/2 524/1130/2 523/1128/2
f 11/1127/2 121/1131/2 524/1130/2
f 523/1128/2 525/1132/2 507/1129/2
f 507/1129/2 525/1132/2 508/1133/2
f 525/1132/2 526/1134/2 508/1133/2
f 524/1130/2 121/1131/2 527/1135/2
f 525/1132/2 527/1135/2 526/1134/2
f 121/1131/2 122/1136/2 527/1135/2
f 527/1135/2 528/1137/2 526/1134/2
f 527/1135/2 122/1136/2 528/1137/2
f 122/1136/2 123/1138/2 528/1137/2
f 467/1019/4 529/1139/4 469/1022/4
f 529/1139/4 530/1140/4 469/1022/4
f 471/1141/6 531/1142/6 468/1143/6
f 531/1142/6 532/1144/6 468/1143/6
f 467/1145/5 468/1146/5 529/1147/5
f 468/1146/5 532/1148/5 529/1147/5
f 471/1149/3 469/1150/3 531/1151/3
f 469/1150/3 530/1152/3 531/1151/3
f 485/1054/4 533/1153/4 487/1057/4
f 533/1153/4 534/1154/4 487/1057/4
f 489/1155/6 535/1156/6 486/1157/6
f 535/1156/6 536/1158/6 486/1157/6
f 485/1159/5 486/1160/5 533/1161/5
f 486/1160/5 536/1162/5 533/1161/5
f 489/1163/3 487/1164/3 535/1165/3
f 487/1164/3 534/1166/3 535/1165/3
f 503/1089/4 537/1167/4 505/1092/4
f 537/1167/4 538/1168/4 505/1092/4
f 507/1169/6 539/1170/6 504/1171/6
f 539/1170/6 540/1172/6 504/1171/6
f 503/1173/5 504/1174/5 537/1175/5
f 504/1174/5 540/1176/5 537/1175/5
f 507/1177/3 505/1178/3 539/1179/3
f 505/1178/3 538/1180/3 539/1179/3
f 523/1128/4 541/1181/4 525/1132/4
f 541/1181/4 542/1182/4 525/1132/4
f 527/1183/6 543/1184/6 524/1185/6
f 543/1184/6 544/1186/6 524/1185/6
f 523/1187/5 524/1188/5 541/1189/5
f 524/1188/5 544/1190/5 541/1189/5
f 527/1191/3 525/1192/3 543/1193/3
f 525/1192/3 542/1194/3 543/1193/3
f 545/1195/4 547/1196/4 546/1197/4
f 547/1196/4 548/1198/4 546/1197/4
f 549/1199/6 551/1200/6 550/1201/6
f 551/1200/6 552/1202/6 550/1201/6
f 545/1203/5 550/1204/5 547/1205/5
f 550/1204/5 552/1206/5 547/1205/5
f 549/1207/3 546/1208/3 551/1209/3
f 546/1208/3 548/1210/3 551/1209/3
f 472/1211/2 550/1212/2 545/1195/2
f 470/1213/2 472/1211/2 545/1195/2
f 470/1213/2 545/1195/2 446/1214/2
f 411/1215/2 470/1213/2 446/1214/2
f 446/1214/2 545/1195/2 448/1216/2
f 545/1195/2 546/1197/2 448/1216/2
f 448/1216/2 546/1197/2 450/1217/2
f 546/1197/2 553/1218/2 450/1217/2
f 546/1197/2 549/1219/2 553/1218/2
f 549/1219/2 554/1220/2 553/1218/2
f 555/1221/4 557/1222/4 556/1223/4
f 557/1222/4 558/1224/4 556/1223/4
f 559/1225/6 561/1226/6 560/1227/6
f 561/1226/6 562/1228/6 560/1227/6
f 555/1229/5 560/1230/5 557/1231/5
f 560/1230/5 562/1232/5 557/1231/5
f 559/1233/3 556/1234/3 561/1235/3
f 556/1234/3 558/1236/3 561/1235/3
f 490/1237/2 560/1238/2 555/1221/2
f 488/1239/2 490/1237/2 555/1221/2
f 488/1239/2 555/1221/2 550/1240/2
f 472/1241/2 488/1239/2 550/1240/2
f 550/1240/2 555/1221/2 549/1242/2
f 555/1221/2 556/1223/2 549/1242/2
f 549/1242/2 556/1223/2 554/1243/2
f 556/1223/2 563/1244/2 554/1243/2
f 556/1223/2 559/1245/2 563/1244/2
f 559/1245/2 564/1246/2 563/1244/2
f 565/1247/4 567/1248/4 566/1249/4
f 567/1248/4 568/1250/4 566/1249/4
f 569/1251/6 571/1252/6 570/1253/6
f 571/1252/6 572/1254/6 570/1253/6
f 565/1255/5 570/1256/5 567/1257/5
f 570/1256/5 572/1258/5 567/1257/5
f 569/1259/3 566/1260/3 571/1261/3
f 566/1260/3 568/1262/3 571/1261/3
f 508/1263/2 570/1264/2 565/1247/2
f 506/1265/2 508/1263/2 565/1247/2
f 506/1265/2 565/1247/2 560/1266/2
f 490/1267/2 506/1265/2 560/1266/2
f 560/1266/2 565/1247/2 559/1268/2
f 565/1247/2 566/1249/2 559/1268/2
f 559/1268/2 566/1249/2 564/1269/2
f 566/1249/2 573/1270/2 564/1269/2
f 566/1249/2 569/1271/2 573/1270/2
f 569/1271/2 574/1272/2 573/1270/2
f 575/1273/4 577/1274/4 576/1275/4
f 577/1274/4 578/1276/4 576/1275/4
f 579/1277/6 581/1278/6 580/1279/6
f 581/1278/6 582/1280/6 580/1279/6
f 575/1281/5 580/1282/5 577/1283/5
f 580/1282/5 582/1284/5 577/1283/5
f 579/1285/3 576/1286/3 581/1287/3
f 576/1286/3 578/1288/3 581/1287/3
f 508/1289/2 526/1290/2 570/1291/2
f 526/1290/2 575/1273/2 570/1291/2
f 526/1290/2 528/1292/2 575/1273/2
f 570/1291/2 575/1273/2 569/1293/2
f 528/1292/2 580/1294/2 575/1273/2
f 528/1292/2 123/1295/2 580/1294/2
f 123/1295/2 167/1296/2 580/1294/2
f 575/1273/2 576/1275/2 569/1293/2
f 569/1293/2 576/1275/2 574/1297/2
f 576/1275/2 583/1298/2 574/1297/2
f 580/1294/2 167/1296/2 579/1299/2
f 576/1275/2 579/1299/2 583/1298/2
f 167/1296/2 168/1300/2 579/1299/2
f 579/1299/2 584/1301/2 583/1298/2
f 579/1299/2 168/1300/2 584/1301/2
f 168/1300/2 169/1302/2 584/1301/2
f 585/1303/6 587/1304/6 586/1305/6
f 587/1304/6 588/1306/6 586/1305/6
f 588/1307/5 589/1308/5 586/1309/5
f 588/1307/5 590/1310/5 589/1308/5
f 591/1311/4 592/1312/4 590/1313/4
f 592/1312/4 589/1314/4 590/1313/4
f 585/1315/3 591/1316/3 587/1317/3
f 585/1315/3 592/1318/3 591/1316/3
f 593/1319/2 585/1320/2 594/1321/2
f 585/1320/2 586/1322/2 594/1321/2
f 586/1323/5 595/1324/5 594/1325/5
f 586/1323/5 589/1326/5 595/1324/5
f 592/1327/1 596/1328/1 589/1329/1
f 596/1328/1 595/1330/1 589/1329/1
f 593/1331/3 592/1332/3 585/1303/3
f 593/1331/3 596/1333/3 592/1332/3
f 597/1334/4 593/1335/4 598/1336/4
f 593/1335/4 594/1337/4 598/1336/4
f 594/1338/5 599/1339/5 598/1340/5
f 594/1338/5 595/1341/5 599/1339/5
f 596/1342/6 600/1343/6 595/1344/6
f 600/1343/6 599/1345/6 595/1344/6
f 597/1346/3 596/1347/3 593/1319/3
f 597/1346/3 600/1348/3 596/1347/3
f 587/1317/1 597/1349/1 588/1350/1
f 597/1349/1 598/1351/1 588/1350/1
f 598/1352/5 590/1353/5 588/1354/5
f 598/1352/5 599/1355/5 590/1353/5
f 600/1356/2 591/1357/2 599/1358/2
f 591/1357/2 590/1359/2 599/1358/2
f 587/1360/3 600/1361/3 597/1334/3
f 587/1360/3 591/1362/3 600/1361/3
