# Blender MTL File: 'sanfrancisco.blend'
# Material Count: 1

newmtl Brick03BrownMaterial.002
Ns 179.999996
Ka 1.000000 1.000000 1.000000
Kd 0.594340 0.479396 0.479396
Ks 0.500000 0.500000 0.500000
Ke 1.000000 1.000000 1.000000
Ni 1.450000
d 1.000000
illum 2
map_Kd Brick03Diffuse.jpg
norm Brick03Normal.png 
