# Blender v2.92.0 OBJ File: 'sanfrancisco.blend'
# www.blender.org
mtllib Brick00Tiling2_1.mtl
o Brick00Tiling2_1_Scene.3723
v 952.499878 -0.000061 -2300.000000
v 952.499878 255.999878 -2300.000000
v 952.499878 -0.000061 -2280.000000
v 952.499878 255.999878 -2280.000000
v 727.499939 255.999878 -2300.000000
v 727.499939 -0.000061 -2300.000000
v 727.499939 255.999878 -2280.000000
v 727.499939 -0.000061 -2280.000000
v 1700.000122 -0.000061 -2300.000000
v 1700.000122 255.999939 -2300.000000
v 1700.000122 399.999878 -2300.000000
v 952.499878 399.999878 -2300.000000
v 727.499939 399.999878 -2300.000000
v -727.499756 -0.000061 -2300.000000
v -727.499756 256.000000 -2300.000000
v -727.499756 -0.000061 -2280.000000
v -727.499756 256.000000 -2280.000000
v -952.499756 256.000000 -2300.000000
v -952.499756 -0.000061 -2300.000000
v -952.499756 256.000000 -2280.000000
v -952.499756 -0.000061 -2280.000000
v -727.499756 400.000000 -2300.000000
v -952.499756 399.999878 -2300.000000
v -1700.000000 255.999939 -2300.000000
v -1700.000000 400.000000 -2300.000000
v -1700.000000 -0.000061 -2300.000000
v -1699.999756 143.999878 -2054.288818
v -1700.000000 318.999878 -2054.288818
v -1684.999756 143.999878 -2054.288818
v -1685.000000 318.999878 -2054.288818
v -1699.999756 318.999878 -1854.288696
v -1699.999756 143.999878 -1854.288696
v -1684.999756 318.999878 -1854.288696
v -1684.999756 143.999878 -1854.288696
v -1699.999756 -0.000061 -1854.288696
v -1699.999756 -0.000061 -2054.288818
v -1700.000000 143.999878 -2300.000000
v -1700.000000 318.999878 -2300.000000
v -1700.000000 400.000000 -2054.288818
v -1700.000000 400.000000 -1854.288696
v -1699.999756 143.999878 -1402.859009
v -1699.999756 318.999878 -1402.859009
v -1684.999756 143.999878 -1402.859009
v -1684.999756 318.999878 -1402.859009
v -1699.999756 318.999878 -1202.859009
v -1699.999756 143.999878 -1202.859009
v -1684.999756 318.999878 -1202.859009
v -1684.999756 143.999878 -1202.859009
v -1699.999756 -0.000061 -1202.859009
v -1699.999756 -0.000061 -1402.859009
v -1699.999756 400.000000 -1402.859009
v -1699.999756 400.000000 -1202.859009
v -1699.999756 143.999878 -751.429443
v -1699.999756 318.999878 -751.429443
v -1684.999756 143.999878 -751.429443
v -1684.999756 318.999878 -751.429443
v -1699.999756 318.999878 -551.429565
v -1699.999756 143.999878 -551.429565
v -1684.999756 318.999878 -551.429565
v -1684.999756 143.999878 -551.429565
v -1699.999756 -0.000061 -551.429565
v -1699.999756 -0.000061 -751.429443
v -1699.999756 400.000000 -751.429443
v -1699.999756 400.000000 -551.429565
v -1699.999756 143.999878 -100.000000
v -1699.999756 318.999878 -100.000000
v -1684.999756 143.999878 -100.000000
v -1684.999756 318.999878 -100.000000
v -1699.999756 318.999878 99.999985
v -1699.999756 143.999878 99.999985
v -1684.999756 318.999878 99.999985
v -1684.999756 143.999878 99.999985
v -1699.999756 -0.000061 99.999985
v -1699.999756 -0.000061 -100.000000
v -1699.999756 400.000000 -100.000000
v -1699.999756 400.000000 99.999985
v -1699.999756 143.999878 551.429565
v -1699.999756 318.999878 551.429565
v -1684.999756 143.999878 551.429565
v -1684.999756 318.999878 551.429565
v -1699.999756 318.999878 751.429565
v -1699.999756 143.999878 751.429565
v -1684.999756 318.999878 751.429565
v -1684.999756 143.999878 751.429565
v -1699.999756 -0.000061 751.429565
v -1699.999756 -0.000061 551.429565
v -1699.999756 400.000000 551.429565
v -1699.999756 400.000000 751.429565
v -1699.999756 143.999878 1202.859131
v -1699.999756 318.999878 1202.859131
v -1684.999756 143.999878 1202.859131
v -1684.999756 318.999878 1202.859131
v -1699.999756 318.999878 1402.859375
v -1699.999756 143.999878 1402.859375
v -1684.999756 318.999878 1402.859375
v -1684.999756 143.999878 1402.859375
v -1699.999756 -0.000061 1402.859375
v -1699.999756 -0.000061 1202.859131
v -1699.999756 400.000000 1202.859131
v -1699.999756 400.000000 1402.859375
v -1700.000000 143.999878 1854.289062
v -1700.000000 318.999878 1854.289062
v -1685.000000 143.999878 1854.289062
v -1685.000000 318.999878 1854.289062
v -1700.000000 318.999878 2054.288818
v -1700.000000 143.999878 2054.288818
v -1685.000000 318.999878 2054.288818
v -1685.000000 143.999878 2054.288818
v -1700.000000 -0.000061 1854.289062
v -1700.000000 -0.000061 2054.288818
v -1700.000000 -0.000061 2299.999756
v -1700.000000 143.999878 2299.999756
v -1700.000000 400.000000 1854.289062
v -1700.000000 318.999878 2299.999756
v -1700.000000 400.000000 2054.288818
v -1700.000000 400.000000 2299.999756
v 1700.000000 -0.000061 2299.999756
v 1699.999878 399.999878 2299.999756
v 1699.999878 143.999939 2054.288818
v 1699.999878 318.999878 2054.288818
v 1684.999878 143.999939 2054.288818
v 1684.999878 318.999878 2054.288818
v 1699.999878 318.999878 1854.288940
v 1699.999878 143.999939 1854.288940
v 1684.999878 318.999878 1854.288940
v 1684.999878 143.999939 1854.288940
v 1699.999878 -0.000061 1854.288940
v 1700.000000 -0.000061 2054.288818
v 1700.000000 143.999939 2299.999756
v 1700.000000 318.999878 2299.999756
v 1699.999878 399.999878 2054.288818
v 1699.999878 399.999878 1854.288940
v 1700.000122 143.999939 1402.859253
v 1700.000122 318.999878 1402.859253
v 1685.000122 143.999939 1402.859253
v 1685.000122 318.999878 1402.859253
v 1700.000122 318.999878 1202.859253
v 1700.000122 143.999939 1202.859253
v 1685.000122 318.999878 1202.859253
v 1685.000122 143.999939 1202.859253
v 1700.000122 -0.000061 1202.859253
v 1700.000122 -0.000061 1402.859253
v 1700.000122 399.999878 1402.859253
v 1700.000122 399.999878 1202.859253
v 1700.000122 143.999939 751.429565
v 1700.000122 318.999878 751.429565
v 1685.000122 143.999939 751.429565
v 1685.000122 318.999878 751.429565
v 1700.000122 318.999878 551.429565
v 1700.000122 143.999939 551.429565
v 1685.000122 318.999878 551.429565
v 1685.000122 143.999939 551.429565
v 1700.000122 -0.000061 551.429565
v 1700.000122 -0.000061 751.429565
v 1700.000122 399.999878 751.429565
v 1700.000122 399.999878 551.429565
v 1700.000122 143.999939 100.000000
v 1700.000122 318.999878 100.000000
v 1685.000122 143.999939 100.000000
v 1685.000122 318.999878 100.000000
v 1700.000122 318.999878 -99.999985
v 1700.000122 143.999939 -99.999985
v 1685.000122 318.999878 -99.999985
v 1685.000122 143.999939 -99.999985
v 1700.000122 -0.000061 -99.999985
v 1700.000122 -0.000061 100.000000
v 1700.000122 399.999878 100.000000
v 1700.000122 399.999878 -99.999985
v 1700.000122 143.999939 -551.429565
v 1700.000000 318.999878 -551.429565
v 1685.000122 143.999939 -551.429565
v 1685.000000 318.999878 -551.429565
v 1700.000000 318.999878 -751.429504
v 1700.000000 143.999939 -751.429504
v 1685.000000 318.999878 -751.429504
v 1685.000000 143.999939 -751.429504
v 1700.000122 -0.000061 -751.429504
v 1700.000122 -0.000061 -551.429565
v 1700.000000 399.999878 -551.429565
v 1700.000000 399.999878 -751.429504
v 1700.000000 143.999939 -1202.859009
v 1700.000000 318.999878 -1202.859009
v 1685.000000 143.999939 -1202.859009
v 1685.000000 318.999878 -1202.859009
v 1700.000000 318.999878 -1402.859131
v 1700.000000 143.999939 -1402.859131
v 1685.000000 318.999878 -1402.859131
v 1685.000000 143.999939 -1402.859131
v 1700.000000 -0.000061 -1402.859131
v 1700.000000 -0.000061 -1202.859009
v 1700.000000 399.999878 -1202.859009
v 1700.000000 399.999878 -1402.859131
v 1700.000122 143.999939 -1854.288818
v 1700.000122 318.999878 -1854.288818
v 1685.000122 143.999939 -1854.288818
v 1685.000122 318.999878 -1854.288818
v 1700.000122 318.999878 -2054.288818
v 1700.000122 143.999939 -2054.288818
v 1685.000122 318.999878 -2054.288818
v 1685.000122 143.999939 -2054.288818
v 1700.000122 -0.000061 -1854.288818
v 1700.000122 -0.000061 -2054.288818
v 1700.000122 143.999939 -2300.000000
v 1700.000122 399.999878 -1854.288818
v 1700.000122 318.999878 -2300.000000
v 1700.000122 399.999878 -2054.288818
vt 3.241667 0.000000
vt 3.175000 0.000000
vt 3.241667 0.853333
vt 3.175000 0.853333
vt 4.058333 0.000000
vt 3.991667 0.000000
vt 4.058333 0.853333
vt 3.991667 0.853333
vt 3.241667 0.000000
vt 3.991667 0.000000
vt 3.241667 -0.066667
vt 3.991667 -0.066667
vt 0.750000 0.000000
vt 0.750000 0.853333
vt 0.750000 1.333333
vt 3.241667 1.333333
vt 3.991667 0.853333
vt 3.991667 1.333333
vt 6.350000 0.000000
vt 6.283333 0.000000
vt 6.350000 0.853333
vt 6.283333 0.853333
vt 7.166667 0.000000
vt 7.100000 0.000000
vt 7.166667 0.853333
vt 7.100000 0.853333
vt 6.350000 0.000000
vt 7.100000 0.000000
vt 6.350000 -0.066667
vt 7.100000 -0.066667
vt 1.500000 0.000000
vt 1.500000 0.853333
vt 1.500000 1.333333
vt 6.350000 1.333333
vt 7.100000 0.853333
vt 7.100000 1.333333
vt 9.591666 0.853333
vt 9.591666 1.333333
vt 9.591666 0.000000
vt 7.100000 0.000000
vt 1.485714 0.480000
vt 1.435714 0.480000
vt 1.485714 1.063333
vt 1.435714 1.063333
vt 2.219048 0.480000
vt 2.152381 0.480000
vt 2.219048 1.063333
vt 2.152381 1.063333
vt 1.485714 0.000000
vt 2.152381 0.000000
vt 1.485714 -0.050000
vt 2.152381 -0.050000
vt 1.485714 0.000000
vt 2.152381 0.000000
vt 1.485714 -0.050000
vt 2.152381 -0.050000
vt 2.152381 0.000000
vt 2.152381 0.480000
vt 1.485714 0.000000
vt 0.666667 0.480000
vt 0.666667 0.000000
vt 0.666667 1.063333
vt 0.666667 1.333333
vt 1.485714 1.333333
vt 2.152381 1.063333
vt 2.152381 1.333333
vt 2.838095 0.480000
vt 2.788095 0.480000
vt 2.838095 1.063333
vt 2.788095 1.063333
vt 3.571428 0.480000
vt 3.504762 0.480000
vt 3.571428 1.063333
vt 3.504762 1.063333
vt 2.838095 0.000000
vt 3.504762 0.000000
vt 2.838095 -0.050000
vt 3.504762 -0.050000
vt 2.838095 0.000000
vt 3.504762 0.000000
vt 2.838095 -0.050000
vt 3.504762 -0.050000
vt 3.504762 0.000000
vt 3.504762 0.480000
vt 2.838095 0.000000
vt 1.333333 0.480000
vt 1.333333 0.000000
vt 1.333333 1.063333
vt 1.333333 1.333333
vt 2.838095 1.333333
vt 3.504762 1.063333
vt 3.504762 1.333333
vt 3.504762 0.480000
vt 3.454762 0.480000
vt 3.504762 1.063333
vt 3.454762 1.063333
vt 4.238095 0.480000
vt 4.171428 0.480000
vt 4.238095 1.063333
vt 4.171428 1.063333
vt 3.504762 0.000000
vt 4.171429 0.000000
vt 3.504762 -0.050000
vt 4.171429 -0.050000
vt 3.504762 0.000000
vt 4.171429 0.000000
vt 3.504762 -0.050000
vt 4.171429 -0.050000
vt 4.171429 0.000000
vt 4.171429 0.480000
vt 3.504762 0.000000
vt 2.000000 0.480000
vt 2.000000 0.000000
vt 2.000000 1.063333
vt 2.000000 1.333333
vt 3.504762 1.333333
vt 4.171429 1.063333
vt 4.171429 1.333333
vt 4.171429 0.480000
vt 4.121429 0.480000
vt 4.171429 1.063333
vt 4.121429 1.063333
vt 4.904762 0.480000
vt 4.838095 0.480000
vt 4.904762 1.063333
vt 4.838095 1.063333
vt 4.171429 0.000000
vt 4.838095 0.000000
vt 4.171429 -0.050000
vt 4.838095 -0.050000
vt 4.171429 0.000000
vt 4.838095 0.000000
vt 4.171429 -0.050000
vt 4.838095 -0.050000
vt 4.838095 0.000000
vt 4.838095 0.480000
vt 4.171429 0.000000
vt 2.666667 0.480000
vt 2.666667 0.000000
vt 2.666667 1.063333
vt 2.666667 1.333333
vt 4.171429 1.333333
vt 4.838095 1.063333
vt 4.838095 1.333333
vt 4.838095 0.480000
vt 4.788095 0.480000
vt 4.838095 1.063333
vt 4.788095 1.063333
vt 5.571428 0.480000
vt 5.504761 0.480000
vt 5.571428 1.063333
vt 5.504761 1.063333
vt 4.838095 0.000000
vt 5.504762 0.000000
vt 4.838095 -0.050000
vt 5.504762 -0.050000
vt 4.838095 0.000000
vt 5.504762 0.000000
vt 4.838095 -0.050000
vt 5.504762 -0.050000
vt 5.504762 0.000000
vt 5.504762 0.480000
vt 4.838095 0.000000
vt 3.333333 0.480000
vt 3.333333 0.000000
vt 3.333333 1.063333
vt 3.333333 1.333333
vt 4.838095 1.333333
vt 5.504762 1.063333
vt 5.504762 1.333333
vt 5.504762 0.480000
vt 5.454762 0.480000
vt 5.504762 1.063333
vt 5.454762 1.063333
vt 6.238095 0.480000
vt 6.171428 0.480000
vt 6.238095 1.063333
vt 6.171428 1.063333
vt 5.504762 0.000000
vt 6.171429 0.000000
vt 5.504762 -0.050000
vt 6.171429 -0.050000
vt 5.504762 0.000000
vt 6.171429 0.000000
vt 5.504762 -0.050000
vt 6.171429 -0.050000
vt 6.171429 0.000000
vt 6.171429 0.480000
vt 5.504762 0.000000
vt 4.000000 0.480000
vt 4.000000 0.000000
vt 4.000000 1.063333
vt 4.000000 1.333333
vt 5.504762 1.333333
vt 6.171429 1.063333
vt 6.171429 1.333333
vt 6.171429 0.480000
vt 6.121429 0.480000
vt 6.171429 1.063333
vt 6.121429 1.063333
vt 6.904762 0.480000
vt 6.838095 0.480000
vt 6.904762 1.063333
vt 6.838095 1.063333
vt 6.171429 0.000000
vt 6.838095 0.000000
vt 6.171429 -0.050000
vt 6.838095 -0.050000
vt 6.171429 0.000000
vt 6.838095 0.000000
vt 6.171429 -0.050000
vt 6.838095 -0.050000
vt 4.666667 0.000000
vt 6.171429 0.000000
vt 4.666667 0.480000
vt 6.838095 0.000000
vt 4.666667 1.063333
vt 6.838095 0.480000
vt 7.657143 0.000000
vt 7.657143 0.480000
vt 4.666667 1.333333
vt 6.171429 1.333333
vt 6.838095 1.063333
vt 7.657143 1.063333
vt 6.838095 1.333333
vt 7.657143 1.333333
vt 0.000000 0.000000
vt 11.333330 0.000000
vt 0.000000 1.333333
vt 11.333330 1.333333
vt 1.485714 0.480000
vt 1.435714 0.480000
vt 1.485714 1.063333
vt 1.435714 1.063333
vt 2.219048 0.480000
vt 2.152381 0.480000
vt 2.219048 1.063333
vt 2.152381 1.063333
vt 1.485714 0.000000
vt 2.152381 0.000000
vt 1.485714 -0.050000
vt 2.152381 -0.050000
vt 1.485714 0.000000
vt 2.152381 0.000000
vt 1.485714 -0.050000
vt 2.152381 -0.050000
vt 2.152381 0.000000
vt 2.152381 0.480000
vt 1.485714 0.000000
vt 0.666667 0.480000
vt 0.666667 0.000000
vt 0.666667 1.063333
vt 0.666667 1.333333
vt 1.485714 1.333333
vt 2.152381 1.063333
vt 2.152381 1.333333
vt 2.838095 0.480000
vt 2.788095 0.480000
vt 2.838095 1.063333
vt 2.788095 1.063333
vt 3.571428 0.480000
vt 3.504762 0.480000
vt 3.571428 1.063333
vt 3.504762 1.063333
vt 2.838095 0.000000
vt 3.504762 0.000000
vt 2.838095 -0.050000
vt 3.504762 -0.050000
vt 2.838095 0.000000
vt 3.504762 0.000000
vt 2.838095 -0.050000
vt 3.504762 -0.050000
vt 3.504762 0.000000
vt 3.504762 0.480000
vt 2.838095 0.000000
vt 1.333333 0.480000
vt 1.333333 0.000000
vt 1.333333 1.063333
vt 1.333333 1.333333
vt 2.838095 1.333333
vt 3.504762 1.063333
vt 3.504762 1.333333
vt 3.504762 0.480000
vt 3.454762 0.480000
vt 3.504762 1.063333
vt 3.454762 1.063333
vt 4.238095 0.480000
vt 4.171428 0.480000
vt 4.238095 1.063333
vt 4.171428 1.063333
vt 3.504762 0.000000
vt 4.171429 0.000000
vt 3.504762 -0.050000
vt 4.171429 -0.050000
vt 3.504762 0.000000
vt 4.171429 0.000000
vt 3.504762 -0.050000
vt 4.171429 -0.050000
vt 4.171429 0.000000
vt 4.171429 0.480000
vt 3.504762 0.000000
vt 2.000000 0.480000
vt 2.000000 0.000000
vt 2.000000 1.063333
vt 2.000000 1.333333
vt 3.504762 1.333333
vt 4.171429 1.063333
vt 4.171429 1.333333
vt 4.171429 0.480000
vt 4.121429 0.480000
vt 4.171429 1.063333
vt 4.121429 1.063333
vt 4.904762 0.480000
vt 4.838095 0.480000
vt 4.904762 1.063333
vt 4.838095 1.063333
vt 4.171429 0.000000
vt 4.838095 0.000000
vt 4.171429 -0.050000
vt 4.838095 -0.050000
vt 4.171429 0.000000
vt 4.838095 0.000000
vt 4.171429 -0.050000
vt 4.838095 -0.050000
vt 4.838095 0.000000
vt 4.838095 0.480000
vt 4.171429 0.000000
vt 2.666667 0.480000
vt 2.666667 0.000000
vt 2.666667 1.063333
vt 2.666667 1.333333
vt 4.171429 1.333333
vt 4.838095 1.063333
vt 4.838095 1.333333
vt 4.838095 0.480000
vt 4.788095 0.480000
vt 4.838095 1.063333
vt 4.788095 1.063333
vt 5.571428 0.480000
vt 5.504761 0.480000
vt 5.571428 1.063333
vt 5.504761 1.063333
vt 4.838095 0.000000
vt 5.504762 0.000000
vt 4.838095 -0.050000
vt 5.504762 -0.050000
vt 4.838095 0.000000
vt 5.504762 0.000000
vt 4.838095 -0.050000
vt 5.504762 -0.050000
vt 5.504762 0.000000
vt 5.504762 0.480000
vt 4.838095 0.000000
vt 3.333333 0.480000
vt 3.333333 0.000000
vt 3.333333 1.063333
vt 3.333333 1.333333
vt 4.838095 1.333333
vt 5.504762 1.063333
vt 5.504762 1.333333
vt 5.504762 0.480000
vt 5.454762 0.480000
vt 5.504762 1.063333
vt 5.454762 1.063333
vt 6.238095 0.480000
vt 6.171428 0.480000
vt 6.238095 1.063333
vt 6.171428 1.063333
vt 5.504762 0.000000
vt 6.171429 0.000000
vt 5.504762 -0.050000
vt 6.171429 -0.050000
vt 5.504762 0.000000
vt 6.171429 0.000000
vt 5.504762 -0.050000
vt 6.171429 -0.050000
vt 6.171429 0.000000
vt 6.171429 0.480000
vt 5.504762 0.000000
vt 4.000000 0.480000
vt 4.000000 0.000000
vt 4.000000 1.063333
vt 4.000000 1.333333
vt 5.504762 1.333333
vt 6.171429 1.063333
vt 6.171429 1.333333
vt 6.171429 0.480000
vt 6.121429 0.480000
vt 6.171429 1.063333
vt 6.121429 1.063333
vt 6.904762 0.480000
vt 6.838095 0.480000
vt 6.904762 1.063333
vt 6.838095 1.063333
vt 6.171429 0.000000
vt 6.838095 0.000000
vt 6.171429 -0.050000
vt 6.838095 -0.050000
vt 6.171429 0.000000
vt 6.838095 0.000000
vt 6.171429 -0.050000
vt 6.838095 -0.050000
vt 4.666667 0.000000
vt 6.171429 0.000000
vt 4.666667 0.480000
vt 6.838095 0.000000
vt 4.666667 1.063333
vt 6.838095 0.480000
vt 7.657143 0.000000
vt 7.657143 0.480000
vt 4.666667 1.333333
vt 6.171429 1.333333
vt 6.838095 1.063333
vt 7.657143 1.063333
vt 6.838095 1.333333
vt 7.657143 1.333333
vn -1.0000 0.0000 0.0000
vn 1.0000 0.0000 0.0000
vn 0.0000 -1.0000 0.0000
vn 0.0000 0.0000 -1.0000
vn 0.0000 0.0000 1.0000
vn 0.0000 1.0000 0.0000
usemtl Brick00Material.002
s 1
f 1/1/1 3/2/1 2/3/1
f 3/2/1 4/4/1 2/3/1
f 5/5/2 7/6/2 6/7/2
f 7/6/2 8/8/2 6/7/2
f 5/9/3 2/10/3 7/11/3
f 2/10/3 4/12/3 7/11/3
f 9/13/4 1/1/4 10/14/4
f 1/1/4 2/3/4 10/14/4
f 10/14/4 2/3/4 11/15/4
f 2/3/4 12/16/4 11/15/4
f 2/3/4 5/17/4 12/16/4
f 5/17/4 13/18/4 12/16/4
f 14/19/1 16/20/1 15/21/1
f 16/20/1 17/22/1 15/21/1
f 18/23/2 20/24/2 19/25/2
f 20/24/2 21/26/2 19/25/2
f 18/27/3 15/28/3 20/29/3
f 15/28/3 17/30/3 20/29/3
f 6/31/4 14/19/4 5/32/4
f 14/19/4 15/21/4 5/32/4
f 5/32/4 15/21/4 13/33/4
f 15/21/4 22/34/4 13/33/4
f 15/21/4 18/35/4 22/34/4
f 18/35/4 23/36/4 22/34/4
f 18/35/4 24/37/4 23/36/4
f 24/37/4 25/38/4 23/36/4
f 26/39/4 24/37/4 18/35/4
f 19/40/4 26/39/4 18/35/4
f 27/41/5 29/42/5 28/43/5
f 29/42/5 30/44/5 28/43/5
f 31/45/4 33/46/4 32/47/4
f 33/46/4 34/48/4 32/47/4
f 27/49/6 32/50/6 29/51/6
f 32/50/6 34/52/6 29/51/6
f 31/53/3 28/54/3 33/55/3
f 28/54/3 30/56/3 33/55/3
f 35/57/1 32/58/1 27/41/1
f 36/59/1 35/57/1 27/41/1
f 36/59/1 27/41/1 37/60/1
f 26/61/1 36/59/1 37/60/1
f 37/60/1 27/41/1 38/62/1
f 27/41/1 28/43/1 38/62/1
f 38/62/1 28/43/1 25/63/1
f 28/43/1 39/64/1 25/63/1
f 28/43/1 31/65/1 39/64/1
f 31/65/1 40/66/1 39/64/1
f 41/67/5 43/68/5 42/69/5
f 43/68/5 44/70/5 42/69/5
f 45/71/4 47/72/4 46/73/4
f 47/72/4 48/74/4 46/73/4
f 41/75/6 46/76/6 43/77/6
f 46/76/6 48/78/6 43/77/6
f 45/79/3 42/80/3 47/81/3
f 42/80/3 44/82/3 47/81/3
f 49/83/1 46/84/1 41/67/1
f 50/85/1 49/83/1 41/67/1
f 50/85/1 41/67/1 32/86/1
f 35/87/1 50/85/1 32/86/1
f 32/86/1 41/67/1 31/88/1
f 41/67/1 42/69/1 31/88/1
f 31/88/1 42/69/1 40/89/1
f 42/69/1 51/90/1 40/89/1
f 42/69/1 45/91/1 51/90/1
f 45/91/1 52/92/1 51/90/1
f 53/93/5 55/94/5 54/95/5
f 55/94/5 56/96/5 54/95/5
f 57/97/4 59/98/4 58/99/4
f 59/98/4 60/100/4 58/99/4
f 53/101/6 58/102/6 55/103/6
f 58/102/6 60/104/6 55/103/6
f 57/105/3 54/106/3 59/107/3
f 54/106/3 56/108/3 59/107/3
f 61/109/1 58/110/1 53/93/1
f 62/111/1 61/109/1 53/93/1
f 62/111/1 53/93/1 46/112/1
f 49/113/1 62/111/1 46/112/1
f 46/112/1 53/93/1 45/114/1
f 53/93/1 54/95/1 45/114/1
f 45/114/1 54/95/1 52/115/1
f 54/95/1 63/116/1 52/115/1
f 54/95/1 57/117/1 63/116/1
f 57/117/1 64/118/1 63/116/1
f 65/119/5 67/120/5 66/121/5
f 67/120/5 68/122/5 66/121/5
f 69/123/4 71/124/4 70/125/4
f 71/124/4 72/126/4 70/125/4
f 65/127/6 70/128/6 67/129/6
f 70/128/6 72/130/6 67/129/6
f 69/131/3 66/132/3 71/133/3
f 66/132/3 68/134/3 71/133/3
f 73/135/1 70/136/1 65/119/1
f 74/137/1 73/135/1 65/119/1
f 74/137/1 65/119/1 58/138/1
f 61/139/1 74/137/1 58/138/1
f 58/138/1 65/119/1 57/140/1
f 65/119/1 66/121/1 57/140/1
f 57/140/1 66/121/1 64/141/1
f 66/121/1 75/142/1 64/141/1
f 66/121/1 69/143/1 75/142/1
f 69/143/1 76/144/1 75/142/1
f 77/145/5 79/146/5 78/147/5
f 79/146/5 80/148/5 78/147/5
f 81/149/4 83/150/4 82/151/4
f 83/150/4 84/152/4 82/151/4
f 77/153/6 82/154/6 79/155/6
f 82/154/6 84/156/6 79/155/6
f 81/157/3 78/158/3 83/159/3
f 78/158/3 80/160/3 83/159/3
f 85/161/1 82/162/1 77/145/1
f 86/163/1 85/161/1 77/145/1
f 86/163/1 77/145/1 70/164/1
f 73/165/1 86/163/1 70/164/1
f 70/164/1 77/145/1 69/166/1
f 77/145/1 78/147/1 69/166/1
f 69/166/1 78/147/1 76/167/1
f 78/147/1 87/168/1 76/167/1
f 78/147/1 81/169/1 87/168/1
f 81/169/1 88/170/1 87/168/1
f 89/171/5 91/172/5 90/173/5
f 91/172/5 92/174/5 90/173/5
f 93/175/4 95/176/4 94/177/4
f 95/176/4 96/178/4 94/177/4
f 89/179/6 94/180/6 91/181/6
f 94/180/6 96/182/6 91/181/6
f 93/183/3 90/184/3 95/185/3
f 90/184/3 92/186/3 95/185/3
f 97/187/1 94/188/1 89/171/1
f 98/189/1 97/187/1 89/171/1
f 98/189/1 89/171/1 82/190/1
f 85/191/1 98/189/1 82/190/1
f 82/190/1 89/171/1 81/192/1
f 89/171/1 90/173/1 81/192/1
f 81/192/1 90/173/1 88/193/1
f 90/173/1 99/194/1 88/193/1
f 90/173/1 93/195/1 99/194/1
f 93/195/1 100/196/1 99/194/1
f 101/197/5 103/198/5 102/199/5
f 103/198/5 104/200/5 102/199/5
f 105/201/4 107/202/4 106/203/4
f 107/202/4 108/204/4 106/203/4
f 101/205/6 106/206/6 103/207/6
f 106/206/6 108/208/6 103/207/6
f 105/209/3 102/210/3 107/211/3
f 102/210/3 104/212/3 107/211/3
f 97/213/1 109/214/1 94/215/1
f 109/214/1 101/197/1 94/215/1
f 109/214/1 110/216/1 101/197/1
f 94/215/1 101/197/1 93/217/1
f 110/216/1 106/218/1 101/197/1
f 110/216/1 111/219/1 106/218/1
f 111/219/1 112/220/1 106/218/1
f 101/197/1 102/199/1 93/217/1
f 93/217/1 102/199/1 100/221/1
f 102/199/1 113/222/1 100/221/1
f 106/218/1 112/220/1 105/223/1
f 102/199/1 105/223/1 113/222/1
f 112/220/1 114/224/1 105/223/1
f 105/223/1 115/225/1 113/222/1
f 105/223/1 114/224/1 115/225/1
f 114/224/1 116/226/1 115/225/1
f 111/227/5 117/228/5 116/229/5
f 117/228/5 118/230/5 116/229/5
f 119/231/4 121/232/4 120/233/4
f 121/232/4 122/234/4 120/233/4
f 123/235/5 125/236/5 124/237/5
f 125/236/5 126/238/5 124/237/5
f 119/239/6 124/240/6 121/241/6
f 124/240/6 126/242/6 121/241/6
f 123/243/3 120/244/3 125/245/3
f 120/244/3 122/246/3 125/245/3
f 127/247/2 124/248/2 119/231/2
f 128/249/2 127/247/2 119/231/2
f 128/249/2 119/231/2 129/250/2
f 117/251/2 128/249/2 129/250/2
f 129/250/2 119/231/2 130/252/2
f 119/231/2 120/233/2 130/252/2
f 130/252/2 120/233/2 118/253/2
f 120/233/2 131/254/2 118/253/2
f 120/233/2 123/255/2 131/254/2
f 123/255/2 132/256/2 131/254/2
f 133/257/4 135/258/4 134/259/4
f 135/258/4 136/260/4 134/259/4
f 137/261/5 139/262/5 138/263/5
f 139/262/5 140/264/5 138/263/5
f 133/265/6 138/266/6 135/267/6
f 138/266/6 140/268/6 135/267/6
f 137/269/3 134/270/3 139/271/3
f 134/270/3 136/272/3 139/271/3
f 141/273/2 138/274/2 133/257/2
f 142/275/2 141/273/2 133/257/2
f 142/275/2 133/257/2 124/276/2
f 127/277/2 142/275/2 124/276/2
f 124/276/2 133/257/2 123/278/2
f 133/257/2 134/259/2 123/278/2
f 123/278/2 134/259/2 132/279/2
f 134/259/2 143/280/2 132/279/2
f 134/259/2 137/281/2 143/280/2
f 137/281/2 144/282/2 143/280/2
f 145/283/4 147/284/4 146/285/4
f 147/284/4 148/286/4 146/285/4
f 149/287/5 151/288/5 150/289/5
f 151/288/5 152/290/5 150/289/5
f 145/291/6 150/292/6 147/293/6
f 150/292/6 152/294/6 147/293/6
f 149/295/3 146/296/3 151/297/3
f 146/296/3 148/298/3 151/297/3
f 153/299/2 150/300/2 145/283/2
f 154/301/2 153/299/2 145/283/2
f 154/301/2 145/283/2 138/302/2
f 141/303/2 154/301/2 138/302/2
f 138/302/2 145/283/2 137/304/2
f 145/283/2 146/285/2 137/304/2
f 137/304/2 146/285/2 144/305/2
f 146/285/2 155/306/2 144/305/2
f 146/285/2 149/307/2 155/306/2
f 149/307/2 156/308/2 155/306/2
f 157/309/4 159/310/4 158/311/4
f 159/310/4 160/312/4 158/311/4
f 161/313/5 163/314/5 162/315/5
f 163/314/5 164/316/5 162/315/5
f 157/317/6 162/318/6 159/319/6
f 162/318/6 164/320/6 159/319/6
f 161/321/3 158/322/3 163/323/3
f 158/322/3 160/324/3 163/323/3
f 165/325/2 162/326/2 157/309/2
f 166/327/2 165/325/2 157/309/2
f 166/327/2 157/309/2 150/328/2
f 153/329/2 166/327/2 150/328/2
f 150/328/2 157/309/2 149/330/2
f 157/309/2 158/311/2 149/330/2
f 149/330/2 158/311/2 156/331/2
f 158/311/2 167/332/2 156/331/2
f 158/311/2 161/333/2 167/332/2
f 161/333/2 168/334/2 167/332/2
f 169/335/4 171/336/4 170/337/4
f 171/336/4 172/338/4 170/337/4
f 173/339/5 175/340/5 174/341/5
f 175/340/5 176/342/5 174/341/5
f 169/343/6 174/344/6 171/345/6
f 174/344/6 176/346/6 171/345/6
f 173/347/3 170/348/3 175/349/3
f 170/348/3 172/350/3 175/349/3
f 177/351/2 174/352/2 169/335/2
f 178/353/2 177/351/2 169/335/2
f 178/353/2 169/335/2 162/354/2
f 165/355/2 178/353/2 162/354/2
f 162/354/2 169/335/2 161/356/2
f 169/335/2 170/337/2 161/356/2
f 161/356/2 170/337/2 168/357/2
f 170/337/2 179/358/2 168/357/2
f 170/337/2 173/359/2 179/358/2
f 173/359/2 180/360/2 179/358/2
f 181/361/4 183/362/4 182/363/4
f 183/362/4 184/364/4 182/363/4
f 185/365/5 187/366/5 186/367/5
f 187/366/5 188/368/5 186/367/5
f 181/369/6 186/370/6 183/371/6
f 186/370/6 188/372/6 183/371/6
f 185/373/3 182/374/3 187/375/3
f 182/374/3 184/376/3 187/375/3
f 189/377/2 186/378/2 181/361/2
f 190/379/2 189/377/2 181/361/2
f 190/379/2 181/361/2 174/380/2
f 177/381/2 190/379/2 174/380/2
f 174/380/2 181/361/2 173/382/2
f 181/361/2 182/363/2 173/382/2
f 173/382/2 182/363/2 180/383/2
f 182/363/2 191/384/2 180/383/2
f 182/363/2 185/385/2 191/384/2
f 185/385/2 192/386/2 191/384/2
f 193/387/4 195/388/4 194/389/4
f 195/388/4 196/390/4 194/389/4
f 197/391/5 199/392/5 198/393/5
f 199/392/5 200/394/5 198/393/5
f 193/395/6 198/396/6 195/397/6
f 198/396/6 200/398/6 195/397/6
f 197/399/3 194/400/3 199/401/3
f 194/400/3 196/402/3 199/401/3
f 189/403/2 201/404/2 186/405/2
f 201/404/2 193/387/2 186/405/2
f 201/404/2 202/406/2 193/387/2
f 186/405/2 193/387/2 185/407/2
f 202/406/2 198/408/2 193/387/2
f 202/406/2 9/409/2 198/408/2
f 9/409/2 203/410/2 198/408/2
f 193/387/2 194/389/2 185/407/2
f 185/407/2 194/389/2 192/411/2
f 194/389/2 204/412/2 192/411/2
f 198/408/2 203/410/2 197/413/2
f 194/389/2 197/413/2 204/412/2
f 203/410/2 205/414/2 197/413/2
f 197/413/2 206/415/2 204/412/2
f 197/413/2 205/414/2 206/415/2
f 205/414/2 11/416/2 206/415/2
