# Blender v2.92.0 OBJ File: 'sanfrancisco.blend'
# www.blender.org
mtllib Building_071bricks.mtl
o Building_071:bricks_Scene.4044
v 2377.050781 0.000031 167.394958
v 2377.050781 222.000015 167.394958
v -960.668701 0.000000 -2157.275635
v -960.668701 222.000000 -2157.275635
v 2377.050781 444.000000 167.394958
v -960.668701 444.000000 -2157.275635
v 2377.050781 666.000000 167.394958
v -960.668701 666.000000 -2157.275635
v 2377.050781 888.000000 167.394958
v -960.668701 888.000061 -2157.275635
v 2377.050781 1110.000000 167.394958
v -960.668701 1110.000000 -2157.275635
v 2377.050781 1331.999756 167.394958
v -960.668701 1331.999878 -2157.275635
v 2377.050781 1553.999756 167.394958
v -960.668701 1553.999878 -2157.275635
v 2377.050781 1776.000000 167.394958
v -960.668701 1776.000000 -2157.275635
v 2377.050781 1997.999878 167.394958
v -960.668701 1997.999878 -2157.275635
v 2377.050781 2220.000000 167.394958
v -960.668701 2220.000000 -2157.275635
v 2377.050781 2442.000000 167.394958
v -960.668701 2442.000000 -2157.275635
v 2377.050781 2664.000000 167.394958
v -960.668701 2664.000000 -2157.275635
v 2377.050781 2885.999512 167.394958
v -960.668701 2885.999512 -2157.275635
v 2377.050781 3108.000000 167.394958
v -960.668701 3108.000000 -2157.275635
v 2377.050781 3330.000000 167.394958
v -960.668701 3330.000000 -2157.275635
v 2377.050781 3552.000000 167.394958
v -960.668701 3552.000000 -2157.275635
v 2377.050781 3773.999512 167.394958
v -960.668701 3773.999512 -2157.275635
v 2377.050781 3995.999512 167.394958
v -960.668701 3995.999512 -2157.275635
v 2377.050781 4218.000000 167.394958
v -960.668701 4218.000000 -2157.275635
v 2377.050781 4439.999512 167.394958
v -960.668701 4439.999512 -2157.275635
v 2377.050781 4661.999512 167.394958
v -960.668701 4661.999512 -2157.275635
v 2377.050781 4883.999512 167.394958
v -960.668701 4883.999512 -2157.275635
v 2377.050781 5105.999512 167.394958
v -960.668701 5105.999512 -2157.275635
v 2377.050781 5327.999512 167.394958
v -960.668701 5327.999512 -2157.275635
v 2377.051025 5549.999512 167.394958
v -960.668701 5549.999512 -2157.275635
v 2377.051025 5771.999023 167.394958
v -960.668701 5771.999023 -2157.275635
v 2377.051025 5993.999512 167.394958
v -960.668701 5993.999512 -2157.275635
v 2377.051025 6215.999512 167.394958
v -960.668701 6215.999512 -2157.275635
v 2377.051025 6437.999023 167.394958
v -960.668701 6437.999023 -2157.275635
v 2377.051025 6659.999512 167.394958
v -960.668945 6659.999512 -2157.275635
v 2377.051025 6881.999512 167.394958
v -960.668945 6881.999512 -2157.275635
v 2377.051025 7104.000000 167.394958
v -960.668945 7104.000000 -2157.275635
v 2377.051025 7325.999023 167.394958
v -960.668945 7325.999023 -2157.275635
v 2377.050781 7547.999512 167.394958
v -960.668945 7547.999512 -2157.275635
v 2377.050781 7769.998535 167.394958
v -960.668945 7769.998535 -2157.275635
v 2377.050781 7991.999512 167.394958
v -960.668945 7991.999512 -2157.275635
v -960.668701 0.000000 -2157.274658
v -960.668701 222.000000 -2157.274658
v -2327.636963 0.000000 -156.408691
v -2327.636963 222.000000 -156.408691
v -960.668701 444.000000 -2157.274658
v -2327.636963 444.000031 -156.408691
v -960.668701 666.000000 -2157.274658
v -2327.636963 665.999878 -156.408691
v -960.668701 888.000061 -2157.274658
v -2327.636963 888.000000 -156.408691
v -960.668701 1110.000000 -2157.274658
v -2327.636963 1110.000000 -156.408691
v -960.668701 1331.999878 -2157.274658
v -2327.636963 1332.000000 -156.408691
v -960.668701 1553.999878 -2157.274658
v -2327.636963 1554.000000 -156.408691
v -960.668701 1776.000000 -2157.274658
v -2327.636963 1776.000122 -156.408691
v -960.668701 1997.999878 -2157.274658
v -2327.636719 1998.000000 -156.408691
v -960.668701 2220.000000 -2157.274658
v -2327.636719 2220.000000 -156.408691
v -960.668701 2442.000000 -2157.274658
v -2327.636719 2442.000000 -156.408691
v -960.668701 2664.000000 -2157.274658
v -2327.636719 2663.999512 -156.408691
v -960.668701 2885.999512 -2157.274658
v -2327.636719 2885.999512 -156.408691
v -960.668701 3108.000000 -2157.274658
v -2327.636963 3107.999512 -156.408691
v -960.668701 3330.000000 -2157.274658
v -2327.636963 3329.999512 -156.408691
v -960.668701 3552.000000 -2157.274658
v -2327.636963 3551.999512 -156.408691
v -960.668701 3773.999512 -2157.274658
v -2327.636963 3773.999512 -156.408691
v -960.668701 3995.999512 -2157.274658
v -2327.636963 3995.999512 -156.408691
v -960.668701 4218.000000 -2157.274658
v -2327.636963 4217.999512 -156.408691
v -960.668701 4439.999512 -2157.274658
v -2327.636963 4439.999512 -156.408691
v -960.668701 4661.999512 -2157.274658
v -2327.636963 4661.999512 -156.408691
v -960.668701 4883.999512 -2157.274658
v -2327.636963 4883.999512 -156.408691
v -960.668701 5105.999512 -2157.274658
v -2327.636963 5105.999512 -156.408691
v -960.668701 5327.999512 -2157.274658
v -2327.636963 5327.999512 -156.408691
v -960.668701 5549.999512 -2157.274658
v -2327.636719 5549.999512 -156.408691
v -960.668701 5771.999023 -2157.274658
v -2327.636719 5771.999023 -156.408691
v -960.668701 5993.999512 -2157.274658
v -2327.636719 5993.999512 -156.408691
v -960.668701 6215.999512 -2157.274658
v -2327.636719 6215.999512 -156.408691
v -960.668701 6437.999023 -2157.274658
v -2327.636719 6437.999023 -156.408691
v -960.668945 6659.999512 -2157.274658
v -2327.636719 6659.999512 -156.408691
v -960.668945 6881.999512 -2157.274658
v -2327.636719 6881.999512 -156.408691
v -960.668945 7104.000000 -2157.274658
v -2327.636719 7104.000000 -156.408691
v -960.668945 7325.999023 -2157.274658
v -2327.636719 7325.999023 -156.408691
v -960.668945 7547.999512 -2157.274658
v -2327.636719 7547.999512 -156.408691
v -960.668945 7769.998535 -2157.274658
v -2327.636719 7769.998535 -156.408691
v -960.668945 7991.999512 -2157.274658
v -2327.636719 7991.999512 -156.408691
v 911.230408 0.000031 2146.264648
v 911.230408 222.000015 2146.264648
v 911.230347 444.000000 2146.264648
v 911.230347 665.999878 2146.264648
v 911.230347 887.999939 2146.264648
v 911.230408 1110.000000 2146.264648
v 911.230408 1332.000000 2146.264648
v 911.230408 1554.000000 2146.264648
v 911.230408 1776.000122 2146.264648
v 911.230408 1998.000000 2146.264648
v 911.230347 2220.000000 2146.264648
v 911.230347 2442.000000 2146.264648
v 911.230347 2664.000000 2146.264648
v 911.230469 2885.999512 2146.264648
v 911.230408 3108.000000 2146.264648
v 911.230408 3330.000000 2146.264648
v 911.230408 3552.000000 2146.264648
v 911.230408 3773.999512 2146.264648
v 911.230408 3995.999512 2146.264648
v 911.230347 4218.000000 2146.264648
v 911.230347 4439.999512 2146.264648
v 911.230469 4661.999512 2146.264648
v 911.230408 4883.999512 2146.264648
v 911.230408 5105.999512 2146.264648
v 911.230408 5327.999512 2146.264648
v 911.230408 5549.999512 2146.264648
v 911.230408 5771.999023 2146.264648
v 911.230347 5993.999512 2146.264648
v 911.230347 6215.999512 2146.264648
v 911.230469 6437.999023 2146.264648
v 911.230408 6659.999512 2146.264648
v 911.230408 6881.999512 2146.264648
v 911.230408 7104.000000 2146.264648
v 911.230408 7325.999023 2146.264648
v 911.230408 7547.999512 2146.264648
v 911.230347 7769.998535 2146.264648
v 911.230347 7991.999512 2146.264648
v -957.058105 7991.999512 -2137.603760
v -957.058105 8016.999512 -2137.603760
v 2357.313965 7991.999512 170.629547
v 2357.313965 8016.999512 170.629547
v -962.474609 8016.999512 -2167.110840
v 2386.918945 8016.999512 165.777649
v 2386.918945 7991.999512 165.777649
v -962.474609 7991.999512 -2167.110840
v -2307.947998 7991.999512 -159.924377
v -2307.947998 8016.999512 -159.924377
v -2337.480957 8016.999512 -154.650787
v -2337.480957 7991.999512 -154.650787
v 908.091309 7991.999512 2126.512695
v 908.091309 8016.999512 2126.512695
v 912.799805 8016.999512 2156.140869
v 912.799805 7991.999512 2156.140869
v 908.091309 7991.999512 2126.511963
v 908.091309 8016.999512 2126.511963
vt 0.000000 0.000000
vt 5.084361 0.000000
vt 0.000000 0.277500
vt 5.084361 0.277500
vt 0.000000 0.555000
vt 5.084361 0.555000
vt 0.000000 0.832500
vt 5.084361 0.832500
vt 0.000000 1.110000
vt 5.084361 1.110000
vt 0.000000 1.665000
vt 5.084361 1.665000
vt 0.000000 1.942500
vt 5.084361 1.942500
vt 0.000000 2.775000
vt 5.084361 2.775000
vt 0.000000 3.052500
vt 5.084361 3.052500
vt 0.000000 4.162500
vt 5.084361 4.162500
vt 0.000000 4.440001
vt 5.084361 4.440001
vt 0.000000 5.827500
vt 5.084361 5.827500
vt 0.000000 6.105000
vt 5.084361 6.105000
vt 0.000000 7.770000
vt 5.084361 7.770000
vt 0.000000 8.047501
vt 5.084361 8.047501
vt 0.000000 9.990001
vt 5.084361 9.990001
vt 0.000000 10.267500
vt 5.084361 10.267500
vt 0.000000 12.487500
vt 5.084361 12.487500
vt 0.000000 12.765000
vt 5.084361 12.765000
vt 0.000000 15.262500
vt 5.084361 15.262500
vt 0.000000 15.540000
vt 5.084361 15.540000
vt 0.000000 18.315001
vt 5.084361 18.315001
vt 0.000000 18.592501
vt 5.084361 18.592501
vt 0.000000 21.645000
vt 5.084361 21.645000
vt 0.000000 21.922501
vt 5.084361 21.922501
vt 0.000000 25.252501
vt 5.084361 25.252501
vt 0.000000 25.530001
vt 5.084361 25.530001
vt 0.000000 29.137501
vt 5.084361 29.137501
vt 0.000000 29.415001
vt 5.084361 29.415001
vt 0.000000 33.299999
vt 5.084361 33.299999
vt 0.000000 33.577499
vt 5.084361 33.577499
vt 0.000000 37.740002
vt 5.084361 37.740002
vt 0.000000 38.017502
vt 5.084361 38.017502
vt 0.000000 42.457500
vt 5.084361 42.457500
vt 0.000000 42.735001
vt 5.084361 42.735001
vt 0.000000 47.452499
vt 5.084361 47.452499
vt 0.000000 47.730000
vt 5.084361 47.730000
vt 0.000000 52.724991
vt 5.084361 52.724991
vt 0.000000 53.002491
vt 5.084361 53.002491
vt 0.000000 58.274990
vt 5.084361 58.274990
vt 0.000000 58.552490
vt 5.084361 58.552490
vt 0.000000 64.102493
vt 5.084361 64.102493
vt 0.000000 64.379990
vt 5.084361 64.379990
vt 0.000000 70.207497
vt 5.084361 70.207497
vt 0.000000 70.484993
vt 5.084361 70.484993
vt 0.000000 76.589996
vt 5.084361 76.589996
vt 0.000000 76.867493
vt 5.084361 76.867493
vt 0.000000 83.250000
vt 5.084361 83.250000
vt 0.000000 83.527496
vt 5.084361 83.527496
vt 0.000000 90.187500
vt 5.084361 90.187500
vt 0.000000 90.464996
vt 5.084361 90.464996
vt 0.000000 97.402496
vt 5.084361 97.402496
vt 0.000000 97.679993
vt 5.084361 97.679993
vt 0.000000 104.894997
vt 5.084361 104.894997
vt 0.000000 105.172501
vt 5.084361 105.172501
vt 0.000000 112.665001
vt 5.084361 112.665001
vt 0.000000 112.942497
vt 5.084361 112.942497
vt 0.000000 120.712502
vt 5.084361 120.712502
vt 0.000000 120.989998
vt 5.084361 120.989998
vt 0.000000 129.037506
vt 5.084361 129.037506
vt 0.000000 129.315002
vt 5.084361 129.315002
vt 0.000000 137.639999
vt 5.084361 137.639999
vt 0.000000 137.917496
vt 5.084361 137.917496
vt 0.000000 146.520004
vt 5.084361 146.520004
vt 0.000000 146.797501
vt 5.084361 146.797501
vt 0.000000 155.677505
vt 5.084361 155.677505
vt 0.000000 155.955002
vt 5.084361 155.955002
vt 0.000000 165.112503
vt 5.084361 165.112503
vt 0.000000 165.389999
vt 5.084361 165.389999
vt 0.000000 174.824997
vt 5.084361 174.824997
vt 0.000000 175.102493
vt 5.084361 175.102493
vt 0.000000 0.000000
vt 3.029044 0.000000
vt 0.000000 0.277500
vt 3.029044 0.277500
vt 0.000000 0.555000
vt 3.029044 0.555000
vt 0.000000 0.832500
vt 3.029044 0.832500
vt 0.000000 1.110000
vt 3.029044 1.110000
vt 0.000000 1.665000
vt 3.029044 1.665000
vt 0.000000 1.942500
vt 3.029044 1.942500
vt 0.000000 2.775000
vt 3.029044 2.775000
vt 0.000000 3.052500
vt 3.029044 3.052500
vt 0.000000 4.162500
vt 3.029044 4.162500
vt 0.000000 4.440001
vt 3.029044 4.440001
vt 0.000000 5.827500
vt 3.029044 5.827500
vt 0.000000 6.105000
vt 3.029044 6.105000
vt 0.000000 7.770000
vt 3.029044 7.770000
vt 0.000000 8.047501
vt 3.029044 8.047501
vt 0.000000 9.990001
vt 3.029044 9.990001
vt 0.000000 10.267500
vt 3.029044 10.267500
vt 0.000000 12.487500
vt 3.029044 12.487500
vt 0.000000 12.765000
vt 3.029044 12.765000
vt 0.000000 15.262500
vt 3.029044 15.262500
vt 0.000000 15.540000
vt 3.029044 15.540000
vt 0.000000 18.315001
vt 3.029044 18.315001
vt 0.000000 18.592501
vt 3.029044 18.592501
vt 0.000000 21.645000
vt 3.029044 21.645000
vt 0.000000 21.922501
vt 3.029044 21.922501
vt 0.000000 25.252501
vt 3.029044 25.252501
vt 0.000000 25.530001
vt 3.029044 25.530001
vt 0.000000 29.137501
vt 3.029044 29.137501
vt 0.000000 29.415001
vt 3.029044 29.415001
vt 0.000000 33.299999
vt 3.029044 33.299999
vt 0.000000 33.577499
vt 3.029044 33.577499
vt 0.000000 37.740002
vt 3.029044 37.740002
vt 0.000000 38.017502
vt 3.029044 38.017502
vt 0.000000 42.457500
vt 3.029044 42.457500
vt 0.000000 42.735001
vt 3.029044 42.735001
vt 0.000000 47.452499
vt 3.029044 47.452499
vt 0.000000 47.730000
vt 3.029044 47.730000
vt 0.000000 52.724991
vt 3.029044 52.724991
vt 0.000000 53.002491
vt 3.029044 53.002491
vt 0.000000 58.274990
vt 3.029044 58.274990
vt 0.000000 58.552490
vt 3.029044 58.552490
vt 0.000000 64.102493
vt 3.029044 64.102493
vt 0.000000 64.379990
vt 3.029044 64.379990
vt 0.000000 70.207497
vt 3.029044 70.207497
vt 0.000000 70.484993
vt 3.029044 70.484993
vt 0.000000 76.589996
vt 3.029044 76.589996
vt 0.000000 76.867493
vt 3.029044 76.867493
vt 0.000000 83.250000
vt 3.029044 83.250000
vt 0.000000 83.527496
vt 3.029044 83.527496
vt 0.000000 90.187500
vt 3.029044 90.187500
vt 0.000000 90.464996
vt 3.029044 90.464996
vt 0.000000 97.402496
vt 3.029044 97.402496
vt 0.000000 97.679993
vt 3.029044 97.679993
vt 0.000000 104.894997
vt 3.029044 104.894997
vt 0.000000 105.172501
vt 3.029044 105.172501
vt 0.000000 112.665001
vt 3.029044 112.665001
vt 0.000000 112.942497
vt 3.029044 112.942497
vt 0.000000 120.712502
vt 3.029044 120.712502
vt 0.000000 120.989998
vt 3.029044 120.989998
vt 0.000000 129.037506
vt 3.029044 129.037506
vt 0.000000 129.315002
vt 3.029044 129.315002
vt 0.000000 137.639999
vt 3.029044 137.639999
vt 0.000000 137.917496
vt 3.029044 137.917496
vt 0.000000 146.520004
vt 3.029044 146.520004
vt 0.000000 146.797501
vt 3.029044 146.797501
vt 0.000000 155.677505
vt 3.029044 155.677505
vt 0.000000 155.955002
vt 3.029044 155.955002
vt 0.000000 165.112503
vt 3.029044 165.112503
vt 0.000000 165.389999
vt 3.029044 165.389999
vt 0.000000 174.824997
vt 3.029044 174.824997
vt 0.000000 175.102493
vt 3.029044 175.102493
vt 0.000000 0.000000
vt 4.967483 0.000000
vt 0.000000 0.277500
vt 4.967483 0.277500
vt 0.000000 0.555000
vt 4.967483 0.555000
vt 0.000000 0.832500
vt 4.967483 0.832500
vt 0.000000 1.110000
vt 4.967483 1.110000
vt 0.000000 1.665000
vt 4.967483 1.665000
vt 0.000000 1.942500
vt 4.967483 1.942500
vt 0.000000 2.775000
vt 4.967483 2.775000
vt 0.000000 3.052500
vt 4.967483 3.052500
vt 0.000000 4.162500
vt 4.967483 4.162500
vt 0.000000 4.440001
vt 4.967483 4.440001
vt 0.000000 5.827500
vt 4.967483 5.827500
vt 0.000000 6.105000
vt 4.967483 6.105000
vt 0.000000 7.770000
vt 4.967483 7.770000
vt 0.000000 8.047501
vt 4.967483 8.047501
vt 0.000000 9.990001
vt 4.967483 9.990001
vt 0.000000 10.267500
vt 4.967483 10.267500
vt 0.000000 12.487500
vt 4.967483 12.487500
vt 0.000000 12.765000
vt 4.967483 12.765000
vt 0.000000 15.262500
vt 4.967483 15.262500
vt 0.000000 15.540000
vt 4.967483 15.540000
vt 0.000000 18.315001
vt 4.967483 18.315001
vt 0.000000 18.592501
vt 4.967483 18.592501
vt 0.000000 21.645000
vt 4.967483 21.645000
vt 0.000000 21.922501
vt 4.967483 21.922501
vt 0.000000 25.252501
vt 4.967483 25.252501
vt 0.000000 25.530001
vt 4.967483 25.530001
vt 0.000000 29.137501
vt 4.967483 29.137501
vt 0.000000 29.415001
vt 4.967483 29.415001
vt 0.000000 33.299999
vt 4.967483 33.299999
vt 0.000000 33.577499
vt 4.967483 33.577499
vt 0.000000 37.740002
vt 4.967483 37.740002
vt 0.000000 38.017502
vt 4.967483 38.017502
vt 0.000000 42.457500
vt 4.967483 42.457500
vt 0.000000 42.735001
vt 4.967483 42.735001
vt 0.000000 47.452499
vt 4.967483 47.452499
vt 0.000000 47.730000
vt 4.967483 47.730000
vt 0.000000 52.724991
vt 4.967483 52.724991
vt 0.000000 53.002491
vt 4.967483 53.002491
vt 0.000000 58.274990
vt 4.967483 58.274990
vt 0.000000 58.552490
vt 4.967483 58.552490
vt 0.000000 64.102493
vt 4.967483 64.102493
vt 0.000000 64.379990
vt 4.967483 64.379990
vt 0.000000 70.207497
vt 4.967483 70.207497
vt 0.000000 70.484993
vt 4.967483 70.484993
vt 0.000000 76.589996
vt 4.967483 76.589996
vt 0.000000 76.867493
vt 4.967483 76.867493
vt 0.000000 83.250000
vt 4.967483 83.250000
vt 0.000000 83.527496
vt 4.967483 83.527496
vt 0.000000 90.187500
vt 4.967483 90.187500
vt 0.000000 90.464996
vt 4.967483 90.464996
vt 0.000000 97.402496
vt 4.967483 97.402496
vt 0.000000 97.679993
vt 4.967483 97.679993
vt 0.000000 104.894997
vt 4.967483 104.894997
vt 0.000000 105.172501
vt 4.967483 105.172501
vt 0.000000 112.665001
vt 4.967483 112.665001
vt 0.000000 112.942497
vt 4.967483 112.942497
vt 0.000000 120.712502
vt 4.967483 120.712502
vt 0.000000 120.989998
vt 4.967483 120.989998
vt 0.000000 129.037506
vt 4.967483 129.037506
vt 0.000000 129.315002
vt 4.967483 129.315002
vt 0.000000 137.639999
vt 4.967483 137.639999
vt 0.000000 137.917496
vt 4.967483 137.917496
vt 0.000000 146.520004
vt 4.967483 146.520004
vt 0.000000 146.797501
vt 4.967483 146.797501
vt 0.000000 155.677505
vt 4.967483 155.677505
vt 0.000000 155.955002
vt 4.967483 155.955002
vt 0.000000 165.112503
vt 4.967483 165.112503
vt 0.000000 165.389999
vt 4.967483 165.389999
vt 0.000000 174.824997
vt 4.967483 174.824997
vt 0.000000 175.102493
vt 4.967483 175.102493
vt 0.000000 0.000000
vt 3.078290 0.000000
vt 0.000000 0.277500
vt 3.078290 0.277500
vt 0.000000 0.555000
vt 3.078290 0.555000
vt 0.000000 0.832500
vt 3.078290 0.832500
vt 0.000000 1.110000
vt 3.078290 1.110000
vt 0.000000 1.665000
vt 3.078290 1.665000
vt 0.000000 1.942500
vt 3.078290 1.942500
vt 0.000000 2.775000
vt 3.078290 2.775000
vt 0.000000 3.052500
vt 3.078290 3.052500
vt 0.000000 4.162500
vt 3.078290 4.162500
vt 0.000000 4.440001
vt 3.078290 4.440001
vt 0.000000 5.827500
vt 3.078290 5.827500
vt 0.000000 6.105000
vt 3.078290 6.105000
vt 0.000000 7.770000
vt 3.078290 7.770000
vt 0.000000 8.047501
vt 3.078290 8.047501
vt 0.000000 9.990001
vt 3.078290 9.990001
vt 0.000000 10.267500
vt 3.078290 10.267500
vt 0.000000 12.487500
vt 3.078290 12.487500
vt 0.000000 12.765000
vt 3.078290 12.765000
vt 0.000000 15.262500
vt 3.078290 15.262500
vt 0.000000 15.540000
vt 3.078290 15.540000
vt 0.000000 18.315001
vt 3.078290 18.315001
vt 0.000000 18.592501
vt 3.078290 18.592501
vt 0.000000 21.645000
vt 3.078290 21.645000
vt 0.000000 21.922501
vt 3.078290 21.922501
vt 0.000000 25.252501
vt 3.078290 25.252501
vt 0.000000 25.530001
vt 3.078290 25.530001
vt 0.000000 29.137501
vt 3.078290 29.137501
vt 0.000000 29.415001
vt 3.078290 29.415001
vt 0.000000 33.299999
vt 3.078290 33.299999
vt 0.000000 33.577499
vt 3.078290 33.577499
vt 0.000000 37.740002
vt 3.078290 37.740002
vt 0.000000 38.017502
vt 3.078290 38.017502
vt 0.000000 42.457500
vt 3.078290 42.457500
vt 0.000000 42.735001
vt 3.078290 42.735001
vt 0.000000 47.452499
vt 3.078290 47.452499
vt 0.000000 47.730000
vt 3.078290 47.730000
vt 0.000000 52.724991
vt 3.078290 52.724991
vt 0.000000 53.002491
vt 3.078290 53.002491
vt 0.000000 58.274990
vt 3.078290 58.274990
vt 0.000000 58.552490
vt 3.078290 58.552490
vt 0.000000 64.102493
vt 3.078290 64.102493
vt 0.000000 64.379990
vt 3.078290 64.379990
vt 0.000000 70.207497
vt 3.078290 70.207497
vt 0.000000 70.484993
vt 3.078290 70.484993
vt 0.000000 76.589996
vt 3.078290 76.589996
vt 0.000000 76.867493
vt 3.078290 76.867493
vt 0.000000 83.250000
vt 3.078290 83.250000
vt 0.000000 83.527496
vt 3.078290 83.527496
vt 0.000000 90.187500
vt 3.078290 90.187500
vt 0.000000 90.464996
vt 3.078290 90.464996
vt 0.000000 97.402496
vt 3.078290 97.402496
vt 0.000000 97.679993
vt 3.078290 97.679993
vt 0.000000 104.894997
vt 3.078290 104.894997
vt 0.000000 105.172501
vt 3.078290 105.172501
vt 0.000000 112.665001
vt 3.078290 112.665001
vt 0.000000 112.942497
vt 3.078290 112.942497
vt 0.000000 120.712502
vt 3.078290 120.712502
vt 0.000000 120.989998
vt 3.078290 120.989998
vt 0.000000 129.037506
vt 3.078290 129.037506
vt 0.000000 129.315002
vt 3.078290 129.315002
vt 0.000000 137.639999
vt 3.078290 137.639999
vt 0.000000 137.917496
vt 3.078290 137.917496
vt 0.000000 146.520004
vt 3.078290 146.520004
vt 0.000000 146.797501
vt 3.078290 146.797501
vt 0.000000 155.677505
vt 3.078290 155.677505
vt 0.000000 155.955002
vt 3.078290 155.955002
vt 0.000000 165.112503
vt 3.078290 165.112503
vt 0.000000 165.389999
vt 3.078290 165.389999
vt 0.000000 174.824997
vt 3.078290 174.824997
vt 0.000000 175.102493
vt 3.078290 175.102493
vt 0.000000 0.000000
vt 5.048671 0.000000
vt 0.000000 0.031250
vt 5.048671 0.031250
vt -40.389370 -0.001440
vt 0.213084 -0.211174
vt 0.000000 0.000000
vt -40.604568 -0.210454
vt 0.000000 0.000000
vt 5.102207 0.000000
vt 0.000000 0.031250
vt 5.102207 0.031250
vt 40.389370 -0.001440
vt -0.215205 0.209015
vt 0.000000 0.000000
vt 40.602451 0.209735
vt 0.000000 0.000000
vt 2.993775 0.000000
vt 0.000000 0.031250
vt 2.993775 0.031250
vt -23.950199 -0.001955
vt 0.210141 -0.214104
vt 0.000000 0.000000
vt -24.163290 -0.213129
vt 0.000000 0.000000
vt 3.046678 0.000000
vt 0.000000 0.031250
vt 3.046678 0.031250
vt 23.950199 -0.001955
vt -0.213085 0.211173
vt 24.160339 0.212149
vt 0.000000 0.000000
vt 4.932467 0.000000
vt 0.000000 0.031250
vt 4.932467 0.031250
vt -39.459728 -0.000063
vt 0.210053 -0.214191
vt 0.000000 0.000000
vt -39.669868 -0.214167
vt 0.000000 0.000000
vt 4.984991 0.000000
vt 0.000000 0.031250
vt 4.984991 0.031250
vt 39.459728 -0.000063
vt -0.210141 0.214104
vt 39.669781 0.214127
vt 3.042851 0.000000
vt 0.000000 0.031250
vt 3.042851 0.031250
vt -24.342810 0.003449
vt 0.215205 -0.209015
vt 0.000000 0.000000
vt -24.552860 -0.210743
vt 0.000000 0.000000
vt 3.096009 0.000000
vt 0.000000 0.031250
vt 3.096009 0.031250
vt 24.342810 0.003449
vt -0.210053 0.214191
vt 0.000000 0.000000
vt 24.558020 0.212463
vn 0.5715 0.0000 -0.8206
vn -0.8257 0.0000 -0.5641
vn -0.5794 0.0000 0.8150
vn 0.8036 0.0000 0.5952
vn 0.0000 -1.0000 0.0000
vn -0.5715 0.0000 0.8206
vn 0.0000 1.0000 -0.0000
vn 0.5716 0.0000 -0.8206
vn 0.8257 0.0000 0.5640
vn 0.8257 0.0000 0.5641
vn -0.8257 0.0000 -0.5642
vn 0.5794 0.0000 -0.8150
vn -0.8035 0.0000 -0.5953
usemtl HighRise05Material.002
s 1
f 1/1/1 3/2/1 2/3/1
f 3/2/1 4/4/1 2/3/1
f 2/3/1 4/4/1 5/5/1
f 4/4/1 6/6/1 5/5/1
f 5/7/1 6/8/1 7/9/1
f 6/8/1 8/10/1 7/9/1
f 7/11/1 8/12/1 9/13/1
f 8/12/1 10/14/1 9/13/1
f 9/15/1 10/16/1 11/17/1
f 10/16/1 12/18/1 11/17/1
f 11/19/1 12/20/1 13/21/1
f 12/20/1 14/22/1 13/21/1
f 13/23/1 14/24/1 15/25/1
f 14/24/1 16/26/1 15/25/1
f 15/27/1 16/28/1 17/29/1
f 16/28/1 18/30/1 17/29/1
f 17/31/1 18/32/1 19/33/1
f 18/32/1 20/34/1 19/33/1
f 19/35/1 20/36/1 21/37/1
f 20/36/1 22/38/1 21/37/1
f 21/39/1 22/40/1 23/41/1
f 22/40/1 24/42/1 23/41/1
f 23/43/1 24/44/1 25/45/1
f 24/44/1 26/46/1 25/45/1
f 25/47/1 26/48/1 27/49/1
f 26/48/1 28/50/1 27/49/1
f 27/51/1 28/52/1 29/53/1
f 28/52/1 30/54/1 29/53/1
f 29/55/1 30/56/1 31/57/1
f 30/56/1 32/58/1 31/57/1
f 31/59/1 32/60/1 33/61/1
f 32/60/1 34/62/1 33/61/1
f 33/63/1 34/64/1 35/65/1
f 34/64/1 36/66/1 35/65/1
f 35/67/1 36/68/1 37/69/1
f 36/68/1 38/70/1 37/69/1
f 37/71/1 38/72/1 39/73/1
f 38/72/1 40/74/1 39/73/1
f 39/75/1 40/76/1 41/77/1
f 40/76/1 42/78/1 41/77/1
f 41/79/1 42/80/1 43/81/1
f 42/80/1 44/82/1 43/81/1
f 43/83/1 44/84/1 45/85/1
f 44/84/1 46/86/1 45/85/1
f 45/87/1 46/88/1 47/89/1
f 46/88/1 48/90/1 47/89/1
f 47/91/1 48/92/1 49/93/1
f 48/92/1 50/94/1 49/93/1
f 49/95/1 50/96/1 51/97/1
f 50/96/1 52/98/1 51/97/1
f 51/99/1 52/100/1 53/101/1
f 52/100/1 54/102/1 53/101/1
f 53/103/1 54/104/1 55/105/1
f 54/104/1 56/106/1 55/105/1
f 55/107/1 56/108/1 57/109/1
f 56/108/1 58/110/1 57/109/1
f 57/111/1 58/112/1 59/113/1
f 58/112/1 60/114/1 59/113/1
f 59/115/1 60/116/1 61/117/1
f 60/116/1 62/118/1 61/117/1
f 61/119/1 62/120/1 63/121/1
f 62/120/1 64/122/1 63/121/1
f 63/123/1 64/124/1 65/125/1
f 64/124/1 66/126/1 65/125/1
f 65/127/1 66/128/1 67/129/1
f 66/128/1 68/130/1 67/129/1
f 67/131/1 68/132/1 69/133/1
f 68/132/1 70/134/1 69/133/1
f 69/135/1 70/136/1 71/137/1
f 70/136/1 72/138/1 71/137/1
f 71/139/1 72/140/1 73/141/1
f 72/140/1 74/142/1 73/141/1
f 75/143/2 77/144/2 76/145/2
f 77/144/2 78/146/2 76/145/2
f 76/145/2 78/146/2 79/147/2
f 78/146/2 80/148/2 79/147/2
f 79/149/2 80/150/2 81/151/2
f 80/150/2 82/152/2 81/151/2
f 81/153/2 82/154/2 83/155/2
f 82/154/2 84/156/2 83/155/2
f 83/157/2 84/158/2 85/159/2
f 84/158/2 86/160/2 85/159/2
f 85/161/2 86/162/2 87/163/2
f 86/162/2 88/164/2 87/163/2
f 87/165/2 88/166/2 89/167/2
f 88/166/2 90/168/2 89/167/2
f 89/169/2 90/170/2 91/171/2
f 90/170/2 92/172/2 91/171/2
f 91/173/2 92/174/2 93/175/2
f 92/174/2 94/176/2 93/175/2
f 93/177/2 94/178/2 95/179/2
f 94/178/2 96/180/2 95/179/2
f 95/181/2 96/182/2 97/183/2
f 96/182/2 98/184/2 97/183/2
f 97/185/2 98/186/2 99/187/2
f 98/186/2 100/188/2 99/187/2
f 99/189/2 100/190/2 101/191/2
f 100/190/2 102/192/2 101/191/2
f 101/193/2 102/194/2 103/195/2
f 102/194/2 104/196/2 103/195/2
f 103/197/2 104/198/2 105/199/2
f 104/198/2 106/200/2 105/199/2
f 105/201/2 106/202/2 107/203/2
f 106/202/2 108/204/2 107/203/2
f 107/205/2 108/206/2 109/207/2
f 108/206/2 110/208/2 109/207/2
f 109/209/2 110/210/2 111/211/2
f 110/210/2 112/212/2 111/211/2
f 111/213/2 112/214/2 113/215/2
f 112/214/2 114/216/2 113/215/2
f 113/217/2 114/218/2 115/219/2
f 114/218/2 116/220/2 115/219/2
f 115/221/2 116/222/2 117/223/2
f 116/222/2 118/224/2 117/223/2
f 117/225/2 118/226/2 119/227/2
f 118/226/2 120/228/2 119/227/2
f 119/229/2 120/230/2 121/231/2
f 120/230/2 122/232/2 121/231/2
f 121/233/2 122/234/2 123/235/2
f 122/234/2 124/236/2 123/235/2
f 123/237/2 124/238/2 125/239/2
f 124/238/2 126/240/2 125/239/2
f 125/241/2 126/242/2 127/243/2
f 126/242/2 128/244/2 127/243/2
f 127/245/2 128/246/2 129/247/2
f 128/246/2 130/248/2 129/247/2
f 129/249/2 130/250/2 131/251/2
f 130/250/2 132/252/2 131/251/2
f 131/253/2 132/254/2 133/255/2
f 132/254/2 134/256/2 133/255/2
f 133/257/2 134/258/2 135/259/2
f 134/258/2 136/260/2 135/259/2
f 135/261/2 136/262/2 137/263/2
f 136/262/2 138/264/2 137/263/2
f 137/265/2 138/266/2 139/267/2
f 138/266/2 140/268/2 139/267/2
f 139/269/2 140/270/2 141/271/2
f 140/270/2 142/272/2 141/271/2
f 141/273/2 142/274/2 143/275/2
f 142/274/2 144/276/2 143/275/2
f 143/277/2 144/278/2 145/279/2
f 144/278/2 146/280/2 145/279/2
f 145/281/2 146/282/2 147/283/2
f 146/282/2 148/284/2 147/283/2
f 77/285/3 149/286/3 78/287/3
f 149/286/3 150/288/3 78/287/3
f 78/287/3 150/288/3 80/289/3
f 150/288/3 151/290/3 80/289/3
f 80/291/3 151/292/3 82/293/3
f 151/292/3 152/294/3 82/293/3
f 82/295/3 152/296/3 84/297/3
f 152/296/3 153/298/3 84/297/3
f 84/299/3 153/300/3 86/301/3
f 153/300/3 154/302/3 86/301/3
f 86/303/3 154/304/3 88/305/3
f 154/304/3 155/306/3 88/305/3
f 88/307/3 155/308/3 90/309/3
f 155/308/3 156/310/3 90/309/3
f 90/311/3 156/312/3 92/313/3
f 156/312/3 157/314/3 92/313/3
f 92/315/3 157/316/3 94/317/3
f 157/316/3 158/318/3 94/317/3
f 94/319/3 158/320/3 96/321/3
f 158/320/3 159/322/3 96/321/3
f 96/323/3 159/324/3 98/325/3
f 159/324/3 160/326/3 98/325/3
f 98/327/3 160/328/3 100/329/3
f 160/328/3 161/330/3 100/329/3
f 100/331/3 161/332/3 102/333/3
f 161/332/3 162/334/3 102/333/3
f 102/335/3 162/336/3 104/337/3
f 162/336/3 163/338/3 104/337/3
f 104/339/3 163/340/3 106/341/3
f 163/340/3 164/342/3 106/341/3
f 106/343/3 164/344/3 108/345/3
f 164/344/3 165/346/3 108/345/3
f 108/347/3 165/348/3 110/349/3
f 165/348/3 166/350/3 110/349/3
f 110/351/3 166/352/3 112/353/3
f 166/352/3 167/354/3 112/353/3
f 112/355/3 167/356/3 114/357/3
f 167/356/3 168/358/3 114/357/3
f 114/359/3 168/360/3 116/361/3
f 168/360/3 169/362/3 116/361/3
f 116/363/3 169/364/3 118/365/3
f 169/364/3 170/366/3 118/365/3
f 118/367/3 170/368/3 120/369/3
f 170/368/3 171/370/3 120/369/3
f 120/371/3 171/372/3 122/373/3
f 171/372/3 172/374/3 122/373/3
f 122/375/3 172/376/3 124/377/3
f 172/376/3 173/378/3 124/377/3
f 124/379/3 173/380/3 126/381/3
f 173/380/3 174/382/3 126/381/3
f 126/383/3 174/384/3 128/385/3
f 174/384/3 175/386/3 128/385/3
f 128/387/3 175/388/3 130/389/3
f 175/388/3 176/390/3 130/389/3
f 130/391/3 176/392/3 132/393/3
f 176/392/3 177/394/3 132/393/3
f 132/395/3 177/396/3 134/397/3
f 177/396/3 178/398/3 134/397/3
f 134/399/3 178/400/3 136/401/3
f 178/400/3 179/402/3 136/401/3
f 136/403/3 179/404/3 138/405/3
f 179/404/3 180/406/3 138/405/3
f 138/407/3 180/408/3 140/409/3
f 180/408/3 181/410/3 140/409/3
f 140/411/3 181/412/3 142/413/3
f 181/412/3 182/414/3 142/413/3
f 142/415/3 182/416/3 144/417/3
f 182/416/3 183/418/3 144/417/3
f 144/419/3 183/420/3 146/421/3
f 183/420/3 184/422/3 146/421/3
f 146/423/3 184/424/3 148/425/3
f 184/424/3 185/426/3 148/425/3
f 149/427/4 1/428/4 150/429/4
f 1/428/4 2/430/4 150/429/4
f 150/429/4 2/430/4 151/431/4
f 2/430/4 5/432/4 151/431/4
f 151/433/4 5/434/4 152/435/4
f 5/434/4 7/436/4 152/435/4
f 152/437/4 7/438/4 153/439/4
f 7/438/4 9/440/4 153/439/4
f 153/441/4 9/442/4 154/443/4
f 9/442/4 11/444/4 154/443/4
f 154/445/4 11/446/4 155/447/4
f 11/446/4 13/448/4 155/447/4
f 155/449/4 13/450/4 156/451/4
f 13/450/4 15/452/4 156/451/4
f 156/453/4 15/454/4 157/455/4
f 15/454/4 17/456/4 157/455/4
f 157/457/4 17/458/4 158/459/4
f 17/458/4 19/460/4 158/459/4
f 158/461/4 19/462/4 159/463/4
f 19/462/4 21/464/4 159/463/4
f 159/465/4 21/466/4 160/467/4
f 21/466/4 23/468/4 160/467/4
f 160/469/4 23/470/4 161/471/4
f 23/470/4 25/472/4 161/471/4
f 161/473/4 25/474/4 162/475/4
f 25/474/4 27/476/4 162/475/4
f 162/477/4 27/478/4 163/479/4
f 27/478/4 29/480/4 163/479/4
f 163/481/4 29/482/4 164/483/4
f 29/482/4 31/484/4 164/483/4
f 164/485/4 31/486/4 165/487/4
f 31/486/4 33/488/4 165/487/4
f 165/489/4 33/490/4 166/491/4
f 33/490/4 35/492/4 166/491/4
f 166/493/4 35/494/4 167/495/4
f 35/494/4 37/496/4 167/495/4
f 167/497/4 37/498/4 168/499/4
f 37/498/4 39/500/4 168/499/4
f 168/501/4 39/502/4 169/503/4
f 39/502/4 41/504/4 169/503/4
f 169/505/4 41/506/4 170/507/4
f 41/506/4 43/508/4 170/507/4
f 170/509/4 43/510/4 171/511/4
f 43/510/4 45/512/4 171/511/4
f 171/513/4 45/514/4 172/515/4
f 45/514/4 47/516/4 172/515/4
f 172/517/4 47/518/4 173/519/4
f 47/518/4 49/520/4 173/519/4
f 173/521/4 49/522/4 174/523/4
f 49/522/4 51/524/4 174/523/4
f 174/525/4 51/526/4 175/527/4
f 51/526/4 53/528/4 175/527/4
f 175/529/4 53/530/4 176/531/4
f 53/530/4 55/532/4 176/531/4
f 176/533/4 55/534/4 177/535/4
f 55/534/4 57/536/4 177/535/4
f 177/537/4 57/538/4 178/539/4
f 57/538/4 59/540/4 178/539/4
f 178/541/4 59/542/4 179/543/4
f 59/542/4 61/544/4 179/543/4
f 179/545/4 61/546/4 180/547/4
f 61/546/4 63/548/4 180/547/4
f 180/549/4 63/550/4 181/551/4
f 63/550/4 65/552/4 181/551/4
f 181/553/4 65/554/4 182/555/4
f 65/554/4 67/556/4 182/555/4
f 182/557/4 67/558/4 183/559/4
f 67/558/4 69/560/4 183/559/4
f 183/561/4 69/562/4 184/563/4
f 69/562/4 71/564/4 184/563/4
f 184/565/4 71/566/4 185/567/4
f 71/566/4 73/568/4 185/567/4
f 1/1/5 77/285/5 75/143/5
f 1/1/5 149/427/5 77/285/5
f 186/569/6 188/570/6 187/571/6
f 188/570/6 189/572/6 187/571/6
f 189/573/7 190/574/7 187/575/7
f 189/573/7 191/576/7 190/574/7
f 192/577/1 193/578/8 191/579/1
f 193/578/8 190/580/8 191/579/1
f 186/581/5 192/582/5 188/583/5
f 186/581/5 193/584/5 192/582/5
f 194/585/9 186/586/10 195/587/9
f 186/586/10 187/588/10 195/587/9
f 187/589/7 196/590/7 195/591/7
f 187/589/7 190/592/7 196/590/7
f 193/593/11 197/594/2 190/595/11
f 197/594/2 196/596/2 190/595/11
f 194/597/5 193/598/5 186/569/5
f 194/597/5 197/599/5 193/598/5
f 198/600/12 194/601/12 199/602/12
f 194/601/12 195/603/12 199/602/12
f 195/604/7 200/605/7 199/606/7
f 195/604/7 196/607/7 200/605/7
f 197/608/3 201/609/3 196/610/3
f 201/609/3 200/611/3 196/610/3
f 198/612/5 197/613/5 194/585/5
f 198/612/5 201/614/5 197/613/5
f 188/583/13 202/615/13 189/616/13
f 202/615/13 203/617/13 189/616/13
f 203/618/7 191/619/7 189/620/7
f 203/618/7 200/621/7 191/619/7
f 201/622/4 192/623/4 200/624/4
f 192/623/4 191/625/4 200/624/4
f 188/626/5 201/627/5 202/628/5
f 188/626/5 192/629/5 201/627/5
