# Blender v2.92.0 OBJ File: 'sanfrancisco.blend'
# www.blender.org
mtllib Building_061roof.mtl
o Building_061:roof_Scene.4005
v -511.514282 1553.999878 -99.249100
v -1256.826416 1554.000000 370.221069
v -776.895264 1554.000000 -290.057190
v 35.995361 1553.999878 1310.528198
v 522.006165 1554.000000 638.836792
v 321.163940 1554.000000 482.281586
v 593.759094 1554.000000 106.707886
v -233.340332 1553.999878 -493.914642
v 784.567139 1554.000000 253.949066
v 1238.888306 1554.000000 -379.070923
v -18.057129 1553.999878 -1301.678467
v -477.493164 1553.999878 -666.802734
vt 5.969264 1.660084
vt 5.972235 0.163495
vt 9.709730 0.151611
vt 9.735240 7.471227
vt 5.939082 7.475088
vt 5.896226 6.309891
vt 3.771356 6.315184
vt 3.758567 1.634914
vt 3.806530 7.418167
vt 0.238869 7.408040
vt 0.182906 0.269046
vt 3.771165 0.265160
vn 0.0000 1.0000 -0.0000
vn -0.0000 1.0000 -0.0001
usemtl RoofpanelsMaterial.002
s 1
f 1/1/1 3/2/1 2/3/1
f 1/1/1 2/3/1 4/4/1
f 1/1/1 4/4/1 5/5/1
f 1/1/1 5/5/1 6/6/1
f 1/1/1 6/6/1 7/7/2
f 1/1/1 7/7/2 8/8/1
f 8/8/1 7/7/2 9/9/1
f 8/8/1 9/9/1 10/10/1
f 8/8/1 10/10/1 11/11/1
f 8/8/1 11/11/1 12/12/1
