# Blender MTL File: 'sanfrancisco.blend'
# Material Count: 2

newmtl busstopGlassMaterial.002
Ns 179.999996
Ka 1.000000 1.000000 1.000000
Kd 0.810542 0.843284 0.805525
Ks 0.500000 0.500000 0.500000
Ke 1.000000 1.000000 1.000000
Ni 1.450000
d 1.000000
illum 2
map_Kd busstopGlassDiffuse.png
map_d busstopGlassDiffuse.png

newmtl busstopMaterial.002
Ns 179.999996
Ka 1.000000 1.000000 1.000000
Kd 0.970588 0.970588 0.970588
Ks 0.500000 0.500000 0.500000
Ke 1.000000 1.000000 1.000000
Ni 1.450000
d 1.000000
illum 2
map_Kd busstopDiffuse.png
map_d busstopDiffuse.png
norm busstopNormal.png