# Blender MTL File: 'sanfrancisco.blend'
# Material Count: 1

newmtl DefaultHDMaterial.002
Ns 179.999996
Ka 1.000000 1.000000 1.000000
Kd 0.727941 0.727941 0.727941
Ks 0.500000 0.500000 0.500000
Ke 1.000000 1.000000 1.000000
Ni 1.450000
d 1.000000
illum 2
