# Blender v2.92.0 OBJ File: 'sanfrancisco.blend'
# www.blender.org
mtllib diningtable.mtl
o diningtable_Scene.5162
v -50.826874 -55.264404 68.334557
v -43.946930 -62.145599 68.334526
v -50.825317 -62.145599 68.334526
v -43.951324 -55.258240 68.334557
v -48.442169 -57.648773 59.613998
v -50.825317 -62.145599 60.633041
v -48.442169 -59.735443 59.613998
v -50.826874 -55.264404 60.633041
v 43.984741 -55.264404 68.334557
v 50.864716 -62.145599 68.334526
v 43.986328 -62.145599 68.334526
v 50.860291 -55.258209 68.334557
v -50.826843 63.011566 68.334572
v -43.946899 56.130310 68.334572
v -50.825287 56.130310 68.334572
v -43.951324 63.017731 68.334572
v -48.442139 60.627197 59.614006
v -50.825287 56.130310 60.633057
v -48.442139 58.540527 59.614006
v -50.826843 63.011566 60.633049
v 43.984772 63.011566 68.334557
v 50.864746 56.130310 68.334557
v 43.986359 56.130310 68.334572
v 50.860321 63.017700 68.334557
v 48.429901 60.910217 63.277473
v 46.247589 -57.511078 63.277473
v 48.434937 -59.747650 63.277473
v 46.247620 58.245605 63.277473
v -46.497803 58.245605 63.277473
v -48.537781 60.904846 63.277473
v -48.577454 -59.750854 63.277473
v -46.497833 -57.511078 63.277473
v 48.434937 -59.747650 68.334251
v 46.247620 58.245605 68.334160
v 48.429901 60.910217 68.334251
v 46.247589 -57.511078 68.334160
v -46.497833 -57.511078 68.334160
v -48.577454 -59.750854 68.334236
v -48.537781 60.904846 68.334267
v -46.497803 58.245636 68.334175
v -46.476532 -59.614410 -0.038551
v -48.321167 -57.769806 -0.038551
v -48.321167 -59.614410 -0.038551
v -46.476532 -57.769806 -0.038551
v -45.340820 -56.634094 4.193687
v -45.340820 -60.750153 4.193687
v -45.161041 -56.454285 52.250381
v -45.161041 -60.929932 52.250381
v -46.391418 -57.684662 54.127335
v -46.391418 -59.699554 54.127335
v -49.456879 -56.634094 4.193687
v -49.456909 -60.750153 4.193687
v -49.636688 -60.929932 52.250381
v -49.636658 -56.454285 52.250381
v -48.406311 -59.699554 54.127335
v -48.406311 -57.684662 54.127335
v -49.638153 -56.452820 56.868248
v -45.159546 -56.452820 56.868248
v -49.638184 -60.931396 56.868248
v -45.159546 -60.931396 56.868248
v -46.355530 -57.648773 59.613998
v -46.355530 -59.735443 59.613998
v -43.951324 -55.258240 60.633041
v -43.946930 -62.145599 60.633041
v 48.335114 -59.614441 -0.038551
v 46.490479 -57.769806 -0.038551
v 46.490479 -59.614441 -0.038551
v 48.335114 -57.769806 -0.038551
v 49.470825 -56.634094 4.193687
v 49.470825 -60.750183 4.193687
v 49.650604 -56.454285 52.250381
v 49.650604 -60.929932 52.250381
v 48.420258 -57.684662 54.127327
v 48.420227 -59.699554 54.127327
v 45.354767 -56.634064 4.193687
v 45.354767 -60.750122 4.193695
v 45.174957 -60.929932 52.250389
v 45.174957 -56.454285 52.250381
v 46.405334 -59.699554 54.127327
v 46.405334 -57.684662 54.127327
v 45.173492 -56.452789 56.868256
v 49.652100 -56.452820 56.868256
v 45.173492 -60.931396 56.868263
v 49.652100 -60.931396 56.868256
v 46.369476 -57.648773 59.613991
v 48.456085 -57.648773 59.613991
v 46.369476 -59.735382 59.613991
v 48.456085 -59.735443 59.613991
v 43.984741 -55.264404 60.633034
v 50.860291 -55.258209 60.633034
v 50.864716 -62.145599 60.633041
v 43.986328 -62.145599 60.633041
v -46.476501 58.661499 -0.038544
v -48.321136 60.506165 -0.038544
v -48.321136 58.661499 -0.038544
v -46.476501 60.506165 -0.038544
v -45.340790 61.641846 4.193695
v -45.340790 57.525787 4.193703
v -45.161011 61.821686 52.250389
v -45.161011 57.346039 52.250397
v -46.391388 60.591309 54.127335
v -46.391388 58.576416 54.127335
v -49.456879 61.641846 4.193695
v -49.456879 57.525818 4.193703
v -49.636658 57.346039 52.250397
v -49.636658 61.821686 52.250389
v -48.406281 58.576416 54.127335
v -48.406281 60.591309 54.127335
v -49.638153 61.823151 56.868279
v -45.159515 61.823151 56.868279
v -49.638153 57.344543 56.868286
v -45.159515 57.344543 56.868286
v -46.355499 60.627167 59.614006
v -46.355499 58.540527 59.614006
v -43.951324 63.017731 60.633049
v -43.946899 56.130310 60.633057
v 48.335144 58.661499 -0.038536
v 46.490509 60.506165 -0.038536
v 46.490509 58.661499 -0.038536
v 48.335144 60.506165 -0.038536
v 49.470856 61.641846 4.193703
v 49.470856 57.525818 4.193703
v 49.650635 61.821655 52.250404
v 49.650635 57.346039 52.250404
v 48.420258 60.591309 54.127335
v 48.420258 58.576416 54.127335
v 45.354797 61.641846 4.193703
v 45.354767 57.525818 4.193703
v 45.174988 57.346039 52.250404
v 45.174988 61.821655 52.250404
v 46.405365 58.576416 54.127335
v 46.405365 60.591309 54.127335
v 45.173492 61.823151 56.868279
v 49.652130 61.823120 56.868279
v 45.173492 57.344574 56.868279
v 49.652130 57.344543 56.868279
v 46.369507 60.627197 59.614006
v 48.456116 60.627197 59.614006
v 46.369507 58.540527 59.614006
v 48.456116 58.540527 59.614006
v 43.984772 63.011597 60.633049
v 50.860321 63.017731 60.633049
v 50.864746 56.130310 60.633049
v 43.986359 56.130341 60.633049
v -59.702240 70.958557 68.335762
v -0.307434 71.004913 71.916954
v -59.702240 70.958588 71.912712
v -0.307434 71.004883 68.334618
v 59.751465 70.958588 71.912712
v 59.751465 70.958557 68.335747
v -0.307404 -70.684631 71.916924
v -59.702240 -70.638306 68.335747
v -59.702240 -70.638306 71.912712
v -0.307404 -70.684631 68.334602
v 59.751465 -70.638336 71.912712
v 59.751495 -70.638336 68.335747
v -0.307404 0.160156 68.331245
v -59.748535 0.160126 68.334618
v 59.797821 0.160095 68.334618
v 59.797791 0.160095 71.916939
v -0.307404 0.160156 71.929649
v -59.748566 0.160126 71.916939
vt 0.100677 0.629403
vt 0.150920 0.629403
vt 0.201112 0.629403
vt 0.201829 0.626735
vt 0.025583 0.530458
vt 0.075447 0.530458
vt 0.075809 0.541705
vt 0.025566 0.541705
vt 0.100677 0.629403
vt 0.150920 0.629403
vt 0.201112 0.629403
vt 0.201829 0.626735
vt 0.100677 0.629403
vt 0.150920 0.629403
vt 0.201112 0.629403
vt 0.201829 0.626735
vt 0.025583 0.530458
vt 0.075447 0.530458
vt 0.075809 0.541705
vt 0.025566 0.541705
vt 0.100677 0.629403
vt 0.150920 0.629403
vt 0.201112 0.629403
vt 0.201829 0.626735
vt 0.173758 0.988713
vt 0.173727 0.672988
vt 0.190952 0.690621
vt 0.190952 0.971493
vt 0.135695 0.688347
vt 0.154507 0.704085
vt 0.154507 0.953888
vt 0.135728 0.969246
vt 0.155156 0.704085
vt 0.174420 0.688318
vt 0.174440 0.969472
vt 0.155156 0.953888
vt 0.193099 0.971493
vt 0.193099 0.690621
vt 0.210123 0.672969
vt 0.209876 0.988682
vt 0.173727 0.988694
vt 0.173758 0.672969
vt 0.190952 0.690189
vt 0.190952 0.971062
vt 0.135715 0.688318
vt 0.154978 0.704085
vt 0.154978 0.953888
vt 0.135695 0.969472
vt 0.155628 0.704085
vt 0.174440 0.688347
vt 0.174406 0.969246
vt 0.155628 0.953888
vt 0.193099 0.971062
vt 0.193099 0.690189
vt 0.209876 0.673000
vt 0.210123 0.988713
vt 0.003425 0.000500
vt 0.075403 0.000500
vt 0.025586 0.000500
vt 0.054070 0.000500
vt 0.125986 0.000500
vt 0.176631 0.000500
vt 0.176419 0.047211
vt 0.126003 0.047211
vt 0.176405 0.449185
vt 0.126004 0.449185
vt 0.176598 0.469901
vt 0.125988 0.469901
vt -0.007541 -0.001933
vt 0.025570 0.047211
vt -0.017887 0.041783
vt 0.075614 0.047211
vt 0.075628 0.449185
vt 0.025569 0.449185
vt 0.075435 0.469901
vt 0.025584 0.469901
vt -0.015690 0.047147
vt -0.017121 0.449115
vt -0.045294 0.458525
vt -0.019936 0.474106
vt -0.008075 0.466185
vt 0.025569 0.500153
vt -0.018960 0.491893
vt 0.075628 0.500153
vt 0.126004 0.500153
vt 0.176405 0.500153
vt -0.040995 0.508285
vt -0.018664 0.534247
vt 0.125989 0.530458
vt 0.176586 0.530458
vt 0.224935 0.526690
vt 0.280889 0.535485
vt 0.176286 0.541705
vt 0.126001 0.541705
vt 0.000764 0.541705
vt 0.051108 0.541705
vt 0.051108 0.626735
vt 0.000764 0.626735
vt 0.101352 0.541705
vt 0.101352 0.626735
vt 0.151543 0.541705
vt 0.151543 0.626735
vt 0.201829 0.541705
vt 0.003425 0.000500
vt 0.075403 0.000500
vt 0.025586 0.000500
vt 0.054070 0.000500
vt 0.125986 0.000500
vt 0.176631 0.000500
vt 0.176419 0.047211
vt 0.126003 0.047211
vt 0.176405 0.449185
vt 0.126004 0.449185
vt 0.176598 0.469901
vt 0.125988 0.469901
vt 0.220156 -0.001933
vt 0.242780 0.041783
vt 0.075614 0.047211
vt 0.025570 0.047211
vt 0.075628 0.449185
vt 0.025569 0.449185
vt 0.075435 0.469901
vt 0.025584 0.469901
vt 0.219222 0.047147
vt 0.220761 0.449115
vt 0.222388 0.458525
vt 0.211040 0.474106
vt 0.221224 0.466185
vt 0.245039 0.491893
vt 0.176405 0.500153
vt 0.075628 0.500153
vt 0.025569 0.500153
vt 0.126004 0.500153
vt 0.221048 0.508285
vt 0.210735 0.534247
vt 0.176586 0.530458
vt 0.075447 0.530458
vt 0.025583 0.530458
vt 0.125989 0.530458
vt 0.224936 0.526690
vt 0.280889 0.535485
vt 0.176286 0.541705
vt 0.126001 0.541705
vt 0.075809 0.541705
vt 0.025566 0.541705
vt 0.000764 0.541705
vt 0.051108 0.541705
vt 0.051108 0.626735
vt 0.000764 0.626735
vt 0.101352 0.541705
vt 0.101352 0.626735
vt 0.151543 0.541705
vt 0.151543 0.626735
vt 0.201829 0.541705
vt 0.003425 0.000500
vt 0.075403 0.000500
vt 0.025586 0.000500
vt 0.054070 0.000500
vt 0.125986 0.000500
vt 0.176631 0.000500
vt 0.176419 0.047211
vt 0.126003 0.047211
vt 0.176405 0.449185
vt 0.126004 0.449185
vt 0.176598 0.469901
vt 0.125988 0.469901
vt -0.007541 -0.001933
vt 0.025570 0.047211
vt -0.017887 0.041783
vt 0.075614 0.047211
vt 0.075628 0.449185
vt 0.025569 0.449185
vt 0.075435 0.469901
vt 0.025584 0.469901
vt -0.015690 0.047147
vt -0.017121 0.449115
vt 0.222388 0.458525
vt 0.211040 0.474106
vt -0.008075 0.466185
vt 0.025569 0.500153
vt -0.018960 0.491893
vt 0.075628 0.500153
vt 0.126004 0.500153
vt 0.176405 0.500153
vt -0.040996 0.508285
vt -0.018664 0.534247
vt 0.125989 0.530458
vt 0.176586 0.530458
vt 0.224936 0.526690
vt 0.280889 0.535486
vt 0.176286 0.541705
vt 0.126001 0.541705
vt 0.000764 0.541705
vt 0.051108 0.541705
vt 0.051108 0.626735
vt 0.000764 0.626735
vt 0.101352 0.541705
vt 0.101352 0.626735
vt 0.151543 0.541705
vt 0.151543 0.626735
vt 0.201829 0.541705
vt 0.003425 0.000500
vt 0.075403 0.000500
vt 0.025586 0.000500
vt 0.054070 0.000500
vt 0.125986 0.000500
vt 0.176631 0.000500
vt 0.176419 0.047211
vt 0.126003 0.047211
vt 0.176405 0.449185
vt 0.126004 0.449185
vt 0.176598 0.469901
vt 0.125988 0.469901
vt 0.220156 -0.001933
vt 0.242780 0.041783
vt 0.075614 0.047211
vt 0.025570 0.047211
vt 0.075628 0.449185
vt 0.025569 0.449185
vt 0.075435 0.469901
vt 0.025584 0.469901
vt 0.219222 0.047147
vt 0.220761 0.449115
vt 0.222388 0.458525
vt 0.211040 0.474106
vt 0.221224 0.466185
vt 0.245039 0.491893
vt 0.176405 0.500153
vt 0.075628 0.500153
vt 0.025569 0.500153
vt 0.126004 0.500153
vt 0.221048 0.508285
vt 0.210735 0.534247
vt 0.176586 0.530458
vt 0.075447 0.530458
vt 0.025583 0.530458
vt 0.125989 0.530458
vt 0.224936 0.526690
vt 0.280890 0.535486
vt 0.176286 0.541705
vt 0.126001 0.541705
vt 0.075809 0.541705
vt 0.025566 0.541705
vt 0.000764 0.541705
vt 0.051108 0.541705
vt 0.051108 0.626735
vt 0.000764 0.626735
vt 0.101352 0.541705
vt 0.101352 0.626735
vt 0.151543 0.541705
vt 0.151543 0.626735
vt 0.201829 0.541705
vt 0.384048 0.979509
vt 0.317443 0.979917
vt 0.317307 0.004443
vt 0.383889 0.004035
vt 0.296879 0.008446
vt 0.296881 0.975811
vt 0.229464 0.975855
vt 0.229240 0.008490
vt 0.317292 0.539178
vt 0.384349 0.539178
vt 0.384349 0.978116
vt 0.317292 0.978116
vt 0.228299 0.539039
vt 0.296901 0.539039
vt 0.296901 0.978215
vt 0.228299 0.978215
vt 0.296879 0.060823
vt 0.296881 0.921436
vt 0.229490 0.921480
vt 0.229291 0.060867
vt 0.296901 0.563671
vt 0.296901 0.954230
vt 0.228341 0.954230
vt 0.228341 0.563671
vt 0.383898 0.058551
vt 0.384040 0.926344
vt 0.317438 0.926753
vt 0.317317 0.058960
vt 0.317292 0.953772
vt 0.317292 0.563779
vt 0.384346 0.563779
vt 0.384346 0.953772
vt 0.442679 0.000910
vt 0.442679 0.011757
vt 0.705556 0.022603
vt 0.705556 0.000910
vt 0.971369 0.011757
vt 0.971369 0.000910
vt 0.705364 0.975534
vt 0.442296 0.975534
vt 0.442296 0.996042
vt 0.705364 0.996042
vt 0.971371 0.975534
vt 0.971371 0.996042
vt 0.705162 0.339723
vt 0.442738 0.339723
vt 0.442942 0.023419
vt 0.705162 0.023212
vt 0.970518 0.339723
vt 0.970314 0.023419
vt 0.705162 0.973367
vt 0.442942 0.973160
vt 0.442738 0.656856
vt 0.705162 0.656856
vt 0.970314 0.973160
vt 0.970518 0.656856
vt 0.995370 0.023905
vt 0.970985 0.023905
vt 0.970985 0.339796
vt 0.995370 0.339796
vt 0.995370 0.656928
vt 0.970985 0.656928
vt 0.970985 0.972819
vt 0.995370 0.972819
vt 0.708019 0.339723
vt 0.442663 0.339723
vt 0.442868 0.023419
vt 0.708019 0.023212
vt 0.970444 0.339723
vt 0.970239 0.023419
vt 0.708019 0.973367
vt 0.442868 0.973160
vt 0.442663 0.656856
vt 0.708019 0.656856
vt 0.970239 0.973160
vt 0.970444 0.656856
vt 0.442066 0.022988
vt 0.413890 0.022988
vt 0.413890 0.339706
vt 0.442066 0.339706
vt 0.442066 0.657668
vt 0.413890 0.657668
vt 0.413890 0.974385
vt 0.442066 0.974385
vn -0.0000 -0.0000 1.0000
vn -0.2046 0.2045 -0.9572
vn -0.2050 -0.2022 -0.9576
vn -0.2033 -0.2039 -0.9577
vn -0.2046 0.2044 -0.9573
vn -0.0000 0.0000 -1.0000
vn 0.9658 0.0000 -0.2592
vn 0.9926 0.0000 -0.1211
vn 0.9733 0.0000 0.2295
vn 0.8363 0.0000 0.5482
vn 0.0000 0.9658 -0.2592
vn 0.0000 0.9926 -0.1211
vn -0.9658 0.0000 -0.2592
vn -0.9926 0.0000 -0.1211
vn -0.9733 0.0000 0.2295
vn -0.8363 0.0000 0.5482
vn 0.0000 -0.9658 -0.2592
vn 0.0000 -0.9926 -0.1211
vn 0.0000 -0.9733 0.2295
vn 0.0000 -0.8363 0.5482
vn 0.0000 0.9733 0.2295
vn 0.0000 0.8363 0.5482
vn 0.0000 0.9121 -0.4099
vn -0.9121 0.0000 -0.4099
vn 0.0000 -0.9121 -0.4099
vn 0.9121 0.0000 -0.4099
vn 0.0000 0.9168 0.3993
vn -0.9168 0.0000 0.3993
vn 0.0000 -0.9168 0.3993
vn 0.9168 0.0000 0.3993
vn 0.2027 0.2045 -0.9577
vn 0.2036 0.2035 -0.9577
vn 0.2029 -0.2024 -0.9581
vn 0.2026 -0.2026 -0.9581
vn -0.0009 1.0000 0.0000
vn -1.0000 -0.0002 0.0000
vn 0.0000 -1.0000 0.0000
vn 1.0000 0.0006 0.0000
vn -0.0000 -0.9168 0.3994
vn 0.2028 -0.2024 -0.9581
vn -0.9168 0.0000 0.3994
vn 0.9168 0.0000 0.3994
vn 1.0000 0.0000 0.0000
vn -1.0000 0.0003 0.0000
vn -0.0001 1.0000 0.0000
vn -1.0000 0.0000 0.0000
vn 0.0000 1.0000 0.0000
vn -0.0008 1.0000 -0.0000
vn 0.0008 1.0000 -0.0000
vn -0.0008 -1.0000 0.0000
vn 0.0008 -1.0000 0.0000
vn 1.0000 0.0007 0.0000
vn 1.0000 -0.0007 0.0000
vn 0.0002 -0.0000 1.0000
vn 0.0001 0.0001 1.0000
vn -0.0000 0.0001 1.0000
vn -0.0002 0.0000 1.0000
vn -0.0001 0.0001 1.0000
vn 0.0000 -0.0001 1.0000
vn 0.0001 -0.0001 1.0000
vn -0.0001 -0.0001 1.0000
vn -1.0000 0.0007 -0.0000
vn -1.0000 -0.0007 -0.0000
usemtl TABLEMaterial.002
s 1
f 1/1/1 3/2/1 2/3/1
f 2/3/1 4/4/1 1/1/1
f 5/5/2 7/6/3 6/7/4
f 6/7/4 8/8/5 5/5/2
f 9/9/1 11/10/1 10/11/1
f 10/11/1 12/12/1 9/9/1
f 13/13/1 15/14/1 14/15/1
f 14/15/1 16/16/1 13/13/1
f 17/17/2 19/18/3 18/19/4
f 18/19/4 20/20/5 17/17/2
f 21/21/1 23/22/1 22/23/1
f 22/23/1 24/24/1 21/21/1
f 25/25/6 27/26/6 26/27/6
f 26/27/6 28/28/6 25/25/6
f 25/29/6 28/30/6 29/31/6
f 29/31/6 30/32/6 25/29/6
f 26/33/6 27/34/6 31/35/6
f 31/35/6 32/36/6 26/33/6
f 29/37/6 32/38/6 31/39/6
f 31/39/6 30/40/6 29/37/6
f 33/41/1 35/42/1 34/43/1
f 34/43/1 36/44/1 33/41/1
f 33/45/1 36/46/1 37/47/1
f 37/47/1 38/48/1 33/45/1
f 34/49/1 35/50/1 39/51/1
f 39/51/1 40/52/1 34/49/1
f 37/53/1 40/54/1 39/55/1
f 39/55/1 38/56/1 37/53/1
f 41/57/6 43/58/6 42/59/6
f 42/59/6 44/60/6 41/57/6
f 41/61/7 44/62/7 45/63/8
f 45/63/8 46/64/8 41/61/7
f 46/64/8 45/63/8 47/65/9
f 47/65/9 48/66/9 46/64/8
f 48/66/9 47/65/9 49/67/10
f 49/67/10 50/68/10 48/66/9
f 44/69/11 42/59/11 51/70/12
f 51/70/12 45/71/12 44/69/11
f 42/59/13 43/58/13 52/72/14
f 52/72/14 51/70/14 42/59/13
f 51/70/14 52/72/14 53/73/15
f 53/73/15 54/74/15 51/70/14
f 54/74/15 53/73/15 55/75/16
f 55/75/16 56/76/16 54/74/15
f 43/58/17 41/61/17 46/64/18
f 46/64/18 52/72/18 43/58/17
f 52/72/18 46/64/18 48/66/19
f 48/66/19 53/73/19 52/72/18
f 53/73/19 48/66/19 50/68/20
f 50/68/20 55/75/20 53/73/19
f 45/77/12 51/70/12 54/74/21
f 54/74/21 47/78/21 45/77/12
f 47/79/21 54/74/21 56/76/22
f 56/76/22 49/80/22 47/79/21
f 49/81/23 56/76/23 57/82/23
f 57/82/23 58/83/23 49/81/23
f 56/76/24 55/75/24 59/84/24
f 59/84/24 57/82/24 56/76/24
f 55/75/25 50/68/25 60/85/25
f 60/85/25 59/84/25 55/75/25
f 50/68/26 49/67/26 58/86/26
f 58/86/26 60/85/26 50/68/26
f 58/87/27 57/82/27 5/5/27
f 5/5/27 61/88/27 58/87/27
f 57/82/28 59/84/28 7/6/28
f 7/6/28 5/5/28 57/82/28
f 59/84/29 60/85/29 62/89/29
f 62/89/29 7/6/29 59/84/29
f 60/85/30 58/86/30 61/90/30
f 61/90/30 62/89/30 60/85/30
f 61/90/31 5/91/2 8/92/5
f 8/92/5 63/93/32 61/90/31
f 62/89/33 61/90/31 63/93/32
f 63/93/32 64/94/34 62/89/33
f 7/6/3 62/89/33 64/94/34
f 64/94/34 6/7/4 7/6/3
f 63/95/35 8/96/35 1/97/35
f 1/97/35 4/98/35 63/95/35
f 8/96/36 6/99/36 3/100/36
f 3/100/36 1/97/36 8/96/36
f 6/99/37 64/101/37 2/102/37
f 2/102/37 3/100/37 6/99/37
f 64/101/38 63/103/38 4/4/38
f 4/4/38 2/102/38 64/101/38
f 65/104/6 67/105/6 66/106/6
f 66/106/6 68/107/6 65/104/6
f 65/108/7 68/109/7 69/110/8
f 69/110/8 70/111/8 65/108/7
f 70/111/8 69/110/8 71/112/9
f 71/112/9 72/113/9 70/111/8
f 72/113/9 71/112/9 73/114/10
f 73/114/10 74/115/10 72/113/9
f 68/109/11 66/116/11 75/117/12
f 75/117/12 69/110/12 68/109/11
f 66/106/13 67/105/13 76/118/14
f 76/118/14 75/119/14 66/106/13
f 75/119/14 76/118/14 77/120/15
f 77/120/15 78/121/15 75/119/14
f 78/121/15 77/120/15 79/122/16
f 79/122/16 80/123/16 78/121/15
f 67/105/17 65/108/17 70/111/18
f 70/111/18 76/118/18 67/105/17
f 76/118/18 70/111/18 72/113/19
f 72/113/19 77/120/19 76/118/18
f 77/120/19 72/113/19 74/115/20
f 74/115/20 79/122/20 77/120/19
f 69/110/12 75/124/12 78/125/21
f 78/125/21 71/112/21 69/110/12
f 71/112/21 78/126/21 80/127/22
f 80/127/22 73/114/22 71/112/21
f 73/114/23 80/128/23 81/129/23
f 81/129/23 82/130/23 73/114/23
f 80/123/24 79/122/24 83/131/24
f 83/131/24 81/132/24 80/123/24
f 79/122/25 74/115/25 84/133/25
f 84/133/25 83/131/25 79/122/25
f 74/115/26 73/114/26 82/130/26
f 82/130/26 84/133/26 74/115/26
f 82/130/27 81/134/27 85/135/27
f 85/135/27 86/136/27 82/130/27
f 81/132/28 83/131/28 87/137/28
f 87/137/28 85/138/28 81/132/28
f 83/131/29 84/133/29 88/139/29
f 88/139/29 87/137/39 83/131/29
f 84/133/30 82/130/30 86/136/30
f 86/136/30 88/139/30 84/133/30
f 86/136/31 85/140/2 89/141/5
f 89/141/5 90/142/32 86/136/31
f 88/139/40 86/136/31 90/142/32
f 90/142/32 91/143/34 88/139/40
f 85/138/2 87/137/3 92/144/4
f 92/144/4 89/145/5 85/138/2
f 87/137/3 88/139/40 91/143/34
f 91/143/34 92/144/4 87/137/3
f 90/146/35 89/147/35 9/148/35
f 9/148/35 12/149/35 90/146/35
f 89/147/36 92/150/36 11/151/36
f 11/151/36 9/148/36 89/147/36
f 92/150/37 91/152/37 10/153/37
f 10/153/37 11/151/37 92/150/37
f 91/152/38 90/154/38 12/12/38
f 12/12/38 10/153/38 91/152/38
f 93/155/6 95/156/6 94/157/6
f 94/157/6 96/158/6 93/155/6
f 93/159/7 96/160/7 97/161/8
f 97/161/8 98/162/8 93/159/7
f 98/162/8 97/161/8 99/163/9
f 99/163/9 100/164/9 98/162/8
f 100/164/9 99/163/9 101/165/10
f 101/165/10 102/166/10 100/164/9
f 96/167/11 94/157/11 103/168/12
f 103/168/12 97/169/12 96/167/11
f 94/157/13 95/156/13 104/170/14
f 104/170/14 103/168/14 94/157/13
f 103/168/14 104/170/14 105/171/15
f 105/171/15 106/172/15 103/168/14
f 106/172/15 105/171/15 107/173/16
f 107/173/16 108/174/16 106/172/15
f 95/156/17 93/159/17 98/162/18
f 98/162/18 104/170/18 95/156/17
f 104/170/18 98/162/18 100/164/19
f 100/164/19 105/171/19 104/170/18
f 105/171/19 100/164/19 102/166/20
f 102/166/20 107/173/20 105/171/19
f 97/175/12 103/168/12 106/172/21
f 106/172/21 99/176/21 97/175/12
f 99/163/21 106/177/21 108/178/22
f 108/178/22 101/165/22 99/163/21
f 101/179/23 108/174/23 109/180/23
f 109/180/23 110/181/23 101/179/23
f 108/174/24 107/173/24 111/182/24
f 111/182/24 109/180/24 108/174/24
f 107/173/25 102/166/25 112/183/25
f 112/183/25 111/182/25 107/173/25
f 102/166/26 101/165/26 110/184/26
f 110/184/26 112/183/26 102/166/26
f 110/185/27 109/180/27 17/17/27
f 17/17/27 113/186/27 110/185/27
f 109/180/28 111/182/41 19/18/28
f 19/18/28 17/17/28 109/180/28
f 111/182/29 112/183/29 114/187/29
f 114/187/29 19/18/29 111/182/29
f 112/183/30 110/184/30 113/188/30
f 113/188/30 114/187/30 112/183/30
f 113/188/31 17/189/2 20/190/5
f 20/190/5 115/191/32 113/188/31
f 114/187/33 113/188/31 115/191/32
f 115/191/32 116/192/34 114/187/33
f 19/18/3 114/187/33 116/192/34
f 116/192/34 18/19/4 19/18/3
f 115/193/35 20/194/35 13/195/35
f 13/195/35 16/196/35 115/193/35
f 20/194/36 18/197/36 15/198/36
f 15/198/36 13/195/36 20/194/36
f 18/197/37 116/199/37 14/200/37
f 14/200/37 15/198/37 18/197/37
f 116/199/38 115/201/38 16/16/38
f 16/16/38 14/200/38 116/199/38
f 117/202/6 119/203/6 118/204/6
f 118/204/6 120/205/6 117/202/6
f 117/206/7 120/207/7 121/208/8
f 121/208/8 122/209/8 117/206/7
f 122/209/8 121/208/8 123/210/9
f 123/210/9 124/211/9 122/209/8
f 124/211/9 123/210/9 125/212/10
f 125/212/10 126/213/10 124/211/9
f 120/207/11 118/214/11 127/215/12
f 127/215/12 121/208/12 120/207/11
f 118/204/13 119/203/13 128/216/14
f 128/216/14 127/217/14 118/204/13
f 127/217/14 128/216/14 129/218/15
f 129/218/15 130/219/15 127/217/14
f 130/219/15 129/218/15 131/220/16
f 131/220/16 132/221/16 130/219/15
f 119/203/17 117/206/17 122/209/18
f 122/209/18 128/216/18 119/203/17
f 128/216/18 122/209/18 124/211/19
f 124/211/19 129/218/19 128/216/18
f 129/218/19 124/211/19 126/213/20
f 126/213/20 131/220/20 129/218/19
f 121/208/12 127/222/12 130/223/21
f 130/223/21 123/210/21 121/208/12
f 123/210/21 130/224/21 132/225/22
f 132/225/22 125/212/22 123/210/21
f 125/212/23 132/226/23 133/227/23
f 133/227/23 134/228/23 125/212/23
f 132/221/24 131/220/24 135/229/24
f 135/229/24 133/230/24 132/221/24
f 131/220/25 126/213/25 136/231/25
f 136/231/25 135/229/25 131/220/25
f 126/213/26 125/212/26 134/228/26
f 134/228/26 136/231/26 126/213/26
f 134/228/27 133/232/27 137/233/27
f 137/233/27 138/234/27 134/228/27
f 133/230/28 135/229/41 139/235/28
f 139/235/28 137/236/28 133/230/28
f 135/229/29 136/231/29 140/237/29
f 140/237/29 139/235/29 135/229/29
f 136/231/30 134/228/42 138/234/30
f 138/234/30 140/237/30 136/231/30
f 138/234/31 137/238/2 141/239/5
f 141/239/5 142/240/32 138/234/31
f 140/237/33 138/234/31 142/240/32
f 142/240/32 143/241/34 140/237/33
f 137/236/2 139/235/3 144/242/4
f 144/242/4 141/243/5 137/236/2
f 139/235/3 140/237/33 143/241/34
f 143/241/34 144/242/4 139/235/3
f 142/244/35 141/245/35 21/246/35
f 21/246/35 24/247/35 142/244/35
f 141/245/36 144/248/36 23/249/36
f 23/249/36 21/246/36 141/245/36
f 144/248/37 143/250/37 22/251/37
f 22/251/37 23/249/37 144/248/37
f 143/250/38 142/252/38 24/24/38
f 24/24/38 22/251/38 143/250/38
f 25/253/43 35/254/43 33/255/43
f 33/255/43 27/256/43 25/253/43
f 30/257/44 31/258/44 38/259/44
f 38/259/44 39/260/44 30/257/44
f 27/261/37 33/262/37 38/263/37
f 38/263/37 31/264/37 27/261/37
f 35/265/45 25/266/45 30/267/45
f 30/267/45 39/268/45 35/265/45
f 28/269/46 26/270/46 36/271/46
f 36/271/46 34/272/46 28/269/46
f 26/273/47 32/274/47 37/275/47
f 37/275/47 36/276/47 26/273/47
f 32/277/43 29/278/43 40/279/43
f 40/279/43 37/280/43 32/277/43
f 29/281/37 28/282/37 34/283/37
f 34/283/37 40/284/37 29/281/37
f 145/285/48 147/286/48 146/287/47
f 146/287/47 148/288/47 145/285/48
f 148/288/47 146/287/47 149/289/49
f 149/289/49 150/290/49 148/288/47
f 151/291/37 153/292/50 152/293/50
f 152/293/50 154/294/37 151/291/37
f 155/295/51 151/291/37 154/294/37
f 154/294/37 156/296/51 155/295/51
f 157/297/6 158/298/6 145/299/6
f 145/299/6 148/300/6 157/297/6
f 159/301/6 157/297/6 148/300/6
f 148/300/6 150/302/6 159/301/6
f 154/303/6 152/304/6 158/305/6
f 158/305/6 157/306/6 154/303/6
f 156/307/6 154/303/6 157/306/6
f 157/306/6 159/308/6 156/307/6
f 150/309/52 149/310/52 160/311/43
f 160/311/43 159/312/43 150/309/52
f 159/313/43 160/314/43 155/315/53
f 155/315/53 156/316/53 159/313/43
f 161/317/1 160/318/54 149/319/55
f 149/319/55 146/320/56 161/317/1
f 162/321/57 161/317/1 146/320/56
f 146/320/56 147/322/58 162/321/57
f 151/323/59 155/324/60 160/325/54
f 160/325/54 161/326/1 151/323/59
f 153/327/61 151/323/59 161/326/1
f 161/326/1 162/328/57 153/327/61
f 147/329/62 145/330/62 158/331/46
f 158/331/46 162/332/46 147/329/62
f 162/333/46 158/334/46 152/335/63
f 152/335/63 153/336/63 162/333/46
