# Blender v2.92.0 OBJ File: 'sanfrancisco.blend'
# www.blender.org
mtllib Door02AEmissionOn_4.mtl
o Door02AEmissionOn_4_Scene.4424
v 50.000061 240.225006 -839.999817
v -49.999939 240.225006 -839.999817
v -49.999969 15.225001 -839.999817
v 50.000031 15.225000 -839.999817
vt 0.000000 1.000000
vt 1.000000 0.000000
vt 1.000000 1.000000
vt 0.000000 0.000000
vn 0.0000 0.0000 -1.0000
usemtl Door02AEmissionOffMaterial.002
s 1
f 1/1/1 3/2/1 2/3/1
f 1/1/1 4/4/1 3/2/1
