# Blender v2.92.0 OBJ File: 'sanfrancisco.blend'
# www.blender.org
mtllib Door07Tiling_5EmissionOn.mtl
o Door07Tiling_5EmissionOn_Scene.3821
v 1212.304688 222.000015 947.101379
v 1280.804810 222.000015 849.703003
v 1280.804810 0.000031 849.703003
v 1212.304688 0.000031 947.101379
v 96.109558 222.000015 -1776.101196
v 0.007935 222.000015 -1846.194946
v 0.008057 0.000031 -1846.194946
v 96.109558 0.000031 -1776.101196
vt 0.000000 1.000000
vt 1.000000 0.000000
vt 1.000000 1.000000
vt 0.000000 0.000000
vt 0.000000 1.000000
vt 1.000000 0.000000
vt 1.000000 1.000000
vt 0.000000 0.000000
vn 0.8180 0.0000 0.5753
vn 0.5896 0.0000 -0.8077
usemtl Door07Tiling_5EmissionOnMaterial.002
s 1
f 1/1/1 3/2/1 2/3/1
f 1/1/1 4/4/1 3/2/1
f 5/5/2 7/6/2 6/7/2
f 5/5/2 8/8/2 7/6/2
