# Blender v2.92.0 OBJ File: 'sanfrancisco.blend'
# www.blender.org
mtllib Door01.mtl
o Door01_Scene.4538
v -2237.122559 266.171173 -1597.476807
v -2237.122559 266.171173 -1397.476807
v -2237.122314 0.000000 -1397.476807
v -2237.122314 0.000000 -1597.476807
v -2237.122559 266.171173 399.158783
v -2237.122559 266.171173 599.158813
v -2237.122314 0.000000 599.158813
v -2237.122314 0.000000 399.158783
v -2237.122559 266.171173 1397.476807
v -2237.122559 266.171173 1597.476807
v -2237.122314 0.000000 1597.476807
v -2237.122314 0.000000 1397.476807
v -2237.122559 266.171173 -599.158936
v -2237.122559 266.171173 -399.158905
v -2237.122314 0.000000 -399.158905
v -2237.122314 0.000000 -599.158936
vt 0.000000 1.000000
vt 1.000000 0.000000
vt 1.000000 1.000000
vt 0.000000 0.000000
vt 0.000000 1.000000
vt 1.000000 0.000000
vt 1.000000 1.000000
vt 0.000000 0.000000
vt 0.000000 1.000000
vt 1.000000 0.000000
vt 1.000000 1.000000
vt 0.000000 0.000000
vt 0.000000 1.000000
vt 1.000000 0.000000
vt 1.000000 1.000000
vt 0.000000 0.000000
vn -1.0000 -0.0000 0.0000
usemtl Door01Material.002
s 1
f 1/1/1 3/2/1 2/3/1
f 1/1/1 4/4/1 3/2/1
f 5/5/1 7/6/1 6/7/1
f 5/5/1 8/8/1 7/6/1
f 9/9/1 11/10/1 10/11/1
f 9/9/1 12/12/1 11/10/1
f 13/13/1 15/14/1 14/15/1
f 13/13/1 16/16/1 15/14/1
