# Blender v2.92.0 OBJ File: 'sanfrancisco.blend'
# www.blender.org
mtllib Door07BlueEmissionOff_3.mtl
o Door07BlueEmissionOff_3_Scene.3376
v 1239.999878 203.899963 -287.499969
v 1239.999756 203.899963 -437.499969
v 1239.999878 3.899979 -437.499969
v 1239.999878 3.899979 -287.499969
vt 0.000000 1.000000
vt 1.000000 0.000000
vt 1.000000 1.000000
vt 0.000000 0.000000
vn 1.0000 0.0000 -0.0000
usemtl Door07BlueEmissionOffMaterial.002
s 1
f 1/1/1 3/2/1 2/3/1
f 1/1/1 4/4/1 3/2/1
