# Blender v2.92.0 OBJ File: 'sanfrancisco.blend'
# www.blender.org
mtllib Door06EmissionOff.mtl
o Door06EmissionOff_Scene.3288
v -2952.959717 289.999878 -1412.066650
v -3079.449951 289.999878 -1032.593018
v -3079.449951 -0.000061 -1032.593018
v -2952.959717 -0.000061 -1412.066650
v -3116.989990 289.999878 -919.971863
v -3243.480225 289.999878 -540.499023
v -3243.480225 -0.000061 -540.499023
v -3116.989990 -0.000061 -919.971863
v -3281.019287 289.999878 -427.877869
v -3407.509521 289.999878 -48.405029
v -3407.509521 -0.000122 -48.405029
v -3281.019287 -0.000061 -427.877869
v -3445.049316 289.999878 64.216049
v -3571.540039 289.999878 443.689850
v -3571.540039 -0.000122 443.689850
v -3445.049316 -0.000122 64.216049
v -3773.120117 289.999878 1048.404663
v -3899.610107 289.999878 1427.877808
v -3899.610107 -0.000122 1427.877808
v -3773.120117 -0.000122 1048.404663
v -3895.309570 289.999878 1474.999756
v -3495.309326 289.999878 1474.999756
v -3495.309326 -0.000122 1474.999756
v -3895.309570 -0.000122 1474.999756
v -2517.188232 289.999878 1474.999756
v -2117.188232 289.999878 1474.999756
v -2117.188232 -0.000122 1474.999756
v -2517.188232 -0.000061 1474.999756
v -2057.813232 289.999878 1474.999756
v -1657.813354 289.999939 1475.000000
v -1657.813354 -0.000061 1475.000000
v -2057.813232 -0.000122 1474.999756
v -1598.438354 289.999939 1475.000000
v -1198.438477 289.999939 1474.999878
v -1198.438477 -0.000122 1474.999878
v -1598.438354 -0.000061 1475.000000
v -1139.063477 289.999939 1474.999878
v -739.062988 289.999878 1474.999878
v -739.062988 -0.000122 1474.999878
v -1139.063477 -0.000122 1474.999878
v -679.688110 289.999878 1474.999878
v -279.687958 289.999939 1474.999878
v -279.687958 -0.000061 1474.999878
v -679.687988 -0.000122 1474.999878
v -220.312958 289.999939 1474.999878
v 179.687027 289.999939 1474.999878
v 179.687012 -0.000061 1474.999878
v -220.312958 -0.000061 1474.999878
v 239.062012 289.999817 1474.999878
v 639.061890 289.999817 1474.999878
v 639.061890 -0.000122 1474.999878
v 239.061981 -0.000061 1474.999878
v 698.436890 289.999817 1474.999878
v 1098.436890 289.999878 1474.999878
v 1098.436890 -0.000061 1474.999878
v 698.436890 -0.000122 1474.999878
v 1157.811890 289.999878 1474.999878
v 1557.812012 289.999878 1474.999756
v 1557.812012 -0.000061 1474.999756
v 1157.811890 -0.000061 1474.999878
v 1617.186890 289.999878 1474.999756
v 2017.186768 289.999878 1474.999878
v 2017.186768 -0.000061 1474.999878
v 1617.186890 -0.000061 1474.999756
v 2076.562012 289.999878 1474.999878
v 2476.562012 289.999878 1474.999878
v 2476.562012 -0.000061 1474.999878
v 2076.562012 -0.000061 1474.999878
v 2535.937012 289.999878 1474.999878
v 2935.937012 289.999878 1474.999878
v 2935.937012 -0.000061 1474.999878
v 2535.937012 -0.000061 1474.999878
v 2995.312012 289.999878 1474.999878
v 3395.311768 289.999878 1474.999878
v 3395.311768 -0.000122 1474.999878
v 2995.312012 -0.000061 1474.999878
v 3424.999756 289.999878 1429.166870
v 3424.999756 289.999878 1029.166870
v 3424.999756 -0.000122 1029.166870
v 3424.999756 -0.000122 1429.166870
v 3424.999756 289.999878 937.499939
v 3424.999756 289.999878 537.499939
v 3424.999756 -0.000122 537.499939
v 3424.999756 -0.000122 937.499939
v 3424.999756 289.999878 -45.833008
v 3424.999756 289.999878 -445.832977
v 3424.999756 -0.000122 -445.832977
v 3424.999756 -0.000122 -45.833008
v 3424.999756 289.999878 -537.500000
v 3424.999756 289.999878 -937.499817
v 3424.999756 -0.000122 -937.499817
v 3424.999756 -0.000122 -537.500000
v 3424.999756 289.999878 -1029.166748
v 3424.999756 289.999878 -1429.166748
v 3424.999756 -0.000122 -1429.166748
v 3424.999756 -0.000122 -1029.166748
vt 0.000000 1.000000
vt 1.000000 0.000000
vt 1.000000 1.000000
vt 0.000000 0.000000
vt 0.000000 1.000000
vt 1.000000 0.000000
vt 1.000000 1.000000
vt 0.000000 0.000000
vt 0.000000 1.000000
vt 1.000000 0.000000
vt 1.000000 1.000000
vt 0.000000 0.000000
vt 0.000000 1.000000
vt 1.000000 0.000000
vt 1.000000 1.000000
vt 0.000000 0.000000
vt 0.000000 1.000000
vt 1.000000 0.000000
vt 1.000000 1.000000
vt 0.000000 0.000000
vt 0.000000 1.000000
vt 1.000000 0.000000
vt 1.000000 1.000000
vt 0.000000 0.000000
vt 0.000000 1.000000
vt 1.000000 0.000000
vt 1.000000 1.000000
vt 0.000000 0.000000
vt 0.000000 1.000000
vt 1.000000 0.000000
vt 1.000000 1.000000
vt 0.000000 0.000000
vt 0.000000 1.000000
vt 1.000000 0.000000
vt 1.000000 1.000000
vt 0.000000 0.000000
vt 0.000000 1.000000
vt 1.000000 0.000000
vt 1.000000 1.000000
vt 0.000000 0.000000
vt 0.000000 1.000000
vt 1.000000 0.000000
vt 1.000000 1.000000
vt 0.000000 0.000000
vt 0.000000 1.000000
vt 1.000000 0.000000
vt 1.000000 1.000000
vt 0.000000 0.000000
vt 0.000000 1.000000
vt 1.000000 0.000000
vt 1.000000 1.000000
vt 0.000000 0.000000
vt 0.000000 1.000000
vt 1.000000 0.000000
vt 1.000000 1.000000
vt 0.000000 0.000000
vt 0.000000 1.000000
vt 1.000000 0.000000
vt 1.000000 1.000000
vt 0.000000 0.000000
vt 0.000000 1.000000
vt 1.000000 0.000000
vt 1.000000 1.000000
vt 0.000000 0.000000
vt 0.000000 1.000000
vt 1.000000 0.000000
vt 1.000000 1.000000
vt 0.000000 0.000000
vt 0.000000 1.000000
vt 1.000000 0.000000
vt 1.000000 1.000000
vt 0.000000 0.000000
vt 0.000000 1.000000
vt 1.000000 0.000000
vt 1.000000 1.000000
vt 0.000000 0.000000
vt 0.000000 1.000000
vt 1.000000 0.000000
vt 1.000000 1.000000
vt 0.000000 0.000000
vt 0.000000 1.000000
vt 1.000000 0.000000
vt 1.000000 1.000000
vt 0.000000 0.000000
vt 0.000000 1.000000
vt 1.000000 0.000000
vt 1.000000 1.000000
vt 0.000000 0.000000
vt 0.000000 1.000000
vt 1.000000 0.000000
vt 1.000000 1.000000
vt 0.000000 0.000000
vt 0.000000 1.000000
vt 1.000000 0.000000
vt 1.000000 1.000000
vt 0.000000 0.000000
vn -0.9487 0.0000 -0.3162
vn 0.0000 0.0000 1.0000
vn 1.0000 0.0000 0.0000
usemtl Door06EmissionOffMaterial.002
s 1
f 1/1/1 3/2/1 2/3/1
f 1/1/1 4/4/1 3/2/1
f 5/5/1 7/6/1 6/7/1
f 5/5/1 8/8/1 7/6/1
f 9/9/1 11/10/1 10/11/1
f 9/9/1 12/12/1 11/10/1
f 13/13/1 15/14/1 14/15/1
f 13/13/1 16/16/1 15/14/1
f 17/17/1 19/18/1 18/19/1
f 17/17/1 20/20/1 19/18/1
f 21/21/2 23/22/2 22/23/2
f 21/21/2 24/24/2 23/22/2
f 25/25/2 27/26/2 26/27/2
f 25/25/2 28/28/2 27/26/2
f 29/29/2 31/30/2 30/31/2
f 29/29/2 32/32/2 31/30/2
f 33/33/2 35/34/2 34/35/2
f 33/33/2 36/36/2 35/34/2
f 37/37/2 39/38/2 38/39/2
f 37/37/2 40/40/2 39/38/2
f 41/41/2 43/42/2 42/43/2
f 41/41/2 44/44/2 43/42/2
f 45/45/2 47/46/2 46/47/2
f 45/45/2 48/48/2 47/46/2
f 49/49/2 51/50/2 50/51/2
f 49/49/2 52/52/2 51/50/2
f 53/53/2 55/54/2 54/55/2
f 53/53/2 56/56/2 55/54/2
f 57/57/2 59/58/2 58/59/2
f 57/57/2 60/60/2 59/58/2
f 61/61/2 63/62/2 62/63/2
f 61/61/2 64/64/2 63/62/2
f 65/65/2 67/66/2 66/67/2
f 65/65/2 68/68/2 67/66/2
f 69/69/2 71/70/2 70/71/2
f 69/69/2 72/72/2 71/70/2
f 73/73/2 75/74/2 74/75/2
f 73/73/2 76/76/2 75/74/2
f 77/77/3 79/78/3 78/79/3
f 77/77/3 80/80/3 79/78/3
f 81/81/3 83/82/3 82/83/3
f 81/81/3 84/84/3 83/82/3
f 85/85/3 87/86/3 86/87/3
f 85/85/3 88/88/3 87/86/3
f 89/89/3 91/90/3 90/91/3
f 89/89/3 92/92/3 91/90/3
f 93/93/3 95/94/3 94/95/3
f 93/93/3 96/96/3 95/94/3
