# Blender MTL File: 'sanfrancisco.blend'
# Material Count: 1

newmtl Door02EmissionOnMaterial.002
Ns 179.999996
Ka 1.000000 1.000000 1.000000
Kd 1.000000 1.000000 1.000000
Ks 0.500000 0.500000 0.500000
Ke 1.000000 1.000000 1.000000
Ni 1.450000
d 1.000000
illum 2
map_Kd Door02Diffuse.png
map_d Door02Diffuse.png
norm Door02Normal.png 
map_ka Door02AEmissionOff.png 
