# Blender v2.92.0 OBJ File: 'sanfrancisco.blend'
# www.blender.org
mtllib Door07EmissionOn_23.mtl
o Door07EmissionOn_23_Scene.3803
v 2532.992188 299.999969 -1935.819824
v 2357.992188 300.000000 -1939.210571
v 2357.992188 0.000000 -1939.210571
v 2532.992188 0.000000 -1935.819824
v 3888.492188 299.999969 752.109192
v 3988.296631 300.000000 608.312378
v 3988.296631 0.000000 608.312378
v 3888.492188 0.000000 752.109192
vt 0.000000 1.000000
vt 1.000000 0.000000
vt 1.000000 1.000000
vt 0.000000 0.000000
vt 0.000000 1.000000
vt 1.000000 0.000000
vt 1.000000 1.000000
vt 0.000000 0.000000
vn 0.0194 0.0000 -0.9998
vn 0.8212 -0.0000 0.5706
usemtl Door07EmissionOnMaterial.002
s 1
f 1/1/1 3/2/1 2/3/1
f 1/1/1 4/4/1 3/2/1
f 5/5/2 7/6/2 6/7/2
f 5/5/2 8/8/2 7/6/2
