# Blender v2.92.0 OBJ File: 'sanfrancisco.blend'
# www.blender.org
mtllib Door09EmissionOn1.mtl
o Door09EmissionOn1_Scene.4531
v -2237.122559 266.171204 -599.158875
v -2237.122559 266.171204 -399.158905
v -2237.122559 0.000000 -399.158905
v -2237.122559 0.000000 -599.158875
vt 0.000000 1.000000
vt 1.000000 0.000000
vt 1.000000 1.000000
vt 0.000000 0.000000
vn -1.0000 0.0000 0.0000
usemtl Door09EmissionOnMaterial.002
s 1
f 1/1/1 3/2/1 2/3/1
f 1/1/1 4/4/1 3/2/1
