# Blender v2.92.0 OBJ File: 'sanfrancisco.blend'
# www.blender.org
mtllib DoorLoading01_14.mtl
o DoorLoading01_14_Scene.3864
v -326.754395 298.750031 -706.567993
v -465.304688 298.750031 -516.755493
v -465.304688 23.750031 -516.755493
v -326.754395 23.750031 -706.567993
v -633.334106 298.750000 -286.556763
v -771.884399 298.750031 -96.744286
v -771.884399 23.750031 -96.744286
v -633.334106 23.750031 -286.556763
vt 0.000000 1.000000
vt 1.000000 0.000000
vt 1.000000 1.000000
vt 0.000000 0.000000
vt 0.000000 1.000000
vt 1.000000 0.000000
vt 1.000000 1.000000
vt 0.000000 0.000000
vn -0.8077 0.0000 -0.5896
usemtl DoorLoading01Material.002
s 1
f 1/1/1 3/2/1 2/3/1
f 1/1/1 4/4/1 3/2/1
f 5/5/1 7/6/1 6/7/1
f 5/5/1 8/8/1 7/6/1
