# Blender MTL File: 'sanfrancisco.blend'
# Material Count: 1

newmtl Door07EmissionOnMaterial.002
Ns 179.999996
Ka 1.000000 1.000000 1.000000
Kd 1.000000 1.000000 1.000000
Ks 0.500000 0.500000 0.500000
Ke 1.000000 1.000000 1.000000
Ni 1.450000
d 1.000000
illum 2
map_Kd Door07Diffuse.png
map_d Door07Diffuse.png
norm Door07Normal.png 
map_ka Door07EmissionOff.png 
