# Blender v2.92.0 OBJ File: 'sanfrancisco.blend'
# www.blender.org
mtllib Door00.mtl
o Door00_Scene.3123
v 912.499939 104.999985 -1284.999878
v 812.500000 104.999969 -1285.000000
v 812.500000 -105.000008 -1285.000000
v 912.499939 -105.000000 -1284.999878
v 242.500000 104.999985 -1285.000000
v 142.500015 104.999969 -1285.000000
v 142.500015 -105.000015 -1285.000000
v 242.500000 -105.000000 -1285.000000
v -427.499878 104.999969 -1285.000000
v -527.499817 104.999954 -1285.000000
v -527.499817 -105.000008 -1285.000000
v -427.499878 -105.000000 -1285.000000
v -1097.499878 104.999969 -1284.999878
v -1197.499878 104.999969 -1284.999878
v -1197.499756 -105.000008 -1284.999878
v -1097.499756 -105.000000 -1284.999878
v 1197.500000 104.999985 1284.999878
v 1197.500000 104.999985 1184.999878
v 1197.500000 -105.000000 1184.999878
v 1197.500000 -105.000000 1284.999878
v 1197.499878 104.999985 564.999878
v 1197.499878 104.999985 464.999878
v 1197.499878 -105.000000 464.999878
v 1197.499878 -105.000000 564.999878
v 1197.499878 104.999985 -154.999893
v 1197.499878 104.999985 -254.999878
v 1197.499878 -105.000000 -254.999878
v 1197.499878 -105.000000 -154.999893
v 1197.499756 104.999985 -874.999939
v 1197.500000 104.999985 -974.999939
v 1197.500000 -105.000000 -974.999939
v 1197.499756 -105.000000 -874.999939
vt 0.000000 1.000000
vt 1.000000 0.000000
vt 1.000000 1.000000
vt 0.000000 0.000000
vt 0.000000 1.000000
vt 1.000000 0.000000
vt 1.000000 1.000000
vt 0.000000 0.000000
vt 0.000000 1.000000
vt 1.000000 0.000000
vt 1.000000 1.000000
vt 0.000000 0.000000
vt 0.000000 1.000000
vt 1.000000 0.000000
vt 1.000000 1.000000
vt 0.000000 0.000000
vt 0.000000 1.000000
vt 1.000000 0.000000
vt 1.000000 1.000000
vt 0.000000 0.000000
vt 0.000000 1.000000
vt 1.000000 0.000000
vt 1.000000 1.000000
vt 0.000000 0.000000
vt 0.000000 1.000000
vt 1.000000 0.000000
vt 1.000000 1.000000
vt 0.000000 0.000000
vt 0.000000 1.000000
vt 1.000000 0.000000
vt 1.000000 1.000000
vt 0.000000 0.000000
vn 0.0000 0.0000 -1.0000
vn 1.0000 0.0000 0.0000
usemtl Door00Material.002
s 1
f 1/1/1 3/2/1 2/3/1
f 1/1/1 4/4/1 3/2/1
f 5/5/1 7/6/1 6/7/1
f 5/5/1 8/8/1 7/6/1
f 9/9/1 11/10/1 10/11/1
f 9/9/1 12/12/1 11/10/1
f 13/13/1 15/14/1 14/15/1
f 13/13/1 16/16/1 15/14/1
f 17/17/2 19/18/2 18/19/2
f 17/17/2 20/20/2 19/18/2
f 21/21/2 23/22/2 22/23/2
f 21/21/2 24/24/2 23/22/2
f 25/25/2 27/26/2 26/27/2
f 25/25/2 28/28/2 27/26/2
f 29/29/2 31/30/2 30/31/2
f 29/29/2 32/32/2 31/30/2
