# Blender v2.92.0 OBJ File: 'sanfrancisco.blend'
# www.blender.org
mtllib Door06EmissionOn.mtl
o Door06EmissionOn_Scene.3287
v -3609.080078 289.999878 556.310974
v -3735.580078 289.999878 935.784180
v -3735.580078 -0.000122 935.784180
v -3609.080078 -0.000122 556.310974
v -2976.559570 289.999878 1474.999756
v -2576.559570 289.999878 1474.999756
v -2576.559570 -0.000061 1474.999756
v -2976.559570 -0.000061 1474.999756
v -3435.939941 289.999878 1474.999756
v -3035.940186 289.999878 1474.999756
v -3035.940186 -0.000061 1474.999756
v -3435.939941 -0.000122 1474.999756
v 3424.999756 289.999878 445.832947
v 3424.999756 289.999878 45.833000
v 3424.999756 -0.000122 45.833000
v 3424.999756 -0.000122 445.832947
vt 0.000000 1.000000
vt 1.000000 0.000000
vt 1.000000 1.000000
vt 0.000000 0.000000
vt 0.000000 1.000000
vt 1.000000 0.000000
vt 1.000000 1.000000
vt 0.000000 0.000000
vt 0.000000 1.000000
vt 1.000000 0.000000
vt 1.000000 1.000000
vt 0.000000 0.000000
vt 0.000000 1.000000
vt 1.000000 0.000000
vt 1.000000 1.000000
vt 0.000000 0.000000
vn -0.9487 0.0000 -0.3162
vn 0.0000 0.0000 1.0000
vn 1.0000 0.0000 0.0000
usemtl Door06EmissionOnMaterial.002
s 1
f 1/1/1 3/2/1 2/3/1
f 1/1/1 4/4/1 3/2/1
f 5/5/2 7/6/2 6/7/2
f 5/5/2 8/8/2 7/6/2
f 9/9/2 11/10/2 10/11/2
f 9/9/2 12/12/2 11/10/2
f 13/13/3 15/14/3 14/15/3
f 13/13/3 16/16/3 15/14/3
