# Blender v2.92.0 OBJ File: 'sanfrancisco.blend'
# www.blender.org
mtllib Door09EmissionOn_31.mtl
o Door09EmissionOn_31_Scene.4471
v -964.703857 300.000031 989.999817
v -664.703857 300.000061 989.999817
v -664.703857 0.000061 989.999695
v -964.703857 0.000061 989.999817
vt 0.000000 1.000000
vt 1.000000 0.000000
vt 1.000000 1.000000
vt 0.000000 0.000000
vn 0.0000 -0.0000 1.0000
usemtl Door09EmissionOnMaterial.002
s 1
f 1/1/1 3/2/1 2/3/1
f 1/1/1 4/4/1 3/2/1
