# Blender MTL File: 'sanfrancisco.blend'
# Material Count: 1

newmtl Door02ARedEmissionOnMaterial.002
Ns 179.999996
Ka 1.000000 1.000000 1.000000
Kd 0.783019 0.718241 0.712843
Ks 0.500000 0.500000 0.500000
Ke 1.000000 1.000000 1.000000
Ni 1.450000
d 1.000000
illum 2
map_Kd Door02ADiffuse.png
map_d Door02ADiffuse.png
norm Door02ANormal.png 
map_ka Door02AEmissionOff.png 
