# Blender v2.92.0 OBJ File: 'sanfrancisco.blend'
# www.blender.org
mtllib Door05.mtl
o Door05_Scene.3108
v -125.000031 540.000000 0.000000
v 124.999969 540.000000 -0.000008
v 124.999969 240.000000 -0.000008
v -125.000031 239.999969 0.000000
vt 0.000000 1.000000
vt 1.000000 0.000000
vt 1.000000 1.000000
vt 0.000000 0.000000
vn 0.0000 0.0000 1.0000
usemtl Door05Tiling2Material.002
s 1
f 1/1/1 3/2/1 2/3/1
f 1/1/1 4/4/1 3/2/1
