# Blender v2.92.0 OBJ File: 'sanfrancisco.blend'
# www.blender.org
mtllib Door09Tiling2EmissionOn.mtl
o Door09Tiling2EmissionOn_Scene.3585
v 295.000061 224.999969 2189.999756
v 595.000061 224.999985 2189.999756
v 595.000061 0.000000 2189.999756
v 295.000061 -0.000015 2189.999756
vt 0.000000 1.000000
vt 1.000000 0.000000
vt 1.000000 1.000000
vt 0.000000 0.000000
vn -0.0000 0.0000 1.0000
usemtl Door09Tiling2EmissionOnMaterial.002
s 1
f 1/1/1 3/2/1 2/3/1
f 1/1/1 4/4/1 3/2/1
