# Blender v2.92.0 OBJ File: 'sanfrancisco.blend'
# www.blender.org
mtllib Door07Tiling_5EmissionOff.mtl
o Door07Tiling_5EmissionOff_Scene.3822
v 1736.906372 222.000015 -578.296875
v 1640.804810 222.000015 -648.499817
v 1640.804810 0.000031 -648.499817
v 1736.906372 0.000031 -578.296875
v 916.507935 222.000031 -1177.195190
v 820.406372 222.000015 -1247.398315
v 820.406433 0.000031 -1247.398315
v 916.507935 0.000031 -1177.195190
v 643.906311 222.000031 1755.202881
v 712.406372 222.000015 1657.804565
v 712.406372 0.000031 1657.804565
v 643.906311 0.000000 1755.202881
v 1780.703247 222.000015 139.000000
v 1849.109375 222.000015 41.601547
v 1849.109375 0.000031 41.601547
v 1780.703247 0.000031 139.000000
vt 0.000000 1.000000
vt 1.000000 0.000000
vt 1.000000 1.000000
vt 0.000000 0.000000
vt 0.000000 1.000000
vt 1.000000 0.000000
vt 1.000000 1.000000
vt 0.000000 0.000000
vt 0.000000 1.000000
vt 1.000000 0.000000
vt 1.000000 1.000000
vt 0.000000 0.000000
vt 0.000000 1.000000
vt 1.000000 0.000000
vt 1.000000 1.000000
vt 0.000000 0.000000
vn 0.5899 0.0000 -0.8075
vn 0.5896 0.0000 -0.8077
vn 0.5895 0.0000 -0.8078
vn 0.8180 0.0000 0.5753
vn 0.8181 -0.0000 0.5751
vn 0.8183 0.0000 0.5747
usemtl Door07Tiling_5EmissionOffMaterial.002
s 1
f 1/1/1 3/2/2 2/3/2
f 1/1/1 4/4/3 3/2/2
f 5/5/1 7/6/3 6/7/2
f 5/5/1 8/8/3 7/6/3
f 9/9/4 11/10/4 10/11/4
f 9/9/4 12/12/4 11/10/4
f 13/13/5 15/14/5 14/15/6
f 13/13/5 16/16/6 15/14/5
