# Blender v2.92.0 OBJ File: 'sanfrancisco.blend'
# www.blender.org
mtllib Door02EmissionOn_4.mtl
o Door02EmissionOn_4_Scene.4469
v -564.031860 266.171234 -987.122559
v -764.031982 266.171234 -987.122559
v -764.031982 0.000061 -987.122681
v -564.031860 0.000031 -987.122681
vt 0.000000 1.000000
vt 1.000000 0.000000
vt 1.000000 1.000000
vt 0.000000 0.000000
vn -0.0000 0.0000 -1.0000
usemtl Door02EmissionOnMaterial.002
s 1
f 1/1/1 3/2/1 2/3/1
f 1/1/1 4/4/1 3/2/1
