# Blender MTL File: 'sanfrancisco.blend'
# Material Count: 1

newmtl Door10EmissionOffMaterial.002
Ns 179.999996
Ka 1.000000 1.000000 1.000000
Kd 0.952830 0.930358 0.930358
Ks 0.500000 0.500000 0.500000
Ke 1.000000 1.000000 1.000000
Ni 1.450000
d 1.000000
illum 2
map_Kd Door10Diffuse.png
norm Door10Normal.png 
map_ka Door10EmissionOff.png 
