# Blender v2.92.0 OBJ File: 'sanfrancisco.blend'
# www.blender.org
mtllib Door07EmissionOn_29.mtl
o Door07EmissionOn_29_Scene.4687
v 1307.310913 297.500122 -1645.638184
v 1144.712891 297.500092 -1762.093018
v 1144.712891 47.500061 -1762.093018
v 1307.310913 47.500122 -1645.638184
v 660.281921 297.500061 2334.735352
v 776.622681 297.500061 2172.054443
v 776.622681 47.500061 2172.054443
v 660.281921 47.500061 2334.735352
vt 0.000000 1.000000
vt 1.000000 0.000000
vt 1.000000 1.000000
vt 0.000000 0.000000
vt 0.000000 1.000000
vt 1.000000 0.000000
vt 1.000000 1.000000
vt 0.000000 0.000000
vn 0.5823 0.0000 -0.8130
vn 0.8134 0.0000 0.5817
usemtl Door07EmissionOnMaterial.002
s 1
f 1/1/1 3/2/1 2/3/1
f 1/1/1 4/4/1 3/2/1
f 5/5/2 7/6/2 6/7/2
f 5/5/2 8/8/2 7/6/2
