# Blender v2.92.0 OBJ File: 'sanfrancisco.blend'
# www.blender.org
mtllib Door02EmissionOff_10.mtl
o Door02EmissionOff_10_Scene.4610
v -3487.122314 266.171143 -2750.131104
v -3487.122314 266.171143 -2550.131348
v -3487.122314 0.000000 -2550.131348
v -3487.122314 0.000000 -2750.131104
v -3487.122070 266.171143 -224.999741
v -3487.122070 266.171143 -24.999756
v -3487.122070 0.000000 -24.999756
v -3487.122070 0.000000 -224.999741
v -3487.122070 266.171143 1037.564941
v -3487.122070 266.171143 1237.564941
v -3487.122070 0.000000 1237.564941
v -3487.122070 0.000000 1037.564941
vt 0.000000 1.000000
vt 1.000000 0.000000
vt 1.000000 1.000000
vt 0.000000 0.000000
vt 0.000000 1.000000
vt 1.000000 0.000000
vt 1.000000 1.000000
vt 0.000000 0.000000
vt 0.000000 1.000000
vt 1.000000 0.000000
vt 1.000000 1.000000
vt 0.000000 0.000000
vn -1.0000 0.0000 0.0000
usemtl Door02EmissionOffMaterial.002
s 1
f 1/1/1 3/2/1 2/3/1
f 1/1/1 4/4/1 3/2/1
f 5/5/1 7/6/1 6/7/1
f 5/5/1 8/8/1 7/6/1
f 9/9/1 11/10/1 10/11/1
f 9/9/1 12/12/1 11/10/1
