# Blender v2.92.0 OBJ File: 'sanfrancisco.blend'
# www.blender.org
mtllib Door09EmissionOff_1.mtl
o Door09EmissionOff_1_Scene.3423
v 1005.555908 260.000000 1979.999634
v 1205.555908 260.000031 1979.999634
v 1205.556030 0.000000 1979.999634
v 1005.555908 0.000061 1979.999634
vt 0.000000 1.000000
vt 1.000000 0.000000
vt 1.000000 1.000000
vt 0.000000 0.000000
vn -0.0000 0.0000 1.0000
usemtl Door09EmissionOffMaterial.002
s 1
f 1/1/1 3/2/1 2/3/1
f 1/1/1 4/4/1 3/2/1
