# Blender v2.92.0 OBJ File: 'sanfrancisco.blend'
# www.blender.org
mtllib HighRise03EmissionOn_11.mtl
o HighRise03EmissionOn_11_Scene.4287
v 1406.119019 7199.999512 -23.391838
v -423.654053 7199.999512 -1322.951660
v -423.654175 -0.000031 -1322.951660
v 1406.119019 -0.000061 -23.391838
v -1369.735718 7199.999512 7.797119
v -1369.735718 -0.000061 7.797119
v 387.271240 7199.999512 1338.546631
v 387.271240 -0.000031 1338.546631
v -420.317627 7224.999512 -1303.231934
v 1386.360107 7224.999512 -20.294743
v 1386.360107 7199.999512 -20.294743
v -420.317627 7199.999512 -1303.231934
v -425.322388 7224.999512 -1332.812012
v 1415.997925 7224.999512 -24.940403
v -425.322388 7199.999512 -1332.812012
v 1415.997925 7199.999512 -24.940403
v -1349.966919 7224.999512 4.763382
v -1349.966919 7199.999512 4.763382
v -1379.619751 7224.999512 9.313980
v -1379.619751 7199.999512 9.313980
v 384.477356 7224.999512 1318.742676
v 384.477356 7199.999512 1318.742676
v 388.668030 7224.999512 1348.448730
v 388.668030 7199.999512 1348.448730
vt 0.000000 7.018762
vt 2.368846 0.000000
vt 2.368846 7.018762
vt 0.000000 0.000000
vt 0.000000 7.018762
vt 1.772708 0.000000
vt 1.772708 7.018762
vt 0.000000 0.000000
vt 0.000000 7.018762
vt 2.329629 0.000000
vt 2.329629 7.018762
vt 0.000000 0.000000
vt 0.000000 7.018762
vt 1.839077 0.000000
vt 1.839077 7.018762
vt 0.000000 0.000000
vt 0.000000 0.012903
vt 2.341108 -0.011468
vt 2.341108 0.012903
vt 0.000000 -0.011468
vt 2.371334 -0.011556
vt 0.000001 0.009043
vt -0.021025 -0.011468
vt 2.350570 0.009219
vt 0.000000 0.012903
vt 2.382716 -0.011468
vt 2.382716 0.012903
vt 0.000000 -0.011468
vt -0.021025 0.009043
vt 2.350569 -0.011644
vt 2.371334 0.009131
vt 0.000000 -0.011468
vt 0.000000 0.012903
vt 1.745348 -0.011468
vt 1.745348 0.012903
vt 0.000000 -0.011468
vt 1.772394 -0.011570
vt -0.000260 0.009306
vt -0.021025 -0.011468
vt 1.751940 0.009510
vt 0.000000 0.012903
vt 1.786388 -0.011468
vt 1.786388 0.012903
vt 0.000000 -0.011468
vt -0.020765 0.009307
vt 1.752200 -0.011672
vt 1.772654 0.009409
vt 0.000000 0.012903
vt 2.302225 -0.011468
vt 2.302225 0.012903
vt 0.000000 -0.011468
vt 2.331778 -0.011344
vt -0.000570 0.009613
vt -0.021025 -0.011468
vt 2.310946 0.009364
vt 0.000000 0.012903
vt 2.343331 -0.011468
vt 2.343331 0.012903
vt 0.000000 -0.011468
vt -0.020454 0.009613
vt 2.311517 -0.011219
vt 2.332349 0.009489
vt 0.000000 0.012903
vt 1.811295 -0.011468
vt 1.811295 0.012903
vt 1.839267 -0.011403
vt -0.000193 0.009240
vt -0.021025 -0.011468
vt 1.818242 0.009109
vt 0.000000 0.012903
vt 1.852968 -0.011468
vt 1.852968 0.012903
vt 0.000000 -0.011468
vt -0.020831 0.009240
vt 1.818435 -0.011337
vt 1.839459 0.009174
vn 0.5790 -0.0000 -0.8153
vn -0.8150 0.0000 -0.5794
vn -0.6038 0.0000 0.7972
vn 0.8007 0.0000 0.5990
vn -0.5790 0.0000 0.8153
vn 0.0000 1.0000 -0.0000
vn 0.5791 0.0000 -0.8153
vn 0.0000 -1.0000 -0.0000
vn 0.8151 0.0000 0.5793
vn -0.8150 0.0000 -0.5795
vn 0.6039 0.0000 -0.7971
vn -0.6037 0.0000 0.7972
vn -0.8007 0.0000 -0.5991
vn 0.8008 0.0000 0.5990
usemtl HighRise03EmissionOnMaterial.002
s 1
f 1/1/1 3/2/1 2/3/1
f 1/1/1 4/4/1 3/2/1
f 2/5/2 6/6/2 5/7/2
f 2/5/2 3/8/2 6/6/2
f 5/9/3 8/10/3 7/11/3
f 5/9/3 6/12/3 8/10/3
f 7/13/4 4/14/4 1/15/4
f 7/13/4 8/16/4 4/14/4
f 9/17/5 11/18/5 10/19/5
f 9/17/5 12/20/5 11/18/5
f 13/21/6 10/22/6 14/23/6
f 13/21/6 9/24/6 10/22/6
f 14/25/7 15/26/7 13/27/7
f 14/25/7 16/28/7 15/26/7
f 16/29/8 12/30/8 15/31/8
f 16/29/8 11/32/8 12/30/8
f 17/33/9 12/34/9 9/35/9
f 17/33/9 18/36/9 12/34/9
f 19/37/6 9/38/6 13/39/6
f 19/37/6 17/40/6 9/38/6
f 13/41/10 20/42/10 19/43/10
f 13/41/10 15/44/10 20/42/10
f 15/45/8 18/46/8 20/47/8
f 15/45/8 12/20/8 18/46/8
f 21/48/11 18/49/11 17/50/11
f 21/48/11 22/51/11 18/49/11
f 23/52/6 17/53/6 19/54/6
f 23/52/6 21/55/6 17/53/6
f 19/56/12 24/57/12 23/58/12
f 19/56/12 20/59/12 24/57/12
f 20/60/8 22/61/8 24/62/8
f 20/60/8 18/36/8 22/61/8
f 10/63/13 22/64/13 21/65/13
f 10/63/13 11/32/13 22/64/13
f 14/66/6 21/67/6 23/68/6
f 14/66/6 10/69/6 21/67/6
f 23/70/14 16/71/14 14/72/14
f 23/70/14 24/73/14 16/71/14
f 24/74/8 11/75/8 16/76/8
f 24/74/8 22/51/8 11/75/8
