# Blender v2.92.0 OBJ File: 'sanfrancisco.blend'
# www.blender.org
mtllib HighRise03EmissionOff.mtl
o HighRise03EmissionOff_Scene.3224
v 1740.000122 1100.000000 -1799.999756
v 1140.000000 1100.000000 -1799.999756
v 1140.000000 0.000031 -1799.999756
v 1740.000244 0.000000 -1799.999756
v 1020.000061 1100.000000 -1799.999756
v 420.000031 1100.000000 -1799.999756
v 420.000031 0.000031 -1799.999756
v 1020.000000 0.000031 -1799.999756
v 300.000031 1100.000000 -1799.999756
v -299.999878 1100.000000 -1799.999756
v -299.999939 0.000000 -1799.999756
v 300.000061 0.000031 -1799.999756
v -419.999878 1100.000000 -1799.999756
v -1019.999878 1100.000000 -1799.999634
v -1019.999756 0.000000 -1799.999634
v -419.999878 0.000000 -1799.999756
v -1740.000000 1100.000000 1800.000000
v -1139.999878 1100.000000 1800.000000
v -1140.000000 0.000000 1800.000000
v -1740.000000 0.000031 1800.000000
v -1019.999878 1100.000000 1800.000000
v -419.999817 1100.000000 1799.999878
v -419.999817 0.000000 1799.999878
v -1019.999878 0.000000 1800.000000
v -299.999878 1100.000000 1799.999878
v 300.000061 1100.000000 1799.999878
v 300.000061 0.000031 1799.999878
v -299.999878 0.000000 1799.999878
v 1140.000122 1100.000000 1799.999878
v 1739.999878 1100.000000 1799.999878
v 1740.000000 0.000000 1799.999878
v 1140.000122 0.000031 1799.999878
v 1799.999878 1100.000000 1740.000000
v 1799.999878 1100.000000 1140.000000
v 1800.000000 0.000000 1140.000000
v 1800.000000 0.000000 1740.000000
v 1799.999878 1100.000000 300.000000
v 1799.999878 1100.000000 -300.000000
v 1799.999878 0.000000 -300.000000
v 1799.999878 0.000000 300.000000
v 1799.999878 1100.000000 -419.999939
v 1799.999756 1100.000000 -1019.999878
v 1799.999878 0.000000 -1019.999878
v 1799.999878 0.000000 -419.999939
v 1799.999756 1100.000000 -1139.999756
v 1799.999756 1100.000000 -1739.999634
v 1799.999878 0.000000 -1739.999634
v 1799.999878 0.000000 -1139.999756
vt 0.000000 1.000000
vt 1.000000 0.000000
vt 1.000000 1.000000
vt 0.000000 0.000000
vt 0.000000 1.000000
vt 1.000000 0.000000
vt 1.000000 1.000000
vt 0.000000 0.000000
vt 0.000000 1.000000
vt 1.000000 0.000000
vt 1.000000 1.000000
vt 0.000000 0.000000
vt 0.000000 1.000000
vt 1.000000 0.000000
vt 1.000000 1.000000
vt 0.000000 0.000000
vt 0.000000 1.000000
vt 1.000000 0.000000
vt 1.000000 1.000000
vt 0.000000 0.000000
vt 0.000000 1.000000
vt 1.000000 0.000000
vt 1.000000 1.000000
vt 0.000000 0.000000
vt 0.000000 1.000000
vt 1.000000 0.000000
vt 1.000000 1.000000
vt 0.000000 0.000000
vt 0.000000 1.000000
vt 1.000000 0.000000
vt 1.000000 1.000000
vt 0.000000 0.000000
vt 0.000000 1.000000
vt 1.000000 0.000000
vt 1.000000 1.000000
vt 0.000000 0.000000
vt 0.000000 1.000000
vt 1.000000 0.000000
vt 1.000000 1.000000
vt 0.000000 0.000000
vt 0.000000 1.000000
vt 1.000000 0.000000
vt 1.000000 1.000000
vt 0.000000 0.000000
vt 0.000000 1.000000
vt 1.000000 0.000000
vt 1.000000 1.000000
vt 0.000000 0.000000
vn 0.0000 0.0000 -1.0000
vn 0.0000 0.0000 1.0000
vn 1.0000 0.0000 0.0000
usemtl HighRise03EmissionOffMaterial.002
s 1
f 1/1/1 3/2/1 2/3/1
f 1/1/1 4/4/1 3/2/1
f 5/5/1 7/6/1 6/7/1
f 5/5/1 8/8/1 7/6/1
f 9/9/1 11/10/1 10/11/1
f 9/9/1 12/12/1 11/10/1
f 13/13/1 15/14/1 14/15/1
f 13/13/1 16/16/1 15/14/1
f 17/17/2 19/18/2 18/19/2
f 17/17/2 20/20/2 19/18/2
f 21/21/2 23/22/2 22/23/2
f 21/21/2 24/24/2 23/22/2
f 25/25/2 27/26/2 26/27/2
f 25/25/2 28/28/2 27/26/2
f 29/29/2 31/30/2 30/31/2
f 29/29/2 32/32/2 31/30/2
f 33/33/3 35/34/3 34/35/3
f 33/33/3 36/36/3 35/34/3
f 37/37/3 39/38/3 38/39/3
f 37/37/3 40/40/3 39/38/3
f 41/41/3 43/42/3 42/43/3
f 41/41/3 44/44/3 43/42/3
f 45/45/3 47/46/3 46/47/3
f 45/45/3 48/48/3 47/46/3
