# Blender v2.92.0 OBJ File: 'sanfrancisco.blend'
# www.blender.org
mtllib HighRise01Tiling_5_2.mtl
o HighRise01Tiling_5_2_Scene.4210
v -16.690186 0.000015 2137.197998
v -16.690186 17400.000000 2137.197998
v 465.963562 17400.000000 2449.282715
v 465.963562 0.000015 2449.282715
v 757.992371 17400.000000 2025.246948
v 757.992310 0.000015 2025.246948
v 1247.860840 17400.000000 2366.823975
v 1247.860840 0.000000 2366.823975
v 2660.946533 17400.000000 399.599915
v 2660.946777 0.000000 399.599915
v 2180.282715 17400.000000 56.350456
v 2180.282715 0.000015 56.350456
v 2451.522949 17400.000000 -335.324280
v 2451.522949 0.000015 -335.324280
v 2001.510864 17400.000000 -659.604126
v 2001.510864 0.000000 -659.604126
v 2267.330811 17400.000000 -1056.320679
v 2267.331055 0.000015 -1056.320679
v 298.690552 17400.000000 -2482.382812
v 298.690552 0.000015 -2482.382812
v 44.112915 17400.000000 -2129.000732
v 44.112915 0.000015 -2129.000732
v -447.830444 17400.000000 -2464.571533
v -447.830322 0.000000 -2464.571533
v -735.257080 17400.000000 -2052.364990
v -735.257202 0.000015 -2052.364990
v -1201.479980 17400.000000 -2366.805908
v -1201.480225 0.000000 -2366.805908
v -2644.388428 17400.000000 -410.421997
v -2644.388184 0.000015 -410.421997
v -2181.216064 17400.000000 -66.110481
v -2181.216309 0.000015 -66.110489
v -2469.655762 17400.000000 350.613037
v -2469.656006 0.000015 350.613037
v -2021.060059 17400.000000 661.721497
v -2021.060059 0.000015 661.721497
v -2275.197998 17400.000000 1026.883057
v -2275.198242 0.000000 1026.883057
v -240.579346 17400.000000 2461.026123
v -240.579468 0.000015 2461.026123
vt 0.000000 0.000000
vt 0.957937 28.500000
vt 0.000000 28.500000
vt 0.957937 0.000000
vt 0.000000 28.500000
vt 0.858110 0.000000
vt 0.858110 28.500000
vt 0.000000 0.000000
vt 0.000000 28.500000
vt 0.995330 0.000000
vt 0.995330 28.500000
vt 0.000000 0.000000
vt 0.000000 0.000000
vt 4.036907 28.500000
vt 0.000000 28.500000
vt 4.036907 0.000000
vt 0.000000 28.500000
vt 0.984404 0.000000
vt 0.984404 28.500000
vt 0.000000 0.000000
vt 0.000000 28.500000
vt 0.794041 0.000000
vt 0.794041 28.500000
vt 0.000000 0.000000
vt 0.000000 28.500000
vt 0.924464 0.000000
vt 0.924464 28.500000
vt 0.000000 0.000000
vt 0.000000 28.500000
vt 0.795900 0.000000
vt 0.795900 28.500000
vt 0.000000 0.000000
vt 0.000000 0.000000
vt 4.051473 28.500000
vt 0.000000 28.500000
vt 4.051473 0.000000
vt 0.000000 28.500000
vt 0.725887 0.000000
vt 0.725887 28.500000
vt 0.000000 0.000000
vt 0.000000 28.500000
vt 0.992495 0.000000
vt 0.992495 28.500000
vt 0.000000 0.000000
vt 0.000000 28.500000
vt 0.837537 0.000000
vt 0.837537 28.500000
vt 0.000000 0.000000
vt 0.000000 28.500000
vt 0.937249 0.000000
vt 0.937249 28.500000
vt 0.000000 0.000000
vt 0.000000 0.000000
vt 4.051550 28.500000
vt 0.000000 28.500000
vt 4.051550 0.000000
vt 0.000000 28.500000
vt 0.961882 0.000000
vt 0.961882 28.500000
vt 0.000000 0.000000
vt 0.000000 28.500000
vt 0.844683 0.000000
vt 0.844683 28.500000
vt 0.000000 0.000000
vt 0.000000 28.500000
vt 0.909864 0.000000
vt 0.909864 28.500000
vt 0.000000 0.000000
vt 0.000000 28.500000
vt 0.741487 0.000000
vt 0.741487 28.500000
vt 0.000000 0.000000
vt 0.000000 0.000000
vt 4.148776 28.500000
vt 0.000000 28.500000
vt 4.148776 0.000000
vt 0.000000 28.500000
vt 0.656148 0.000000
vt 0.656148 28.500000
vt 0.000000 0.000000
vn -0.5430 0.0000 0.8397
vn 0.8236 -0.0000 0.5672
vn -0.5720 0.0000 0.8203
vn 0.8122 0.0000 0.5834
vn 0.5811 0.0000 -0.8138
vn 0.8221 0.0000 0.5693
vn 0.5846 0.0000 -0.8113
vn 0.8308 0.0000 0.5566
vn 0.5866 0.0000 -0.8098
vn -0.8114 0.0000 -0.5845
vn 0.5635 0.0000 -0.8261
vn -0.8203 0.0000 -0.5720
vn 0.5592 -0.0000 -0.8291
vn -0.8048 -0.0000 -0.5936
vn -0.5966 0.0000 0.8025
vn -0.8222 0.0000 -0.5691
vn -0.5699 0.0000 0.8217
vn -0.8208 0.0000 -0.5712
vn -0.5761 0.0000 0.8174
vn 0.8225 0.0000 0.5687
usemtl HighRise01Tiling_5Material.002
s 1
f 1/1/1 3/2/1 2/3/1
f 1/1/1 4/4/1 3/2/1
f 3/5/2 6/6/2 5/7/2
f 3/5/2 4/8/2 6/6/2
f 5/9/3 8/10/3 7/11/3
f 5/9/3 6/12/3 8/10/3
f 8/13/4 9/14/4 7/15/4
f 8/13/4 10/16/4 9/14/4
f 9/17/5 12/18/5 11/19/5
f 9/17/5 10/20/5 12/18/5
f 11/21/6 14/22/6 13/23/6
f 11/21/6 12/24/6 14/22/6
f 13/25/7 16/26/7 15/27/7
f 13/25/7 14/28/7 16/26/7
f 15/29/8 18/30/8 17/31/8
f 15/29/8 16/32/8 18/30/8
f 18/33/9 19/34/9 17/35/9
f 18/33/9 20/36/9 19/34/9
f 19/37/10 22/38/10 21/39/10
f 19/37/10 20/40/10 22/38/10
f 21/41/11 24/42/11 23/43/11
f 21/41/11 22/44/11 24/42/11
f 23/45/12 26/46/12 25/47/12
f 23/45/12 24/48/12 26/46/12
f 25/49/13 28/50/13 27/51/13
f 25/49/13 26/52/13 28/50/13
f 28/53/14 29/54/14 27/55/14
f 28/53/14 30/56/14 29/54/14
f 29/57/15 32/58/15 31/59/15
f 29/57/15 30/60/15 32/58/15
f 31/61/16 34/62/16 33/63/16
f 31/61/16 32/64/16 34/62/16
f 33/65/17 36/66/17 35/67/17
f 33/65/17 34/68/17 36/66/17
f 35/69/18 38/70/18 37/71/18
f 35/69/18 36/72/18 38/70/18
f 38/73/19 39/74/19 37/75/19
f 38/73/19 40/76/19 39/74/19
f 39/77/20 1/78/20 2/79/20
f 39/77/20 40/80/20 1/78/20
