# Blender v2.92.0 OBJ File: 'sanfrancisco.blend'
# www.blender.org
mtllib HighRise07.mtl
o HighRise07_Scene.4224
v 1335.888672 8800.000000 1031.860229
v 2794.823486 8800.000000 -1019.701660
v 2794.823486 0.000000 -1019.701660
v 1335.888794 0.000015 1031.860229
v -2065.355957 8800.000000 -1044.018677
v -2065.355957 0.000000 -1044.018677
v -2065.355469 8800.000000 1031.860229
v -2065.355957 0.000000 1031.860229
v 2777.027344 8825.000000 -1010.575684
v 1326.717651 8825.000000 1014.087219
v 1326.717651 8800.000000 1014.087219
v 2777.027344 8800.000000 -1010.575684
v 2803.722656 8825.000000 -1024.264771
v 1340.473755 8825.000000 1040.747314
v 2803.722656 8800.000000 -1024.264771
v 1340.473755 8800.000000 1040.747314
v -2051.250488 8825.000000 -1029.840576
v -2051.250488 8800.000000 -1029.840576
v -2072.410645 8825.000000 -1051.106689
v -2072.410645 8800.000000 -1051.106689
v -2051.213867 8825.000000 1017.718079
v -2051.213867 8800.000000 1017.718079
v -2072.426758 8825.000000 1038.932251
v -2072.426758 8800.000000 1038.932251
vt 0.000000 10.000000
vt 3.000000 0.000000
vt 3.000000 10.000000
vt 0.000000 0.000000
vt 0.000000 10.000000
vt 6.000000 0.000000
vt 6.000000 10.000000
vt 0.000000 0.000000
vt 0.000000 10.000000
vt 2.000000 0.000000
vt 2.000000 10.000000
vt 0.000000 0.000000
vt 0.000000 10.000000
vt 4.000000 0.000000
vt 4.000000 10.000000
vt 0.000000 0.000000
vt -0.210572 -1.838308
vt 0.168744 -1.842115
vt 0.168744 -1.838308
vt -0.210572 -1.842115
vt 5.704867 -1.836155
vt 2.637906 -1.808886
vt 2.621146 -1.841370
vt 5.672422 -1.819313
vt -0.210572 -1.838308
vt 0.174893 -1.842115
vt 0.174893 -1.838308
vt -0.210572 -1.842115
vt -0.227332 -1.809631
vt 2.823945 -1.831687
vt 2.856389 -1.814846
vt -0.210572 -1.842115
vt -0.210572 -1.838308
vt 0.524803 -1.842115
vt 0.524803 -1.838308
vt -0.210572 -1.842115
vt 5.698335 -1.845096
vt -0.210574 -1.825274
vt -0.243015 -1.842115
vt 5.672422 -1.819313
vt -0.210572 -1.838308
vt 0.532097 -1.842115
vt 0.532097 -1.838308
vt -0.210572 -1.842115
vt -0.243015 -1.825274
vt 5.672425 -1.848076
vt 5.698335 -1.822294
vt -0.210572 -1.838308
vt 0.101281 -1.842115
vt 0.101281 -1.838308
vt -0.210572 -1.842115
vt 5.698269 -1.845161
vt 3.177600 -1.819356
vt 3.151688 -1.845139
vt 5.672422 -1.819313
vt -0.210572 -1.838308
vt 0.107750 -1.842115
vt 0.107750 -1.838308
vt -0.210572 -1.842115
vt -0.236484 -1.816333
vt 2.284251 -1.842158
vt 2.310097 -1.816311
vt -0.210572 -1.838308
vt 0.303903 -1.842115
vt 0.303903 -1.838308
vt -0.227332 -1.809631
vt 3.905228 -1.837690
vt 3.931074 -1.811843
vt -0.210572 -1.842115
vt -0.210572 -1.838308
vt 0.309228 -1.842115
vt 0.309228 -1.838308
vt -0.210572 -1.842115
vt 5.698269 -1.845160
vt 1.556623 -1.814888
vt 1.539863 -1.847373
vt 5.672422 -1.819313
vn 0.8149 0.0000 0.5795
vn 0.0050 0.0000 -1.0000
vn -1.0000 0.0000 0.0000
vn 0.0000 0.0000 1.0000
vn -0.8129 0.0000 -0.5823
vn 0.0000 1.0000 -0.0000
vn 0.8159 0.0000 0.5782
vn 0.0000 -1.0000 -0.0000
vn -0.0040 0.0000 1.0000
vn 0.0055 0.0000 -1.0000
vn 1.0000 0.0000 -0.0000
vn -0.0011 0.0000 -1.0000
vn -0.0005 0.0000 1.0000
usemtl HighRise07Material.002
s 1
f 1/1/1 3/2/1 2/3/1
f 1/1/1 4/4/1 3/2/1
f 2/5/2 6/6/2 5/7/2
f 2/5/2 3/8/2 6/6/2
f 5/9/3 8/10/3 7/11/3
f 5/9/3 6/12/3 8/10/3
f 7/13/4 4/14/4 1/15/4
f 7/13/4 8/16/4 4/14/4
f 9/17/5 11/18/5 10/19/5
f 9/17/5 12/20/5 11/18/5
f 13/21/6 10/22/6 14/23/6
f 13/21/6 9/24/6 10/22/6
f 14/25/7 15/26/7 13/27/7
f 14/25/7 16/28/7 15/26/7
f 16/29/8 12/30/8 15/31/8
f 16/29/8 11/32/8 12/30/8
f 17/33/9 12/34/9 9/35/9
f 17/33/9 18/36/9 12/34/9
f 19/37/6 9/38/6 13/39/6
f 19/37/6 17/40/6 9/38/6
f 13/41/10 20/42/10 19/43/10
f 13/41/10 15/44/10 20/42/10
f 15/45/8 18/46/8 20/47/8
f 15/45/8 12/20/8 18/46/8
f 21/48/11 18/49/11 17/50/11
f 21/48/11 22/51/11 18/49/11
f 23/52/6 17/53/6 19/54/6
f 23/52/6 21/55/6 17/53/6
f 19/56/3 24/57/3 23/58/3
f 19/56/3 20/59/3 24/57/3
f 20/60/8 22/61/8 24/62/8
f 20/60/8 18/36/8 22/61/8
f 10/63/12 22/64/12 21/65/12
f 10/63/12 11/32/12 22/64/12
f 14/66/6 21/67/6 23/68/6
f 14/66/6 10/69/6 21/67/6
f 23/70/13 16/71/13 14/72/13
f 23/70/13 24/73/13 16/71/13
f 24/74/8 11/75/8 16/76/8
f 24/74/8 22/77/8 11/75/8
