# Blender v2.92.0 OBJ File: 'sanfrancisco.blend'
# www.blender.org
mtllib HighRise03EmissionOn.mtl
o HighRise03EmissionOn_Scene.3212
v 2400.000000 1000.000000 299.999969
v 2400.000000 1000.000000 -300.000000
v 2400.000000 0.000000 -300.000000
v 2400.000000 0.000000 299.999969
vt 0.000000 1.000000
vt 1.000000 0.000000
vt 1.000000 1.000000
vt 0.000000 0.000000
vn 1.0000 0.0000 0.0000
usemtl HighRise03EmissionOnMaterial.002
s 1
f 1/1/1 3/2/1 2/3/1
f 1/1/1 4/4/1 3/2/1
