# Blender v2.92.0 OBJ File: 'sanfrancisco.blend'
# www.blender.org
mtllib MapSignalMeshVertical_signal_3.mtl
o MapSignalMeshVertical_signal_3_Scene.2954
v -31.922119 -68.724060 -5.005642
v -30.051453 -73.036194 -5.005642
v -30.051453 -73.036194 -7.450100
v -31.922119 -68.724060 -7.450100
v -31.922180 0.000000 -5.005638
v -31.922180 0.000000 -7.450096
v -31.922150 68.724075 -5.005638
v -31.922150 68.724075 -7.450096
v -30.051422 73.036209 -5.005638
v -30.051422 73.036209 -7.450096
v -25.537842 -74.822998 -7.450096
v -25.537842 -74.822998 -5.005638
v -0.000763 -74.822998 -7.450100
v -0.000763 -74.822998 -5.005642
v 25.537872 -74.822990 -7.450092
v 25.537872 -74.822990 -5.005634
v 30.051422 -73.036194 -7.450096
v 30.051422 -73.036194 -5.005638
v 31.922150 -68.724052 -7.450096
v 31.922150 -68.724052 -5.005638
v 31.922150 0.000000 -7.450096
v 31.922150 0.000000 -5.005638
v 31.922150 68.724075 -7.450100
v 31.922150 68.724075 -5.005638
v 30.051392 73.036209 -7.450096
v 30.051392 73.036209 -5.005638
v -25.537872 74.822998 -5.005638
v -25.537872 74.822998 -7.450096
v -0.000793 74.822998 -5.005642
v -0.000793 74.822998 -7.450100
v 25.537872 74.823029 -5.005638
v 25.537872 74.823013 -7.450096
v -25.537872 -68.724060 -7.450100
v -0.000732 -68.724060 -7.450104
v -25.537872 -61.621094 -7.450100
v -25.537872 -61.341858 -7.450100
v 25.537842 -68.724052 -7.450096
v -18.349457 -61.621086 -7.450100
v -0.000732 -61.621094 -7.450096
v 18.349457 -61.621086 -7.450096
v -18.349457 -61.341858 -7.450100
v -25.537872 0.000015 -7.450096
v -18.349457 0.000000 -7.450096
v -25.537872 61.341858 -7.450096
v -18.349457 61.341873 -7.450096
v -25.537872 61.672989 -7.450096
v -18.349457 61.672989 -7.450096
v -25.537903 68.724075 -7.450096
v -0.000763 68.724075 -7.450100
v -0.000763 61.672974 -7.450100
v 18.349457 61.672974 -7.450100
v 25.537903 68.724060 -7.450100
v 25.537872 61.672974 -7.450100
v 25.537872 61.341888 -7.450100
v 18.349457 61.341858 -7.450100
v 25.537872 0.000000 -7.450096
v 18.349457 0.000015 -7.450096
v 25.537872 -61.341850 -7.450096
v 18.349457 -61.341858 -7.450096
v 25.537872 -61.621086 -7.450096
v -25.537872 -68.724060 -5.005642
v -18.349487 -68.724060 -5.005642
v 18.349457 -68.724060 -5.005638
v -25.537872 0.000015 -5.005638
v -18.494415 -40.895073 -5.005634
v -17.086823 -47.972862 -5.005634
v -13.078339 -53.972626 -5.005642
v -7.079315 -57.981865 -5.005646
v -0.000763 -59.390251 -5.005638
v -25.537903 68.724075 -5.005638
v -18.494415 0.000000 -5.005634
v -17.086792 -33.817291 -5.005638
v -17.135651 -7.115929 -5.005638
v -13.078278 -13.077538 -5.005638
v -13.078339 -27.817528 -5.005638
v -7.079315 -23.808289 -5.005642
v -7.079315 -17.086777 -5.005642
v -0.000763 -18.495171 -5.005642
v -0.000763 -22.399895 -5.005642
v 7.076263 -17.086792 -5.005638
v 7.076263 -23.808281 -5.005642
v 13.076019 -27.816772 -5.005642
v 13.075989 -13.078300 -5.005638
v 17.086029 -33.818054 -5.005642
v 17.086029 -7.078552 -5.005638
v 18.494385 -40.895073 -5.005638
v 18.494415 0.000015 -5.005638
v 25.537872 0.000000 -5.005638
v 18.494415 40.895081 -5.005638
v 18.349457 68.724075 -5.005642
v 18.349457 61.341858 -5.005642
v 17.085999 33.816528 -5.005638
v 17.086029 47.972107 -5.005642
v 17.085999 7.077042 -5.005642
v 13.076050 53.955078 -5.005642
v 13.076019 27.816772 -5.005642
v 13.076019 13.076782 -5.005642
v 7.076263 57.981888 -5.005642
v 7.076294 17.086792 -5.005642
v 7.076263 23.808304 -5.005642
v -0.000763 22.399902 -5.005642
v -0.000763 18.493652 -5.005642
v -7.079315 17.086792 -5.005642
v -7.079346 23.808304 -5.005642
v -13.078308 27.817551 -5.005638
v -13.078308 13.077560 -5.005638
v -17.086823 33.817276 -5.005638
v -17.086823 7.077805 -5.005638
v -18.494446 40.895096 -5.005638
v -18.349457 61.341873 -5.005638
v -17.086823 47.971359 -5.005642
v -18.349457 68.724075 -5.005638
v -13.078339 53.972626 -5.005638
v -0.000793 59.388733 -5.005642
v -7.079315 57.981888 -5.005642
v 25.537903 68.724060 -5.005642
v 25.537842 -68.724052 -5.005638
v 13.076019 -53.973389 -5.005638
v 17.086029 -47.972107 -5.005638
v 7.076294 -57.981865 -5.005638
v 4.483795 -61.341858 -23.973843
v -0.000763 -61.341858 -23.973843
v -4.486084 -61.342621 -23.973846
v 4.483765 0.000000 -23.973843
v 4.483795 61.341858 -23.973843
v -4.486084 -0.000748 -23.973843
v -4.486084 61.342621 -23.973843
v -0.000763 0.000000 -23.973843
v -0.000763 61.341858 -23.973843
v -12.336731 28.559128 -5.005638
v -0.000763 23.448181 -5.005642
v -6.676514 24.777237 -5.005642
v -0.000732 40.895081 2.068336
v 6.676453 24.777222 -5.005642
v 12.335968 28.558350 -5.005642
v 16.117859 34.218613 -5.005638
v 17.446136 40.895081 -5.005638
v 16.117828 47.570038 -5.005642
v 12.335968 53.215042 -5.005642
v -0.000763 58.340454 -5.005642
v 6.676483 57.012955 -5.005642
v -6.676483 57.012955 -5.005642
v -12.336731 53.231064 -5.005638
v -17.446167 40.895096 -5.005638
v -16.117859 34.218597 -5.005638
v -16.117859 47.570053 -5.005642
v -17.409485 0.000000 -5.005634
v -12.310760 -12.310020 -5.005638
v -16.129303 -6.698608 -5.005638
v -0.000793 0.000000 2.068336
v -12.310791 12.310028 -5.005638
v -16.085052 6.661987 -5.005638
v -6.662750 16.084290 -5.005642
v -0.000763 17.408768 -5.005642
v -0.000763 -17.410278 -5.005642
v -6.662750 -16.084290 -5.005642
v 6.662750 -16.084282 -5.005638
v 12.309296 -12.310020 -5.005638
v 16.083527 -6.661980 -5.005638
v 17.408752 -0.000763 -5.005638
v 16.083527 6.661987 -5.005642
v 12.309235 12.310043 -5.005642
v 6.662750 16.084290 -5.005642
v -12.328339 -53.222649 -5.005634
v -0.000763 -58.329765 -5.005638
v -6.673401 -57.002258 -5.005638
v -0.000763 -40.895081 2.068336
v 6.671906 -57.002258 -5.005638
v 12.327576 -53.223412 -5.005638
v 16.107178 -47.566986 -5.005638
v 17.434692 -40.894318 -5.005638
v 16.107208 -34.223175 -5.005638
v 12.327545 -28.566734 -5.005642
v -0.000763 -23.460388 -5.005642
v 6.671906 -24.787903 -5.005642
v -6.673431 -24.787895 -5.005642
v -12.328339 -28.565971 -5.005638
v -17.435486 -40.895081 -5.005634
v -16.107910 -47.566223 -5.005634
v -16.107941 -34.222412 -5.005634
v -7.079315 -57.981865 23.972324
v -0.000763 -59.390251 23.972324
v 7.076294 -57.981865 23.972324
v 13.076019 -53.973389 23.972324
v 17.086029 -47.972107 23.972324
v 18.494385 -40.895073 23.972324
v 17.086029 -33.818047 23.972324
v 13.076019 -27.816772 23.972324
v 7.076233 -23.808281 23.972324
v -0.000763 -22.399910 23.972324
v -7.079315 -23.808289 23.972324
v -13.078339 -27.817528 23.972324
v -17.086792 -33.817291 23.972324
v -18.494415 -40.895081 23.972324
v -17.086823 -47.972855 23.972324
v -13.078339 -53.972626 23.972324
v -6.673431 -57.002251 23.972324
v -0.000793 -58.329765 23.972324
v 6.671906 -57.002251 23.972324
v 12.327576 -53.223412 23.972324
v 16.107178 -47.566986 23.972324
v 17.434692 -40.894318 23.972324
v 16.107208 -34.223167 23.972324
v 12.327545 -28.566734 23.972324
v 6.671906 -24.787903 23.972324
v -0.000763 -23.460388 23.972324
v -6.673431 -24.787903 23.972324
v -12.328339 -28.565979 23.972324
v -16.107941 -34.222412 23.972324
v -17.435486 -40.895081 23.972324
v -16.107910 -47.566216 23.972324
v -12.328339 -53.222649 23.972324
v -7.079315 -17.086792 23.972324
v -0.000763 -18.495178 23.972324
v 7.076263 -17.086784 23.972324
v 13.075989 -13.078300 23.972317
v 17.086029 -7.078545 23.972317
v 18.494415 0.000000 23.972324
v 17.085999 7.077042 23.972324
v 13.076019 13.076797 23.972324
v 7.076294 17.086792 23.972324
v -0.000763 18.493652 23.972324
v -7.079315 17.086792 23.972317
v -13.078308 13.077560 23.972317
v -17.086823 7.077805 23.972317
v -18.494415 0.000000 23.972317
v -17.135651 -7.115936 23.972317
v -13.078278 -13.077545 23.972317
v -6.662750 -16.084282 23.972324
v -0.000763 -17.410271 23.972324
v 6.662750 -16.084290 23.972324
v 12.309296 -12.310028 23.972317
v 16.083527 -6.661980 23.972317
v 17.408752 -0.000763 23.972317
v 16.083527 6.661987 23.972324
v 12.309235 12.310028 23.972324
v 6.662750 16.084290 23.972324
v -0.000763 17.408768 23.972324
v -6.662750 16.084290 23.972317
v -12.310791 12.310043 23.972317
v -16.085052 6.661987 23.972317
v -17.409485 0.000015 23.972317
v -16.129303 -6.698601 23.972317
v -12.310760 -12.310028 23.972317
v -7.079346 23.808304 23.972324
v -0.000763 22.399902 23.972324
v 7.076263 23.808304 23.972324
v 13.076019 27.816772 23.972324
v 17.085999 33.816528 23.972324
v 18.494415 40.895081 23.972324
v 17.086029 47.972107 23.972324
v 13.076050 53.955078 23.973858
v 7.076263 57.981888 23.972324
v -0.000793 59.388733 23.972324
v -7.079315 57.981888 23.972324
v -13.078339 53.972626 23.972324
v -17.086823 47.971375 23.972324
v -18.494446 40.895065 23.972324
v -17.086823 33.817291 23.972324
v -13.078308 27.817551 23.972324
v -6.676514 24.777237 23.972324
v -0.000763 23.448181 23.972324
v 6.676453 24.777222 23.972324
v 12.335968 28.558350 23.972324
v 16.117859 34.218613 23.972324
v 17.446136 40.895081 23.972324
v 16.117828 47.570038 23.972324
v 12.335968 53.215042 23.973858
v 6.676483 57.012955 23.972324
v -0.000763 58.340454 23.972324
v -6.676483 57.012955 23.972324
v -12.336731 53.231064 23.972324
v -16.117859 47.570053 23.972324
v -17.446167 40.895081 23.972324
v -16.117859 34.218597 23.972324
v -12.336731 28.559113 23.972324
vt 0.611230 0.903663
vt 0.613021 0.936901
vt 0.621918 0.927742
vt 0.597917 0.906611
vt 0.611084 0.510769
vt 0.597120 0.510769
vt 0.611230 0.117874
vt 0.597915 0.114929
vt 0.621917 0.093794
vt 0.613019 0.084637
vt 0.644524 0.951463
vt 0.647244 0.938049
vt 0.793422 0.952130
vt 0.793423 0.938167
vt 0.942326 0.951463
vt 0.939603 0.938050
vt 0.973833 0.936896
vt 0.964932 0.927741
vt 0.988931 0.906606
vt 0.975617 0.903662
vt 0.989729 0.510769
vt 0.975765 0.510769
vt 0.988933 0.114928
vt 0.975619 0.117874
vt 0.973828 0.084634
vt 0.964933 0.093794
vt 0.647244 0.083490
vt 0.644524 0.070076
vt 0.793423 0.083368
vt 0.793422 0.069404
vt 0.939601 0.083490
vt 0.942319 0.070076
vt 0.618816 0.016885
vt 0.589677 0.028421
vt 0.577606 0.056265
vt 0.618816 0.056265
vt 0.783687 0.056265
vt 0.783687 0.016885
vt 0.618816 0.133265
vt 0.618816 0.135065
vt 0.577606 0.499930
vt 0.948556 0.056265
vt 0.948556 0.016885
vt 0.665224 0.133265
vt 0.783687 0.133265
vt 0.902151 0.133265
vt 0.665224 0.135065
vt 0.618816 0.499930
vt 0.665224 0.499930
vt 0.618816 0.895945
vt 0.665224 0.895945
vt 0.577606 0.943598
vt 0.618816 0.898084
vt 0.665224 0.898084
vt 0.618816 0.943598
vt 0.589677 0.971444
vt 0.618816 0.982976
vt 0.783687 0.982976
vt 0.783687 0.943598
vt 0.783687 0.898084
vt 0.948556 0.982976
vt 0.902151 0.898084
vt 0.948556 0.943598
vt 0.977700 0.971444
vt 0.989769 0.943598
vt 0.948556 0.898084
vt 0.948556 0.895945
vt 0.902151 0.895945
vt 0.989769 0.499930
vt 0.948556 0.499930
vt 0.902151 0.499930
vt 0.989769 0.056265
vt 0.948556 0.135065
vt 0.902151 0.135065
vt 0.948556 0.133265
vt 0.977700 0.028421
vt 0.647545 0.903324
vt 0.688607 0.903324
vt 0.898238 0.903324
vt 0.647545 0.510769
vt 0.687780 0.744364
vt 0.695821 0.784791
vt 0.718722 0.819065
vt 0.752995 0.841966
vt 0.793423 0.850009
vt 0.647545 0.118213
vt 0.687780 0.510769
vt 0.695821 0.703936
vt 0.695547 0.551418
vt 0.718722 0.585470
vt 0.718722 0.669663
vt 0.752995 0.646762
vt 0.752995 0.608371
vt 0.793423 0.616414
vt 0.793423 0.638721
vt 0.833852 0.608371
vt 0.833852 0.646762
vt 0.868125 0.669663
vt 0.868125 0.585470
vt 0.891025 0.703936
vt 0.891025 0.551198
vt 0.899067 0.744364
vt 0.899067 0.510769
vt 0.939300 0.510769
vt 0.899067 0.277172
vt 0.898240 0.118213
vt 0.898240 0.160375
vt 0.891025 0.317603
vt 0.891025 0.236747
vt 0.891025 0.470341
vt 0.868125 0.202570
vt 0.868125 0.351875
vt 0.868125 0.436068
vt 0.833852 0.179571
vt 0.833852 0.413167
vt 0.833852 0.374776
vt 0.793423 0.382819
vt 0.793423 0.405127
vt 0.752995 0.413167
vt 0.752995 0.374776
vt 0.718722 0.351875
vt 0.718722 0.436068
vt 0.695821 0.317603
vt 0.695821 0.470341
vt 0.687780 0.277172
vt 0.688607 0.160375
vt 0.695821 0.236747
vt 0.688607 0.118213
vt 0.718722 0.202474
vt 0.793423 0.171530
vt 0.752995 0.179571
vt 0.939300 0.118213
vt 0.939300 0.903324
vt 0.868125 0.819065
vt 0.891025 0.784791
vt 0.833852 0.841966
vt 0.454846 0.165420
vt 0.359693 0.085577
vt 0.359693 0.085577
vt 0.359693 0.191251
vt 0.454846 0.191251
vt 0.454846 0.217081
vt 0.359693 0.296922
vt 0.359693 0.296922
vt 0.812643 0.135065
vt 0.812643 0.499930
vt 0.812643 0.895945
vt 0.754730 0.135065
vt 0.754730 0.499930
vt 0.754730 0.895945
vt 0.783687 0.135065
vt 0.783687 0.499930
vt 0.783687 0.895945
vt 0.556994 0.058367
vt 0.556994 0.058367
vt 0.461699 0.138330
vt 0.556994 0.164199
vt 0.461699 0.164199
vt 0.461699 0.190069
vt 0.556994 0.270030
vt 0.556994 0.270030
vt 0.066137 0.268784
vt 0.114150 0.300867
vt 0.170789 0.312136
vt 0.170789 0.164131
vt 0.227425 0.300867
vt 0.275439 0.268784
vt 0.307520 0.220772
vt 0.318790 0.164131
vt 0.307520 0.107499
vt 0.275439 0.059618
vt 0.170789 0.016135
vt 0.227425 0.027399
vt 0.114150 0.027399
vt 0.066137 0.059484
vt 0.022790 0.164131
vt 0.034057 0.220772
vt 0.034057 0.107499
vt 0.023083 0.500000
vt 0.033942 0.556833
vt 0.066343 0.604443
vt 0.170790 0.500000
vt 0.066343 0.395554
vt 0.034325 0.443472
vt 0.114262 0.363533
vt 0.170790 0.352291
vt 0.170790 0.647709
vt 0.114262 0.636461
vt 0.227314 0.636461
vt 0.275232 0.604443
vt 0.307250 0.556526
vt 0.318498 0.500000
vt 0.307250 0.443472
vt 0.275232 0.395554
vt 0.227314 0.363533
vt 0.066199 0.946347
vt 0.114184 0.978409
vt 0.170790 0.989671
vt 0.170790 0.841758
vt 0.227395 0.978409
vt 0.275378 0.946347
vt 0.307442 0.898357
vt 0.318703 0.841758
vt 0.307442 0.785154
vt 0.275378 0.737168
vt 0.170790 0.693846
vt 0.227395 0.705104
vt 0.114184 0.705104
vt 0.066199 0.737168
vt 0.022878 0.841758
vt 0.034139 0.898357
vt 0.034139 0.785154
vt 0.360520 0.373098
vt 0.540956 0.328814
vt 0.360519 0.329030
vt 0.540956 0.373098
vt 0.360521 0.417167
vt 0.540957 0.413982
vt 0.360520 0.442129
vt 0.540956 0.444195
vt 0.360521 0.479490
vt 0.540956 0.480607
vt 0.360521 0.523556
vt 0.540957 0.523555
vt 0.360521 0.567624
vt 0.540958 0.566505
vt 0.360522 0.604982
vt 0.540958 0.602915
vt 0.360521 0.629944
vt 0.540958 0.633127
vt 0.360522 0.674012
vt 0.540958 0.674011
vt 0.360523 0.718080
vt 0.540958 0.714895
vt 0.360523 0.743042
vt 0.540959 0.745108
vt 0.360523 0.780400
vt 0.540958 0.781518
vt 0.360523 0.824468
vt 0.540958 0.824468
vt 0.360523 0.868534
vt 0.540958 0.867416
vt 0.360523 0.905894
vt 0.540958 0.903828
vt 0.360523 0.930858
vt 0.540958 0.935849
vt 0.547429 0.329883
vt 0.547430 0.373098
vt 0.547430 0.412391
vt 0.547430 0.445227
vt 0.547430 0.481167
vt 0.547430 0.523555
vt 0.547430 0.565947
vt 0.547430 0.601884
vt 0.547428 0.634720
vt 0.547429 0.674012
vt 0.547427 0.713304
vt 0.547429 0.746142
vt 0.547429 0.782077
vt 0.547430 0.824468
vt 0.547430 0.866855
vt 0.547430 0.902793
vt 0.547430 0.939552
vt 0.366495 0.412290
vt 0.547431 0.370631
vt 0.366495 0.370631
vt 0.547431 0.412290
vt 0.366495 0.453949
vt 0.547431 0.453949
vt 0.366494 0.477547
vt 0.547431 0.477547
vt 0.366494 0.512863
vt 0.547431 0.512863
vt 0.366494 0.554521
vt 0.547431 0.554521
vt 0.366494 0.596175
vt 0.547431 0.596175
vt 0.366494 0.631494
vt 0.547431 0.631494
vt 0.366495 0.655091
vt 0.547431 0.655091
vt 0.366495 0.696750
vt 0.547431 0.696751
vt 0.366494 0.738409
vt 0.547430 0.738410
vt 0.366494 0.762006
vt 0.547430 0.762007
vt 0.366494 0.797324
vt 0.547431 0.797325
vt 0.366493 0.838978
vt 0.547431 0.838980
vt 0.366493 0.880637
vt 0.547430 0.880638
vt 0.366493 0.915953
vt 0.547430 0.915954
vt 0.366493 0.939551
vt 0.547430 0.939552
vt 0.360350 0.373083
vt 0.540800 0.328794
vt 0.360350 0.329011
vt 0.540801 0.373082
vt 0.360351 0.417154
vt 0.540799 0.413970
vt 0.360351 0.442119
vt 0.540800 0.444185
vt 0.360351 0.479480
vt 0.540801 0.480598
vt 0.360351 0.523551
vt 0.540801 0.523551
vt 0.360351 0.567623
vt 0.540801 0.566505
vt 0.360351 0.604984
vt 0.540801 0.602918
vt 0.360351 0.629949
vt 0.540801 0.633134
vt 0.360351 0.674021
vt 0.540799 0.674021
vt 0.360350 0.718093
vt 0.540801 0.714908
vt 0.360350 0.743058
vt 0.540800 0.745124
vt 0.360350 0.780419
vt 0.540800 0.781537
vt 0.360350 0.824491
vt 0.540800 0.824501
vt 0.360350 0.868803
vt 0.540801 0.867640
vt 0.360350 0.905924
vt 0.540800 0.903892
vt 0.360350 0.930888
vt 0.540800 0.935880
vt 0.547431 0.329895
vt 0.547430 0.373082
vt 0.547432 0.412378
vt 0.547430 0.445218
vt 0.547430 0.481157
vt 0.547430 0.523551
vt 0.547430 0.565948
vt 0.547430 0.601887
vt 0.547427 0.634727
vt 0.547427 0.674021
vt 0.547427 0.713317
vt 0.547427 0.746157
vt 0.547427 0.782095
vt 0.547435 0.824481
vt 0.547441 0.867054
vt 0.547435 0.902902
vt 0.547430 0.939552
vt 0.547430 0.897951
vt 0.366476 0.939555
vt 0.547430 0.939552
vt 0.366475 0.897954
vt 0.547429 0.856348
vt 0.366475 0.856352
vt 0.547429 0.832782
vt 0.366474 0.832785
vt 0.547428 0.797516
vt 0.366474 0.797519
vt 0.547429 0.755913
vt 0.366473 0.755916
vt 0.547427 0.714086
vt 0.366472 0.714088
vt 0.547427 0.679047
vt 0.366471 0.679049
vt 0.547426 0.655483
vt 0.366471 0.655484
vt 0.547425 0.613880
vt 0.366472 0.613881
vt 0.547426 0.572280
vt 0.366471 0.572280
vt 0.547426 0.548716
vt 0.366471 0.548716
vt 0.547426 0.513450
vt 0.366471 0.513450
vt 0.547426 0.471849
vt 0.366471 0.471849
vt 0.547426 0.430246
vt 0.366471 0.430246
vt 0.547426 0.394979
vt 0.366471 0.394979
vt 0.547426 0.371413
vt 0.366471 0.371413
vt 0.547430 0.895484
vt 0.366995 0.939768
vt 0.547430 0.939552
vt 0.366995 0.895485
vt 0.547430 0.851416
vt 0.366995 0.854600
vt 0.547430 0.826453
vt 0.366995 0.824387
vt 0.547430 0.789097
vt 0.366995 0.787979
vt 0.547430 0.745026
vt 0.366995 0.745026
vt 0.547430 0.700962
vt 0.366995 0.702083
vt 0.547430 0.663708
vt 0.366995 0.665763
vt 0.547430 0.638639
vt 0.366995 0.635462
vt 0.547430 0.594572
vt 0.366996 0.594570
vt 0.547430 0.550504
vt 0.366996 0.553686
vt 0.547430 0.525538
vt 0.366996 0.523471
vt 0.547430 0.488180
vt 0.366997 0.487060
vt 0.547431 0.444117
vt 0.366997 0.444115
vt 0.547432 0.400046
vt 0.366998 0.401162
vt 0.547433 0.362689
vt 0.366998 0.364753
vt 0.547433 0.337726
vt 0.366997 0.332732
vt 0.360590 0.938712
vt 0.360591 0.895484
vt 0.360590 0.856192
vt 0.360590 0.823355
vt 0.360590 0.787419
vt 0.360590 0.745026
vt 0.360592 0.702639
vt 0.360592 0.666787
vt 0.360592 0.633879
vt 0.360593 0.594570
vt 0.360592 0.555277
vt 0.360592 0.522438
vt 0.360594 0.486501
vt 0.360593 0.444115
vt 0.360594 0.401722
vt 0.360594 0.365788
vt 0.360592 0.329016
vt 0.366493 0.411967
vt 0.547427 0.370284
vt 0.366493 0.370284
vt 0.547427 0.411967
vt 0.366493 0.453652
vt 0.547427 0.453652
vt 0.366493 0.477265
vt 0.547427 0.477265
vt 0.366493 0.512604
vt 0.547427 0.512604
vt 0.366493 0.554284
vt 0.547427 0.554284
vt 0.366493 0.595970
vt 0.547427 0.595970
vt 0.366493 0.631306
vt 0.547427 0.631306
vt 0.366493 0.654919
vt 0.547427 0.654918
vt 0.366493 0.696604
vt 0.547427 0.696602
vt 0.366493 0.738287
vt 0.547427 0.738285
vt 0.366494 0.761900
vt 0.547427 0.761897
vt 0.366495 0.797236
vt 0.547428 0.797233
vt 0.366495 0.838923
vt 0.547429 0.838920
vt 0.366496 0.880602
vt 0.547429 0.880600
vt 0.366496 0.915841
vt 0.547430 0.915838
vt 0.366496 0.939554
vt 0.547430 0.939552
vn -0.9869 -0.1616 0.0000
vn -0.9175 -0.3977 -0.0000
vn -0.9174 -0.3980 0.0000
vn -1.0000 -0.0000 0.0000
vn -0.9867 0.1624 -0.0000
vn -0.9174 0.3980 0.0000
vn -0.3681 -0.9298 0.0000
vn -0.1510 -0.9885 -0.0000
vn 0.0000 -1.0000 0.0000
vn 0.1510 -0.9885 0.0000
vn 0.3681 -0.9298 0.0000
vn 0.9174 -0.3980 0.0000
vn 0.9868 -0.1617 0.0000
vn 1.0000 0.0000 0.0000
vn 0.9867 0.1624 0.0000
vn 0.9867 0.1625 0.0000
vn 0.9174 0.3980 0.0000
vn -0.1509 0.9885 -0.0000
vn -0.3681 0.9298 0.0000
vn -0.0000 1.0000 0.0000
vn 0.1509 0.9885 -0.0000
vn 0.3681 0.9298 -0.0000
vn 0.0000 -0.0000 -1.0000
vn -0.0000 0.0000 1.0000
vn 0.0082 -0.9997 -0.0237
vn 0.0284 -0.9993 -0.0238
vn 0.0201 -0.9992 -0.0337
vn 0.0000 -0.9999 -0.0169
vn 0.0001 -0.9999 -0.0169
vn -0.0082 -0.9997 -0.0237
vn -0.0201 -0.9992 -0.0337
vn 0.7660 0.0000 -0.6428
vn -0.7661 0.0000 -0.6427
vn 0.0239 0.9989 -0.0401
vn 0.0239 0.9989 -0.0400
vn 0.0097 0.9996 -0.0282
vn 0.0000 0.9998 -0.0200
vn 0.0001 0.9998 -0.0200
vn -0.0097 0.9996 -0.0282
vn -0.0239 0.9989 -0.0400
vn -0.2481 -0.2481 0.9364
vn -0.1438 -0.3472 0.9267
vn -0.0000 -0.3509 0.9364
vn 0.1438 -0.3472 0.9267
vn 0.2481 -0.2481 0.9364
vn 0.3471 -0.1438 0.9267
vn 0.3508 -0.0000 0.9364
vn 0.3471 0.1440 0.9267
vn 0.2482 0.2482 0.9364
vn 0.0002 0.3508 0.9365
vn 0.1442 0.3471 0.9267
vn -0.1438 0.3472 0.9267
vn -0.2481 0.2481 0.9364
vn -0.3509 -0.0000 0.9364
vn -0.3472 -0.1438 0.9267
vn -0.3473 0.1438 0.9267
vn -0.3510 -0.0004 0.9364
vn -0.3469 -0.1437 0.9268
vn -0.2485 -0.2479 0.9364
vn -0.2485 0.2485 0.9362
vn -0.3478 0.1441 0.9264
vn -0.1440 0.3478 0.9264
vn -0.0000 0.3515 0.9362
vn 0.0000 -0.3515 0.9362
vn -0.1441 -0.3478 0.9264
vn 0.1441 -0.3478 0.9264
vn 0.2485 -0.2485 0.9362
vn 0.3478 -0.1441 0.9264
vn 0.3515 -0.0000 0.9362
vn 0.3478 0.1441 0.9264
vn 0.2485 0.2485 0.9362
vn 0.1441 0.3478 0.9264
vn -0.2482 -0.2482 0.9364
vn -0.1439 -0.3474 0.9266
vn 0.0000 -0.3510 0.9364
vn 0.1439 -0.3474 0.9266
vn 0.2482 -0.2482 0.9364
vn 0.3473 -0.1439 0.9266
vn 0.3510 -0.0000 0.9364
vn 0.3473 0.1439 0.9266
vn -0.0000 0.3510 0.9364
vn 0.1439 0.3474 0.9266
vn -0.1439 0.3474 0.9266
vn -0.2482 0.2482 0.9364
vn -0.3510 0.0000 0.9364
vn -0.3474 -0.1439 0.9266
vn -0.3474 0.1439 0.9266
vn -0.3828 -0.9239 0.0000
vn 0.3827 -0.9239 0.0000
vn 0.7071 -0.7071 0.0000
vn 0.9239 -0.3827 0.0000
vn 0.9239 0.3827 -0.0000
vn 0.7071 0.7071 -0.0000
vn 0.3827 0.9239 0.0000
vn -0.3828 0.9239 0.0000
vn -0.7072 0.7071 0.0000
vn -0.9239 0.3826 0.0000
vn -0.9239 -0.3826 0.0000
vn -0.7072 -0.7071 0.0000
vn -0.3827 -0.9239 0.0000
vn 0.7072 0.7071 -0.0000
vn 0.3828 0.9238 0.0000
vn -0.3827 0.9239 -0.0000
vn -0.7071 0.7071 -0.0000
vn -0.9239 0.3827 0.0000
vn -0.9239 -0.3827 0.0000
vn -0.7071 -0.7071 0.0000
vn 0.7070 -0.7072 0.0000
vn 0.9238 -0.3828 0.0000
vn 0.9238 0.3828 0.0000
vn -1.0000 0.0038 0.0000
vn -0.7041 -0.7101 -0.0000
vn 1.0000 -0.0033 0.0000
vn 0.7041 0.7101 0.0000
vn -0.3828 0.9238 0.0000
vn 0.9236 0.3834 0.0000
vn 0.7073 0.7069 0.0000
vn 0.3836 0.9235 0.0000
vn -0.7072 0.7070 0.0000
vn 0.0000 -0.0001 1.0000
vn -0.0001 0.0000 1.0000
vn -0.3836 -0.9235 0.0000
vn 0.3826 -0.9239 0.0000
vn 0.7072 -0.7071 0.0000
vn 0.9239 -0.3826 0.0000
vn 0.3828 0.9239 0.0000
vn -0.9236 -0.3833 0.0000
vn -0.7074 -0.7068 0.0000
usemtl SignalTrafficVerticalAlbedo.002
s 1
f 1/1/1 3/2/2 2/3/3
f 1/1/1 4/4/1 3/2/2
f 4/4/1 1/1/1 5/5/4
f 4/4/1 5/5/4 6/6/4
f 7/7/5 6/6/4 5/5/4
f 7/7/5 8/8/5 6/6/4
f 9/9/6 8/8/5 7/7/5
f 9/9/6 10/10/6 8/8/5
f 2/3/7 3/2/7 11/11/8
f 2/3/7 11/11/8 12/12/8
f 12/12/8 11/11/8 13/13/9
f 12/12/8 13/13/9 14/14/9
f 15/15/10 14/14/9 13/13/9
f 15/15/10 16/16/10 14/14/9
f 16/16/10 15/15/10 17/17/11
f 16/16/10 17/17/11 18/18/11
f 18/18/12 17/17/12 19/19/13
f 18/18/12 19/19/13 20/20/13
f 20/20/13 19/19/13 21/21/14
f 20/20/13 21/21/14 22/22/14
f 23/23/15 22/22/14 21/21/14
f 23/23/15 24/24/16 22/22/14
f 24/24/16 23/23/15 25/25/17
f 24/24/16 25/25/17 26/26/17
f 27/27/18 10/10/19 9/9/19
f 27/27/18 28/28/18 10/10/19
f 28/28/18 27/27/18 29/29/20
f 28/28/18 29/29/20 30/30/20
f 31/31/21 30/30/20 29/29/20
f 31/31/21 32/32/21 30/30/20
f 26/26/22 32/32/21 31/31/21
f 26/26/22 25/25/22 32/32/21
f 11/33/23 3/34/23 4/35/23
f 11/33/23 4/35/23 33/36/23
f 11/33/23 33/36/23 34/37/23
f 11/33/23 34/37/23 13/38/23
f 4/35/23 35/39/23 33/36/23
f 34/37/23 33/36/23 35/39/23
f 4/35/23 36/40/23 35/39/23
f 36/40/23 4/35/23 6/41/23
f 37/42/23 13/38/23 34/37/23
f 37/42/23 15/43/23 13/38/23
f 38/44/23 35/39/23 36/40/23
f 34/37/23 35/39/23 38/44/23
f 34/37/23 38/44/23 39/45/23
f 34/37/23 39/45/23 40/46/23
f 37/42/23 34/37/23 40/46/23
f 38/44/23 36/40/23 41/47/23
f 41/47/23 36/40/23 42/48/23
f 36/40/23 6/41/23 42/48/23
f 41/47/23 42/48/23 43/49/23
f 6/41/23 44/50/23 42/48/23
f 43/49/23 42/48/23 44/50/23
f 43/49/23 44/50/23 45/51/23
f 6/41/23 8/52/23 44/50/23
f 45/51/23 44/50/23 46/53/23
f 8/52/23 46/53/23 44/50/23
f 45/51/23 46/53/23 47/54/23
f 8/52/23 48/55/23 46/53/23
f 47/54/23 46/53/23 48/55/23
f 48/55/23 8/52/23 10/56/23
f 48/55/23 10/56/23 28/57/23
f 48/55/23 28/57/23 30/58/23
f 47/54/23 48/55/23 49/59/23
f 48/55/23 30/58/23 49/59/23
f 50/60/23 47/54/23 49/59/23
f 32/61/23 49/59/23 30/58/23
f 50/60/23 49/59/23 51/62/23
f 32/61/23 52/63/23 49/59/23
f 52/63/23 51/62/23 49/59/23
f 25/64/23 52/63/23 32/61/23
f 25/64/23 23/65/23 52/63/23
f 52/63/23 53/66/23 51/62/23
f 23/65/23 53/66/23 52/63/23
f 54/67/23 51/62/23 53/66/23
f 23/65/23 54/67/23 53/66/23
f 54/67/23 55/68/23 51/62/23
f 54/67/23 23/65/23 21/69/23
f 56/70/23 55/68/23 54/67/23
f 54/67/23 21/69/23 56/70/23
f 56/70/23 57/71/23 55/68/23
f 19/72/23 56/70/23 21/69/23
f 58/73/23 57/71/23 56/70/23
f 19/72/23 58/73/23 56/70/23
f 58/73/23 59/74/23 57/71/23
f 60/75/23 59/74/23 58/73/23
f 19/72/23 60/75/23 58/73/23
f 60/75/23 40/46/23 59/74/23
f 37/42/23 40/46/23 60/75/23
f 19/72/23 37/42/23 60/75/23
f 19/72/23 15/43/23 37/42/23
f 19/72/23 17/76/23 15/43/23
f 1/1/24 2/3/24 12/12/24
f 1/1/24 12/12/24 61/77/24
f 62/78/24 61/77/24 12/12/24
f 62/78/24 12/12/24 14/14/24
f 63/79/24 62/78/24 14/14/24
f 16/16/24 63/79/24 14/14/24
f 1/1/24 61/77/24 64/80/24
f 1/1/24 64/80/24 5/5/24
f 61/77/24 62/78/24 65/81/24
f 61/77/24 65/81/24 64/80/24
f 62/78/24 66/82/24 65/81/24
f 62/78/24 67/83/24 66/82/24
f 68/84/24 67/83/24 62/78/24
f 68/84/24 62/78/24 69/85/24
f 63/79/24 69/85/24 62/78/24
f 70/86/24 5/5/24 64/80/24
f 70/86/24 7/7/24 5/5/24
f 64/80/24 65/81/24 71/87/24
f 72/88/24 71/87/24 65/81/24
f 72/88/24 73/89/24 71/87/24
f 74/90/24 73/89/24 72/88/24
f 74/90/24 72/88/24 75/91/24
f 74/90/24 75/91/24 76/92/24
f 74/90/24 76/92/24 77/93/24
f 76/92/24 78/94/24 77/93/24
f 76/92/24 79/95/24 78/94/24
f 79/95/24 80/96/24 78/94/24
f 79/95/24 81/97/24 80/96/24
f 82/98/24 80/96/24 81/97/24
f 82/98/24 83/99/24 80/96/24
f 84/100/24 83/99/24 82/98/24
f 84/100/24 85/101/24 83/99/24
f 86/102/24 85/101/24 84/100/24
f 86/102/24 87/103/24 85/101/24
f 87/103/24 86/102/24 88/104/24
f 87/103/24 88/104/24 89/105/24
f 88/104/24 90/106/24 89/105/24
f 89/105/24 90/106/24 91/107/24
f 92/108/24 87/103/24 89/105/24
f 93/109/24 89/105/24 91/107/24
f 92/108/24 94/110/24 87/103/24
f 91/107/24 95/111/24 93/109/24
f 95/111/24 91/107/24 90/106/24
f 96/112/24 94/110/24 92/108/24
f 96/112/24 97/113/24 94/110/24
f 98/114/24 95/111/24 90/106/24
f 99/115/24 97/113/24 96/112/24
f 99/115/24 96/112/24 100/116/24
f 101/117/24 99/115/24 100/116/24
f 101/117/24 102/118/24 99/115/24
f 101/117/24 103/119/24 102/118/24
f 101/117/24 104/120/24 103/119/24
f 105/121/24 103/119/24 104/120/24
f 105/121/24 106/122/24 103/119/24
f 107/123/24 106/122/24 105/121/24
f 107/123/24 108/124/24 106/122/24
f 109/125/24 108/124/24 107/123/24
f 109/125/24 71/87/24 108/124/24
f 64/80/24 71/87/24 109/125/24
f 109/125/24 70/86/24 64/80/24
f 110/126/24 70/86/24 109/125/24
f 111/127/24 110/126/24 109/125/24
f 111/127/24 112/128/24 110/126/24
f 70/86/24 110/126/24 112/128/24
f 112/128/24 111/127/24 113/129/24
f 27/27/24 70/86/24 112/128/24
f 27/27/24 7/7/24 70/86/24
f 27/27/24 9/9/24 7/7/24
f 27/27/24 112/128/24 29/29/24
f 114/130/24 112/128/24 113/129/24
f 29/29/24 112/128/24 114/130/24
f 114/130/24 113/129/24 115/131/24
f 29/29/24 114/130/24 90/106/24
f 98/114/24 90/106/24 114/130/24
f 90/106/24 31/31/24 29/29/24
f 90/106/24 116/132/24 31/31/24
f 26/26/24 31/31/24 116/132/24
f 26/26/24 116/132/24 24/24/24
f 90/106/24 88/104/24 116/132/24
f 24/24/24 116/132/24 88/104/24
f 24/24/24 88/104/24 22/22/24
f 117/133/24 22/22/24 88/104/24
f 117/133/24 20/20/24 22/22/24
f 16/16/24 20/20/24 117/133/24
f 16/16/24 18/18/24 20/20/24
f 16/16/24 117/133/24 63/79/24
f 63/79/24 117/133/24 88/104/24
f 63/79/24 88/104/24 86/102/24
f 118/134/24 63/79/24 86/102/24
f 118/134/24 86/102/24 119/135/24
f 69/85/24 63/79/24 118/134/24
f 69/85/24 118/134/24 120/136/24
f 121/137/25 59/138/26 40/139/27
f 121/137/25 40/139/27 39/140/28
f 39/140/28 122/141/29 121/137/25
f 39/140/28 123/142/30 122/141/29
f 38/143/31 123/142/30 39/140/28
f 38/143/31 41/144/31 123/142/30
f 59/74/32 121/145/32 124/146/32
f 59/74/32 124/146/32 57/71/32
f 57/71/32 124/146/32 125/147/32
f 57/71/32 125/147/32 55/68/32
f 123/148/33 41/47/33 43/49/33
f 123/148/33 43/49/33 126/149/33
f 126/149/33 43/49/33 45/51/33
f 126/149/33 45/51/33 127/150/33
f 122/151/23 123/148/23 126/149/23
f 122/151/23 126/149/23 128/152/23
f 128/152/23 126/149/23 127/150/23
f 128/152/23 127/150/23 129/153/23
f 125/147/23 128/152/23 129/153/23
f 125/147/23 124/146/23 128/152/23
f 124/146/23 122/151/23 128/152/23
f 124/146/23 121/145/23 122/151/23
f 51/154/34 55/155/35 125/156/36
f 51/154/34 125/156/36 50/157/37
f 129/158/38 50/157/37 125/156/36
f 129/158/38 127/159/39 50/157/37
f 127/159/39 47/160/40 50/157/37
f 127/159/39 45/161/40 47/160/40
f 130/162/41 132/163/42 131/164/43
f 130/162/41 131/164/43 133/165/24
f 133/165/24 131/164/43 134/166/44
f 133/165/24 134/166/44 135/167/45
f 133/165/24 135/167/45 136/168/46
f 133/165/24 136/168/46 137/169/47
f 133/165/24 137/169/47 138/170/48
f 133/165/24 138/170/48 139/171/49
f 140/172/50 133/165/24 139/171/49
f 140/172/50 139/171/49 141/173/51
f 142/174/52 133/165/24 140/172/50
f 142/174/52 143/175/53 133/165/24
f 144/176/54 130/162/41 133/165/24
f 143/175/53 144/176/54 133/165/24
f 144/176/54 145/177/55 130/162/41
f 143/175/53 146/178/56 144/176/54
f 147/179/57 149/180/58 148/181/59
f 147/179/57 148/181/59 150/182/24
f 151/183/60 147/179/57 150/182/24
f 151/183/60 152/184/61 147/179/57
f 153/185/62 151/183/60 150/182/24
f 153/185/62 150/182/24 154/186/63
f 148/181/59 155/187/64 150/182/24
f 148/181/59 156/188/65 155/187/64
f 150/182/24 155/187/64 157/189/66
f 150/182/24 157/189/66 158/190/67
f 150/182/24 158/190/67 159/191/68
f 150/182/24 159/191/68 160/192/69
f 150/182/24 160/192/69 161/193/70
f 150/182/24 161/193/70 162/194/71
f 154/186/63 150/182/24 162/194/71
f 154/186/63 162/194/71 163/195/72
f 164/196/73 166/197/74 165/198/75
f 164/196/73 165/198/75 167/199/24
f 167/199/24 165/198/75 168/200/76
f 167/199/24 168/200/76 169/201/77
f 167/199/24 169/201/77 170/202/78
f 167/199/24 170/202/78 171/203/79
f 167/199/24 171/203/79 172/204/80
f 167/199/24 172/204/80 173/205/49
f 174/206/81 167/199/24 173/205/49
f 174/206/81 173/205/49 175/207/82
f 176/208/83 167/199/24 174/206/81
f 176/208/83 177/209/84 167/199/24
f 178/210/85 164/196/73 167/199/24
f 177/209/84 178/210/85 167/199/24
f 178/210/85 179/211/86 164/196/73
f 177/209/84 180/212/87 178/210/85
f 69/213/9 181/214/88 68/215/88
f 69/213/9 182/216/9 181/214/88
f 120/217/89 182/216/9 69/213/9
f 120/217/89 183/218/89 182/216/9
f 118/219/90 183/218/89 120/217/89
f 118/219/90 184/220/90 183/218/89
f 119/221/91 184/220/90 118/219/90
f 119/221/91 185/222/91 184/220/90
f 86/223/14 185/222/91 119/221/91
f 86/223/14 186/224/14 185/222/91
f 84/225/92 186/224/14 86/223/14
f 84/225/92 187/226/92 186/224/14
f 82/227/93 187/226/92 84/225/92
f 82/227/93 188/228/93 187/226/92
f 81/229/94 188/228/93 82/227/93
f 81/229/94 189/230/94 188/228/93
f 79/231/20 189/230/94 81/229/94
f 79/231/20 190/232/20 189/230/94
f 76/233/95 190/232/20 79/231/20
f 76/233/95 191/234/95 190/232/20
f 75/235/96 191/234/95 76/233/95
f 75/235/96 192/236/96 191/234/95
f 72/237/97 192/236/96 75/235/96
f 72/237/97 193/238/97 192/236/96
f 65/239/4 193/238/97 72/237/97
f 65/239/4 194/240/4 193/238/97
f 66/241/98 194/240/4 65/239/4
f 66/241/98 195/242/98 194/240/4
f 67/243/99 195/242/98 66/241/98
f 67/243/99 196/244/99 195/242/98
f 68/245/88 196/244/99 67/243/99
f 68/245/88 181/246/88 196/244/99
f 182/216/24 197/247/24 181/214/24
f 182/216/24 198/248/24 197/247/24
f 183/218/24 198/248/24 182/216/24
f 183/218/24 199/249/24 198/248/24
f 184/220/24 199/249/24 183/218/24
f 184/220/24 200/250/24 199/249/24
f 185/222/24 200/250/24 184/220/24
f 185/222/24 201/251/24 200/250/24
f 186/224/24 201/251/24 185/222/24
f 186/224/24 202/252/24 201/251/24
f 187/226/24 202/252/24 186/224/24
f 187/226/24 203/253/24 202/252/24
f 188/228/24 203/253/24 187/226/24
f 188/228/24 204/254/24 203/253/24
f 189/230/24 204/254/24 188/228/24
f 189/230/24 205/255/24 204/254/24
f 190/232/24 205/255/24 189/230/24
f 190/232/24 206/256/24 205/255/24
f 191/234/24 206/256/24 190/232/24
f 191/234/24 207/257/24 206/256/24
f 192/236/24 207/257/24 191/234/24
f 192/236/24 208/258/24 207/257/24
f 193/238/24 208/258/24 192/236/24
f 193/238/24 209/259/24 208/258/24
f 194/240/24 209/259/24 193/238/24
f 194/240/24 210/260/24 209/259/24
f 195/242/24 210/260/24 194/240/24
f 195/242/24 211/261/24 210/260/24
f 196/244/24 211/261/24 195/242/24
f 196/244/24 212/262/24 211/261/24
f 181/246/24 212/262/24 196/244/24
f 181/246/24 197/263/24 212/262/24
f 206/264/9 175/265/100 205/266/100
f 206/264/9 174/267/9 175/265/100
f 207/268/89 174/267/9 206/264/9
f 207/268/89 176/269/89 174/267/9
f 208/270/90 176/269/89 207/268/89
f 208/270/90 177/271/90 176/269/89
f 209/272/91 177/271/90 208/270/90
f 209/272/91 180/273/91 177/271/90
f 210/274/14 180/273/91 209/272/91
f 210/274/14 178/275/14 180/273/91
f 211/276/92 178/275/14 210/274/14
f 211/276/92 179/277/92 178/275/14
f 212/278/101 179/277/92 211/276/92
f 212/278/101 164/279/101 179/277/92
f 197/280/102 164/279/101 212/278/101
f 197/280/102 166/281/102 164/279/101
f 198/282/20 166/281/102 197/280/102
f 198/282/20 165/283/20 166/281/102
f 199/284/103 165/283/20 198/282/20
f 199/284/103 168/285/103 165/283/20
f 200/286/104 168/285/103 199/284/103
f 200/286/104 169/287/104 168/285/103
f 201/288/105 169/287/104 200/286/104
f 201/288/105 170/289/105 169/287/104
f 202/290/4 170/289/105 201/288/105
f 202/290/4 171/291/4 170/289/105
f 203/292/106 171/291/4 202/290/4
f 203/292/106 172/293/106 171/291/4
f 204/294/107 172/293/106 203/292/106
f 204/294/107 173/295/107 172/293/106
f 205/296/100 173/295/107 204/294/107
f 205/296/100 175/297/100 173/295/107
f 78/298/9 213/299/88 77/300/88
f 78/298/9 214/301/9 213/299/88
f 80/302/89 214/301/9 78/298/9
f 80/302/89 215/303/89 214/301/9
f 83/304/108 215/303/89 80/302/89
f 83/304/108 216/305/108 215/303/89
f 85/306/109 216/305/108 83/304/108
f 85/306/109 217/307/109 216/305/108
f 87/308/14 217/307/109 85/306/109
f 87/308/14 218/309/14 217/307/109
f 94/310/110 218/309/14 87/308/14
f 94/310/110 219/311/110 218/309/14
f 97/312/93 219/311/110 94/310/110
f 97/312/93 220/313/93 219/311/110
f 99/314/94 220/313/93 97/312/93
f 99/314/94 221/315/94 220/313/93
f 102/316/20 221/315/94 99/314/94
f 102/316/20 222/317/20 221/315/94
f 103/318/103 222/317/20 102/316/20
f 103/318/103 223/319/103 222/317/20
f 106/320/96 223/319/103 103/318/103
f 106/320/96 224/321/96 223/319/103
f 108/322/97 224/321/96 106/320/96
f 108/322/97 225/323/97 224/321/96
f 71/324/111 225/323/97 108/322/97
f 71/324/111 226/325/111 225/323/97
f 73/326/98 226/325/111 71/324/111
f 73/326/98 227/327/98 226/325/111
f 74/328/112 227/327/98 73/326/98
f 74/328/112 228/329/112 227/327/98
f 77/330/88 228/329/112 74/328/112
f 77/330/88 213/331/88 228/329/112
f 214/301/24 229/332/24 213/299/24
f 214/301/24 230/333/24 229/332/24
f 215/303/24 230/333/24 214/301/24
f 215/303/24 231/334/24 230/333/24
f 216/305/24 231/334/24 215/303/24
f 216/305/24 232/335/24 231/334/24
f 217/307/24 232/335/24 216/305/24
f 217/307/24 233/336/24 232/335/24
f 218/309/24 233/336/24 217/307/24
f 218/309/24 234/337/24 233/336/24
f 219/311/24 234/337/24 218/309/24
f 219/311/24 235/338/24 234/337/24
f 220/313/24 235/338/24 219/311/24
f 220/313/24 236/339/24 235/338/24
f 221/315/24 236/339/24 220/313/24
f 221/315/24 237/340/24 236/339/24
f 222/317/24 237/340/24 221/315/24
f 222/317/24 238/341/24 237/340/24
f 223/319/24 238/341/24 222/317/24
f 223/319/24 239/342/24 238/341/24
f 224/321/24 239/342/24 223/319/24
f 224/321/24 240/343/24 239/342/24
f 225/323/24 240/343/24 224/321/24
f 225/323/24 241/344/24 240/343/24
f 226/325/24 241/344/24 225/323/24
f 226/325/24 242/345/24 241/344/24
f 227/327/24 242/345/24 226/325/24
f 227/327/24 243/346/24 242/345/24
f 228/329/24 243/346/24 227/327/24
f 228/329/24 244/347/24 243/346/24
f 213/331/24 244/347/24 228/329/24
f 213/331/24 229/348/24 244/347/24
f 238/349/9 163/350/100 237/351/100
f 238/349/9 154/352/9 163/350/100
f 239/353/89 154/352/9 238/349/9
f 239/353/89 153/354/89 154/352/9
f 240/355/90 153/354/89 239/353/89
f 240/355/90 151/356/90 153/354/89
f 241/357/91 151/356/90 240/355/90
f 241/357/91 152/358/91 151/356/90
f 242/359/113 152/358/91 241/357/91
f 242/359/113 147/360/113 152/358/91
f 243/361/92 147/360/113 242/359/113
f 243/361/92 149/362/92 147/360/113
f 244/363/114 149/362/92 243/361/92
f 244/363/114 148/364/114 149/362/92
f 229/365/102 148/364/114 244/363/114
f 229/365/102 156/366/102 148/364/114
f 230/367/20 156/366/102 229/365/102
f 230/367/20 155/368/20 156/366/102
f 231/369/115 155/368/20 230/367/20
f 231/369/115 157/370/115 155/368/20
f 232/371/96 157/370/115 231/369/115
f 232/371/96 158/372/96 157/370/115
f 233/373/105 158/372/96 232/371/96
f 233/373/105 159/374/105 158/372/96
f 234/375/4 159/374/105 233/373/105
f 234/375/4 160/376/4 159/374/105
f 235/377/106 160/376/4 234/375/4
f 235/377/106 161/378/106 160/376/4
f 236/379/99 161/378/106 235/377/106
f 236/379/99 162/380/99 161/378/106
f 237/381/100 162/380/99 236/379/99
f 237/381/100 163/382/100 162/380/99
f 101/383/9 245/384/88 104/385/88
f 101/383/9 246/386/9 245/384/88
f 100/387/89 246/386/9 101/383/9
f 100/387/89 247/388/89 246/386/9
f 96/389/108 247/388/89 100/387/89
f 96/389/108 248/390/108 247/388/89
f 92/391/109 248/390/108 96/389/108
f 92/391/109 249/392/109 248/390/108
f 89/393/14 249/392/109 92/391/109
f 89/393/14 250/394/14 249/392/109
f 93/395/116 250/394/14 89/393/14
f 93/395/116 251/396/116 250/394/14
f 95/397/117 251/396/116 93/395/116
f 95/397/117 252/398/117 251/396/116
f 98/399/118 252/398/117 95/397/117
f 98/399/118 253/400/118 252/398/117
f 114/401/20 253/400/118 98/399/118
f 114/401/20 254/402/20 253/400/118
f 115/403/103 254/402/20 114/401/20
f 115/403/103 255/404/103 254/402/20
f 113/405/119 255/404/103 115/403/103
f 113/405/119 256/406/119 255/404/103
f 111/407/97 256/406/119 113/405/119
f 111/407/97 257/408/97 256/406/119
f 109/409/4 257/408/97 111/407/97
f 109/409/4 258/410/4 257/408/97
f 107/411/98 258/410/4 109/409/4
f 107/411/98 259/412/98 258/410/4
f 105/413/99 259/412/98 107/411/98
f 105/413/99 260/414/99 259/412/98
f 104/415/88 260/414/99 105/413/99
f 104/415/88 245/416/88 260/414/99
f 246/386/24 261/417/24 245/384/24
f 246/386/24 262/418/24 261/417/24
f 247/388/24 262/418/24 246/386/24
f 247/388/24 263/419/24 262/418/24
f 248/390/24 263/419/24 247/388/24
f 248/390/24 264/420/24 263/419/24
f 249/392/24 264/420/24 248/390/24
f 249/392/24 265/421/24 264/420/24
f 250/394/24 265/421/24 249/392/24
f 250/394/24 266/422/24 265/421/24
f 251/396/120 266/422/24 250/394/24
f 251/396/120 267/423/120 266/422/24
f 252/398/24 267/423/120 251/396/120
f 252/398/24 268/424/24 267/423/120
f 253/400/121 268/424/24 252/398/24
f 253/400/121 269/425/121 268/424/24
f 254/402/24 269/425/121 253/400/121
f 254/402/24 270/426/24 269/425/121
f 255/404/24 270/426/24 254/402/24
f 255/404/24 271/427/24 270/426/24
f 256/406/24 271/427/24 255/404/24
f 256/406/24 272/428/24 271/427/24
f 257/408/24 272/428/24 256/406/24
f 257/408/24 273/429/24 272/428/24
f 258/410/24 273/429/24 257/408/24
f 258/410/24 274/430/24 273/429/24
f 259/412/24 274/430/24 258/410/24
f 259/412/24 275/431/24 274/430/24
f 260/414/24 275/431/24 259/412/24
f 260/414/24 276/432/24 275/431/24
f 245/416/24 276/432/24 260/414/24
f 245/416/24 261/433/24 276/432/24
f 270/434/9 141/435/122 269/436/122
f 270/434/9 140/437/9 141/435/122
f 271/438/123 140/437/9 270/434/9
f 271/438/123 142/439/123 140/437/9
f 272/440/124 142/439/123 271/438/123
f 272/440/124 143/441/124 142/439/123
f 273/442/125 143/441/124 272/440/124
f 273/442/125 146/443/125 143/441/124
f 274/444/14 146/443/125 273/442/125
f 274/444/14 144/445/14 146/443/125
f 275/446/92 144/445/14 274/444/14
f 275/446/92 145/447/92 144/445/14
f 276/448/93 145/447/92 275/446/92
f 276/448/93 130/449/93 145/447/92
f 261/450/126 130/449/93 276/448/93
f 261/450/126 132/451/126 130/449/93
f 262/452/20 132/451/126 261/450/126
f 262/452/20 131/453/20 132/451/126
f 263/454/103 131/453/20 262/452/20
f 263/454/103 134/455/103 131/453/20
f 264/456/104 134/455/103 263/454/103
f 264/456/104 135/457/104 134/455/103
f 265/458/105 135/457/104 264/456/104
f 265/458/105 136/459/105 135/457/104
f 266/460/4 136/459/105 265/458/105
f 266/460/4 137/461/4 136/459/105
f 267/462/127 137/461/4 266/460/4
f 267/462/127 138/463/127 137/461/4
f 268/464/128 138/463/127 267/462/127
f 268/464/128 139/465/128 138/463/127
f 269/466/122 139/465/128 268/464/128
f 269/466/122 141/467/122 139/465/128
