# Blender v2.92.0 OBJ File: 'sanfrancisco.blend'
# www.blender.org
mtllib MapSignalMeshVertical_signal_160.mtl
o MapSignalMeshVertical_signal_160_Scene.3083
v -31.922119 -68.724091 -5.005661
v -30.051392 -73.036194 -5.005661
v -30.051392 -73.036194 -7.450111
v -31.922119 -68.724091 -7.450111
v -31.922119 -0.000031 -5.005657
v -31.922119 -0.000031 -7.450115
v -31.922058 68.724030 -5.005657
v -31.922058 68.724030 -7.450115
v -30.051331 73.036194 -5.005657
v -30.051331 73.036194 -7.450115
v -25.537842 -74.822998 -7.450111
v -25.537842 -74.822998 -5.005661
v -0.000732 -74.822998 -7.450111
v -0.000732 -74.822998 -5.005653
v 25.537903 -74.823029 -7.450111
v 25.537903 -74.823029 -5.005653
v 30.051453 -73.036194 -7.450111
v 30.051453 -73.036194 -5.005653
v 31.922150 -68.724060 -7.450111
v 31.922150 -68.724060 -5.005653
v 31.922180 0.000000 -7.450115
v 31.922180 0.000000 -5.005657
v 31.922180 68.724060 -7.450115
v 31.922180 68.724060 -5.005657
v 30.051514 73.036163 -7.450115
v 30.051514 73.036163 -5.005657
v -25.537842 74.822998 -5.005657
v -25.537842 74.822998 -7.450115
v -0.000732 74.822998 -5.005657
v -0.000732 74.822998 -7.450115
v 25.537903 74.822998 -5.005657
v 25.537903 74.822998 -7.450115
v -25.537781 -68.724060 -7.450111
v -0.000671 -68.724060 -7.450111
v -25.537781 -61.621094 -7.450119
v -25.537781 -61.341888 -7.450119
v 25.537903 -68.724060 -7.450111
v -18.349426 -61.621094 -7.450119
v -0.000671 -61.621094 -7.450119
v 18.349487 -61.621094 -7.450111
v -18.349426 -61.341888 -7.450119
v -25.537842 0.000000 -7.450115
v -18.349426 0.000000 -7.450115
v -25.537842 61.341827 -7.450115
v -18.349365 61.341827 -7.450115
v -25.537842 61.672974 -7.450115
v -18.349365 61.672974 -7.450115
v -25.537842 68.724060 -7.450115
v -0.000732 68.724060 -7.450115
v -0.000732 61.672974 -7.450115
v 18.349487 61.672974 -7.450115
v 25.537903 68.724060 -7.450115
v 25.537903 61.672943 -7.450115
v 25.537903 61.341858 -7.450115
v 18.349487 61.341858 -7.450115
v 25.537903 0.000000 -7.450115
v 18.349487 0.000000 -7.450115
v 25.537964 -61.341858 -7.450111
v 18.349487 -61.341827 -7.450111
v 25.537964 -61.621094 -7.450111
v -25.537781 -68.724060 -5.005661
v -18.349426 -68.724060 -5.005661
v 18.349487 -68.724060 -5.005653
v -25.537842 0.000000 -5.005657
v -18.494385 -40.895081 -5.005657
v -17.086792 -47.972870 -5.005661
v -13.078308 -53.972626 -5.005661
v -7.079346 -57.981903 -5.005661
v -0.000732 -59.390289 -5.005661
v -25.537842 68.724060 -5.005657
v -18.494385 0.000000 -5.005657
v -17.086731 -33.817261 -5.005657
v -17.135620 -7.115936 -5.005657
v -13.078308 -13.077545 -5.005657
v -13.078308 -27.817566 -5.005657
v -7.079285 -23.808319 -5.005657
v -7.079285 -17.086823 -5.005657
v -0.000732 -18.495209 -5.005657
v -0.000793 -22.399933 -5.005657
v 7.076294 -17.086823 -5.005657
v 7.076294 -23.808289 -5.005657
v 13.076050 -27.816772 -5.005657
v 13.076050 -13.078339 -5.005657
v 17.086121 -33.818054 -5.005657
v 17.086060 -7.078552 -5.005657
v 18.494446 -40.895081 -5.005657
v 18.494446 0.000000 -5.005657
v 25.537903 0.000000 -5.005657
v 18.494446 40.895081 -5.005657
v 18.349548 68.724060 -5.005657
v 18.349487 61.341858 -5.005657
v 17.086060 33.816528 -5.005657
v 17.086060 47.972107 -5.005657
v 17.086060 7.077026 -5.005657
v 13.076050 53.955048 -5.005657
v 13.076050 27.816772 -5.005657
v 13.076050 13.076782 -5.005657
v 7.076294 57.981873 -5.005657
v 7.076294 17.086792 -5.005657
v 7.076294 23.808258 -5.005653
v -0.000732 22.399902 -5.005657
v -0.000732 18.493652 -5.005657
v -7.079285 17.086761 -5.005657
v -7.079285 23.808258 -5.005653
v -13.078308 27.817505 -5.005657
v -13.078308 13.077515 -5.005657
v -17.086731 33.817291 -5.005657
v -17.086792 7.077820 -5.005657
v -18.494385 40.895081 -5.005657
v -18.349365 61.341827 -5.005657
v -17.086792 47.971375 -5.005657
v -18.349365 68.724060 -5.005657
v -13.078247 53.972595 -5.005657
v -0.000732 59.388733 -5.005657
v -7.079285 57.981842 -5.005657
v 25.537903 68.724060 -5.005657
v 25.537903 -68.724060 -5.005653
v 13.075989 -53.973419 -5.005661
v 17.086060 -47.972107 -5.005661
v 7.076233 -57.981873 -5.005661
v 4.483826 -61.341858 -23.973862
v -0.000671 -61.341888 -23.973862
v -4.486023 -61.342651 -23.973862
v 4.483826 0.000000 -23.973858
v 4.483826 61.341858 -23.973858
v -4.486084 -0.000763 -23.973858
v -4.486023 61.342590 -23.973858
v -0.000732 0.000000 -23.973858
v -0.000732 61.341858 -23.973858
v -12.336731 28.559082 -5.005657
v -0.000732 23.448151 -5.005657
v -6.676514 24.777191 -5.005657
v -0.000793 40.895081 2.068317
v 6.676514 24.777222 -5.005653
v 12.335938 28.558350 -5.005657
v 16.117920 34.218567 -5.005657
v 17.446167 40.895081 -5.005657
v 16.117859 47.570007 -5.005657
v 12.336060 53.215057 -5.005657
v -0.000732 58.340454 -5.005657
v 6.676514 57.012909 -5.005657
v -6.676453 57.012939 -5.005657
v -12.336670 53.231049 -5.005657
v -17.446106 40.895081 -5.005657
v -16.117798 34.218597 -5.005657
v -16.117859 47.570038 -5.005657
v -17.409485 0.000000 -5.005657
v -12.310730 -12.310059 -5.005657
v -16.129333 -6.698639 -5.005657
v -0.000732 0.000000 2.068317
v -12.310791 12.310028 -5.005657
v -16.085022 6.661987 -5.005657
v -6.662720 16.084259 -5.005657
v -0.000671 17.408752 -5.005657
v -0.000732 -17.410278 -5.005657
v -6.662720 -16.084290 -5.005657
v 6.662781 -16.084320 -5.005657
v 12.309265 -12.310028 -5.005657
v 16.083557 -6.662018 -5.005657
v 17.408752 -0.000793 -5.005657
v 16.083557 6.661987 -5.005657
v 12.309265 12.310059 -5.005657
v 6.662781 16.084259 -5.005657
v -12.328247 -53.222687 -5.005661
v -0.000732 -58.329773 -5.005661
v -6.673340 -57.002258 -5.005661
v -0.000732 -40.895081 2.068317
v 6.671936 -57.002289 -5.005661
v 12.327637 -53.223419 -5.005661
v 16.107239 -47.566956 -5.005661
v 17.434753 -40.894348 -5.005657
v 16.107178 -34.223175 -5.005657
v 12.327576 -28.566742 -5.005657
v -0.000732 -23.460388 -5.005657
v 6.671936 -24.787933 -5.005657
v -6.673401 -24.787933 -5.005657
v -12.328308 -28.566010 -5.005657
v -17.435364 -40.895081 -5.005657
v -16.107910 -47.566254 -5.005661
v -16.107971 -34.222412 -5.005657
v -7.079346 -57.981903 23.972317
v -0.000732 -59.390289 23.972317
v 7.076233 -57.981873 23.972317
v 13.075989 -53.973419 23.972317
v 17.086060 -47.972107 23.972317
v 18.494446 -40.895111 23.972317
v 17.086121 -33.818054 23.972317
v 13.076050 -27.816772 23.972317
v 7.076294 -23.808289 23.972317
v -0.000793 -22.399902 23.972317
v -7.079285 -23.808319 23.972317
v -13.078308 -27.817566 23.972317
v -17.086731 -33.817291 23.972317
v -18.494385 -40.895081 23.972317
v -17.086792 -47.972900 23.972317
v -13.078308 -53.972626 23.972317
v -6.673340 -57.002258 23.972317
v -0.000732 -58.329773 23.972317
v 6.671936 -57.002289 23.972317
v 12.327637 -53.223419 23.972317
v 16.107239 -47.566956 23.972317
v 17.434753 -40.894348 23.972317
v 16.107178 -34.223175 23.972317
v 12.327576 -28.566742 23.972317
v 6.671936 -24.787933 23.972317
v -0.000732 -23.460388 23.972317
v -6.673401 -24.787933 23.972317
v -12.328308 -28.566010 23.972317
v -16.107971 -34.222412 23.972317
v -17.435364 -40.895081 23.972317
v -16.107910 -47.566254 23.972317
v -12.328247 -53.222687 23.972317
v -7.079285 -17.086823 23.972317
v -0.000732 -18.495209 23.972317
v 7.076294 -17.086823 23.972317
v 13.076050 -13.078308 23.972317
v 17.086060 -7.078552 23.972317
v 18.494446 -0.000031 23.972317
v 17.086060 7.077026 23.972317
v 13.076050 13.076782 23.972317
v 7.076294 17.086792 23.972317
v -0.000732 18.493652 23.972317
v -7.079285 17.086761 23.972317
v -13.078308 13.077515 23.972317
v -17.086792 7.077789 23.972317
v -18.494385 0.000000 23.972317
v -17.135620 -7.115936 23.972317
v -13.078308 -13.077545 23.972317
v -6.662720 -16.084290 23.972317
v -0.000732 -17.410278 23.972317
v 6.662781 -16.084320 23.972317
v 12.309265 -12.310028 23.972317
v 16.083557 -6.661957 23.972317
v 17.408752 -0.000793 23.972317
v 16.083557 6.661987 23.972317
v 12.309265 12.310059 23.972317
v 6.662781 16.084259 23.972317
v -0.000671 17.408752 23.972317
v -6.662720 16.084259 23.972317
v -12.310791 12.310028 23.972317
v -16.085022 6.661987 23.972317
v -17.409485 0.000000 23.972317
v -16.129333 -6.698639 23.972317
v -12.310730 -12.310059 23.972317
v -7.079285 23.808258 23.972309
v -0.000732 22.399902 23.972317
v 7.076294 23.808258 23.972317
v 13.076050 27.816772 23.972309
v 17.086060 33.816528 23.972309
v 18.494446 40.895050 23.972309
v 17.086060 47.972107 23.972309
v 13.076050 53.955048 23.973843
v 7.076294 57.981873 23.972309
v -0.000732 59.388733 23.972317
v -7.079285 57.981842 23.972309
v -13.078247 53.972595 23.972309
v -17.086792 47.971344 23.972309
v -18.494385 40.895081 23.972309
v -17.086731 33.817261 23.972309
v -13.078308 27.817505 23.972309
v -6.676514 24.777191 23.972309
v -0.000732 23.448212 23.972309
v 6.676514 24.777222 23.972309
v 12.335938 28.558350 23.972309
v 16.117920 34.218628 23.972309
v 17.446167 40.895081 23.972309
v 16.117859 47.570007 23.972309
v 12.336060 53.215057 23.973843
v 6.676514 57.012909 23.972309
v -0.000732 58.340454 23.972309
v -6.676453 57.012939 23.972309
v -12.336670 53.231049 23.972309
v -16.117859 47.570038 23.972309
v -17.446106 40.895081 23.972309
v -16.117798 34.218597 23.972309
v -12.336731 28.559082 23.972309
vt 0.611230 0.903663
vt 0.613021 0.936901
vt 0.621918 0.927742
vt 0.597917 0.906611
vt 0.611084 0.510769
vt 0.597120 0.510769
vt 0.611230 0.117874
vt 0.597915 0.114929
vt 0.621917 0.093794
vt 0.613019 0.084637
vt 0.644524 0.951463
vt 0.647244 0.938049
vt 0.793422 0.952130
vt 0.793423 0.938167
vt 0.942326 0.951463
vt 0.939603 0.938050
vt 0.973833 0.936896
vt 0.964932 0.927741
vt 0.988931 0.906606
vt 0.975617 0.903662
vt 0.989729 0.510769
vt 0.975765 0.510769
vt 0.988933 0.114928
vt 0.975619 0.117874
vt 0.973828 0.084634
vt 0.964933 0.093794
vt 0.647244 0.083490
vt 0.644524 0.070076
vt 0.793423 0.083368
vt 0.793422 0.069404
vt 0.939601 0.083490
vt 0.942319 0.070076
vt 0.618816 0.016885
vt 0.589677 0.028421
vt 0.577606 0.056265
vt 0.618816 0.056265
vt 0.783687 0.056265
vt 0.783687 0.016885
vt 0.618816 0.133265
vt 0.618816 0.135065
vt 0.577606 0.499930
vt 0.948556 0.056265
vt 0.948556 0.016885
vt 0.665224 0.133265
vt 0.783687 0.133265
vt 0.902151 0.133265
vt 0.665224 0.135065
vt 0.618816 0.499930
vt 0.665224 0.499930
vt 0.618816 0.895945
vt 0.665224 0.895945
vt 0.577606 0.943598
vt 0.618816 0.898084
vt 0.665224 0.898084
vt 0.618816 0.943598
vt 0.589677 0.971444
vt 0.618816 0.982976
vt 0.783687 0.982976
vt 0.783687 0.943598
vt 0.783687 0.898084
vt 0.948556 0.982976
vt 0.902151 0.898084
vt 0.948556 0.943598
vt 0.977700 0.971444
vt 0.989769 0.943598
vt 0.948556 0.898084
vt 0.948556 0.895945
vt 0.902151 0.895945
vt 0.989769 0.499930
vt 0.948556 0.499930
vt 0.902151 0.499930
vt 0.989769 0.056265
vt 0.948556 0.135065
vt 0.902151 0.135065
vt 0.948556 0.133265
vt 0.977700 0.028421
vt 0.647545 0.903324
vt 0.688607 0.903324
vt 0.898238 0.903324
vt 0.647545 0.510769
vt 0.687780 0.744364
vt 0.695821 0.784791
vt 0.718722 0.819065
vt 0.752995 0.841966
vt 0.793423 0.850009
vt 0.647545 0.118213
vt 0.687780 0.510769
vt 0.695821 0.703936
vt 0.695547 0.551418
vt 0.718722 0.585470
vt 0.718722 0.669663
vt 0.752995 0.646762
vt 0.752995 0.608371
vt 0.793423 0.616414
vt 0.793423 0.638721
vt 0.833852 0.608371
vt 0.833852 0.646762
vt 0.868125 0.669663
vt 0.868125 0.585470
vt 0.891025 0.703936
vt 0.891025 0.551198
vt 0.899067 0.744364
vt 0.899067 0.510769
vt 0.939300 0.510769
vt 0.899067 0.277172
vt 0.898240 0.118213
vt 0.898240 0.160375
vt 0.891025 0.317603
vt 0.891025 0.236747
vt 0.891025 0.470341
vt 0.868125 0.202570
vt 0.868125 0.351875
vt 0.868125 0.436068
vt 0.833852 0.179571
vt 0.833852 0.413167
vt 0.833852 0.374776
vt 0.793423 0.382819
vt 0.793423 0.405127
vt 0.752995 0.413167
vt 0.752995 0.374776
vt 0.718722 0.351875
vt 0.718722 0.436068
vt 0.695821 0.317603
vt 0.695821 0.470341
vt 0.687780 0.277172
vt 0.688607 0.160375
vt 0.695821 0.236747
vt 0.688607 0.118213
vt 0.718722 0.202474
vt 0.793423 0.171530
vt 0.752995 0.179571
vt 0.939300 0.118213
vt 0.939300 0.903324
vt 0.868125 0.819065
vt 0.891025 0.784791
vt 0.833852 0.841966
vt 0.454846 0.165420
vt 0.359693 0.085577
vt 0.359693 0.085577
vt 0.359693 0.191251
vt 0.454846 0.191251
vt 0.454846 0.217081
vt 0.359693 0.296922
vt 0.359693 0.296922
vt 0.812643 0.135065
vt 0.812643 0.499930
vt 0.812643 0.895945
vt 0.754730 0.135065
vt 0.754730 0.499930
vt 0.754730 0.895945
vt 0.783687 0.135065
vt 0.783687 0.499930
vt 0.783687 0.895945
vt 0.556994 0.058367
vt 0.556994 0.058367
vt 0.461699 0.138330
vt 0.556994 0.164199
vt 0.461699 0.164199
vt 0.461699 0.190069
vt 0.556994 0.270030
vt 0.556994 0.270030
vt 0.066137 0.268784
vt 0.114150 0.300867
vt 0.170789 0.312136
vt 0.170789 0.164131
vt 0.227425 0.300867
vt 0.275439 0.268784
vt 0.307520 0.220772
vt 0.318790 0.164131
vt 0.307520 0.107499
vt 0.275439 0.059618
vt 0.170789 0.016135
vt 0.227425 0.027399
vt 0.114150 0.027399
vt 0.066137 0.059484
vt 0.022790 0.164131
vt 0.034057 0.220772
vt 0.034057 0.107499
vt 0.023083 0.500000
vt 0.033942 0.556833
vt 0.066343 0.604443
vt 0.170790 0.500000
vt 0.066343 0.395554
vt 0.034325 0.443472
vt 0.114262 0.363533
vt 0.170790 0.352291
vt 0.170790 0.647709
vt 0.114262 0.636461
vt 0.227314 0.636461
vt 0.275232 0.604443
vt 0.307250 0.556526
vt 0.318498 0.500000
vt 0.307250 0.443472
vt 0.275232 0.395554
vt 0.227314 0.363533
vt 0.066199 0.946347
vt 0.114184 0.978409
vt 0.170790 0.989671
vt 0.170790 0.841758
vt 0.227395 0.978409
vt 0.275378 0.946347
vt 0.307442 0.898357
vt 0.318703 0.841758
vt 0.307442 0.785154
vt 0.275378 0.737168
vt 0.170790 0.693846
vt 0.227395 0.705104
vt 0.114184 0.705104
vt 0.066199 0.737168
vt 0.022878 0.841758
vt 0.034139 0.898357
vt 0.034139 0.785154
vt 0.360520 0.373098
vt 0.540956 0.328814
vt 0.360519 0.329030
vt 0.540956 0.373098
vt 0.360521 0.417167
vt 0.540957 0.413982
vt 0.360520 0.442129
vt 0.540956 0.444195
vt 0.360521 0.479490
vt 0.540956 0.480607
vt 0.360521 0.523556
vt 0.540957 0.523555
vt 0.360521 0.567624
vt 0.540958 0.566505
vt 0.360522 0.604982
vt 0.540958 0.602915
vt 0.360521 0.629944
vt 0.540958 0.633127
vt 0.360522 0.674012
vt 0.540958 0.674011
vt 0.360523 0.718080
vt 0.540958 0.714895
vt 0.360523 0.743042
vt 0.540959 0.745108
vt 0.360523 0.780400
vt 0.540958 0.781518
vt 0.360523 0.824468
vt 0.540958 0.824468
vt 0.360523 0.868534
vt 0.540958 0.867416
vt 0.360523 0.905894
vt 0.540958 0.903828
vt 0.360523 0.930858
vt 0.540958 0.935849
vt 0.547429 0.329883
vt 0.547430 0.373098
vt 0.547430 0.412391
vt 0.547430 0.445227
vt 0.547430 0.481167
vt 0.547430 0.523555
vt 0.547430 0.565947
vt 0.547430 0.601884
vt 0.547428 0.634720
vt 0.547429 0.674012
vt 0.547427 0.713304
vt 0.547429 0.746142
vt 0.547429 0.782077
vt 0.547430 0.824468
vt 0.547430 0.866855
vt 0.547430 0.902793
vt 0.547430 0.939552
vt 0.366495 0.412290
vt 0.547431 0.370631
vt 0.366495 0.370631
vt 0.547431 0.412290
vt 0.366495 0.453949
vt 0.547431 0.453949
vt 0.366494 0.477547
vt 0.547431 0.477547
vt 0.366494 0.512863
vt 0.547431 0.512863
vt 0.366494 0.554521
vt 0.547431 0.554521
vt 0.366494 0.596175
vt 0.547431 0.596175
vt 0.366494 0.631494
vt 0.547431 0.631494
vt 0.366495 0.655091
vt 0.547431 0.655091
vt 0.366495 0.696750
vt 0.547431 0.696751
vt 0.366494 0.738409
vt 0.547430 0.738410
vt 0.366494 0.762006
vt 0.547430 0.762007
vt 0.366494 0.797324
vt 0.547431 0.797325
vt 0.366493 0.838978
vt 0.547431 0.838980
vt 0.366493 0.880637
vt 0.547430 0.880638
vt 0.366493 0.915953
vt 0.547430 0.915954
vt 0.366493 0.939551
vt 0.547430 0.939552
vt 0.360350 0.373083
vt 0.540800 0.328794
vt 0.360350 0.329011
vt 0.540801 0.373082
vt 0.360351 0.417154
vt 0.540799 0.413970
vt 0.360351 0.442119
vt 0.540800 0.444185
vt 0.360351 0.479480
vt 0.540801 0.480598
vt 0.360351 0.523551
vt 0.540801 0.523551
vt 0.360351 0.567623
vt 0.540801 0.566505
vt 0.360351 0.604984
vt 0.540801 0.602918
vt 0.360351 0.629949
vt 0.540801 0.633134
vt 0.360351 0.674021
vt 0.540799 0.674021
vt 0.360350 0.718093
vt 0.540801 0.714908
vt 0.360350 0.743058
vt 0.540800 0.745124
vt 0.360350 0.780419
vt 0.540800 0.781537
vt 0.360350 0.824491
vt 0.540800 0.824501
vt 0.360350 0.868803
vt 0.540801 0.867640
vt 0.360350 0.905924
vt 0.540800 0.903892
vt 0.360350 0.930888
vt 0.540800 0.935880
vt 0.547431 0.329895
vt 0.547430 0.373082
vt 0.547432 0.412378
vt 0.547430 0.445218
vt 0.547430 0.481157
vt 0.547430 0.523551
vt 0.547430 0.565948
vt 0.547430 0.601887
vt 0.547427 0.634727
vt 0.547427 0.674021
vt 0.547427 0.713317
vt 0.547427 0.746157
vt 0.547427 0.782095
vt 0.547435 0.824481
vt 0.547441 0.867054
vt 0.547435 0.902902
vt 0.547430 0.939552
vt 0.547430 0.897951
vt 0.366476 0.939555
vt 0.547430 0.939552
vt 0.366475 0.897954
vt 0.547429 0.856348
vt 0.366475 0.856352
vt 0.547429 0.832782
vt 0.366474 0.832785
vt 0.547428 0.797516
vt 0.366474 0.797519
vt 0.547429 0.755913
vt 0.366473 0.755916
vt 0.547427 0.714086
vt 0.366472 0.714088
vt 0.547427 0.679047
vt 0.366471 0.679049
vt 0.547426 0.655483
vt 0.366471 0.655484
vt 0.547425 0.613880
vt 0.366472 0.613881
vt 0.547426 0.572280
vt 0.366471 0.572280
vt 0.547426 0.548716
vt 0.366471 0.548716
vt 0.547426 0.513450
vt 0.366471 0.513450
vt 0.547426 0.471849
vt 0.366471 0.471849
vt 0.547426 0.430246
vt 0.366471 0.430246
vt 0.547426 0.394979
vt 0.366471 0.394979
vt 0.547426 0.371413
vt 0.366471 0.371413
vt 0.547430 0.895484
vt 0.366995 0.939768
vt 0.547430 0.939552
vt 0.366995 0.895485
vt 0.547430 0.851416
vt 0.366995 0.854600
vt 0.547430 0.826453
vt 0.366995 0.824387
vt 0.547430 0.789097
vt 0.366995 0.787979
vt 0.547430 0.745026
vt 0.366995 0.745026
vt 0.547430 0.700962
vt 0.366995 0.702083
vt 0.547430 0.663708
vt 0.366995 0.665763
vt 0.547430 0.638639
vt 0.366995 0.635462
vt 0.547430 0.594572
vt 0.366996 0.594570
vt 0.547430 0.550504
vt 0.366996 0.553686
vt 0.547430 0.525538
vt 0.366996 0.523471
vt 0.547430 0.488180
vt 0.366997 0.487060
vt 0.547431 0.444117
vt 0.366997 0.444115
vt 0.547432 0.400046
vt 0.366998 0.401162
vt 0.547433 0.362689
vt 0.366998 0.364753
vt 0.547433 0.337726
vt 0.366997 0.332732
vt 0.360590 0.938712
vt 0.360591 0.895484
vt 0.360590 0.856192
vt 0.360590 0.823355
vt 0.360590 0.787419
vt 0.360590 0.745026
vt 0.360592 0.702639
vt 0.360592 0.666787
vt 0.360592 0.633879
vt 0.360593 0.594570
vt 0.360592 0.555277
vt 0.360592 0.522438
vt 0.360594 0.486501
vt 0.360593 0.444115
vt 0.360594 0.401722
vt 0.360594 0.365788
vt 0.360592 0.329016
vt 0.366493 0.411967
vt 0.547427 0.370284
vt 0.366493 0.370284
vt 0.547427 0.411967
vt 0.366493 0.453652
vt 0.547427 0.453652
vt 0.366493 0.477265
vt 0.547427 0.477265
vt 0.366493 0.512604
vt 0.547427 0.512604
vt 0.366493 0.554284
vt 0.547427 0.554284
vt 0.366493 0.595970
vt 0.547427 0.595970
vt 0.366493 0.631306
vt 0.547427 0.631306
vt 0.366493 0.654919
vt 0.547427 0.654918
vt 0.366493 0.696604
vt 0.547427 0.696602
vt 0.366493 0.738287
vt 0.547427 0.738285
vt 0.366494 0.761900
vt 0.547427 0.761897
vt 0.366495 0.797236
vt 0.547428 0.797233
vt 0.366495 0.838923
vt 0.547429 0.838920
vt 0.366496 0.880602
vt 0.547429 0.880600
vt 0.366496 0.915841
vt 0.547430 0.915838
vt 0.366496 0.939554
vt 0.547430 0.939552
vn -0.9869 -0.1616 0.0000
vn -0.9175 -0.3977 -0.0000
vn -0.9174 -0.3980 0.0000
vn -0.9868 -0.1616 -0.0000
vn -1.0000 0.0000 0.0000
vn -0.9867 0.1624 -0.0000
vn -0.9174 0.3980 0.0000
vn -0.3681 -0.9298 0.0000
vn -0.1510 -0.9885 0.0000
vn -0.0000 -1.0000 0.0000
vn 0.1510 -0.9885 0.0000
vn 0.3681 -0.9298 0.0000
vn 0.9174 -0.3980 0.0000
vn 0.9868 -0.1617 -0.0000
vn 1.0000 -0.0000 0.0000
vn 0.9867 0.1624 0.0000
vn 0.9867 0.1625 0.0000
vn 0.9174 0.3980 0.0000
vn -0.1509 0.9885 0.0000
vn -0.3681 0.9298 0.0000
vn 0.0000 1.0000 0.0000
vn 0.1509 0.9885 0.0000
vn 0.3681 0.9298 0.0000
vn -0.0000 0.0000 -1.0000
vn 0.0000 -0.0000 1.0000
vn 0.0082 -0.9997 -0.0237
vn 0.0284 -0.9993 -0.0238
vn 0.0201 -0.9992 -0.0337
vn 0.0000 -0.9999 -0.0169
vn 0.0001 -0.9999 -0.0169
vn -0.0082 -0.9997 -0.0237
vn -0.0201 -0.9992 -0.0337
vn -0.0201 -0.9992 -0.0338
vn 0.7660 0.0000 -0.6428
vn -0.7661 -0.0000 -0.6427
vn 0.0239 0.9989 -0.0401
vn 0.0239 0.9989 -0.0400
vn 0.0097 0.9996 -0.0282
vn 0.0000 0.9998 -0.0200
vn 0.0001 0.9998 -0.0200
vn -0.0097 0.9996 -0.0282
vn -0.0239 0.9989 -0.0400
vn -0.2481 -0.2481 0.9364
vn -0.1438 -0.3472 0.9267
vn -0.0000 -0.3509 0.9364
vn 0.1438 -0.3471 0.9267
vn 0.2481 -0.2481 0.9364
vn 0.3471 -0.1438 0.9267
vn 0.3508 0.0000 0.9364
vn 0.3471 0.1440 0.9267
vn 0.2482 0.2482 0.9364
vn 0.0002 0.3508 0.9365
vn 0.1442 0.3471 0.9267
vn -0.1438 0.3472 0.9267
vn -0.2481 0.2481 0.9364
vn -0.3509 -0.0000 0.9364
vn -0.3472 -0.1438 0.9267
vn -0.3473 0.1438 0.9267
vn -0.3510 -0.0004 0.9364
vn -0.3469 -0.1437 0.9268
vn -0.2485 -0.2479 0.9364
vn -0.2485 0.2485 0.9362
vn -0.3478 0.1441 0.9264
vn -0.1440 0.3478 0.9264
vn -0.0000 0.3515 0.9362
vn 0.0000 -0.3515 0.9362
vn -0.1441 -0.3478 0.9264
vn 0.1441 -0.3478 0.9264
vn 0.2485 -0.2485 0.9362
vn 0.3478 -0.1441 0.9264
vn 0.3515 -0.0000 0.9362
vn 0.3478 0.1441 0.9264
vn 0.2485 0.2485 0.9362
vn 0.1441 0.3478 0.9264
vn -0.2482 -0.2482 0.9364
vn -0.1439 -0.3474 0.9266
vn 0.0000 -0.3510 0.9364
vn 0.1439 -0.3474 0.9266
vn 0.2482 -0.2482 0.9364
vn 0.3473 -0.1439 0.9266
vn 0.3510 0.0000 0.9364
vn 0.3473 0.1439 0.9266
vn -0.0000 0.3510 0.9364
vn 0.1439 0.3474 0.9266
vn -0.1439 0.3474 0.9266
vn -0.2482 0.2482 0.9364
vn -0.3510 0.0000 0.9364
vn -0.3474 -0.1439 0.9266
vn -0.3474 0.1439 0.9266
vn -0.3828 -0.9239 0.0000
vn 0.3827 -0.9239 0.0000
vn 0.7071 -0.7071 0.0000
vn 0.9239 -0.3827 0.0000
vn 0.9239 0.3827 0.0000
vn 0.7071 0.7071 0.0000
vn 0.3827 0.9239 0.0000
vn -0.3828 0.9239 -0.0000
vn -0.7072 0.7071 0.0000
vn -0.9239 0.3826 0.0000
vn -0.9239 -0.3826 -0.0000
vn -0.7072 -0.7071 -0.0000
vn -0.3827 -0.9239 0.0000
vn 0.3828 0.9238 0.0000
vn -0.3827 0.9239 0.0000
vn -0.7071 0.7071 0.0000
vn -0.9239 0.3827 0.0000
vn -0.9239 -0.3827 0.0000
vn -0.7071 -0.7071 0.0000
vn 0.7070 -0.7072 0.0000
vn 0.9238 -0.3828 0.0000
vn 0.9238 0.3828 0.0000
vn -1.0000 0.0038 0.0000
vn -0.7041 -0.7101 0.0000
vn 1.0000 -0.0034 -0.0000
vn 0.7041 0.7101 0.0000
vn -0.3828 0.9238 0.0000
vn 0.9236 0.3834 0.0000
vn 0.7073 0.7069 0.0000
vn 0.3836 0.9235 0.0000
vn -0.7072 0.7070 0.0000
vn 0.0000 -0.0001 1.0000
vn -0.0001 0.0000 1.0000
vn -0.3836 -0.9235 0.0000
vn 0.7072 -0.7071 0.0000
vn 0.9239 -0.3826 0.0000
vn 0.3828 0.9239 -0.0000
vn -0.9236 -0.3833 0.0000
vn -0.7074 -0.7068 0.0000
usemtl SignalTrafficVerticalAlbedo.002
s 1
f 1/1/1 3/2/2 2/3/3
f 1/1/1 4/4/4 3/2/2
f 4/4/4 1/1/1 5/5/5
f 4/4/4 5/5/5 6/6/5
f 7/7/6 6/6/5 5/5/5
f 7/7/6 8/8/6 6/6/5
f 9/9/7 8/8/6 7/7/6
f 9/9/7 10/10/7 8/8/6
f 2/3/8 3/2/8 11/11/9
f 2/3/8 11/11/9 12/12/9
f 12/12/9 11/11/9 13/13/10
f 12/12/9 13/13/10 14/14/10
f 15/15/11 14/14/10 13/13/10
f 15/15/11 16/16/11 14/14/10
f 16/16/11 15/15/11 17/17/12
f 16/16/11 17/17/12 18/18/12
f 18/18/13 17/17/13 19/19/14
f 18/18/13 19/19/14 20/20/14
f 20/20/14 19/19/14 21/21/15
f 20/20/14 21/21/15 22/22/15
f 23/23/16 22/22/15 21/21/15
f 23/23/16 24/24/17 22/22/15
f 24/24/17 23/23/16 25/25/18
f 24/24/17 25/25/18 26/26/18
f 27/27/19 10/10/20 9/9/20
f 27/27/19 28/28/19 10/10/20
f 28/28/19 27/27/19 29/29/21
f 28/28/19 29/29/21 30/30/21
f 31/31/22 30/30/21 29/29/21
f 31/31/22 32/32/22 30/30/21
f 26/26/23 32/32/22 31/31/22
f 26/26/23 25/25/23 32/32/22
f 11/33/24 3/34/24 4/35/24
f 11/33/24 4/35/24 33/36/24
f 11/33/24 33/36/24 34/37/24
f 11/33/24 34/37/24 13/38/24
f 4/35/24 35/39/24 33/36/24
f 34/37/24 33/36/24 35/39/24
f 4/35/24 36/40/24 35/39/24
f 36/40/24 4/35/24 6/41/24
f 37/42/24 13/38/24 34/37/24
f 37/42/24 15/43/24 13/38/24
f 38/44/24 35/39/24 36/40/24
f 34/37/24 35/39/24 38/44/24
f 34/37/24 38/44/24 39/45/24
f 34/37/24 39/45/24 40/46/24
f 37/42/24 34/37/24 40/46/24
f 38/44/24 36/40/24 41/47/24
f 41/47/24 36/40/24 42/48/24
f 36/40/24 6/41/24 42/48/24
f 41/47/24 42/48/24 43/49/24
f 6/41/24 44/50/24 42/48/24
f 43/49/24 42/48/24 44/50/24
f 43/49/24 44/50/24 45/51/24
f 6/41/24 8/52/24 44/50/24
f 45/51/24 44/50/24 46/53/24
f 8/52/24 46/53/24 44/50/24
f 45/51/24 46/53/24 47/54/24
f 8/52/24 48/55/24 46/53/24
f 47/54/24 46/53/24 48/55/24
f 48/55/24 8/52/24 10/56/24
f 48/55/24 10/56/24 28/57/24
f 48/55/24 28/57/24 30/58/24
f 47/54/24 48/55/24 49/59/24
f 48/55/24 30/58/24 49/59/24
f 50/60/24 47/54/24 49/59/24
f 32/61/24 49/59/24 30/58/24
f 50/60/24 49/59/24 51/62/24
f 32/61/24 52/63/24 49/59/24
f 52/63/24 51/62/24 49/59/24
f 25/64/24 52/63/24 32/61/24
f 25/64/24 23/65/24 52/63/24
f 52/63/24 53/66/24 51/62/24
f 23/65/24 53/66/24 52/63/24
f 54/67/24 51/62/24 53/66/24
f 23/65/24 54/67/24 53/66/24
f 54/67/24 55/68/24 51/62/24
f 54/67/24 23/65/24 21/69/24
f 56/70/24 55/68/24 54/67/24
f 54/67/24 21/69/24 56/70/24
f 56/70/24 57/71/24 55/68/24
f 19/72/24 56/70/24 21/69/24
f 58/73/24 57/71/24 56/70/24
f 19/72/24 58/73/24 56/70/24
f 58/73/24 59/74/24 57/71/24
f 60/75/24 59/74/24 58/73/24
f 19/72/24 60/75/24 58/73/24
f 60/75/24 40/46/24 59/74/24
f 37/42/24 40/46/24 60/75/24
f 19/72/24 37/42/24 60/75/24
f 19/72/24 15/43/24 37/42/24
f 19/72/24 17/76/24 15/43/24
f 1/1/25 2/3/25 12/12/25
f 1/1/25 12/12/25 61/77/25
f 62/78/25 61/77/25 12/12/25
f 62/78/25 12/12/25 14/14/25
f 63/79/25 62/78/25 14/14/25
f 16/16/25 63/79/25 14/14/25
f 1/1/25 61/77/25 64/80/25
f 1/1/25 64/80/25 5/5/25
f 61/77/25 62/78/25 65/81/25
f 61/77/25 65/81/25 64/80/25
f 62/78/25 66/82/25 65/81/25
f 62/78/25 67/83/25 66/82/25
f 68/84/25 67/83/25 62/78/25
f 68/84/25 62/78/25 69/85/25
f 63/79/25 69/85/25 62/78/25
f 70/86/25 5/5/25 64/80/25
f 70/86/25 7/7/25 5/5/25
f 64/80/25 65/81/25 71/87/25
f 72/88/25 71/87/25 65/81/25
f 72/88/25 73/89/25 71/87/25
f 74/90/25 73/89/25 72/88/25
f 74/90/25 72/88/25 75/91/25
f 74/90/25 75/91/25 76/92/25
f 74/90/25 76/92/25 77/93/25
f 76/92/25 78/94/25 77/93/25
f 76/92/25 79/95/25 78/94/25
f 79/95/25 80/96/25 78/94/25
f 79/95/25 81/97/25 80/96/25
f 82/98/25 80/96/25 81/97/25
f 82/98/25 83/99/25 80/96/25
f 84/100/25 83/99/25 82/98/25
f 84/100/25 85/101/25 83/99/25
f 86/102/25 85/101/25 84/100/25
f 86/102/25 87/103/25 85/101/25
f 87/103/25 86/102/25 88/104/25
f 87/103/25 88/104/25 89/105/25
f 88/104/25 90/106/25 89/105/25
f 89/105/25 90/106/25 91/107/25
f 92/108/25 87/103/25 89/105/25
f 93/109/25 89/105/25 91/107/25
f 92/108/25 94/110/25 87/103/25
f 91/107/25 95/111/25 93/109/25
f 95/111/25 91/107/25 90/106/25
f 96/112/25 94/110/25 92/108/25
f 96/112/25 97/113/25 94/110/25
f 98/114/25 95/111/25 90/106/25
f 99/115/25 97/113/25 96/112/25
f 99/115/25 96/112/25 100/116/25
f 101/117/25 99/115/25 100/116/25
f 101/117/25 102/118/25 99/115/25
f 101/117/25 103/119/25 102/118/25
f 101/117/25 104/120/25 103/119/25
f 105/121/25 103/119/25 104/120/25
f 105/121/25 106/122/25 103/119/25
f 107/123/25 106/122/25 105/121/25
f 107/123/25 108/124/25 106/122/25
f 109/125/25 108/124/25 107/123/25
f 109/125/25 71/87/25 108/124/25
f 64/80/25 71/87/25 109/125/25
f 109/125/25 70/86/25 64/80/25
f 110/126/25 70/86/25 109/125/25
f 111/127/25 110/126/25 109/125/25
f 111/127/25 112/128/25 110/126/25
f 70/86/25 110/126/25 112/128/25
f 112/128/25 111/127/25 113/129/25
f 27/27/25 70/86/25 112/128/25
f 27/27/25 7/7/25 70/86/25
f 27/27/25 9/9/25 7/7/25
f 27/27/25 112/128/25 29/29/25
f 114/130/25 112/128/25 113/129/25
f 29/29/25 112/128/25 114/130/25
f 114/130/25 113/129/25 115/131/25
f 29/29/25 114/130/25 90/106/25
f 98/114/25 90/106/25 114/130/25
f 90/106/25 31/31/25 29/29/25
f 90/106/25 116/132/25 31/31/25
f 26/26/25 31/31/25 116/132/25
f 26/26/25 116/132/25 24/24/25
f 90/106/25 88/104/25 116/132/25
f 24/24/25 116/132/25 88/104/25
f 24/24/25 88/104/25 22/22/25
f 117/133/25 22/22/25 88/104/25
f 117/133/25 20/20/25 22/22/25
f 16/16/25 20/20/25 117/133/25
f 16/16/25 18/18/25 20/20/25
f 16/16/25 117/133/25 63/79/25
f 63/79/25 117/133/25 88/104/25
f 63/79/25 88/104/25 86/102/25
f 118/134/25 63/79/25 86/102/25
f 118/134/25 86/102/25 119/135/25
f 69/85/25 63/79/25 118/134/25
f 69/85/25 118/134/25 120/136/25
f 121/137/26 59/138/27 40/139/28
f 121/137/26 40/139/28 39/140/29
f 39/140/29 122/141/30 121/137/26
f 39/140/29 123/142/31 122/141/30
f 38/143/32 123/142/31 39/140/29
f 38/143/32 41/144/33 123/142/31
f 59/74/34 121/145/34 124/146/34
f 59/74/34 124/146/34 57/71/34
f 57/71/34 124/146/34 125/147/34
f 57/71/34 125/147/34 55/68/34
f 123/148/35 41/47/35 43/49/35
f 123/148/35 43/49/35 126/149/35
f 126/149/35 43/49/35 45/51/35
f 126/149/35 45/51/35 127/150/35
f 122/151/24 123/148/24 126/149/24
f 122/151/24 126/149/24 128/152/24
f 128/152/24 126/149/24 127/150/24
f 128/152/24 127/150/24 129/153/24
f 125/147/24 128/152/24 129/153/24
f 125/147/24 124/146/24 128/152/24
f 124/146/24 122/151/24 128/152/24
f 124/146/24 121/145/24 122/151/24
f 51/154/36 55/155/37 125/156/38
f 51/154/36 125/156/38 50/157/39
f 129/158/40 50/157/39 125/156/38
f 129/158/40 127/159/41 50/157/39
f 127/159/41 47/160/42 50/157/39
f 127/159/41 45/161/42 47/160/42
f 130/162/43 132/163/44 131/164/45
f 130/162/43 131/164/45 133/165/25
f 133/165/25 131/164/45 134/166/46
f 133/165/25 134/166/46 135/167/47
f 133/165/25 135/167/47 136/168/48
f 133/165/25 136/168/48 137/169/49
f 133/165/25 137/169/49 138/170/50
f 133/165/25 138/170/50 139/171/51
f 140/172/52 133/165/25 139/171/51
f 140/172/52 139/171/51 141/173/53
f 142/174/54 133/165/25 140/172/52
f 142/174/54 143/175/55 133/165/25
f 144/176/56 130/162/43 133/165/25
f 143/175/55 144/176/56 133/165/25
f 144/176/56 145/177/57 130/162/43
f 143/175/55 146/178/58 144/176/56
f 147/179/59 149/180/60 148/181/61
f 147/179/59 148/181/61 150/182/25
f 151/183/62 147/179/59 150/182/25
f 151/183/62 152/184/63 147/179/59
f 153/185/64 151/183/62 150/182/25
f 153/185/64 150/182/25 154/186/65
f 148/181/61 155/187/66 150/182/25
f 148/181/61 156/188/67 155/187/66
f 150/182/25 155/187/66 157/189/68
f 150/182/25 157/189/68 158/190/69
f 150/182/25 158/190/69 159/191/70
f 150/182/25 159/191/70 160/192/71
f 150/182/25 160/192/71 161/193/72
f 150/182/25 161/193/72 162/194/73
f 154/186/65 150/182/25 162/194/73
f 154/186/65 162/194/73 163/195/74
f 164/196/75 166/197/76 165/198/77
f 164/196/75 165/198/77 167/199/25
f 167/199/25 165/198/77 168/200/78
f 167/199/25 168/200/78 169/201/79
f 167/199/25 169/201/79 170/202/80
f 167/199/25 170/202/80 171/203/81
f 167/199/25 171/203/81 172/204/82
f 167/199/25 172/204/82 173/205/51
f 174/206/83 167/199/25 173/205/51
f 174/206/83 173/205/51 175/207/84
f 176/208/85 167/199/25 174/206/83
f 176/208/85 177/209/86 167/199/25
f 178/210/87 164/196/75 167/199/25
f 177/209/86 178/210/87 167/199/25
f 178/210/87 179/211/88 164/196/75
f 177/209/86 180/212/89 178/210/87
f 69/213/10 181/214/90 68/215/90
f 69/213/10 182/216/10 181/214/90
f 120/217/91 182/216/10 69/213/10
f 120/217/91 183/218/91 182/216/10
f 118/219/92 183/218/91 120/217/91
f 118/219/92 184/220/92 183/218/91
f 119/221/93 184/220/92 118/219/92
f 119/221/93 185/222/93 184/220/92
f 86/223/15 185/222/93 119/221/93
f 86/223/15 186/224/15 185/222/93
f 84/225/94 186/224/15 86/223/15
f 84/225/94 187/226/94 186/224/15
f 82/227/95 187/226/94 84/225/94
f 82/227/95 188/228/95 187/226/94
f 81/229/96 188/228/95 82/227/95
f 81/229/96 189/230/96 188/228/95
f 79/231/21 189/230/96 81/229/96
f 79/231/21 190/232/21 189/230/96
f 76/233/97 190/232/21 79/231/21
f 76/233/97 191/234/97 190/232/21
f 75/235/98 191/234/97 76/233/97
f 75/235/98 192/236/98 191/234/97
f 72/237/99 192/236/98 75/235/98
f 72/237/99 193/238/99 192/236/98
f 65/239/5 193/238/99 72/237/99
f 65/239/5 194/240/5 193/238/99
f 66/241/100 194/240/5 65/239/5
f 66/241/100 195/242/100 194/240/5
f 67/243/101 195/242/100 66/241/100
f 67/243/101 196/244/101 195/242/100
f 68/245/90 196/244/101 67/243/101
f 68/245/90 181/246/90 196/244/101
f 182/216/25 197/247/25 181/214/25
f 182/216/25 198/248/25 197/247/25
f 183/218/25 198/248/25 182/216/25
f 183/218/25 199/249/25 198/248/25
f 184/220/25 199/249/25 183/218/25
f 184/220/25 200/250/25 199/249/25
f 185/222/25 200/250/25 184/220/25
f 185/222/25 201/251/25 200/250/25
f 186/224/25 201/251/25 185/222/25
f 186/224/25 202/252/25 201/251/25
f 187/226/25 202/252/25 186/224/25
f 187/226/25 203/253/25 202/252/25
f 188/228/25 203/253/25 187/226/25
f 188/228/25 204/254/25 203/253/25
f 189/230/25 204/254/25 188/228/25
f 189/230/25 205/255/25 204/254/25
f 190/232/25 205/255/25 189/230/25
f 190/232/25 206/256/25 205/255/25
f 191/234/25 206/256/25 190/232/25
f 191/234/25 207/257/25 206/256/25
f 192/236/25 207/257/25 191/234/25
f 192/236/25 208/258/25 207/257/25
f 193/238/25 208/258/25 192/236/25
f 193/238/25 209/259/25 208/258/25
f 194/240/25 209/259/25 193/238/25
f 194/240/25 210/260/25 209/259/25
f 195/242/25 210/260/25 194/240/25
f 195/242/25 211/261/25 210/260/25
f 196/244/25 211/261/25 195/242/25
f 196/244/25 212/262/25 211/261/25
f 181/246/25 212/262/25 196/244/25
f 181/246/25 197/263/25 212/262/25
f 206/264/10 175/265/102 205/266/102
f 206/264/10 174/267/10 175/265/102
f 207/268/91 174/267/10 206/264/10
f 207/268/91 176/269/91 174/267/10
f 208/270/92 176/269/91 207/268/91
f 208/270/92 177/271/92 176/269/91
f 209/272/93 177/271/92 208/270/92
f 209/272/93 180/273/93 177/271/92
f 210/274/15 180/273/93 209/272/93
f 210/274/15 178/275/15 180/273/93
f 211/276/94 178/275/15 210/274/15
f 211/276/94 179/277/94 178/275/15
f 212/278/95 179/277/94 211/276/94
f 212/278/95 164/279/95 179/277/94
f 197/280/103 164/279/95 212/278/95
f 197/280/103 166/281/103 164/279/95
f 198/282/21 166/281/103 197/280/103
f 198/282/21 165/283/21 166/281/103
f 199/284/104 165/283/21 198/282/21
f 199/284/104 168/285/104 165/283/21
f 200/286/105 168/285/104 199/284/104
f 200/286/105 169/287/105 168/285/104
f 201/288/106 169/287/105 200/286/105
f 201/288/106 170/289/106 169/287/105
f 202/290/5 170/289/106 201/288/106
f 202/290/5 171/291/5 170/289/106
f 203/292/107 171/291/5 202/290/5
f 203/292/107 172/293/107 171/291/5
f 204/294/108 172/293/107 203/292/107
f 204/294/108 173/295/108 172/293/107
f 205/296/102 173/295/108 204/294/108
f 205/296/102 175/297/102 173/295/108
f 78/298/10 213/299/90 77/300/90
f 78/298/10 214/301/10 213/299/90
f 80/302/91 214/301/10 78/298/10
f 80/302/91 215/303/91 214/301/10
f 83/304/109 215/303/91 80/302/91
f 83/304/109 216/305/109 215/303/91
f 85/306/110 216/305/109 83/304/109
f 85/306/110 217/307/110 216/305/109
f 87/308/15 217/307/110 85/306/110
f 87/308/15 218/309/15 217/307/110
f 94/310/111 218/309/15 87/308/15
f 94/310/111 219/311/111 218/309/15
f 97/312/95 219/311/111 94/310/111
f 97/312/95 220/313/95 219/311/111
f 99/314/96 220/313/95 97/312/95
f 99/314/96 221/315/96 220/313/95
f 102/316/21 221/315/96 99/314/96
f 102/316/21 222/317/21 221/315/96
f 103/318/104 222/317/21 102/316/21
f 103/318/104 223/319/104 222/317/21
f 106/320/98 223/319/104 103/318/104
f 106/320/98 224/321/98 223/319/104
f 108/322/99 224/321/98 106/320/98
f 108/322/99 225/323/99 224/321/98
f 71/324/112 225/323/99 108/322/99
f 71/324/112 226/325/112 225/323/99
f 73/326/100 226/325/112 71/324/112
f 73/326/100 227/327/100 226/325/112
f 74/328/113 227/327/100 73/326/100
f 74/328/113 228/329/113 227/327/100
f 77/330/90 228/329/113 74/328/113
f 77/330/90 213/331/90 228/329/113
f 214/301/25 229/332/25 213/299/25
f 214/301/25 230/333/25 229/332/25
f 215/303/25 230/333/25 214/301/25
f 215/303/25 231/334/25 230/333/25
f 216/305/25 231/334/25 215/303/25
f 216/305/25 232/335/25 231/334/25
f 217/307/25 232/335/25 216/305/25
f 217/307/25 233/336/25 232/335/25
f 218/309/25 233/336/25 217/307/25
f 218/309/25 234/337/25 233/336/25
f 219/311/25 234/337/25 218/309/25
f 219/311/25 235/338/25 234/337/25
f 220/313/25 235/338/25 219/311/25
f 220/313/25 236/339/25 235/338/25
f 221/315/25 236/339/25 220/313/25
f 221/315/25 237/340/25 236/339/25
f 222/317/25 237/340/25 221/315/25
f 222/317/25 238/341/25 237/340/25
f 223/319/25 238/341/25 222/317/25
f 223/319/25 239/342/25 238/341/25
f 224/321/25 239/342/25 223/319/25
f 224/321/25 240/343/25 239/342/25
f 225/323/25 240/343/25 224/321/25
f 225/323/25 241/344/25 240/343/25
f 226/325/25 241/344/25 225/323/25
f 226/325/25 242/345/25 241/344/25
f 227/327/25 242/345/25 226/325/25
f 227/327/25 243/346/25 242/345/25
f 228/329/25 243/346/25 227/327/25
f 228/329/25 244/347/25 243/346/25
f 213/331/25 244/347/25 228/329/25
f 213/331/25 229/348/25 244/347/25
f 238/349/10 163/350/102 237/351/102
f 238/349/10 154/352/10 163/350/102
f 239/353/91 154/352/10 238/349/10
f 239/353/91 153/354/91 154/352/10
f 240/355/92 153/354/91 239/353/91
f 240/355/92 151/356/92 153/354/91
f 241/357/93 151/356/92 240/355/92
f 241/357/93 152/358/93 151/356/92
f 242/359/114 152/358/93 241/357/93
f 242/359/114 147/360/114 152/358/93
f 243/361/94 147/360/114 242/359/114
f 243/361/94 149/362/94 147/360/114
f 244/363/115 149/362/94 243/361/94
f 244/363/115 148/364/115 149/362/94
f 229/365/103 148/364/115 244/363/115
f 229/365/103 156/366/103 148/364/115
f 230/367/21 156/366/103 229/365/103
f 230/367/21 155/368/21 156/366/103
f 231/369/116 155/368/21 230/367/21
f 231/369/116 157/370/116 155/368/21
f 232/371/98 157/370/116 231/369/116
f 232/371/98 158/372/98 157/370/116
f 233/373/106 158/372/98 232/371/98
f 233/373/106 159/374/106 158/372/98
f 234/375/5 159/374/106 233/373/106
f 234/375/5 160/376/5 159/374/106
f 235/377/107 160/376/5 234/375/5
f 235/377/107 161/378/107 160/376/5
f 236/379/108 161/378/107 235/377/107
f 236/379/108 162/380/108 161/378/107
f 237/381/102 162/380/108 236/379/108
f 237/381/102 163/382/102 162/380/108
f 101/383/10 245/384/102 104/385/102
f 101/383/10 246/386/10 245/384/102
f 100/387/91 246/386/10 101/383/10
f 100/387/91 247/388/91 246/386/10
f 96/389/109 247/388/91 100/387/91
f 96/389/109 248/390/109 247/388/91
f 92/391/110 248/390/109 96/389/109
f 92/391/110 249/392/110 248/390/109
f 89/393/15 249/392/110 92/391/110
f 89/393/15 250/394/15 249/392/110
f 93/395/117 250/394/15 89/393/15
f 93/395/117 251/396/117 250/394/15
f 95/397/118 251/396/117 93/395/117
f 95/397/118 252/398/118 251/396/117
f 98/399/119 252/398/118 95/397/118
f 98/399/119 253/400/119 252/398/118
f 114/401/21 253/400/119 98/399/119
f 114/401/21 254/402/21 253/400/119
f 115/403/104 254/402/21 114/401/21
f 115/403/104 255/404/104 254/402/21
f 113/405/120 255/404/104 115/403/104
f 113/405/120 256/406/120 255/404/104
f 111/407/99 256/406/120 113/405/120
f 111/407/99 257/408/99 256/406/120
f 109/409/5 257/408/99 111/407/99
f 109/409/5 258/410/5 257/408/99
f 107/411/100 258/410/5 109/409/5
f 107/411/100 259/412/100 258/410/5
f 105/413/101 259/412/100 107/411/100
f 105/413/101 260/414/101 259/412/100
f 104/415/102 260/414/101 105/413/101
f 104/415/102 245/416/102 260/414/101
f 246/386/25 261/417/25 245/384/25
f 246/386/25 262/418/25 261/417/25
f 247/388/25 262/418/25 246/386/25
f 247/388/25 263/419/25 262/418/25
f 248/390/25 263/419/25 247/388/25
f 248/390/25 264/420/25 263/419/25
f 249/392/25 264/420/25 248/390/25
f 249/392/25 265/421/25 264/420/25
f 250/394/25 265/421/25 249/392/25
f 250/394/25 266/422/25 265/421/25
f 251/396/121 266/422/25 250/394/25
f 251/396/121 267/423/121 266/422/25
f 252/398/25 267/423/121 251/396/121
f 252/398/25 268/424/25 267/423/121
f 253/400/122 268/424/25 252/398/25
f 253/400/122 269/425/122 268/424/25
f 254/402/25 269/425/122 253/400/122
f 254/402/25 270/426/25 269/425/122
f 255/404/25 270/426/25 254/402/25
f 255/404/25 271/427/25 270/426/25
f 256/406/25 271/427/25 255/404/25
f 256/406/25 272/428/25 271/427/25
f 257/408/25 272/428/25 256/406/25
f 257/408/25 273/429/25 272/428/25
f 258/410/25 273/429/25 257/408/25
f 258/410/25 274/430/25 273/429/25
f 259/412/25 274/430/25 258/410/25
f 259/412/25 275/431/25 274/430/25
f 260/414/25 275/431/25 259/412/25
f 260/414/25 276/432/25 275/431/25
f 245/416/25 276/432/25 260/414/25
f 245/416/25 261/433/25 276/432/25
f 270/434/10 141/435/123 269/436/123
f 270/434/10 140/437/10 141/435/123
f 271/438/91 140/437/10 270/434/10
f 271/438/91 142/439/91 140/437/10
f 272/440/124 142/439/91 271/438/91
f 272/440/124 143/441/124 142/439/91
f 273/442/125 143/441/124 272/440/124
f 273/442/125 146/443/125 143/441/124
f 274/444/15 146/443/125 273/442/125
f 274/444/15 144/445/15 146/443/125
f 275/446/94 144/445/15 274/444/15
f 275/446/94 145/447/94 144/445/15
f 276/448/95 145/447/94 275/446/94
f 276/448/95 130/449/95 145/447/94
f 261/450/96 130/449/95 276/448/95
f 261/450/96 132/451/126 130/449/95
f 262/452/21 132/451/126 261/450/96
f 262/452/21 131/453/21 132/451/126
f 263/454/104 131/453/21 262/452/21
f 263/454/104 134/455/104 131/453/21
f 264/456/105 134/455/104 263/454/104
f 264/456/105 135/457/105 134/455/104
f 265/458/106 135/457/105 264/456/105
f 265/458/106 136/459/106 135/457/105
f 266/460/5 136/459/106 265/458/106
f 266/460/5 137/461/5 136/459/106
f 267/462/127 137/461/5 266/460/5
f 267/462/127 138/463/127 137/461/5
f 268/464/128 138/463/127 267/462/127
f 268/464/128 139/465/128 138/463/127
f 269/466/123 139/465/128 268/464/128
f 269/466/123 141/467/123 139/465/128
