# Blender MTL File: 'sanfrancisco.blend'
# Material Count: 3

newmtl RoofpanelsMaterial.002
Ns 179.999996
Ka 1.000000 1.000000 1.000000
Kd 1.000000 1.000000 1.000000
Ks 0.500000 0.500000 0.500000
Ke 1.000000 1.000000 1.000000
Ni 1.450000
d 1.000000
illum 2
map_Kd roofpanelsDiffuse.png

newmtl Window00Y_32Material.002
Ns 179.999996
Ka 1.000000 1.000000 1.000000
Kd 1.000000 1.000000 1.000000
Ks 0.500000 0.500000 0.500000
Ke 1.000000 1.000000 1.000000
Ni 1.450000
d 1.000000
illum 2
map_Kd Window00Diffuse.jpg

newmtl metreonMaterial.002
Ns 179.999996
Ka 1.000000 1.000000 1.000000
Kd 0.588000 0.588000 0.588000
Ks 0.500000 0.500000 0.500000
Ke 1.000000 1.000000 1.000000
Ni 1.450000
d 1.000000
illum 2
map_Kd metreonDiffuse.png
norm roofpanelsNormal.png 
