# Blender v2.92.0 OBJ File: 'sanfrancisco.blend'
# www.blender.org
mtllib MiddlePost.mtl
o MiddlePost_Scene.4708
v 760.845581 -799.999939 -247.213745
v 760.845703 800.000000 -247.213730
v 647.214050 800.000000 -470.228455
v 647.213989 -799.999939 -470.228455
v 470.228455 799.999939 -647.213989
v 470.228424 -799.999878 -647.213989
v 247.213715 799.999939 -760.845703
v 247.213684 -800.000000 -760.845703
v -0.000031 800.000000 -800.000366
v -0.000092 -799.999878 -800.000366
v -247.213745 800.000000 -760.845581
v -247.213745 -800.000000 -760.845581
v -470.228394 800.000000 -647.213867
v -470.228455 -800.000000 -647.213867
v -647.213867 800.000000 -470.228333
v -647.213745 -799.999878 -470.228333
v -760.845459 799.999939 -247.213654
v -760.845459 -799.999939 -247.213654
v -800.000244 800.000061 0.000004
v -800.000244 -800.000000 0.000004
v -760.845459 799.999939 247.213654
v -760.845459 -799.999939 247.213684
v -647.213684 799.999878 470.228302
v -647.213684 -799.999878 470.228302
v -470.228271 799.999939 647.213623
v -470.228149 -799.999878 647.213745
v -247.213684 799.999939 760.845337
v -247.213623 -799.999878 760.845337
v -0.000061 799.999939 800.000122
v 0.000031 -799.999939 800.000122
v 247.213501 800.000000 760.845337
v 247.213531 -799.999878 760.845337
v 470.228180 800.000000 647.213623
v 470.228149 -800.000000 647.213623
v 647.213562 799.999939 470.228302
v 647.213562 -799.999939 470.228302
v 760.845154 800.000000 247.213593
v 760.845215 -799.999878 247.213593
v 800.000000 800.000000 0.000004
v 799.999939 -799.999939 0.000004
v -0.000031 -799.999939 0.000004
v -0.000031 800.000000 0.000004
vt 0.375000 0.312500
vt 0.387500 0.688440
vt 0.375000 0.688440
vt 0.387500 0.312500
vt 0.400000 0.688440
vt 0.400000 0.312500
vt 0.412500 0.688440
vt 0.412500 0.312500
vt 0.425000 0.688440
vt 0.425000 0.312500
vt 0.437500 0.688440
vt 0.437500 0.312500
vt 0.450000 0.688440
vt 0.450000 0.312500
vt 0.462500 0.688440
vt 0.462500 0.312500
vt 0.475000 0.688440
vt 0.475000 0.312500
vt 0.487500 0.688440
vt 0.487500 0.312500
vt 0.500000 0.688440
vt 0.500000 0.312500
vt 0.512500 0.688440
vt 0.512500 0.312500
vt 0.525000 0.688440
vt 0.525000 0.312500
vt 0.537500 0.688440
vt 0.537500 0.312500
vt 0.550000 0.688440
vt 0.550000 0.312500
vt 0.562500 0.688440
vt 0.562500 0.312500
vt 0.575000 0.688440
vt 0.575000 0.312500
vt 0.587500 0.688440
vt 0.587500 0.312500
vt 0.600000 0.688440
vt 0.600000 0.312500
vt 0.612500 0.688440
vt 0.612500 0.312500
vt 0.625000 0.688440
vt 0.625000 0.312500
vt 0.626409 0.064408
vt 0.648603 0.107966
vt 0.500000 0.150000
vt 0.591842 0.029841
vt 0.656250 0.156250
vt 0.548284 0.007647
vt 0.648603 0.204534
vt 0.500000 -0.000000
vt 0.626409 0.248091
vt 0.451716 0.007647
vt 0.591841 0.282659
vt 0.408159 0.029841
vt 0.548284 0.304853
vt 0.373591 0.064409
vt 0.500000 0.312500
vt 0.351397 0.107966
vt 0.451716 0.304853
vt 0.343750 0.156250
vt 0.408159 0.282659
vt 0.351397 0.204534
vt 0.373591 0.248091
vt 0.648603 0.892034
vt 0.626409 0.935591
vt 0.500000 0.837500
vt 0.656250 0.843750
vt 0.591841 0.970159
vt 0.648603 0.795466
vt 0.548284 0.992353
vt 0.626409 0.751908
vt 0.500000 1.000000
vt 0.591842 0.717341
vt 0.451716 0.992353
vt 0.548284 0.695147
vt 0.408159 0.970159
vt 0.500000 0.687500
vt 0.373591 0.935591
vt 0.451716 0.695147
vt 0.351397 0.892034
vt 0.408159 0.717341
vt 0.343750 0.843750
vt 0.373591 0.751909
vt 0.351397 0.795466
vn 0.9511 -0.0000 -0.3090
vn 0.8090 -0.0000 -0.5878
vn 0.5878 -0.0000 -0.8090
vn 0.3090 -0.0000 -0.9511
vn -0.0000 0.0000 -1.0000
vn -0.3090 0.0000 -0.9511
vn -0.5878 0.0000 -0.8090
vn -0.8090 -0.0000 -0.5878
vn -0.9511 -0.0000 -0.3090
vn -1.0000 0.0000 0.0000
vn -0.9511 -0.0000 0.3090
vn -0.8090 -0.0000 0.5878
vn -0.5878 0.0000 0.8090
vn -0.3090 0.0000 0.9511
vn 0.0000 0.0000 1.0000
vn 0.3090 0.0000 0.9511
vn 0.5878 -0.0000 0.8090
vn 0.8090 -0.0000 0.5878
vn 0.9511 0.0000 0.3090
vn 1.0000 0.0000 0.0000
vn -0.0000 -1.0000 0.0000
vn 0.0000 1.0000 0.0000
usemtl PostAluminumMaterial.002
s 1
f 1/1/1 3/2/2 2/3/1
f 1/1/1 4/4/2 3/2/2
f 4/4/2 5/5/3 3/2/2
f 4/4/2 6/6/3 5/5/3
f 6/6/3 7/7/4 5/5/3
f 6/6/3 8/8/4 7/7/4
f 8/8/4 9/9/5 7/7/4
f 8/8/4 10/10/5 9/9/5
f 10/10/5 11/11/6 9/9/5
f 10/10/5 12/12/6 11/11/6
f 12/12/6 13/13/7 11/11/6
f 12/12/6 14/14/7 13/13/7
f 14/14/7 15/15/8 13/13/7
f 14/14/7 16/16/8 15/15/8
f 16/16/8 17/17/9 15/15/8
f 16/16/8 18/18/9 17/17/9
f 18/18/9 19/19/10 17/17/9
f 18/18/9 20/20/10 19/19/10
f 20/20/10 21/21/11 19/19/10
f 20/20/10 22/22/11 21/21/11
f 22/22/11 23/23/12 21/21/11
f 22/22/11 24/24/12 23/23/12
f 24/24/12 25/25/13 23/23/12
f 24/24/12 26/26/13 25/25/13
f 26/26/13 27/27/14 25/25/13
f 26/26/13 28/28/14 27/27/14
f 28/28/14 29/29/15 27/27/14
f 28/28/14 30/30/15 29/29/15
f 30/30/15 31/31/16 29/29/15
f 30/30/15 32/32/16 31/31/16
f 32/32/16 33/33/17 31/31/16
f 32/32/16 34/34/17 33/33/17
f 34/34/17 35/35/18 33/33/17
f 34/34/17 36/36/18 35/35/18
f 36/36/18 37/37/19 35/35/18
f 36/36/18 38/38/19 37/37/19
f 38/38/19 39/39/20 37/37/19
f 38/38/19 40/40/20 39/39/20
f 40/40/20 2/41/1 39/39/20
f 40/40/20 1/42/1 2/41/1
f 4/43/21 1/44/21 41/45/21
f 6/46/21 4/43/21 41/45/21
f 1/44/21 40/47/21 41/45/21
f 8/48/21 6/46/21 41/45/21
f 40/47/21 38/49/21 41/45/21
f 10/50/21 8/48/21 41/45/21
f 38/49/21 36/51/21 41/45/21
f 12/52/21 10/50/21 41/45/21
f 36/51/21 34/53/21 41/45/21
f 14/54/21 12/52/21 41/45/21
f 34/53/21 32/55/21 41/45/21
f 16/56/21 14/54/21 41/45/21
f 32/55/21 30/57/21 41/45/21
f 18/58/21 16/56/21 41/45/21
f 30/57/21 28/59/21 41/45/21
f 20/60/21 18/58/21 41/45/21
f 28/59/21 26/61/21 41/45/21
f 22/62/21 20/60/21 41/45/21
f 26/61/21 24/63/21 41/45/21
f 24/63/21 22/62/21 41/45/21
f 2/64/22 3/65/22 42/66/22
f 39/67/22 2/64/22 42/66/22
f 3/65/22 5/68/22 42/66/22
f 37/69/22 39/67/22 42/66/22
f 5/68/22 7/70/22 42/66/22
f 35/71/22 37/69/22 42/66/22
f 7/70/22 9/72/22 42/66/22
f 33/73/22 35/71/22 42/66/22
f 9/72/22 11/74/22 42/66/22
f 31/75/22 33/73/22 42/66/22
f 11/74/22 13/76/22 42/66/22
f 29/77/22 31/75/22 42/66/22
f 13/76/22 15/78/22 42/66/22
f 27/79/22 29/77/22 42/66/22
f 15/78/22 17/80/22 42/66/22
f 25/81/22 27/79/22 42/66/22
f 17/80/22 19/82/22 42/66/22
f 23/83/22 25/81/22 42/66/22
f 19/82/22 21/84/22 42/66/22
f 21/84/22 23/83/22 42/66/22
