# Blender v2.92.0 OBJ File: 'sanfrancisco.blend'
# www.blender.org
mtllib Planter_10.mtl
o Planter_10_Scene.5757
v -1000.000122 0.000000 905.009399
v -987.273682 44.190186 952.504761
v -987.273682 0.000000 952.504761
v -1000.000122 44.190186 905.009399
v -999.999878 0.000000 -905.009399
v -998.026855 51.554245 904.749634
v -985.504517 51.554245 951.483398
v -998.026733 51.554245 -904.749634
v -999.999878 44.190186 -905.009399
v -987.273560 0.000000 -952.504761
v -987.273560 44.190186 -952.504761
v -985.504395 51.554245 -951.483398
v -980.671143 56.945099 -948.692749
v -992.635742 56.945099 -904.040039
v -974.068604 58.918297 -944.880859
v -992.635986 56.945099 904.040039
v -980.671265 56.945099 948.692749
v -985.271729 58.918297 -903.070435
v -985.271973 58.918297 903.070435
v -974.068848 58.918297 944.880859
v -937.273682 58.918289 902.504761
v -949.999878 58.918289 855.009399
v -949.999878 58.918289 -855.009399
v -937.273438 58.918289 -902.504761
v -902.504761 58.918289 937.273682
v -944.880859 58.918289 974.068726
v -948.692749 56.945099 980.671265
v -951.483276 51.554245 985.504517
v -952.504761 44.190186 987.273560
v -952.504761 0.000000 987.273560
v 905.009460 0.000015 1000.000122
v 952.504700 44.190201 987.273804
v 952.504700 0.000015 987.273804
v 905.009460 44.190201 1000.000122
v -905.009521 0.000015 1000.000000
v 904.749695 51.554245 998.026978
v 951.483276 51.554245 985.504639
v -904.749756 51.554260 998.026855
v -905.009521 44.190201 1000.000000
v -904.039917 56.945099 992.635864
v 904.039917 56.945099 992.635986
v 948.692749 56.945107 980.671387
v -903.070435 58.918289 985.271851
v 903.070374 58.918289 985.271973
v 944.880798 58.918297 974.068970
v 902.504700 58.918289 937.273804
v 855.009460 58.918289 950.000000
v -855.009521 58.918289 950.000000
v 987.273621 44.190201 952.504883
v 987.273621 0.000015 952.504883
v 985.504517 51.554245 951.483398
v 980.671265 56.945091 948.692871
v 974.068787 58.918297 944.880981
v 937.273621 58.918297 902.504883
v 950.000000 58.918297 855.009521
v 985.271912 58.918297 903.070557
v 949.999939 58.918297 -855.009399
v 992.635925 56.945091 904.040039
v 985.271973 58.918297 -903.070312
v 937.273621 58.918297 -902.504639
v 998.026855 51.554245 904.749756
v 998.026855 51.554245 -904.749512
v 992.635925 56.945091 -904.039917
v 985.504517 51.554245 -951.483276
v 974.068787 58.918297 -944.880737
v 902.504761 58.918289 -937.273560
v 944.880859 58.918297 -974.068726
v 948.692810 56.945107 -980.671265
v 980.671326 56.945091 -948.692749
v 951.483337 51.554245 -985.504395
v 952.504761 44.190201 -987.273560
v 987.273682 44.190201 -952.504639
v 987.273682 0.000015 -952.504639
v 952.504761 0.000015 -987.273560
v 1000.000000 44.190201 -905.009277
v 1000.000061 0.000015 -905.009277
v 999.999939 0.000015 905.009521
v 999.999939 44.190201 905.009521
v -905.009399 0.000015 -1000.000000
v -952.504639 44.190186 -987.273682
v -952.504639 0.000000 -987.273682
v -905.009399 44.190201 -1000.000000
v 905.009521 0.000015 -999.999878
v 905.009521 44.190201 -999.999878
v 904.749756 51.554245 -998.026733
v -904.749634 51.554260 -998.026855
v -951.483154 51.554245 -985.504517
v -948.692627 56.945099 -980.671265
v -904.039795 56.945099 -992.635864
v -944.880737 58.918289 -974.068848
v -902.504517 58.918289 -937.273682
v -903.070312 58.918289 -985.271851
v -855.009277 58.918289 -949.999878
v 903.070435 58.918289 -985.271729
v 855.009460 58.918289 -950.000000
v 904.039978 56.945099 -992.635864
vt 13.886959 -0.000556
vt 14.336637 -0.000556
vt 14.336637 0.488230
vt 13.886959 0.488230
vt 0.461992 -0.000557
vt 13.886959 0.540854
vt 14.336637 0.540854
vt 0.461992 0.540854
vt 0.461992 0.488230
vt 0.000000 -0.000556
vt 0.000000 0.488230
vt 0.000001 0.540854
vt 0.000000 0.593750
vt 0.461992 0.593750
vt 0.000000 0.646700
vt 13.886959 0.593750
vt 14.336637 0.593750
vt 0.461992 0.646700
vt 13.886959 0.646700
vt 14.336637 0.646700
vt 14.190969 1.000000
vt 13.765486 1.000000
vt 1.062858 1.000000
vt 0.625725 1.000000
vt 14.517075 1.000000
vt 14.681285 0.646700
vt 14.681285 0.593750
vt 14.681287 0.540854
vt 14.681287 0.488230
vt 14.681287 -0.000556
vt 17.048100 -0.000556
vt 17.511778 -0.000556
vt 17.511778 0.488230
vt 17.048100 0.488230
vt 0.459320 -0.000556
vt 17.048100 0.540854
vt 17.511780 0.540854
vt 0.459320 0.540854
vt 0.459320 0.488230
vt 0.000000 -0.000556
vt 0.000000 0.488230
vt 0.000000 0.540854
vt 0.000000 0.593750
vt 0.459320 0.593750
vt 0.000000 0.646700
vt 17.048101 0.593750
vt 17.511780 0.593750
vt 0.459320 0.646700
vt 17.048100 0.646700
vt 17.511780 0.646700
vt 17.195271 1.000000
vt 16.658051 1.000000
vt 1.060329 1.000000
vt 0.625724 1.000000
vt 0.000000 -0.000556
vt 0.537710 -0.000556
vt 0.537710 0.488230
vt 0.000000 0.488230
vt 0.000000 0.540854
vt 0.537710 0.540854
vt 0.000000 0.593750
vt 0.537710 0.593750
vt 0.000000 0.646700
vt 0.537710 0.646700
vt 0.928970 1.000000
vt 0.625724 1.000000
vt 1.808213 1.000000
vt 1.249732 0.646700
vt 21.462730 1.000000
vt 1.249732 0.593750
vt 22.021917 0.646700
vt 22.123695 1.000000
vt 1.249732 0.540854
vt 22.021917 0.540854
vt 22.021914 0.593750
vt 22.720461 0.540854
vt 22.720467 0.646700
vt 22.632935 1.000000
vt 23.258648 0.646700
vt 23.258650 0.593750
vt 22.720461 0.593750
vt 23.258650 0.540854
vt 23.258644 0.488230
vt 22.720478 0.488230
vt 22.720470 -0.000556
vt 23.258650 -0.000556
vt 22.021914 0.488230
vt 22.021912 -0.000556
vt 1.249732 -0.000556
vt 1.249732 0.488230
vt 21.210642 -0.000556
vt 21.824112 -0.000556
vt 21.824112 0.488230
vt 21.210642 0.488230
vt 1.046518 -0.000556
vt 1.046518 0.488230
vt 0.000000 -0.000556
vt 0.000000 0.488230
vt 0.000000 0.540854
vt 1.046518 0.540854
vt 21.210642 0.540854
vt 21.824112 0.540854
vt 22.466837 0.488230
vt 22.466837 -0.000556
vt 22.466837 0.540854
vt 21.824112 0.593750
vt 22.466839 0.593750
vt 21.210642 0.593750
vt 21.824112 0.646700
vt 22.466835 0.646700
vt 21.883717 1.000000
vt 21.275576 1.000000
vt 21.210642 0.646700
vt 20.695112 1.000000
vt 1.046518 0.646700
vt 1.615934 1.000000
vt 1.046518 0.593750
vt 0.000000 0.646700
vt 0.625724 1.000000
vt 0.000000 0.593750
vn -1.0000 0.0000 0.0068
vn -0.9659 0.0000 0.2588
vn -0.8654 0.0378 0.4996
vn -0.9993 0.0376 0.0068
vn -1.0000 0.0000 -0.0069
vn -0.9658 0.2590 0.0066
vn -0.7559 0.4889 0.4355
vn -0.9658 0.2590 -0.0066
vn -0.9993 0.0376 -0.0069
vn -0.9659 0.0000 -0.2588
vn -0.8654 0.0378 -0.4996
vn -0.7559 0.4889 -0.4355
vn -0.4569 0.8500 -0.2623
vn -0.7068 0.7074 -0.0047
vn -0.5162 0.8565 -0.0034
vn -0.7068 0.7074 0.0047
vn -0.0357 0.9992 -0.0204
vn -0.5162 0.8564 0.0034
vn -0.4569 0.8500 0.2623
vn -0.0918 0.9958 -0.0006
vn -0.0918 0.9958 0.0006
vn -0.0357 0.9992 0.0204
vn 0.0000 1.0000 -0.0000
vn -0.0204 0.9992 0.0357
vn -0.2623 0.8500 0.4569
vn -0.4355 0.4889 0.7559
vn -0.4996 0.0378 0.8654
vn -0.7071 0.0000 0.7071
vn 0.0068 -0.0000 1.0000
vn 0.2588 0.0000 0.9659
vn 0.4996 0.0378 0.8654
vn 0.0068 0.0376 0.9993
vn -0.0069 0.0000 1.0000
vn 0.0066 0.2590 0.9658
vn 0.4355 0.4888 0.7559
vn -0.0066 0.2590 0.9658
vn -0.0069 0.0376 0.9993
vn -0.2588 0.0000 0.9659
vn -0.0047 0.7074 0.7068
vn -0.0034 0.8565 0.5162
vn 0.0047 0.7074 0.7068
vn 0.0034 0.8565 0.5162
vn 0.2623 0.8500 0.4569
vn -0.0006 0.9958 0.0918
vn 0.0006 0.9958 0.0918
vn 0.0204 0.9992 0.0357
vn 0.7071 0.0000 0.7071
vn 0.8654 0.0378 0.4996
vn 0.7559 0.4889 0.4355
vn 0.4569 0.8500 0.2623
vn 0.0357 0.9992 0.0204
vn 0.0918 0.9958 0.0006
vn 0.5162 0.8564 0.0034
vn 0.0918 0.9958 -0.0006
vn 0.7068 0.7074 0.0047
vn 0.7068 0.7074 -0.0047
vn 0.5162 0.8565 -0.0034
vn 0.7559 0.4889 -0.4355
vn 0.0357 0.9992 -0.0204
vn 0.0204 0.9992 -0.0357
vn 0.2623 0.8500 -0.4569
vn 0.4569 0.8500 -0.2623
vn 0.4355 0.4889 -0.7559
vn 0.4996 0.0378 -0.8654
vn 0.8654 0.0378 -0.4996
vn 0.9659 0.2590 -0.0066
vn 0.7071 0.0000 -0.7071
vn 0.9993 0.0375 -0.0068
vn 0.9659 0.2590 0.0066
vn 1.0000 -0.0000 -0.0068
vn 0.9659 0.0000 -0.2588
vn 1.0000 0.0000 0.0069
vn 0.9993 0.0376 0.0068
vn 0.9659 0.0000 0.2588
vn -0.0068 0.0000 -1.0000
vn -0.2588 0.0000 -0.9659
vn -0.4996 0.0378 -0.8654
vn -0.0068 0.0375 -0.9993
vn 0.0069 0.0000 -1.0000
vn 0.0069 0.0376 -0.9993
vn 0.2588 0.0000 -0.9659
vn 0.0066 0.2590 -0.9658
vn -0.0066 0.2590 -0.9658
vn -0.4355 0.4888 -0.7559
vn -0.7071 0.0000 -0.7071
vn -0.2623 0.8500 -0.4569
vn -0.0034 0.8565 -0.5162
vn -0.0047 0.7074 -0.7068
vn -0.0204 0.9992 -0.0357
vn -0.0006 0.9958 -0.0918
vn 0.0006 0.9958 -0.0918
vn 0.0034 0.8565 -0.5162
vn 0.0047 0.7074 -0.7068
usemtl PlanterMaterial.002
s 1
f 1/1/1 3/2/2 2/3/3
f 1/1/1 2/3/3 4/4/4
f 4/4/4 5/5/5 1/1/1
f 6/6/6 4/4/4 2/3/3
f 6/6/6 2/3/3 7/7/7
f 4/4/4 6/6/6 8/8/8
f 4/4/4 9/9/9 5/5/5
f 4/4/4 8/8/8 9/9/9
f 10/10/10 5/5/5 9/9/9
f 10/10/10 9/9/9 11/11/11
f 12/12/12 9/9/9 8/8/8
f 12/12/12 11/11/11 9/9/9
f 13/13/13 12/12/12 8/8/14
f 13/13/13 8/8/14 14/14/15
f 6/6/16 14/14/15 8/8/14
f 15/15/17 13/13/13 14/14/15
f 16/16/18 6/6/16 7/7/7
f 6/6/16 16/16/18 14/14/15
f 16/16/18 7/7/7 17/17/19
f 15/15/17 14/14/15 18/18/20
f 16/16/18 18/18/20 14/14/15
f 19/19/21 16/16/18 17/17/19
f 16/16/18 19/19/21 18/18/20
f 19/19/21 17/17/19 20/20/22
f 19/19/21 20/20/22 21/21/23
f 19/19/21 21/21/23 22/22/23
f 18/18/20 19/19/21 22/22/23
f 18/18/20 22/22/23 23/23/23
f 15/15/17 18/18/20 23/23/23
f 15/15/17 23/23/23 24/24/23
f 20/20/22 25/25/23 21/21/23
f 20/20/22 26/26/24 25/25/23
f 20/20/22 27/27/25 26/26/24
f 20/20/22 17/17/19 27/27/25
f 17/17/19 28/28/26 27/27/25
f 17/17/19 7/7/7 28/28/26
f 7/7/7 29/29/27 28/28/26
f 7/7/7 2/3/3 29/29/27
f 3/2/28 29/29/27 2/3/3
f 3/2/28 30/30/28 29/29/27
f 31/31/29 33/32/30 32/33/31
f 31/31/29 32/33/31 34/34/32
f 34/34/32 35/35/33 31/31/29
f 36/36/34 34/34/32 32/33/31
f 36/36/34 32/33/31 37/37/35
f 38/38/36 34/34/32 36/36/34
f 34/34/32 39/39/37 35/35/33
f 38/38/36 39/39/37 34/34/32
f 30/40/38 35/35/33 39/39/37
f 30/40/38 39/39/37 29/41/27
f 28/42/26 39/39/37 38/38/36
f 28/42/26 29/41/27 39/39/37
f 27/43/25 28/42/26 38/38/39
f 27/43/25 38/38/39 40/44/40
f 40/44/40 38/38/39 36/36/41
f 26/45/24 27/43/25 40/44/40
f 41/46/42 36/36/41 37/37/35
f 40/44/40 36/36/41 41/46/42
f 41/46/42 37/37/35 42/47/43
f 26/45/24 40/44/40 43/48/44
f 43/48/44 40/44/40 41/46/42
f 44/49/45 41/46/42 42/47/43
f 43/48/44 41/46/42 44/49/45
f 44/49/45 42/47/43 45/50/46
f 44/49/45 45/50/46 46/51/23
f 44/49/45 46/51/23 47/52/23
f 43/48/44 44/49/45 47/52/23
f 43/48/44 47/52/23 48/53/23
f 26/45/24 43/48/44 48/53/23
f 26/45/24 48/53/23 25/54/23
f 33/55/47 50/56/47 49/57/48
f 33/55/47 49/57/48 32/58/31
f 37/59/35 32/58/31 49/57/48
f 37/59/35 49/57/48 51/60/49
f 42/61/43 37/59/35 51/60/49
f 42/61/43 51/60/49 52/62/50
f 45/63/46 42/61/43 52/62/50
f 45/63/46 52/62/50 53/64/51
f 45/63/46 53/64/51 54/65/23
f 45/63/46 54/65/23 46/66/23
f 53/64/51 55/67/23 54/65/23
f 53/64/51 56/68/52 55/67/23
f 56/68/52 57/69/23 55/67/23
f 53/64/51 58/70/53 56/68/52
f 53/64/51 52/62/50 58/70/53
f 56/68/52 59/71/54 57/69/23
f 59/71/54 60/72/23 57/69/23
f 52/62/50 61/73/55 58/70/53
f 52/62/50 51/60/49 61/73/55
f 58/70/53 61/73/55 62/74/56
f 56/68/52 58/70/53 63/75/57
f 58/70/53 62/74/56 63/75/57
f 56/68/52 63/75/57 59/71/54
f 63/75/57 62/74/56 64/76/58
f 59/71/54 65/77/59 60/72/23
f 65/77/59 66/78/23 60/72/23
f 65/77/59 67/79/60 66/78/23
f 65/77/59 68/80/61 67/79/60
f 59/71/54 63/75/57 69/81/62
f 59/71/54 69/81/62 65/77/59
f 65/77/59 69/81/62 68/80/61
f 63/75/57 64/76/58 69/81/62
f 69/81/62 70/82/63 68/80/61
f 69/81/62 64/76/58 70/82/63
f 64/76/58 71/83/64 70/82/63
f 64/76/58 72/84/65 71/83/64
f 62/74/66 72/84/65 64/76/58
f 73/85/67 71/83/64 72/84/65
f 73/85/67 74/86/67 71/83/64
f 62/74/66 75/87/68 72/84/65
f 61/73/69 75/87/68 62/74/66
f 76/88/70 72/84/65 75/87/68
f 76/88/70 73/85/71 72/84/65
f 75/87/68 77/89/72 76/88/70
f 61/73/69 78/90/73 75/87/68
f 75/87/68 78/90/73 77/89/72
f 51/60/49 78/90/73 61/73/69
f 50/56/74 77/89/72 78/90/73
f 51/60/49 49/57/48 78/90/73
f 50/56/74 78/90/73 49/57/48
f 79/91/75 81/92/76 80/93/77
f 79/91/75 80/93/77 82/94/78
f 82/94/78 83/95/79 79/91/75
f 82/94/78 84/96/80 83/95/79
f 74/97/81 83/95/79 84/96/80
f 74/97/81 84/96/80 71/98/64
f 70/99/63 71/98/64 84/96/80
f 70/99/63 84/96/80 85/100/82
f 85/100/82 84/96/80 82/94/78
f 85/100/82 82/94/78 86/101/83
f 86/101/83 82/94/78 80/93/77
f 86/101/83 80/93/77 87/102/84
f 87/102/84 80/93/77 11/103/11
f 81/92/85 11/103/11 80/93/77
f 81/92/85 10/104/85 11/103/11
f 87/102/84 11/103/11 12/105/12
f 88/106/86 87/102/84 12/105/12
f 88/106/86 12/105/12 13/107/13
f 89/108/87 87/102/84 88/106/86
f 89/108/87 86/101/88 87/102/84
f 90/109/89 88/106/86 13/107/13
f 90/109/89 13/107/13 15/110/17
f 90/109/89 15/110/17 24/111/23
f 90/109/89 24/111/23 91/112/23
f 92/113/90 88/106/86 90/109/89
f 92/113/90 90/109/89 91/112/23
f 92/113/90 89/108/87 88/106/86
f 92/113/90 91/112/23 93/114/23
f 94/115/91 92/113/90 93/114/23
f 94/115/91 89/108/87 92/113/90
f 94/115/91 93/114/23 95/116/23
f 96/117/92 86/101/88 89/108/87
f 94/115/91 96/117/92 89/108/87
f 96/117/92 85/100/93 86/101/88
f 67/118/60 94/115/91 95/116/23
f 67/118/60 96/117/92 94/115/91
f 67/118/60 95/116/23 66/119/23
f 67/118/60 68/120/61 96/117/92
f 68/120/61 85/100/93 96/117/92
f 68/120/61 70/99/63 85/100/93
