# Blender v2.92.0 OBJ File: 'sanfrancisco.blend'
# www.blender.org
mtllib PlanterGrass_17.mtl
o PlanterGrass_17_Scene.5772
v 950.000000 58.918396 -855.009399
v 937.273682 76.528076 -902.504761
v 937.273621 58.918335 -902.504761
v 949.999939 76.536499 -855.009399
v 950.000000 58.918335 855.009460
v 950.000000 76.527954 855.009460
v 937.273682 58.918274 902.504578
v 937.273682 76.527954 902.504578
v 944.851196 88.965576 854.288452
v 944.845825 88.968140 -854.368652
v 932.670471 88.965576 899.800171
v 932.631042 88.965698 -899.868835
v 899.868896 88.965576 932.630981
v 902.504761 76.528015 -937.273682
v 902.504639 58.918304 -937.273682
v 899.800171 88.965698 -932.670349
v 855.009399 76.527954 -949.999939
v 854.288574 88.965637 -944.851135
v 855.009399 58.918304 -949.999939
v -855.009399 76.519653 -949.999878
v -854.368042 88.963196 -944.840820
v -855.009399 58.918335 -949.999878
v -902.504761 76.528076 -937.273621
v -902.504517 58.918396 -937.273621
v -899.868774 88.965637 -932.630981
v -937.273560 76.528015 -902.504700
v -937.273560 58.918274 -902.504700
v -932.670288 88.965698 -899.800171
v -949.999878 76.527954 -855.009460
v -944.850952 88.965637 -854.288574
v -949.999878 58.918396 -855.009460
v -949.999878 76.519653 855.009277
v -944.840698 88.963074 854.368042
v -949.999878 58.918274 855.009277
v -937.273560 76.528015 902.504639
v -937.273560 58.918213 902.504639
v -932.630981 88.965576 899.868835
v -902.504761 76.527893 937.273560
v -902.504761 58.918335 937.273560
v -899.800171 88.965515 932.670227
v -855.009644 76.528015 949.999939
v -854.288452 88.965576 944.851135
v -855.009399 58.918274 949.999939
v 855.009521 76.519592 949.999878
v 854.368164 88.963257 944.840820
v 855.009460 58.918243 949.999878
v 902.504822 76.527954 937.273499
v 902.504761 58.918243 937.273499
v 921.422546 94.117493 -893.505432
v 893.270630 94.117493 -921.557007
v 932.402527 94.117493 -852.822144
v 932.420532 94.117432 852.548340
v 852.548279 94.117493 -932.420532
v -852.819946 94.117371 -932.385681
v -893.505249 94.117432 -921.422546
v -932.420532 94.117493 -852.548340
v -921.557007 94.117493 -893.270752
v -932.385864 94.117432 852.819946
v -921.422485 94.117371 893.505432
v -852.548218 94.117432 932.420532
v -893.270874 94.117432 921.556885
v 852.820068 94.117432 932.385559
v 893.505493 94.117432 921.422485
v 921.557007 94.117432 893.270691
vt 1.331512 21.906906
vt 0.695217 21.701607
vt 0.793546 21.537611
vt 1.351789 21.710365
vt 20.577293 21.936813
vt 20.557005 21.740393
vt 21.219490 21.733067
vt 21.117962 21.569510
vt 20.539024 21.589552
vt 1.369359 21.559761
vt 21.041531 21.444616
vt 0.867494 21.413715
vt 21.407278 21.095043
vt 0.380857 21.139864
vt 0.218915 21.243504
vt 0.504229 21.061403
vt 0.196301 20.584509
vt 0.347040 20.565872
vt 0.000000 20.605480
vt 0.230172 1.319037
vt 0.380817 1.337256
vt 0.033903 1.298248
vt 0.414777 0.767038
vt 0.252076 0.666702
vt 0.537368 0.842745
vt 0.825598 0.367920
vt 0.723875 0.204488
vt 0.902156 0.492736
vt 1.385800 0.196401
vt 1.403895 0.347233
vt 1.365344 0.000000
vt 20.593193 0.226436
vt 20.575821 0.377198
vt 20.613239 0.030056
vt 21.152023 0.399100
vt 21.250685 0.235436
vt 21.077805 0.522618
vt 21.562092 0.799757
vt 21.724518 0.696574
vt 21.438253 0.877845
vt 21.746466 1.354584
vt 21.595730 1.373239
vt 21.942774 1.333671
vt 21.715597 20.619104
vt 21.564970 20.600744
vt 21.911844 20.640076
vt 21.529793 21.170883
vt 21.692387 21.271404
vt 0.941293 21.284622
vt 0.630375 20.983931
vt 1.389089 21.408672
vt 20.517479 21.438498
vt 0.498012 20.543604
vt 0.531964 1.357749
vt 0.664825 0.919067
vt 1.425536 0.498275
vt 0.976898 0.620776
vt 20.556395 0.528453
vt 21.003559 0.651257
vt 21.444765 1.395651
vt 21.311441 0.954683
vt 21.413836 20.580124
vt 21.279888 21.018602
vt 20.966900 21.316502
vn 1.0000 -0.0001 -0.0072
vn 0.9659 0.0000 -0.2588
vn 0.8541 0.1658 -0.4930
vn 0.9861 0.1661 -0.0071
vn 1.0000 0.0000 0.0072
vn 0.9862 0.1657 0.0071
vn 0.9659 0.0000 0.2588
vn 0.8540 0.1658 0.4932
vn 0.9237 0.3830 0.0065
vn 0.9237 0.3831 -0.0066
vn 0.7965 0.3943 0.4583
vn 0.7960 0.3944 -0.4592
vn 0.4593 0.3945 0.7959
vn 0.4932 0.1658 -0.8540
vn 0.7071 -0.0000 -0.7071
vn 0.4581 0.3943 -0.7966
vn 0.0071 0.1658 -0.9861
vn 0.2588 -0.0000 -0.9659
vn 0.0065 0.3830 -0.9237
vn 0.0072 0.0000 -1.0000
vn -0.0071 0.1662 -0.9861
vn -0.0066 0.3830 -0.9237
vn -0.0072 -0.0000 -1.0000
vn -0.4930 0.1659 -0.8541
vn -0.2588 -0.0000 -0.9659
vn -0.4593 0.3945 -0.7959
vn -0.8540 0.1658 -0.4932
vn -0.7071 -0.0000 -0.7071
vn -0.7966 0.3943 -0.4583
vn -0.9861 0.1658 -0.0071
vn -0.9659 0.0000 -0.2588
vn -0.9237 0.3830 -0.0065
vn -1.0000 -0.0000 -0.0072
vn -0.9861 0.1662 0.0071
vn -0.9237 0.3831 0.0066
vn -1.0000 0.0000 0.0072
vn -0.8541 0.1659 0.4930
vn -0.9659 0.0000 0.2588
vn -0.7960 0.3944 0.4592
vn -0.4932 0.1658 0.8540
vn -0.7071 0.0000 0.7071
vn -0.4581 0.3943 0.7966
vn -0.0071 0.1658 0.9861
vn -0.2588 -0.0000 0.9659
vn -0.0065 0.3830 0.9237
vn -0.0072 -0.0000 1.0000
vn 0.0071 0.1662 0.9861
vn 0.0066 0.3830 0.9237
vn 0.0072 -0.0001 1.0000
vn 0.4930 0.1659 0.8541
vn 0.2588 0.0000 0.9659
vn 0.7071 -0.0000 0.7071
vn 0.1101 0.9919 -0.0632
vn 0.1843 0.9285 -0.3223
vn 0.0627 0.9919 -0.1104
vn 0.0030 1.0000 -0.0000
vn 0.3223 0.9286 -0.1840
vn 0.0025 0.9240 -0.3823
vn 0.3823 0.9240 -0.0025
vn 0.3823 0.9240 0.0025
vn 0.0003 0.9992 -0.0410
vn -0.0025 0.9240 -0.3823
vn -0.0003 0.9992 -0.0408
vn -0.1839 0.9286 -0.3224
vn -0.0632 0.9919 -0.1101
vn -0.3223 0.9285 -0.1844
vn -0.0030 1.0000 -0.0000
vn -0.1104 0.9919 -0.0627
vn -0.3823 0.9240 -0.0025
vn -0.3823 0.9240 0.0025
vn -0.3224 0.9286 0.1839
vn -0.1101 0.9919 0.0632
vn -0.1843 0.9285 0.3223
vn -0.0003 0.9992 0.0410
vn -0.0627 0.9919 0.1104
vn -0.0025 0.9240 0.3823
vn 0.0025 0.9240 0.3823
vn 0.0003 0.9992 0.0407
vn 0.1839 0.9286 0.3224
vn 0.0632 0.9919 0.1101
vn 0.3223 0.9285 0.1844
vn 0.1104 0.9919 0.0627
usemtl PlanterGrassMaterial.002
s 1
f 1/1/1 3/2/2 2/3/3
f 1/1/1 2/3/3 4/4/4
f 5/5/5 1/1/1 4/4/4
f 5/5/5 4/4/4 6/6/6
f 7/7/7 5/5/5 6/6/6
f 7/7/7 6/6/6 8/8/8
f 4/4/4 9/9/9 6/6/6
f 4/4/4 10/10/10 9/9/9
f 2/3/3 10/10/10 4/4/4
f 11/11/11 6/6/6 9/9/9
f 11/11/11 8/8/8 6/6/6
f 2/3/3 12/12/12 10/10/10
f 13/13/13 8/8/8 11/11/11
f 12/12/12 2/3/3 14/14/14
f 3/2/15 14/14/14 2/3/3
f 3/2/15 15/15/15 14/14/14
f 12/12/12 14/14/14 16/16/16
f 16/16/16 14/14/14 17/17/17
f 15/15/18 17/17/17 14/14/14
f 16/16/16 17/17/17 18/18/19
f 15/15/18 19/19/20 17/17/17
f 18/18/19 17/17/17 20/20/21
f 19/19/20 20/20/21 17/17/17
f 18/18/19 20/20/21 21/21/22
f 19/19/20 22/22/23 20/20/21
f 21/21/22 20/20/21 23/23/24
f 22/22/23 23/23/24 20/20/21
f 22/22/23 24/24/25 23/23/24
f 21/21/22 23/23/24 25/25/26
f 25/25/26 23/23/24 26/26/27
f 24/24/28 26/26/27 23/23/24
f 24/24/28 27/27/28 26/26/27
f 25/25/26 26/26/27 28/28/29
f 28/28/29 26/26/27 29/29/30
f 27/27/31 29/29/30 26/26/27
f 28/28/29 29/29/30 30/30/32
f 27/27/31 31/31/33 29/29/30
f 30/30/32 29/29/30 32/32/34
f 31/31/33 32/32/34 29/29/30
f 30/30/32 32/32/34 33/33/35
f 31/31/33 34/34/36 32/32/34
f 33/33/35 32/32/34 35/35/37
f 34/34/36 35/35/37 32/32/34
f 34/34/36 36/36/38 35/35/37
f 33/33/35 35/35/37 37/37/39
f 37/37/39 35/35/37 38/38/40
f 36/36/41 38/38/40 35/35/37
f 36/36/41 39/39/41 38/38/40
f 37/37/39 38/38/40 40/40/42
f 40/40/42 38/38/40 41/41/43
f 39/39/44 41/41/43 38/38/40
f 40/40/42 41/41/43 42/42/45
f 39/39/44 43/43/46 41/41/43
f 42/42/45 41/41/43 44/44/47
f 43/43/46 44/44/47 41/41/43
f 42/42/45 44/44/47 45/45/48
f 43/43/46 46/46/49 44/44/47
f 45/45/48 44/44/47 47/47/50
f 46/46/49 47/47/50 44/44/47
f 46/46/49 48/48/51 47/47/50
f 45/45/48 47/47/50 13/13/13
f 13/13/13 47/47/50 8/8/8
f 48/48/52 8/8/8 47/47/50
f 48/48/52 7/7/52 8/8/8
f 49/49/53 16/16/54 50/50/55
f 51/51/56 49/49/53 50/50/55
f 12/12/57 49/49/53 51/51/56
f 49/49/53 12/12/57 16/16/54
f 50/50/55 16/16/54 18/18/58
f 12/12/57 51/51/56 10/10/59
f 10/10/59 51/51/56 52/52/56
f 10/10/59 52/52/56 9/9/60
f 50/50/55 18/18/58 53/53/61
f 51/51/56 50/50/55 53/53/61
f 53/53/61 18/18/58 21/21/62
f 53/53/61 21/21/62 54/54/63
f 51/51/56 53/53/61 54/54/63
f 54/54/63 21/21/62 25/25/64
f 54/54/63 25/25/64 55/55/65
f 55/55/65 25/25/64 28/28/66
f 51/51/56 54/54/63 56/56/67
f 56/56/67 54/54/63 55/55/65
f 55/55/65 28/28/66 57/57/68
f 56/56/67 55/55/65 57/57/68
f 57/57/68 28/28/66 30/30/69
f 57/57/68 30/30/69 56/56/67
f 56/56/67 30/30/69 33/33/70
f 51/51/56 56/56/67 58/58/67
f 56/56/67 33/33/70 58/58/67
f 51/51/56 58/58/67 52/52/56
f 58/58/67 33/33/70 37/37/71
f 58/58/67 37/37/71 59/59/72
f 59/59/72 37/37/71 40/40/73
f 60/60/74 58/58/67 59/59/72
f 52/52/56 58/58/67 60/60/74
f 59/59/72 40/40/73 61/61/75
f 60/60/74 59/59/72 61/61/75
f 61/61/75 40/40/73 42/42/76
f 61/61/75 42/42/76 60/60/74
f 60/60/74 42/42/76 45/45/77
f 60/60/74 45/45/77 62/62/78
f 52/52/56 60/60/74 62/62/78
f 62/62/78 45/45/77 13/13/79
f 62/62/78 13/13/79 63/63/80
f 52/52/56 62/62/78 63/63/80
f 63/63/80 13/13/79 11/11/81
f 52/52/56 63/63/80 64/64/82
f 63/63/80 11/11/81 64/64/82
f 64/64/82 9/9/60 52/52/56
f 64/64/82 11/11/81 9/9/60
