# Blender v2.92.0 OBJ File: 'sanfrancisco.blend'
# www.blender.org
mtllib RoadWorkAhead_1.mtl
o RoadWorkAhead_1_Scene.4772
v 26.737885 -0.432495 36.324451
v -26.737823 -0.432495 36.324459
v -26.737823 0.432678 36.324459
v 26.737885 0.432678 36.324451
v 26.737854 -0.432495 -36.324463
v 26.737854 0.432678 -36.324463
v -26.737854 -0.432495 -36.324463
v -26.737854 0.432678 -36.324463
vt 0.152805 0.778979
vt 0.152659 0.771315
vt 0.152783 0.771315
vt 0.152681 0.778980
vt 0.152309 0.781729
vt 0.152154 0.771317
vt 0.152278 0.771316
vt 0.152185 0.781729
vt 0.153057 0.778979
vt 0.152911 0.771315
vt 0.153035 0.771314
vt 0.152933 0.778979
vt 0.152561 0.781728
vt 0.152406 0.771316
vt 0.152530 0.771316
vt 0.152437 0.781728
vt 0.218152 0.751223
vt 0.127007 0.873878
vt 0.127007 0.751223
vt 0.218152 0.873878
vt 0.996850 0.875621
vt 0.977063 0.902503
vt 0.977063 0.875621
vt 0.996850 0.902503
vn 0.0000 0.0000 1.0000
vn 1.0000 0.0000 -0.0000
vn 0.0000 0.0000 -1.0000
vn -1.0000 0.0000 0.0000
vn 0.0000 1.0000 0.0000
vn 0.0000 -1.0000 0.0000
usemtl SFVariousStreetSignsMaterial.002
s 1
f 1/1/1 3/2/1 2/3/1
f 1/1/1 4/4/1 3/2/1
f 5/5/2 4/6/2 1/7/2
f 5/5/2 6/8/2 4/6/2
f 7/9/3 6/10/3 5/11/3
f 7/9/3 8/12/3 6/10/3
f 2/13/4 8/14/4 7/15/4
f 2/13/4 3/16/4 8/14/4
f 4/17/5 8/18/5 3/19/5
f 4/17/5 6/20/5 8/18/5
f 5/21/6 2/22/6 7/23/6
f 5/21/6 1/24/6 2/22/6
