# Blender v2.92.0 OBJ File: 'sanfrancisco.blend'
# www.blender.org
mtllib RoofConcretebare_56.mtl
o RoofConcretebare_56_Scene.3451
v -1999.999878 599.999939 1200.000000
v -1999.999878 599.999939 -1199.999878
v 1999.999878 600.000000 -1199.999878
v 2000.000000 600.000000 1199.999878
vt 2.500000 0.000000
vt -7.500000 -6.000000
vt 2.500000 -6.000000
vt -7.500000 0.000000
vn -0.0000 1.0000 -0.0000
usemtl RoofConcretebareMaterial.002
s 1
f 1/1/1 3/2/1 2/3/1
f 1/1/1 4/4/1 3/2/1
