# Blender v2.92.0 OBJ File: 'sanfrancisco.blend'
# www.blender.org
mtllib Roofpanels_548.mtl
o Roofpanels_548_Scene.4558
v -1249.999878 1399.999878 999.999878
v -1249.999634 1399.999878 -999.999939
v 1250.000000 1400.000000 -999.999878
v 1250.000000 1400.000000 999.999878
vt 6.250000 5.000000
vt 0.000000 0.000000
vt 6.250000 0.000000
vt 0.000000 5.000000
vn -0.0000 1.0000 -0.0000
usemtl RoofpanelsMaterial.002
s 1
f 1/1/1 3/2/1 2/3/1
f 1/1/1 4/4/1 3/2/1
