# Blender v2.92.0 OBJ File: 'sanfrancisco.blend'
# www.blender.org
mtllib Roofpanels_490.mtl
o Roofpanels_490_Scene.4264
v 399.139526 19799.998047 -592.266785
v 560.223450 19799.998047 440.057281
v -403.253174 19799.998047 602.447449
v -556.109497 19799.998047 -450.238037
vt -0.000000 0.000000
vt 6.059649 6.576928
vt 0.000000 6.576927
vt 6.059649 0.000000
vn 0.0000 1.0000 -0.0000
usemtl RoofpanelsMaterial.002
s 1
f 1/1/1 3/2/1 2/3/1
f 1/1/1 4/4/1 3/2/1
