# Blender v2.92.0 OBJ File: 'sanfrancisco.blend'
# www.blender.org
mtllib Roofpanels_421.mtl
o Roofpanels_421_Scene.4173
v -116.473267 3749.999756 1591.796875
v -1460.126099 3749.999512 599.243103
v 133.355713 3749.999756 -1581.664673
v 1443.243896 3749.999756 -609.375000
vt 9.854628 6.017016
vt 0.204504 0.100292
vt 9.809172 0.076993
vt 0.262274 5.900831
vn -0.0000 1.0000 0.0000
usemtl RoofpanelsMaterial.002
s 1
f 1/1/1 3/2/1 2/3/1
f 1/1/1 4/4/1 3/2/1
