# Blender v2.92.0 OBJ File: 'sanfrancisco.blend'
# www.blender.org
mtllib RoofConcretebare_46.mtl
o RoofConcretebare_46_Scene.3418
v -2500.000000 600.000000 1999.999634
v -2499.999756 600.000000 -1999.999756
v 2500.000000 600.000000 -1999.999756
v 2499.999756 600.000000 1999.999878
vt 2.500000 0.000000
vt -10.000000 -10.000000
vt 2.500000 -10.000000
vt -10.000000 0.000000
vn 0.0000 1.0000 0.0000
usemtl RoofConcretebareMaterial.002
s 1
f 1/1/1 3/2/1 2/3/1
f 1/1/1 4/4/1 3/2/1
