# Blender v2.92.0 OBJ File: 'sanfrancisco.blend'
# www.blender.org
mtllib Roofpanels_50.mtl
o Roofpanels_50_Scene.3757
v 3201.140625 2442.000000 -1152.374756
v -2565.726318 2442.000000 -2894.046387
v 2242.554688 2441.999756 -2757.312256
v 1654.421875 2442.000000 1039.070190
v -2489.991943 2442.000000 -216.843750
v 876.406189 2442.000000 2141.390381
v -4044.851318 2442.000000 1507.765381
v -440.249878 2441.999756 4006.858643
vt 134.208801 199.055893
vt 136.126007 195.846100
vt 145.742599 195.572601
vt 137.302246 203.438782
vt 145.591095 200.927002
vt 138.858276 205.643433
vt 148.700806 204.376297
vt 141.491592 209.374405
vn 0.0000 1.0000 0.0000
usemtl RoofpanelsMaterial.002
s 1
f 1/1/1 3/2/1 2/3/1
f 1/1/1 2/3/1 4/4/1
f 4/4/1 2/3/1 5/5/1
f 4/4/1 5/5/1 6/6/1
f 6/6/1 5/5/1 7/7/1
f 6/6/1 7/7/1 8/8/1
