# Blender v2.92.0 OBJ File: 'sanfrancisco.blend'
# www.blender.org
mtllib Roofpanels_140.mtl
o Roofpanels_140_Scene.3901
v -813.760132 888.000000 -58.804321
v -312.185425 888.000000 -747.170959
v 805.111633 888.000061 65.719582
v 320.834412 888.000000 740.255737
vt 8.137695 -0.588013
vt -8.051025 0.657227
vt 3.121948 -7.471680
vt -3.208252 7.402588
vn -0.0000 1.0000 0.0000
usemtl RoofpanelsMaterial.002
s 1
f 1/1/1 3/2/1 2/3/1
f 1/1/1 4/4/1 3/2/1
