# Blender v2.92.0 OBJ File: 'sanfrancisco.blend'
# www.blender.org
mtllib Roofpanels_208.mtl
o Roofpanels_208_Scene.3985
v -751.823120 1039.999878 332.375031
v 306.245667 1039.999878 -1119.199951
v 597.926453 1040.000000 -909.056030
v -499.161987 1040.000000 603.664124
v -596.293335 1040.000000 609.193909
v -759.501343 1039.999878 491.090820
v -395.621948 1039.999756 678.810425
v 702.618652 1040.000000 -833.629639
v -84.257324 1039.999756 804.201233
v 976.460388 1039.999878 -636.338196
v -377.152832 1039.999756 772.414062
v -226.493530 1039.999878 876.076050
vt 8.610435 0.420959
vt 0.252112 2.128995
vt 0.254246 0.456613
vt 8.945175 2.112769
vt 9.230627 1.761553
vt 9.229864 0.824369
vt 8.946491 2.707925
vt 0.251348 2.729259
vt 8.571135 4.223657
vt 0.249343 4.299361
vt 9.249155 3.032563
vt 9.229646 3.883086
vn -0.0000 1.0000 -0.0000
usemtl RoofpanelsMaterial.002
s 1
f 1/1/1 3/2/1 2/3/1
f 1/1/1 4/4/1 3/2/1
f 1/1/1 5/5/1 4/4/1
f 1/1/1 6/6/1 5/5/1
f 3/2/1 4/4/1 7/7/1
f 3/2/1 7/7/1 8/8/1
f 8/8/1 7/7/1 9/9/1
f 8/8/1 9/9/1 10/10/1
f 9/9/1 7/7/1 11/11/1
f 9/9/1 11/11/1 12/12/1
