# Blender v2.92.0 OBJ File: 'sanfrancisco.blend'
# www.blender.org
mtllib Roofpanels_102.mtl
o Roofpanels_102_Scene.3850
v -452.834839 2700.000000 -876.684509
v 981.747559 2700.000000 142.492706
v 460.080139 2700.000000 896.008118
v -988.992188 2700.000000 -161.816376
vt 4.528320 -8.766846
vt -4.600830 8.960083
vt -9.817505 1.424927
vt 9.889893 -1.618164
vn 0.0000 1.0000 0.0000
usemtl RoofpanelsMaterial.002
s 1
f 1/1/1 3/2/1 2/3/1
f 1/1/1 4/4/1 3/2/1
