# Blender v2.92.0 OBJ File: 'sanfrancisco.blend'
# www.blender.org
mtllib RoofConcretebare_33.mtl
o RoofConcretebare_33_Scene.3304
v -1899.999756 599.999878 1499.999756
v -1899.999878 599.999878 -1499.999878
v 1899.999878 600.000000 -1499.999756
v 1900.000000 600.000000 1499.999878
vt 19.500000 13.000000
vt 10.000000 5.500000
vt 19.500000 5.500000
vt 10.000000 13.000000
vn -0.0000 1.0000 0.0000
usemtl RoofConcretebareMaterial.002
s 1
f 1/1/1 3/2/1 2/3/1
f 1/1/1 4/4/1 3/2/1
