# Blender v2.92.0 OBJ File: 'sanfrancisco.blend'
# www.blender.org
mtllib Roofpanels_55.mtl
o Roofpanels_55_Scene.3773
v -2247.161377 9299.999023 377.281158
v -393.829285 9299.999023 -1952.613281
v 2267.017090 9299.999023 -509.663269
v 373.974609 9299.999023 2084.996338
vt 22.471621 3.772827
vt -22.670170 -5.096619
vt 3.938293 -19.526119
vt -3.739746 20.849979
vn 0.0000 1.0000 0.0000
usemtl RoofpanelsMaterial.002
s 1
f 1/1/1 3/2/1 2/3/1
f 1/1/1 4/4/1 3/2/1
