# Blender v2.92.0 OBJ File: 'sanfrancisco.blend'
# www.blender.org
mtllib SFRoads019_10.mtl
o SFRoads019_10_Scene.5527
v -876.849121 0.000008 -140.844727
v 136.554138 0.000008 1196.349854
v -1168.938843 0.000008 271.350067
v 428.753723 0.000008 784.045288
v -585.150024 0.000008 -552.746582
v 720.453003 0.000015 372.155731
v -129.144165 0.000008 -1196.349976
v 1168.939209 0.000008 -260.949677
vt 0.000000 0.353267
vt 0.000000 0.000000
vt 0.999967 0.000000
vt 0.999967 0.355820
vt 0.000000 0.699065
vt 0.999967 0.704155
vt 0.000000 1.000000
vt 0.999967 1.000000
vn 0.0000 1.0000 -0.0000
usemtl StreetOneWayFourLaneIntersectionDiffuse.001
s 1
f 1/1/1 3/2/1 2/3/1
f 4/4/1 1/1/1 2/3/1
f 5/5/1 1/1/1 4/4/1
f 6/6/1 5/5/1 4/4/1
f 7/7/1 5/5/1 6/6/1
f 8/8/1 7/7/1 6/6/1
