# Blender v2.92.0 OBJ File: 'sanfrancisco.blend'
# www.blender.org
mtllib SFRoads017_4.mtl
o SFRoads017_4_Scene.5496
v -722.424194 0.000046 -722.894226
v 530.896118 0.000046 289.202850
v -1126.391357 0.000046 -104.425041
v 1126.391602 0.000031 -722.894165
v 246.191467 0.000031 722.894165
vt 0.000000 1.000000
vt 0.000000 0.000000
vt 0.999967 0.551020
vt 0.999967 1.000000
vt 0.999967 0.000000
vn 0.0000 1.0000 -0.0000
usemtl StreetAsphaltDiffuse.001
s 1
f 1/1/1 3/2/1 2/3/1
f 4/4/1 1/1/1 2/3/1
f 2/3/1 3/2/1 5/5/1
