# Blender v2.92.0 OBJ File: 'sanfrancisco.blend'
# www.blender.org
mtllib SFRoads026_8.mtl
o SFRoads026_8_Scene.5633
v -932.604736 -0.000004 -68.743896
v 86.999512 -0.000008 1264.849854
v -1221.899414 -0.000004 344.647186
v 379.199341 0.000000 847.247253
v -641.198486 -0.000004 -485.052490
v 668.005493 -0.000004 434.649567
v -83.215210 -0.000004 -1264.849731
v 1221.899536 -0.000004 -338.934326
vt 0.000000 0.220113
vt 0.000000 0.000000
vt 0.999967 0.000000
vt 0.999967 0.224146
vt 0.000000 0.519532
vt 0.999967 0.521935
vt 0.000000 1.000000
vt 0.999967 1.000000
vn -0.0000 1.0000 0.0000
usemtl StreetOneWayFourLaneIntersectionDiffuse.001
s 1
f 1/1/1 3/2/1 2/3/1
f 4/4/1 1/1/1 2/3/1
f 5/5/1 1/1/1 4/4/1
f 6/6/1 5/5/1 4/4/1
f 7/7/1 5/5/1 6/6/1
f 8/8/1 7/7/1 6/6/1
