# Blender v2.92.0 OBJ File: 'sanfrancisco.blend'
# www.blender.org
mtllib SFRoads011_18.mtl
o SFRoads011_18_Scene.5385
v 1097.802734 0.000015 1639.757935
v 1085.205078 0.000015 2147.063721
v -501.794373 0.000000 1602.794922
v -514.196716 0.000000 2104.888428
v 1071.105957 0.000015 2652.348877
v -528.198303 0.000000 2605.217529
v 1055.505371 0.000015 3155.223633
v -543.591248 0.000000 3103.398926
v 1038.305542 0.000015 3663.555420
v -560.693420 0.000000 3607.189453
v 1019.897461 0.000015 4168.486816
v -578.991760 0.000000 4107.824219
v 999.902222 0.000015 4677.758301
v -598.791443 0.000000 4612.975586
v 978.808533 0.000015 5182.573730
v -619.702087 0.000000 5113.915527
v 956.408691 0.000015 5690.483887
v -641.992249 0.000000 5618.139648
v 933.105408 0.000015 6192.833984
v -665.100159 0.000000 6117.016113
v 908.703552 0.000000 6696.929199
v -689.392029 0.000015 6617.815430
v 883.105469 0.000000 7201.933594
v -714.697327 0.000015 7119.756348
v 856.701660 0.000000 7706.969238
v -740.991150 0.000015 7621.929199
v 829.504272 0.000000 8211.095703
v -768.103088 0.000015 8123.393555
v 801.501404 0.000000 8713.330078
v -795.996033 0.000015 8623.199219
v 772.607361 0.000000 9219.726562
v -824.792664 0.000015 9127.416992
v 743.298340 0.000000 9721.678711
v -853.991516 0.000000 9627.465820
v 713.305603 0.000000 10224.750000
v -883.801208 0.000000 10128.949219
v 683.007751 0.000000 10727.024414
v -914.099060 0.000000 10629.999023
v 652.099548 0.000031 11232.823242
v -944.897522 0.000000 11134.953125
v 621.398926 0.000031 11733.024414
v -975.598206 0.000000 11634.843750
v 590.502869 0.000031 12236.858398
v -1006.494080 0.000000 12138.988281
v 559.802185 0.000015 12739.867188
v -1037.292480 0.000000 12643.144531
v 529.699646 0.000015 13242.308594
v -1067.492676 0.000000 13147.875000
v 500.805634 0.000015 13741.398438
v -1096.801758 0.000000 13652.458008
v 478.601044 0.000015 14231.125977
v -1120.397949 0.000031 14176.707031
v 468.200684 0.000015 14712.053711
v -1131.701660 0.000031 14698.338867
v 471.105927 0.000015 15194.853516
v -1128.490967 0.000031 15229.057617
v 488.708435 0.000015 15671.464844
v -1109.094238 0.000000 15754.355469
v 519.006287 0.000015 16161.308594
v -1077.600098 0.000000 16265.873047
v 543.200623 0.000015 16714.462891
v -1056.799072 0.000000 16721.287109
v 496.740723 0.000015 17044.355469
v -1110.290527 0.000000 17025.755859
v -468.298279 0.000015 -2415.832520
v -471.997131 0.000015 -2915.313721
v 1131.701538 0.000000 -2425.500488
v 1127.905273 0.000000 -2929.565430
v -477.099548 0.000015 -3413.482666
v 1122.802734 0.000000 -3431.951660
v -483.496033 0.000015 -3916.821045
v 1116.308594 0.000015 -3939.184326
v -491.101013 0.000000 -4418.115234
v 1108.703491 0.000015 -4444.030273
v -499.694885 0.000000 -4916.912598
v 1100.000000 0.000015 -4946.099609
v -509.399353 0.000000 -5419.951660
v 1090.307495 0.000015 -5452.141602
v -519.897400 0.000000 -5919.829102
v 1079.699585 0.000015 -5954.741699
v -531.298767 0.000000 -6423.412109
v 1068.298340 0.000015 -6460.833496
v -543.298279 0.000000 -6923.241699
v 1056.201172 0.000015 -6962.902344
v -556.091370 0.000000 -7426.250488
v 1043.408203 0.000015 -7467.949219
v -569.592346 0.000000 -7932.280273
v 1029.797241 0.000015 -7975.823242
v -583.496155 0.000000 -8433.708984
v 1015.808105 0.000015 -8478.892578
v -597.997986 0.000000 -8937.693359
v 1001.306152 0.000015 -8984.312500
v -613.000427 0.000000 -9444.041992
v 986.303650 0.000015 -9491.923828
v -628.100525 0.000000 -9945.060547
v 971.105896 0.000015 -9994.010742
v -643.591248 0.000000 -10448.001953
v 955.602966 0.000015 -10497.850586
v -659.497131 0.000000 -10952.703125
v 939.697144 0.000015 -11003.288086
v -675.598083 0.000015 -11458.958008
v 923.608276 0.000015 -11510.143555
v -691.699036 0.000015 -11959.019531
v 907.507263 0.000000 -12010.613281
v -707.897766 0.000015 -12460.290039
v 891.308594 0.000000 -12512.138672
v -724.194519 0.000015 -12962.572266
v 874.902283 0.000000 -13014.511719
v -740.502991 0.000015 -13465.678711
v 858.605957 0.000000 -13517.582031
v -756.897034 0.000015 -13969.492188
v 842.297302 0.000000 -14021.189453
v -773.095764 0.000015 -14473.801758
v 826.000916 0.000000 -14525.139648
v -789.196716 0.000015 -14978.459961
v 809.997498 0.000000 -15029.290039
v -805.200134 0.000015 -15483.268555
v 794.006287 0.000000 -15533.464844
v -820.898376 0.000015 -15988.089844
v 778.308105 0.000000 -16037.449219
v -836.291565 0.000000 -16492.759766
v 762.902710 0.000000 -16541.162109
v -851.391541 0.000000 -16997.068359
v 747.900391 0.000000 -17044.357422
vt 0.999967 10.000000
vt 0.000000 10.000000
vt 0.999967 9.664375
vt 0.000000 9.651980
vt 0.999967 9.337668
vt 0.000000 9.328479
vt 0.999967 9.012483
vt 0.000000 9.006327
vt 0.999967 8.683731
vt 0.000000 8.680511
vt 0.999967 8.357145
vt 0.000000 8.356704
vt 0.999967 8.027716
vt 0.000000 8.029941
vt 0.999967 7.701139
vt 0.000000 7.705872
vt 0.999967 7.372532
vt 0.000000 7.379648
vt 0.999967 7.047493
vt 0.000000 7.056856
vt 0.999967 6.721299
vt 0.000000 6.732794
vt 0.999967 6.394487
vt 0.000000 6.407968
vt 0.999967 6.067637
vt 0.000000 6.082969
vt 0.999967 5.741353
vt 0.000000 5.758410
vt 0.999967 5.416273
vt 0.000000 5.434899
vt 0.999967 5.088481
vt 0.000000 5.108516
vt 0.999967 4.763549
vt 0.000000 4.784818
vt 0.999967 4.437880
vt 0.000000 4.460178
vt 0.999967 4.112714
vt 0.000000 4.135805
vt 0.999967 3.785259
vt 0.000000 3.808896
vt 0.999967 3.461424
vt 0.000000 3.485262
vt 0.999967 3.135239
vt 0.000000 3.158875
vt 0.999967 2.809590
vt 0.000000 2.832484
vt 0.999967 2.484324
vt 0.000000 2.505737
vt 0.999967 2.161251
vt 0.000000 2.179106
vt 0.999967 1.844392
vt 0.000000 1.839914
vt 0.999967 1.533510
vt 0.000000 1.502719
vt 0.999967 1.221746
vt 0.000000 1.160013
vt 0.999967 0.914345
vt 0.000000 0.821210
vt 0.999967 0.598711
vt 0.000000 0.491608
vt 0.999967 0.242035
vt 0.000000 0.197977
vt 0.999967 0.000000
vt 0.000000 0.000000
vt 0.000000 0.000000
vt 0.999968 0.000000
vt 0.000000 0.224744
vt 0.999968 0.225103
vt 0.000000 0.420289
vt 0.999968 0.420290
vt 0.000000 0.593234
vt 0.999968 0.593234
vt 0.000000 0.842889
vt 0.999968 0.842889
vt 0.000000 1.091163
vt 0.999968 1.091163
vt 0.000000 1.341449
vt 0.999968 1.341449
vt 0.000000 1.590013
vt 0.999968 1.590013
vt 0.000000 1.840343
vt 0.999968 1.840343
vt 0.000000 2.088655
vt 0.999968 2.088655
vt 0.000000 2.338482
vt 0.999968 2.338482
vt 0.000000 2.589691
vt 0.999968 2.589691
vt 0.000000 2.838548
vt 0.999968 2.838548
vt 0.000000 3.088579
vt 0.999968 3.088579
vt 0.000000 3.339659
vt 0.999968 3.339659
vt 0.000000 3.588060
vt 0.999968 3.588060
vt 0.000000 3.837301
vt 0.999968 3.837301
vt 0.000000 4.087374
vt 0.999968 4.087374
vt 0.000000 4.338122
vt 0.999968 4.338122
vt 0.000000 4.585678
vt 0.999968 4.585678
vt 0.000000 4.833827
vt 0.999968 4.833827
vt 0.000000 5.082353
vt 0.999968 5.082353
vt 0.000000 5.331251
vt 0.999968 5.331251
vt 0.000000 5.580408
vt 0.999968 5.580408
vt 0.000000 5.829728
vt 0.999968 5.829728
vt 0.000000 6.079134
vt 0.999968 6.079134
vt 0.000000 6.328536
vt 0.999968 6.328536
vt 0.000000 6.577901
vt 0.999968 6.577901
vt 0.000000 6.827055
vt 0.999968 6.827055
vt 0.000000 7.000000
vt 0.999968 7.000000
vn -0.0000 1.0000 -0.0000
usemtl StreetOneway4LaneMaterial.002
s 1
f 1/1/1 3/2/1 2/3/1
f 3/2/1 4/4/1 2/3/1
f 5/5/1 2/3/1 4/4/1
f 6/6/1 5/5/1 4/4/1
f 7/7/1 5/5/1 6/6/1
f 8/8/1 7/7/1 6/6/1
f 9/9/1 7/7/1 8/8/1
f 10/10/1 9/9/1 8/8/1
f 11/11/1 9/9/1 10/10/1
f 12/12/1 11/11/1 10/10/1
f 13/13/1 11/11/1 12/12/1
f 14/14/1 13/13/1 12/12/1
f 15/15/1 13/13/1 14/14/1
f 16/16/1 15/15/1 14/14/1
f 17/17/1 15/15/1 16/16/1
f 18/18/1 17/17/1 16/16/1
f 19/19/1 17/17/1 18/18/1
f 20/20/1 19/19/1 18/18/1
f 21/21/1 19/19/1 20/20/1
f 22/22/1 21/21/1 20/20/1
f 23/23/1 21/21/1 22/22/1
f 24/24/1 23/23/1 22/22/1
f 25/25/1 23/23/1 24/24/1
f 26/26/1 25/25/1 24/24/1
f 27/27/1 25/25/1 26/26/1
f 28/28/1 27/27/1 26/26/1
f 29/29/1 27/27/1 28/28/1
f 30/30/1 29/29/1 28/28/1
f 31/31/1 29/29/1 30/30/1
f 32/32/1 31/31/1 30/30/1
f 33/33/1 31/31/1 32/32/1
f 34/34/1 33/33/1 32/32/1
f 35/35/1 33/33/1 34/34/1
f 36/36/1 35/35/1 34/34/1
f 37/37/1 35/35/1 36/36/1
f 38/38/1 37/37/1 36/36/1
f 39/39/1 37/37/1 38/38/1
f 40/40/1 39/39/1 38/38/1
f 41/41/1 39/39/1 40/40/1
f 42/42/1 41/41/1 40/40/1
f 43/43/1 41/41/1 42/42/1
f 44/44/1 43/43/1 42/42/1
f 45/45/1 43/43/1 44/44/1
f 46/46/1 45/45/1 44/44/1
f 47/47/1 45/45/1 46/46/1
f 48/48/1 47/47/1 46/46/1
f 49/49/1 47/47/1 48/48/1
f 50/50/1 49/49/1 48/48/1
f 51/51/1 49/49/1 50/50/1
f 52/52/1 51/51/1 50/50/1
f 53/53/1 51/51/1 52/52/1
f 54/54/1 53/53/1 52/52/1
f 55/55/1 53/53/1 54/54/1
f 56/56/1 55/55/1 54/54/1
f 57/57/1 55/55/1 56/56/1
f 58/58/1 57/57/1 56/56/1
f 59/59/1 57/57/1 58/58/1
f 60/60/1 59/59/1 58/58/1
f 61/61/1 59/59/1 60/60/1
f 62/62/1 61/61/1 60/60/1
f 62/62/1 63/63/1 61/61/1
f 64/64/1 63/63/1 62/62/1
f 65/65/1 67/66/1 66/67/1
f 67/66/1 68/68/1 66/67/1
f 66/67/1 68/68/1 69/69/1
f 68/68/1 70/70/1 69/69/1
f 69/69/1 70/70/1 71/71/1
f 70/70/1 72/72/1 71/71/1
f 71/71/1 72/72/1 73/73/1
f 72/72/1 74/74/1 73/73/1
f 73/73/1 74/74/1 75/75/1
f 74/74/1 76/76/1 75/75/1
f 75/75/1 76/76/1 77/77/1
f 76/76/1 78/78/1 77/77/1
f 77/77/1 78/78/1 79/79/1
f 78/78/1 80/80/1 79/79/1
f 79/79/1 80/80/1 81/81/1
f 80/80/1 82/82/1 81/81/1
f 81/81/1 82/82/1 83/83/1
f 82/82/1 84/84/1 83/83/1
f 83/83/1 84/84/1 85/85/1
f 84/84/1 86/86/1 85/85/1
f 85/85/1 86/86/1 87/87/1
f 86/86/1 88/88/1 87/87/1
f 87/87/1 88/88/1 89/89/1
f 88/88/1 90/90/1 89/89/1
f 89/89/1 90/90/1 91/91/1
f 90/90/1 92/92/1 91/91/1
f 91/91/1 92/92/1 93/93/1
f 92/92/1 94/94/1 93/93/1
f 93/93/1 94/94/1 95/95/1
f 94/94/1 96/96/1 95/95/1
f 95/95/1 96/96/1 97/97/1
f 96/96/1 98/98/1 97/97/1
f 97/97/1 98/98/1 99/99/1
f 98/98/1 100/100/1 99/99/1
f 99/99/1 100/100/1 101/101/1
f 100/100/1 102/102/1 101/101/1
f 101/101/1 102/102/1 103/103/1
f 102/102/1 104/104/1 103/103/1
f 103/103/1 104/104/1 105/105/1
f 104/104/1 106/106/1 105/105/1
f 105/105/1 106/106/1 107/107/1
f 106/106/1 108/108/1 107/107/1
f 107/107/1 108/108/1 109/109/1
f 108/108/1 110/110/1 109/109/1
f 109/109/1 110/110/1 111/111/1
f 110/110/1 112/112/1 111/111/1
f 111/111/1 112/112/1 113/113/1
f 112/112/1 114/114/1 113/113/1
f 113/113/1 114/114/1 115/115/1
f 114/114/1 116/116/1 115/115/1
f 115/115/1 116/116/1 117/117/1
f 116/116/1 118/118/1 117/117/1
f 117/117/1 118/118/1 119/119/1
f 118/118/1 120/120/1 119/119/1
f 119/119/1 120/120/1 121/121/1
f 120/120/1 122/122/1 121/121/1
f 123/123/1 121/121/1 122/122/1
f 124/124/1 123/123/1 122/122/1
