# Blender v2.92.0 OBJ File: 'sanfrancisco.blend'
# www.blender.org
mtllib SFRoads011_24.mtl
o SFRoads011_24_Scene.5391
v 795.800842 0.000015 799.999817
v -795.703125 0.000031 -799.999878
v 804.296875 0.000015 -799.999939
v -804.296875 0.000031 799.999878
vt 0.999967 0.000000
vt 0.999967 1.000000
vt 0.000000 1.000000
vt 0.000000 0.000000
vn 0.0000 1.0000 0.0000
usemtl StreetAsphaltMaterial.002
s 1
f 1/1/1 3/2/1 2/3/1
f 4/4/1 1/1/1 2/3/1
