# Blender v2.92.0 OBJ File: 'sanfrancisco.blend'
# www.blender.org
mtllib SFRoads021_17.mtl
o SFRoads021_17_Scene.5559
v 1121.763184 0.000000 -187.249741
v 182.240845 0.000015 1110.796997
v -1121.762939 0.000031 183.392288
v -180.759644 0.000000 -1110.796997
vt 0.999967 1.000000
vt 0.000000 0.000000
vt 0.999967 0.000000
vt 0.000000 1.000000
vn 0.0000 1.0000 -0.0000
usemtl StreetAsphaltDiffuse.001
s 1
f 1/1/1 3/2/1 2/3/1
f 1/1/1 4/4/1 3/2/1
