# Blender v2.92.0 OBJ File: 'sanfrancisco.blend'
# www.blender.org
mtllib SFRoads016_11.mtl
o SFRoads016_11_Scene.5486
v 807.049561 0.000031 209.828125
v 487.860107 0.000031 676.649353
v -807.049561 0.000031 -266.783142
v -521.386719 0.000031 -676.649414
vt 0.999967 1.000000
vt 0.000000 0.000000
vt 0.999967 0.000000
vt 0.000000 1.000000
vn 0.0000 1.0000 0.0000
usemtl StreetAsphaltSidesMaterial.002
s 1
f 1/1/1 3/2/1 2/3/1
f 4/4/1 3/2/1 1/1/1
