# Blender MTL File: 'sanfrancisco.blend'
# Material Count: 1

newmtl StreetOneWayFourLaneDiffuse.001
Ns 179.999996
Ka 1.000000 1.000000 1.000000
Kd 1.000000 1.000000 1.000000
Ks 0.500000 0.500000 0.500000
Ke 1.000000 1.000000 1.000000
Ni 1.450000
d 1.000000
illum 2
map_Kd StreetOneWayFourLaneDiffuse.png
norm StreetOneWayFourLaneNormal.png 
map_ks StreetOneWayFourLaneSpecular.png 
map_ka StreetOneWayFourLaneIntensity.png 
