# Blender v2.92.0 OBJ File: 'sanfrancisco.blend'
# www.blender.org
mtllib SFRoads009_7.mtl
o SFRoads009_7_Scene.5337
v 81.713867 -0.000183 -520.439087
v 817.041016 -0.000183 -90.687561
v 680.151367 -0.000183 424.650543
v -97.839325 -0.000183 202.021790
v -632.055603 -0.000183 -937.589905
v -858.154236 -0.000183 -15.550240
v 124.560577 -0.000183 -937.589966
v 997.460938 -0.000183 -937.586853
v -167.584167 0.000000 461.201416
v 522.460938 -0.000183 937.589844
v -239.367615 -0.000122 686.973450
v -997.460876 -0.000183 437.580811
vt 0.496447 0.718646
vt 1.000000 0.277551
vt 1.000000 0.520370
vt 0.496447 0.303441
vt 0.000000 1.003447
vt 0.000000 0.331781
vt 0.496447 1.000000
vt 1.000000 1.000000
vt 0.496447 0.142179
vt 1.000000 0.000000
vt 0.496447 0.000000
vt 0.000000 0.000000
vn 0.0000 1.0000 -0.0000
usemtl StreetDoubleYellow4LaneIntersectionMaterial.002
s 1
f 1/1/1 3/2/1 2/3/1
f 1/1/1 4/4/1 3/2/1
f 5/5/1 4/4/1 1/1/1
f 5/5/1 6/6/1 4/4/1
f 1/1/1 7/7/1 5/5/1
f 8/8/1 7/7/1 1/1/1
f 8/8/1 1/1/1 2/3/1
f 9/9/1 4/4/1 6/6/1
f 3/2/1 4/4/1 9/9/1
f 3/2/1 9/9/1 10/10/1
f 9/9/1 11/11/1 10/10/1
f 6/6/1 11/11/1 9/9/1
f 6/6/1 12/12/1 11/11/1
