# Blender v2.92.0 OBJ File: 'sanfrancisco.blend'
# www.blender.org
mtllib SFRoads018_15.mtl
o SFRoads018_15_Scene.5516
v -1118.200562 0.000061 182.653778
v 1118.200806 0.000031 -182.751434
v 182.104736 0.000031 1114.953491
v -182.214111 0.000031 -1114.953369
vt 0.000000 0.000000
vt 0.999967 0.000000
vt 0.999967 1.000000
vt 0.000000 1.000000
vn 0.0000 1.0000 -0.0000
usemtl StreetAsphaltDiffuse.001
s 1
f 1/1/1 3/2/1 2/3/1
f 4/4/1 1/1/1 2/3/1
