# Blender v2.92.0 OBJ File: 'sanfrancisco.blend'
# www.blender.org
mtllib SFRoads028_5.mtl
o SFRoads028_5_Scene.5654
v 794.836548 0.000000 265.789764
v -204.455444 -0.000061 -1082.794189
v 1092.248535 -0.000122 -145.513901
v -501.769775 -0.000061 -671.710144
v 498.645081 0.000000 675.286743
v -797.668213 -0.000061 -262.506073
v 203.845337 -0.000061 1082.794067
v -1092.248169 -0.000061 144.683838
vt 0.000000 0.334646
vt 0.000000 0.000000
vt 0.999967 0.000000
vt 0.999967 0.322371
vt 0.000000 0.667863
vt 0.999967 0.655314
vt 0.000000 1.000000
vt 0.999967 1.000000
vn 0.0000 1.0000 -0.0000
usemtl StreetDoubleYellowFourLaneIntersectionDiffuse.001
s 1
f 1/1/1 3/2/1 2/3/1
f 4/4/1 1/1/1 2/3/1
f 5/5/1 1/1/1 4/4/1
f 6/6/1 5/5/1 4/4/1
f 7/7/1 5/5/1 6/6/1
f 8/8/1 7/7/1 6/6/1
