# Blender v2.92.0 OBJ File: 'sanfrancisco.blend'
# www.blender.org
mtllib SFRoads011_22.mtl
o SFRoads011_22_Scene.5389
v -753.454590 0.000015 -799.987732
v -249.743530 0.000015 -799.987732
v -753.454590 0.000015 799.993835
v -249.743530 0.000015 799.993835
v 251.355042 0.000000 -800.006042
v 251.355042 0.000000 799.993774
v 753.454590 0.000015 -799.993896
v 753.454712 0.000015 800.005920
vt 0.000000 0.000000
vt 0.999967 0.000000
vt 0.000000 0.346053
vt 0.999967 0.346053
vt 0.000000 0.640746
vt 0.999967 0.640746
vt 0.000000 1.000000
vt 0.999967 1.000000
vn 0.0000 1.0000 0.0000
usemtl StreetDoubleYellowFourLaneIntersectionDiffuse.001
s 1
f 1/1/1 3/2/1 2/3/1
f 3/2/1 4/4/1 2/3/1
f 5/5/1 2/3/1 4/4/1
f 6/6/1 5/5/1 4/4/1
f 7/7/1 5/5/1 6/6/1
f 8/8/1 7/7/1 6/6/1
