# Blender v2.92.0 OBJ File: 'sanfrancisco.blend'
# www.blender.org
mtllib SFRoads018_8.mtl
o SFRoads018_8_Scene.5509
v 1216.455200 0.000015 577.587830
v 326.855591 0.000015 -930.602966
v 1630.249146 0.000015 -2.709965
v -73.242065 0.000015 -369.592285
v -1630.249023 0.000015 471.789490
v -682.543701 0.000015 -817.407166
v -1005.957031 0.000000 930.602905
vt 0.999967 0.000000
vt 0.999967 1.000000
vt 0.000000 1.000000
vt 0.000000 0.000000
vt 0.999967 0.000000
vt 0.999967 1.000000
vt 0.000000 1.000000
vt 0.000000 0.000000
vn 0.0000 1.0000 0.0000
usemtl Crosswalk1Diffuse.001
s 1
f 1/1/1 3/2/1 2/3/1
f 4/4/1 1/1/1 2/3/1
f 4/5/1 6/6/1 5/7/1
f 7/8/1 4/5/1 5/7/1
