# Blender v2.92.0 OBJ File: 'sanfrancisco.blend'
# www.blender.org
mtllib SFRoads008_11.mtl
o SFRoads008_11_Scene.5317
v -680.334473 -0.000031 -803.182861
v -1185.644409 -0.000031 796.816833
v -1185.632324 -0.000031 -803.182922
v -680.334473 -0.000031 796.816956
v -173.632751 -0.000031 -803.182861
v -173.632812 -0.000031 796.816956
v 327.661133 0.000000 -803.182922
v 327.661133 0.000000 796.816895
v 1185.644409 0.000000 -796.816895
v 1185.644531 0.000000 803.182861
vt 0.000000 0.232282
vt 0.000000 0.000000
vt 0.999967 0.000000
vt 0.999967 0.232282
vt 0.000000 0.448061
vt 0.999967 0.448061
vt 0.000000 0.687607
vt 0.999967 0.687607
vt 0.000000 1.000000
vt 0.999967 1.000000
vn 0.0000 1.0000 0.0000
usemtl StreetOneWay4LaneIntersectionMaterial.002
s 1
f 1/1/1 3/2/1 2/3/1
f 4/4/1 1/1/1 2/3/1
f 5/5/1 1/1/1 4/4/1
f 6/6/1 5/5/1 4/4/1
f 7/7/1 5/5/1 6/6/1
f 8/8/1 7/7/1 6/6/1
f 9/9/1 7/7/1 8/8/1
f 10/10/1 9/9/1 8/8/1
