# Blender v2.92.0 OBJ File: 'sanfrancisco.blend'
# www.blender.org
mtllib SFRoads020_2.mtl
o SFRoads020_2_Scene.5536
v 3589.153809 0.003036 -7827.971680
v 3610.345215 0.003036 -7335.594727
v 1990.252441 0.003052 -7770.531738
v 2012.652588 0.003052 -7248.961426
v 3646.148438 0.003052 -6878.502930
v 2056.549072 0.003052 -6696.593262
v 3713.750977 0.003052 -6501.152832
v 2169.744873 0.003052 -6081.572266
v 3834.246582 0.003036 -6194.121582
v 2413.348633 0.003052 -5458.745117
v -9974.150391 0.003036 -6217.663086
v -8905.449219 0.003052 -4926.391113
v -10225.651367 0.003052 -5830.181152
v -9213.847656 0.003052 -4494.091309
v -10500.663086 0.003052 -5444.988770
v -9526.946289 0.003052 -4079.290283
v -10797.148438 0.003052 -5052.294922
v -8609.050781 0.003036 -5383.092773
v -9749.052734 0.003036 -6611.931641
v -8335.844727 0.003052 -5861.601562
v -9549.052734 0.003052 -7018.980957
v -8091.655762 0.003052 -6358.873535
v -9373.844727 0.003036 -7439.415527
v -7879.656738 0.003036 -6867.210938
v -9220.744141 0.003052 -7874.321777
v -7698.149902 0.003052 -7382.854980
v -9088.261719 0.003052 -8320.941406
v -7544.451660 0.003036 -7900.670410
v -8972.844727 0.003052 -8782.312500
v -7413.444824 0.003052 -8424.255859
v 4044.744629 0.003052 -5853.222168
v 2728.753418 0.003052 -4943.193848
v 4319.549805 0.003036 -5477.630371
v 3044.952393 0.003052 -4510.595215
v 4620.245117 0.003036 -5086.693848
v 3355.352539 0.003052 -4106.994629
v 4910.149902 0.003052 -4734.594238
v 3710.845703 -0.003052 -3675.493896
v 5222.051758 0.003052 -4402.593262
v 4088.348145 0.003052 -3273.595947
v 5555.742676 0.003052 -4084.191650
v 4478.753418 0.003036 -2900.890869
v 5911.846191 0.003052 -3773.290527
v 4882.952637 0.003052 -2547.997803
v 6282.049805 0.003036 -3472.692383
v 5292.254395 0.003052 -2215.588379
v 6667.949707 0.003052 -3176.793945
v 5709.344238 0.003036 -1895.788330
v 7060.649902 0.003036 -2888.793701
v 6125.848145 0.003052 -1590.295166
v 7462.749023 0.003036 -2603.588379
v 6545.342285 0.003052 -1292.687866
v 7871.551270 0.003052 -2320.495361
v 6966.351074 0.003036 -1001.196167
v 8284.649414 0.003052 -2038.989014
v 7386.943848 0.003036 -714.599609
v 8699.944336 0.003052 -1758.398315
v 7805.742676 0.003052 -431.591766
v 9115.251953 0.003052 -1478.698486
v 8221.246094 0.003052 -151.696777
v 9536.151367 0.003036 -1194.592163
v 8639.531250 0.003052 130.603012
v 9953.851562 0.003052 -910.888428
v 9052.251953 0.003052 410.900848
v 10374.444336 0.003052 -622.497437
v 9465.948242 0.003036 694.506836
v 10797.149414 0.003052 -328.894012
v 9824.737305 0.003052 946.008179
v 2667.742920 0.003052 8782.311523
v 2259.747070 0.003052 8489.000977
v 3601.153320 0.003036 7482.799805
v 3194.244141 0.003036 7190.319336
v 1851.751709 0.003036 8195.202148
v 2787.151855 0.003052 6897.106445
v 1444.244385 0.003036 7901.305664
v 2380.547852 0.003052 6603.905762
v 1037.847900 0.003052 7607.909180
v 1974.945068 0.003052 6311.010254
v 627.642822 0.003052 7311.205566
v 1565.447876 0.003052 6014.904297
v 219.354248 0.003052 7015.709961
v 1157.843018 0.003036 5719.909180
v -186.553955 0.003052 6721.605469
v 752.642822 0.003036 5426.208008
v -595.147705 0.003036 6425.207031
v 344.647217 0.003052 5130.309570
v -1000.445312 0.003036 6130.907715
v -60.247681 0.003052 4836.303223
v -1407.855103 0.003052 5834.912109
v -467.156738 0.003052 4540.709961
v -1816.949341 0.003052 5537.401855
v -875.848267 0.003052 4243.505371
v -2221.856445 0.003052 5242.809570
v -1280.352661 0.003036 3949.206055
v -2627.850586 0.003052 4947.203613
v -1685.955444 0.003036 3653.905762
v -3034.551758 0.003036 4650.902344
v -2092.352051 0.003052 3357.800049
v -3441.852051 0.003052 4354.101074
v -2499.346680 0.003052 3061.206055
v -3849.347168 0.003052 4057.005859
v -2906.646484 0.003052 2764.208740
v -4256.854492 0.003052 3759.801514
v -3313.751465 0.003052 2467.211670
v -4663.848145 0.003052 3462.804688
v -3720.648438 0.003036 2170.300293
v -5070.244629 0.003052 3166.100586
v -4126.947266 0.003036 1873.803711
v -5475.750977 0.003036 2870.104492
v -4532.256348 0.003052 1577.905273
v -5879.949707 0.003052 2575.011963
v -4936.455566 0.003052 1282.800049
v -6288.250488 0.003052 2276.806396
v -5344.646973 0.003052 984.704468
v -6694.756836 0.003036 1980.004761
v -5751.055176 0.003052 687.902832
v -7098.955566 0.003052 1684.704590
v -6155.352539 0.003036 392.602478
v -7506.255371 0.003052 1387.304565
v -6562.652344 0.003036 95.202621
v -7910.649902 0.003036 1092.004272
v -6967.156738 0.003052 -200.195297
v -8317.253906 0.003052 795.104980
v -7373.846191 0.003052 -497.192322
v -8725.750000 0.003052 497.009247
v -7782.452637 0.003052 -795.397949
v -9130.046875 0.003052 201.904297
v -8187.055176 0.003052 -1090.698242
v -9535.343750 0.003052 -93.688965
v -8592.558594 0.003036 -1386.486572
v -9940.946289 0.003052 -389.489716
v -8998.455078 0.003052 -1682.397217
v -10346.355469 0.003036 -684.887695
v -9404.155273 0.003052 -1978.088257
v -10750.846680 0.003052 -979.492188
v -9809.147461 0.003036 -2272.997803
vt 0.999967 9.000000
vt 0.000000 9.000001
vt 0.999967 8.714585
vt 0.000000 8.738970
vt 0.999967 8.449870
vt 0.000000 8.453074
vt 0.999967 8.204562
vt 0.000000 8.094355
vt 0.999967 7.958879
vt 0.000000 7.650080
vt 0.999961 2.015995
vt 0.999961 2.356548
vt 0.000000 2.356548
vt 0.000000 2.705541
vt 0.999961 2.705541
vt 0.000000 3.000000
vt 0.999961 3.000000
vt 0.000000 2.015995
vt 0.999961 1.681252
vt 0.000000 1.681252
vt 0.999961 1.346886
vt 0.000000 1.346886
vt 0.999961 1.011020
vt 0.000000 1.011020
vt 0.999961 0.671089
vt 0.000000 0.671089
vt 0.999961 0.327666
vt 0.000000 0.327664
vt 0.999967 0.000000
vt 0.000000 0.000000
vt 0.999967 7.632112
vt 0.000000 7.210879
vt 0.999967 7.241913
vt 0.000000 6.809975
vt 0.999967 6.825452
vt 0.000000 6.426276
vt 0.999967 6.436936
vt 0.000000 6.001206
vt 0.999967 6.043472
vt 0.000000 5.576157
vt 0.999967 5.641801
vt 0.000000 5.156659
vt 0.999967 5.228290
vt 0.000000 4.737760
vt 0.999967 4.810253
vt 0.000000 4.325239
vt 0.999967 4.383633
vt 0.000000 3.913721
vt 0.999967 3.956367
vt 0.000000 3.509263
vt 0.999967 3.523952
vt 0.000000 3.106615
vt 0.999967 3.087928
vt 0.000000 2.705877
vt 0.999967 2.649709
vt 0.000000 2.307689
vt 0.999967 2.210423
vt 0.000000 1.912305
vt 0.999967 1.771598
vt 0.000000 1.520448
vt 0.999967 1.326530
vt 0.000000 1.125717
vt 0.999967 0.883921
vt 0.000000 0.735418
vt 0.999967 0.436822
vt 0.000000 0.342960
vt 0.999967 0.000000
vt 0.000000 0.000000
vt 0.999967 9.000000
vt 0.000000 9.000000
vt 0.999967 8.752385
vt 0.000000 8.752380
vt 0.999967 8.473991
vt 0.000000 8.473991
vt 0.999967 8.195745
vt 0.000000 8.195745
vt 0.999967 7.918058
vt 0.000000 7.918058
vt 0.999967 7.637650
vt 0.000000 7.637650
vt 0.999967 7.358318
vt 0.000000 7.358318
vt 0.999967 7.080587
vt 0.000000 7.080587
vt 0.999967 6.800834
vt 0.000000 6.800834
vt 0.999967 6.523146
vt 0.000000 6.523146
vt 0.999967 6.244009
vt 0.000000 6.244009
vt 0.999967 5.963550
vt 0.000000 5.963550
vt 0.999967 5.685912
vt 0.000000 5.685912
vt 0.999967 5.407430
vt 0.000000 5.407430
vt 0.999967 5.128377
vt 0.000000 5.128377
vt 0.999967 4.848864
vt 0.000000 4.848864
vt 0.999967 4.569107
vt 0.000000 4.569107
vt 0.999967 4.289353
vt 0.000000 4.289353
vt 0.999967 4.009836
vt 0.000000 4.009836
vt 0.999967 3.730692
vt 0.000000 3.730692
vt 0.999967 3.452163
vt 0.000000 3.452163
vt 0.999967 3.174381
vt 0.000000 3.174381
vt 0.999967 2.893829
vt 0.000000 2.893829
vt 0.999967 2.614549
vt 0.000000 2.614549
vt 0.999967 2.336721
vt 0.000000 2.336721
vt 0.999967 2.056782
vt 0.000000 2.056782
vt 0.999967 1.778768
vt 0.000000 1.778768
vt 0.999967 1.499247
vt 0.000000 1.499247
vt 0.999967 1.218505
vt 0.000000 1.218505
vt 0.999967 0.940542
vt 0.000000 0.940542
vt 0.999967 0.661963
vt 0.000000 0.661963
vt 0.999967 0.428965
vt 0.000000 0.428965
vt 0.999967 0.230974
vt 0.000000 0.244248
vt 0.999967 0.000000
vt 0.000000 0.000000
vn 0.0000 1.0000 -0.0000
usemtl StreetOneWayFourLaneDiffuse.001
s 1
f 1/1/1 3/2/1 2/3/1
f 3/2/1 4/4/1 2/3/1
f 2/3/1 4/4/1 5/5/1
f 4/4/1 6/6/1 5/5/1
f 5/5/1 6/6/1 7/7/1
f 6/6/1 8/8/1 7/7/1
f 7/7/1 8/8/1 9/9/1
f 8/8/1 10/10/1 9/9/1
f 11/11/1 13/12/1 12/13/1
f 12/13/1 13/12/1 14/14/1
f 13/12/1 15/15/1 14/14/1
f 16/16/1 14/14/1 15/15/1
f 17/17/1 16/16/1 15/15/1
f 18/18/1 11/11/1 12/13/1
f 19/19/1 11/11/1 18/18/1
f 20/20/1 19/19/1 18/18/1
f 21/21/1 19/19/1 20/20/1
f 22/22/1 21/21/1 20/20/1
f 23/23/1 21/21/1 22/22/1
f 24/24/1 23/23/1 22/22/1
f 25/25/1 23/23/1 24/24/1
f 26/26/1 25/25/1 24/24/1
f 27/27/1 25/25/1 26/26/1
f 28/28/1 27/27/1 26/26/1
f 29/29/1 27/27/1 28/28/1
f 30/30/1 29/29/1 28/28/1
f 9/9/1 10/10/1 31/31/1
f 10/10/1 32/32/1 31/31/1
f 31/31/1 32/32/1 33/33/1
f 32/32/1 34/34/1 33/33/1
f 33/33/1 34/34/1 35/35/1
f 34/34/1 36/36/1 35/35/1
f 35/35/1 36/36/1 37/37/1
f 36/36/1 38/38/1 37/37/1
f 37/37/1 38/38/1 39/39/1
f 38/38/1 40/40/1 39/39/1
f 39/39/1 40/40/1 41/41/1
f 40/40/1 42/42/1 41/41/1
f 41/41/1 42/42/1 43/43/1
f 42/42/1 44/44/1 43/43/1
f 43/43/1 44/44/1 45/45/1
f 44/44/1 46/46/1 45/45/1
f 45/45/1 46/46/1 47/47/1
f 46/46/1 48/48/1 47/47/1
f 47/47/1 48/48/1 49/49/1
f 48/48/1 50/50/1 49/49/1
f 49/49/1 50/50/1 51/51/1
f 50/50/1 52/52/1 51/51/1
f 51/51/1 52/52/1 53/53/1
f 52/52/1 54/54/1 53/53/1
f 53/53/1 54/54/1 55/55/1
f 54/54/1 56/56/1 55/55/1
f 55/55/1 56/56/1 57/57/1
f 56/56/1 58/58/1 57/57/1
f 57/57/1 58/58/1 59/59/1
f 58/58/1 60/60/1 59/59/1
f 59/59/1 60/60/1 61/61/1
f 60/60/1 62/62/1 61/61/1
f 63/63/1 61/61/1 62/62/1
f 64/64/1 63/63/1 62/62/1
f 65/65/1 63/63/1 64/64/1
f 66/66/1 65/65/1 64/64/1
f 67/67/1 65/65/1 66/66/1
f 68/68/1 67/67/1 66/66/1
f 69/69/1 71/70/1 70/71/1
f 71/70/1 72/72/1 70/71/1
f 70/71/1 72/72/1 73/73/1
f 72/72/1 74/74/1 73/73/1
f 73/73/1 74/74/1 75/75/1
f 74/74/1 76/76/1 75/75/1
f 75/75/1 76/76/1 77/77/1
f 76/76/1 78/78/1 77/77/1
f 77/77/1 78/78/1 79/79/1
f 78/78/1 80/80/1 79/79/1
f 79/79/1 80/80/1 81/81/1
f 80/80/1 82/82/1 81/81/1
f 81/81/1 82/82/1 83/83/1
f 82/82/1 84/84/1 83/83/1
f 83/83/1 84/84/1 85/85/1
f 84/84/1 86/86/1 85/85/1
f 85/85/1 86/86/1 87/87/1
f 86/86/1 88/88/1 87/87/1
f 87/87/1 88/88/1 89/89/1
f 88/88/1 90/90/1 89/89/1
f 89/89/1 90/90/1 91/91/1
f 90/90/1 92/92/1 91/91/1
f 91/91/1 92/92/1 93/93/1
f 92/92/1 94/94/1 93/93/1
f 93/93/1 94/94/1 95/95/1
f 94/94/1 96/96/1 95/95/1
f 95/95/1 96/96/1 97/97/1
f 96/96/1 98/98/1 97/97/1
f 97/97/1 98/98/1 99/99/1
f 98/98/1 100/100/1 99/99/1
f 99/99/1 100/100/1 101/101/1
f 100/100/1 102/102/1 101/101/1
f 101/101/1 102/102/1 103/103/1
f 102/102/1 104/104/1 103/103/1
f 103/103/1 104/104/1 105/105/1
f 104/104/1 106/106/1 105/105/1
f 105/105/1 106/106/1 107/107/1
f 106/106/1 108/108/1 107/107/1
f 107/107/1 108/108/1 109/109/1
f 108/108/1 110/110/1 109/109/1
f 109/109/1 110/110/1 111/111/1
f 110/110/1 112/112/1 111/111/1
f 111/111/1 112/112/1 113/113/1
f 112/112/1 114/114/1 113/113/1
f 113/113/1 114/114/1 115/115/1
f 114/114/1 116/116/1 115/115/1
f 115/115/1 116/116/1 117/117/1
f 116/116/1 118/118/1 117/117/1
f 117/117/1 118/118/1 119/119/1
f 118/118/1 120/120/1 119/119/1
f 119/119/1 120/120/1 121/121/1
f 120/120/1 122/122/1 121/121/1
f 121/121/1 122/122/1 123/123/1
f 122/122/1 124/124/1 123/123/1
f 123/123/1 124/124/1 125/125/1
f 124/124/1 126/126/1 125/125/1
f 125/125/1 126/126/1 127/127/1
f 126/126/1 128/128/1 127/127/1
f 127/127/1 128/128/1 129/129/1
f 128/128/1 130/130/1 129/129/1
f 131/131/1 129/129/1 130/130/1
f 132/132/1 131/131/1 130/130/1
f 133/133/1 131/131/1 132/132/1
f 134/134/1 133/133/1 132/132/1
f 135/135/1 133/133/1 134/134/1
f 136/136/1 135/135/1 134/134/1
