# Blender v2.92.0 OBJ File: 'sanfrancisco.blend'
# www.blender.org
mtllib SFRoads018_2.mtl
o SFRoads018_2_Scene.5503
v 801.101440 0.000015 256.701630
v 490.280640 0.000031 679.565369
v -801.101196 0.000015 -264.062469
v -494.411743 0.000015 -679.565369
vt 0.999967 1.000000
vt 0.000000 0.000000
vt 0.999967 0.000000
vt 0.000000 1.000000
vn 0.0000 1.0000 -0.0000
usemtl StreetAsphaltSidesMaterial.002
s 1
f 1/1/1 3/2/1 2/3/1
f 4/4/1 3/2/1 1/1/1
