# Blender v2.92.0 OBJ File: 'sanfrancisco.blend'
# www.blender.org
mtllib SFRoads009_3.mtl
o SFRoads009_3_Scene.5333
v -120.153748 -0.000061 -796.820068
v -923.767029 -0.000061 803.179749
v -923.767029 -0.000061 -796.820068
v -120.153748 -0.000061 803.179749
v 382.751526 -0.000061 -796.820068
v 382.751526 -0.000061 803.179749
v 923.767090 -0.000122 -803.179810
v 923.767090 -0.000122 796.820007
vt 0.000000 0.522838
vt 0.000000 0.000000
vt 0.999967 0.000000
vt 0.999967 0.522833
vt 0.000000 0.825419
vt 0.999967 0.825411
vt 0.000000 1.000000
vt 0.999967 1.000000
vn 0.0000 1.0000 0.0000
usemtl StreetOneWay4LaneIntersectionMaterial.002
s 1
f 1/1/1 3/2/1 2/3/1
f 4/4/1 1/1/1 2/3/1
f 5/5/1 1/1/1 4/4/1
f 6/6/1 5/5/1 4/4/1
f 7/7/1 5/5/1 6/6/1
f 8/8/1 7/7/1 6/6/1
