# Blender v2.92.0 OBJ File: 'sanfrancisco.blend'
# www.blender.org
mtllib SFRoads1_1.mtl
o SFRoads1_1_Scene.5196
v -799.819824 0.000000 800.001465
v 799.819885 0.000061 -800.001526
v 800.180115 0.000061 799.998352
v -800.180176 0.000000 -799.998413
vt 0.000000 0.000000
vt 0.999967 0.000000
vt 0.999966 0.999887
vt 0.000000 0.999886
vn -0.0000 1.0000 0.0000
usemtl StreetAsphaltDiffuse.001
s 1
f 1/1/1 3/2/1 2/3/1
f 4/4/1 1/1/1 2/3/1
