# Blender v2.92.0 OBJ File: 'sanfrancisco.blend'
# www.blender.org
mtllib SFRoads1_17.mtl
o SFRoads1_17_Scene.5212
v 11103.383789 0.001587 22963.833984
v 11103.383789 0.001587 24563.833984
v -12364.987305 0.001587 24563.833984
v -12371.809570 0.001587 22963.833984
v 12942.842773 0.000061 -11472.430664
v 14542.841797 0.000000 -11473.198242
v 14550.026367 -0.001526 3090.313232
v 12950.026367 -0.001526 3090.582031
v -14453.977539 0.000000 -12630.101562
v -12853.977539 0.000061 -12625.852539
v -12937.570312 -0.001465 1581.945557
v -14537.570312 -0.001526 1574.175903
v 12093.374023 0.000000 -14978.393555
v 12093.373047 0.000000 -13373.065430
v -11297.101562 0.000061 -13373.063477
v -11297.100586 0.000061 -14978.585938
v 12541.847656 -0.001465 5168.493164
v -11066.268555 -0.001526 5168.492676
v -11066.268555 -0.001526 3568.493164
v 12524.855469 -0.001465 3568.493408
v 12950.875000 -0.001526 7144.644043
v 14550.875000 -0.001526 7144.476562
v 14550.391602 0.001526 22266.271484
v 12950.392578 0.001587 22266.248047
v 12941.768555 0.000061 -24563.833984
v 14541.768555 0.000000 -24563.724609
v 14541.457031 0.000000 -15495.609375
v 12941.445312 0.000061 -15506.122070
v -12950.875977 -0.001465 5868.642578
v -12948.971680 0.001587 21399.705078
v -14548.983398 0.001526 21400.503906
v -14550.875000 -0.001526 5867.330566
vt 0.000000 12.750000
vt 0.999967 0.000000
vt 0.999967 12.750000
vt 0.000000 0.000000
vt 0.000000 8.999950
vt 0.999967 0.000000
vt 0.999967 9.000049
vt 0.000000 0.000000
vt 0.999967 0.000000
vt 0.000000 9.000000
vt 0.000000 0.000000
vt 0.999967 9.000000
vt 0.999967 0.000000
vt 0.000000 14.749244
vt 0.000000 0.000000
vt 0.999967 14.749244
vt 0.000000 0.000000
vt 0.999967 12.750000
vt 0.000000 12.750000
vt 0.999967 0.000000
vt 0.000000 7.999999
vt 0.999967 0.000000
vt 0.999967 8.000001
vt 0.000000 0.000000
vt 0.000000 5.000000
vt 0.999967 0.000000
vt 0.999967 5.000000
vt 0.000000 0.000000
vt 0.000000 0.000000
vt 0.999967 6.000136
vt 0.000000 6.000136
vt 0.999967 0.000000
vn 0.0000 1.0000 -0.0000
usemtl StreetOneWayFourLaneDiffuse.001
s 1
f 1/1/1 3/2/1 2/3/1
f 1/1/1 4/4/1 3/2/1
f 5/5/1 7/6/1 6/7/1
f 5/5/1 8/8/1 7/6/1
f 9/9/1 11/10/1 10/11/1
f 9/9/1 12/12/1 11/10/1
f 13/13/1 15/14/1 14/15/1
f 13/13/1 16/16/1 15/14/1
f 17/17/1 19/18/1 18/19/1
f 17/17/1 20/20/1 19/18/1
f 21/21/1 23/22/1 22/23/1
f 21/21/1 24/24/1 23/22/1
f 25/25/1 27/26/1 26/27/1
f 25/25/1 28/28/1 27/26/1
f 29/29/1 31/30/1 30/31/1
f 29/29/1 32/32/1 31/30/1
