# Blender v2.92.0 OBJ File: 'sanfrancisco.blend'
# www.blender.org
mtllib SFRoads021_10.mtl
o SFRoads021_10_Scene.5552
v 872.200500 -0.000038 460.839783
v 320.898682 -0.000031 1218.957275
v -443.408081 -0.000031 668.749878
v -851.696533 -0.000038 374.548279
v -1261.901611 -0.000031 78.747543
v -717.334473 0.000061 -676.415833
v 491.796997 -0.000031 -629.553101
v 1261.901978 -0.000038 -75.048828
v 83.801392 -0.000031 -923.449585
v -326.098389 -0.000031 -1218.957275
vt 0.414872 1.000000
vt 0.999976 0.518870
vt 0.999976 1.000000
vt 0.999975 0.259740
vt 0.999973 0.000000
vt 0.418440 0.000000
vt 0.000000 0.519111
vt 0.000000 1.000000
vt 0.000000 0.260196
vt 0.000000 0.000000
vn 0.0000 1.0000 0.0000
usemtl StreetOneWayFourLaneIntersectionDiffuse.001
s 1
f 1/1/1 3/2/1 2/3/1
f 1/1/1 4/4/1 3/2/1
f 1/1/1 5/5/1 4/4/1
f 5/5/1 1/1/1 6/6/1
f 7/7/1 6/6/1 1/1/1
f 7/7/1 1/1/1 8/8/1
f 9/9/1 6/6/1 7/7/1
f 6/6/1 9/9/1 10/10/1
