# Blender v2.92.0 OBJ File: 'sanfrancisco.blend'
# www.blender.org
mtllib SFRoads009_8.mtl
o SFRoads009_8_Scene.5338
v -813.744995 -0.000122 192.614716
v -787.426636 -0.000122 -173.846436
v 813.745117 -0.000061 -192.614731
v 792.260742 -0.000061 192.614716
vt 0.000000 0.381649
vt 1.000000 0.618351
vt 0.016171 0.606819
vt 0.986797 0.381649
vn -0.0000 1.0000 -0.0000
usemtl StreetAsphaltSidesMaterial.002
s 1
f 1/1/1 3/2/1 2/3/1
f 4/4/1 3/2/1 1/1/1
