# Blender v2.92.0 OBJ File: 'sanfrancisco.blend'
# www.blender.org
mtllib SFRoads008_10.mtl
o SFRoads008_10_Scene.5316
v 800.000000 -0.000092 -250.183105
v -799.999878 -0.000092 -755.969177
v 800.000000 -0.000092 -755.969238
v -799.999878 -0.000092 -250.183105
v 800.000061 -0.000092 255.426025
v -799.999878 -0.000092 255.425995
v 800.000122 -0.000092 755.969116
v -799.999878 -0.000092 755.969177
vt 0.000000 0.305718
vt 0.000000 0.000000
vt 0.999967 0.000000
vt 0.999967 0.305718
vt 0.000000 0.653726
vt 0.999967 0.653726
vt 0.000000 1.000000
vt 0.999967 1.000000
vn 0.0000 1.0000 0.0000
usemtl StreetDoubleYellow4LaneIntersectionMaterial.002
s 1
f 1/1/1 3/2/1 2/3/1
f 4/4/1 1/1/1 2/3/1
f 5/5/1 1/1/1 4/4/1
f 6/6/1 5/5/1 4/4/1
f 7/7/1 5/5/1 6/6/1
f 8/8/1 7/7/1 6/6/1
