# Blender v2.92.0 OBJ File: 'sanfrancisco.blend'
# www.blender.org
mtllib SidewalkRed14.mtl
o SidewalkRed14_Scene.5736
v -19710.261719 -17.034973 -878.429993
v -19710.261719 13.035034 -878.429993
v -20784.937500 13.035095 945.446716
v -20784.937500 -17.034912 945.446716
v -19557.007812 17.035034 -960.461243
v -19644.751953 17.035034 -938.952515
v -19603.937500 17.035034 -955.084045
v -19707.978516 17.035034 -874.419983
v -19679.431641 17.035034 -912.060425
v -20758.289062 17.035095 964.465271
v -20781.677734 17.035095 947.790466
v -7226.699707 17.035034 964.465271
v -6485.604980 17.035095 -960.461304
v 20038.369141 17.035095 964.465149
v 20779.111328 17.035034 -960.461243
v -20784.132812 16.034973 946.038757
v -19709.687500 16.035034 -877.435181
v -19681.140625 16.035034 -915.069458
v -19681.708984 13.035034 -916.070374
v -19646.460938 16.035034 -941.949280
v -19681.708984 -17.034973 -916.070374
v -19647.029297 -17.034973 -942.950317
v -19647.029297 13.035034 -942.950317
v -19606.220703 -17.034973 -959.094055
v -19606.220703 13.035034 -959.094055
v -19559.279297 -17.034973 -964.465149
v -19605.652344 16.035034 -958.080933
v -19559.279297 13.035034 -964.465149
v -6485.604980 -17.034912 -964.465210
v -19558.722656 16.035034 -963.464233
v -6485.604980 13.035095 -964.465210
v 20784.939453 -17.034973 -964.465149
v 20784.939453 13.035034 -964.465149
v -6485.604980 16.035034 -963.464294
v 20783.480469 16.035034 -963.464172
vt 4.024018 65.278343
vt 0.350566 59.280643
vt 4.106887 65.224213
vt 0.266288 59.332523
vt 4.608276 65.451851
vt 4.458052 65.443207
vt 4.327569 65.399971
vt 4.120725 65.207153
vt 4.215291 65.321518
vt 0.443645 59.212830
vt 0.367680 59.268791
vt 45.040394 59.237698
vt 47.489704 65.562416
vt 134.788284 59.281647
vt 137.214767 65.617416
vt 0.359249 59.274937
vt 4.114704 65.217094
vt 4.209862 65.331764
vt 4.203583 65.340012
vt 4.322241 65.410217
vt 4.138812 65.412651
vt 4.273728 65.505669
vt 4.317427 65.419342
vt 4.428156 65.557755
vt 4.449530 65.463417
vt 4.599660 65.571724
vt 4.452656 65.453514
vt 4.600918 65.472809
vt 47.489704 65.682182
vt 4.602847 65.462364
vt 47.489723 65.583252
vt 137.233826 65.737190
vt 137.234100 65.638260
vt 47.489708 65.572838
vt 137.229218 65.627838
vn -0.8616 0.0000 -0.5077
vn -0.0000 1.0000 -0.0000
vn -0.8179 0.1633 -0.5517
vn -0.8503 0.1612 -0.5010
vn -0.5988 0.7189 -0.3529
vn -0.5892 0.7053 -0.3942
vn -0.2727 0.9486 -0.1606
vn -0.2722 0.9488 -0.1604
vn -0.2605 0.9507 -0.1683
vn -0.5012 0.7107 -0.4937
vn -0.2108 0.9572 -0.1985
vn -0.6974 0.1737 -0.6953
vn -0.3452 0.7170 -0.6056
vn -0.1379 0.9604 -0.2419
vn -0.7108 0.0000 -0.7034
vn -0.8306 0.0000 -0.5569
vn -0.4952 0.0000 -0.8688
vn -0.4871 0.1795 -0.8547
vn -0.2429 0.0000 -0.9701
vn -0.2426 0.1740 -0.9544
vn -0.0569 0.0000 -0.9984
vn -0.1692 0.7109 -0.6826
vn -0.0634 0.9571 -0.2827
vn -0.0589 0.1642 -0.9847
vn 0.0000 0.0000 -1.0000
vn -0.0398 0.7061 -0.7070
vn -0.0124 0.9508 -0.3095
vn 0.0000 0.1603 -0.9871
vn 0.0000 0.1347 -0.9909
vn 0.0000 0.7073 -0.7069
vn -0.0000 0.9488 -0.3160
vn 0.0000 0.5055 -0.8629
usemtl SidewalkRedDiffuse.001
s 1
f 1/1/1 3/2/1 2/3/1
f 1/1/1 4/4/1 3/2/1
f 5/5/2 7/6/2 6/7/2
f 5/5/2 6/7/2 8/8/2
f 6/7/2 9/9/2 8/8/2
f 8/8/2 10/10/2 5/5/2
f 8/8/2 11/11/2 10/10/2
f 5/5/2 10/10/2 12/12/2
f 5/5/2 12/12/2 13/13/2
f 13/13/2 12/12/2 14/14/2
f 13/13/2 14/14/2 15/15/2
f 2/3/3 3/2/4 16/16/5
f 2/3/3 16/16/5 17/17/6
f 17/17/6 16/16/5 11/11/7
f 17/17/6 11/11/8 8/8/9
f 8/8/9 18/18/10 17/17/6
f 8/8/9 9/9/11 18/18/10
f 17/17/6 19/19/12 2/3/3
f 17/17/6 18/18/10 19/19/12
f 9/9/11 20/20/13 18/18/10
f 9/9/11 6/7/14 20/20/13
f 21/21/15 2/3/3 19/19/12
f 21/21/15 1/1/16 2/3/3
f 22/22/17 21/21/15 19/19/12
f 18/18/10 23/23/18 19/19/12
f 22/22/17 19/19/12 23/23/18
f 18/18/10 20/20/13 23/23/18
f 24/24/19 22/22/17 23/23/18
f 24/24/19 23/23/18 25/25/20
f 20/20/13 25/25/20 23/23/18
f 26/26/21 24/24/19 25/25/20
f 6/7/14 27/27/22 20/20/13
f 20/20/13 27/27/22 25/25/20
f 6/7/14 7/6/23 27/27/22
f 26/26/21 25/25/20 28/28/24
f 27/27/22 28/28/24 25/25/20
f 29/29/25 26/26/21 28/28/24
f 7/6/23 30/30/26 27/27/22
f 27/27/22 30/30/26 28/28/24
f 7/6/23 5/5/27 30/30/26
f 29/29/25 28/28/24 31/31/28
f 31/31/28 28/28/24 30/30/26
f 32/32/25 29/29/25 31/31/28
f 32/32/25 31/31/28 33/33/29
f 34/34/30 30/30/26 5/5/27
f 31/31/28 30/30/26 34/34/30
f 33/33/29 31/31/28 34/34/30
f 34/34/30 5/5/27 13/13/31
f 33/33/29 34/34/30 35/35/32
f 35/35/32 34/34/30 13/13/31
f 35/35/32 13/13/31 15/15/31
