# Blender v2.92.0 OBJ File: 'sanfrancisco.blend'
# www.blender.org
mtllib SidewalkRed7.mtl
o SidewalkRed7_Scene.5729
v 7531.664062 17.035004 -955.425903
v -6585.351074 17.035004 -960.357544
v 7521.459473 16.995026 -960.577332
v 7754.381836 17.035034 -842.748962
v 7929.772461 17.035004 -638.445984
v 8017.479980 17.035004 -383.862244
v 7220.849121 17.035004 964.465271
v -6769.421387 17.035004 -896.526978
v -7400.548828 17.035034 49.749741
v -6920.275879 17.034546 -766.497681
v -7685.338867 17.035034 483.544861
v -7978.576172 17.035004 911.718689
v -8015.942383 17.035004 964.465271
v -8020.836914 -17.035004 964.465271
v -7981.860352 -17.035004 909.429871
v -8020.836914 13.035004 964.465271
v -7981.860352 13.035004 909.429871
v -7688.660156 -17.034973 481.329224
v -7688.660156 13.035034 481.329224
v -7687.830078 16.035004 481.878601
v -7981.041992 16.035004 909.997498
v -8019.616211 16.035004 964.465271
v -7403.955078 -17.035004 47.625717
v -7403.955078 13.035034 47.625717
v -7403.100586 16.035004 48.168930
v -6927.490234 15.845123 -760.290405
v -6922.155762 16.035004 -769.250305
v -6771.142578 16.035004 -899.542114
v -6585.754395 16.035004 -963.464294
v -6576.342285 16.039368 -963.452087
v 7515.672852 15.913574 -963.507019
v -6922.778320 13.035034 -770.165894
v -6929.711914 13.035034 -758.380005
v -6771.716309 13.035034 -900.536987
v -6585.864258 13.035004 -964.465210
v -6573.437500 13.048370 -964.459106
v 7513.781250 13.035004 -964.465210
v -6771.716309 -17.035004 -900.536987
v -6585.864258 -17.035004 -964.459106
v -6922.778320 -17.035004 -770.165894
v -6929.711914 -17.035004 -758.380005
v -6573.424805 -16.900909 -964.465210
v 7513.781250 11.210510 -964.465210
v 7513.781250 -17.026794 -964.465210
v 8001.024902 13.291931 -115.692139
v 8001.012695 -17.035004 -115.533447
v 7298.742188 13.035004 870.208679
v 8004.784180 13.035004 -121.386719
v 7298.742188 -17.035004 870.208679
v 7225.902832 13.035004 964.465271
v 7225.902832 -17.035004 964.465271
v 7936.839844 -17.035004 -642.443787
v 8020.836914 -17.035004 -381.677216
v 8020.836914 13.035004 -381.677216
v 7936.839844 13.035034 -642.443787
v 7756.383789 13.035034 -846.758972
v 7756.383789 -17.035004 -846.758972
v 7533.434082 13.035004 -959.429810
v 7533.434082 -17.035004 -959.429810
v 8019.994141 16.035004 -382.226501
v 7935.069824 16.035004 -641.442810
v 7755.895508 16.035004 -845.757935
v 7532.982910 16.034973 -958.428894
v 8001.146973 16.119965 -117.901611
v 7297.936523 16.035004 869.604431
v 8003.881348 16.035004 -121.691895
v 8001.378906 16.992554 -122.741699
v 7295.531738 17.035004 867.816101
v 7224.633301 16.035004 964.465271
v 8004.796875 -17.035004 -121.386719
vt 103.984169 22.429718
vt 103.951149 22.446735
vt 57.584785 22.556927
vt 104.710121 22.057280
vt 105.275032 21.384081
vt 105.552063 20.546507
vt 102.997314 16.106806
vt 56.976818 22.348988
vt 54.826481 19.249166
vt 56.474030 21.932106
vt 53.907768 17.822899
vt 52.944004 16.416496
vt 52.815353 16.243366
vt 52.714092 16.308985
vt 52.793152 16.248722
vt 52.846725 16.486452
vt 52.927193 16.428814
vt 53.809498 17.891405
vt 53.890762 17.834887
vt 53.899216 17.828817
vt 52.935551 16.422613
vt 52.802910 16.244257
vt 54.727798 19.317226
vt 54.809353 19.261084
vt 54.817894 19.255081
vt 56.449455 21.912807
vt 56.468163 21.941660
vt 56.971527 22.359518
vt 57.584232 22.567585
vt 57.614342 22.567556
vt 103.932617 22.457045
vt 56.461662 21.949646
vt 56.436619 21.910555
vt 56.966988 22.368977
vt 57.582851 22.577723
vt 57.624062 22.577917
vt 103.927231 22.467007
vt 56.923714 22.456993
vt 57.566025 22.674337
vt 56.396069 22.021099
vt 56.357719 21.970301
vt 57.623837 22.676491
vt 103.927483 22.473001
vt 103.933884 22.565670
vt 105.529526 19.692610
vt 103.257835 16.416990
vt 105.618973 19.648817
vt 105.541801 19.711365
vt 103.342972 16.366304
vt 103.067093 16.073381
vt 103.153503 16.025011
vt 105.389786 21.447882
vt 105.571381 20.541212
vt 105.667557 20.557840
vt 105.303131 21.399738
vt 104.721710 22.075924
vt 104.783661 22.152159
vt 103.992294 22.449934
vt 104.027794 22.541357
vt 105.561028 20.541586
vt 105.292793 21.393778
vt 104.715813 22.067205
vt 103.988243 22.440262
vt 105.524078 19.702265
vt 103.248863 16.422398
vt 105.532135 19.714039
vt 105.523750 19.717564
vt 103.239944 16.427805
vt 103.043930 16.074455
vt 103.056770 16.076214
vt 105.636482 19.691008
vn 0.0000 1.0000 -0.0078
vn 0.0000 1.0000 -0.0000
vn 0.0005 1.0000 0.0004
vn 0.0003 1.0000 0.0002
vn -0.8161 0.0000 -0.5779
vn -0.8305 -0.0000 -0.5570
vn -0.8198 0.1602 -0.5498
vn -0.8100 0.1603 -0.5641
vn -0.5862 0.7085 -0.3931
vn -0.5795 0.7080 -0.4036
vn -0.2626 0.9487 -0.1761
vn -0.2592 0.9488 -0.1805
vn -0.2575 0.9489 -0.1824
vn -0.6547 0.5970 -0.4636
vn -0.2582 0.9486 -0.1828
vn -0.8072 0.1476 -0.5716
vn -0.8360 0.0000 -0.5488
vn -0.2625 0.9487 -0.1760
vn -0.2926 0.9406 -0.1723
vn -0.2651 0.9484 -0.1740
vn -0.2832 0.9475 -0.1484
vn -0.2925 0.9406 -0.1722
vn -0.2833 0.9475 -0.1485
vn -0.1887 0.9584 -0.2142
vn -0.1878 0.9584 -0.2148
vn -0.1378 0.9607 -0.2410
vn -0.3459 0.7173 -0.6049
vn -0.0948 0.9555 -0.2794
vn -0.0942 0.9555 -0.2796
vn -0.0000 0.9519 -0.3064
vn 0.0000 0.9454 -0.3260
vn 0.0000 0.9519 -0.3063
vn -0.6241 0.3460 -0.7006
vn -0.6268 0.3459 -0.6982
vn -0.8158 0.3227 -0.4800
vn -0.8158 0.3226 -0.4800
vn -0.7918 0.3209 -0.5198
vn -0.7918 0.3209 -0.5197
vn -0.4883 0.1797 -0.8540
vn -0.2915 0.3315 -0.8973
vn -0.2921 0.3315 -0.8971
vn -0.0000 0.3175 -0.9483
vn 0.0000 0.3176 -0.9482
vn -0.0000 0.3174 -0.9483
vn -0.4964 -0.0000 -0.8681
vn -0.6688 0.0000 -0.7434
vn -0.3070 -0.0002 -0.9517
vn -0.6689 0.0000 -0.7434
vn -0.3069 -0.0002 -0.9518
vn -0.8619 0.0000 -0.5071
vn -0.0001 0.0001 -1.0000
vn -0.0002 0.0000 -1.0000
vn -0.0000 0.0000 -1.0000
vn 0.8145 0.0016 0.5802
vn 0.8145 0.0015 0.5802
vn 0.9972 0.0000 0.0746
vn 0.7913 0.0000 0.6115
vn 0.8699 0.0000 -0.4932
vn 0.9518 0.0000 -0.3066
vn 0.8366 0.2742 -0.4743
vn 0.6178 0.0000 -0.7863
vn 0.4365 0.0000 -0.8997
vn 0.2482 0.0000 -0.9687
vn 0.8721 0.3989 -0.2833
vn 0.8366 0.2742 -0.4742
vn 0.5258 0.7966 -0.2982
vn 0.5698 0.4104 -0.7119
vn 0.5588 0.4059 -0.7232
vn 0.4121 0.3404 -0.8451
vn 0.4126 0.3407 -0.8448
vn 0.2548 0.2486 -0.9345
vn 0.7625 0.3517 0.5431
vn 0.7622 0.3526 0.5429
vn 0.7623 0.3522 0.5430
vn 0.9550 0.2884 0.0690
vn 0.7845 0.3310 0.5243
vn 0.9550 0.2884 0.0694
vn 0.9560 0.2874 0.0590
vn 0.2583 0.9484 0.1840
vn 0.2584 0.9483 0.1841
vn 0.2506 0.9485 0.1936
vn 0.2503 0.9487 0.1934
vn 0.2344 0.9689 -0.0788
vn 0.2346 0.9689 -0.0788
vn 0.1474 0.9694 -0.1964
vn 0.1623 0.9766 -0.1409
vn 0.1511 0.9715 -0.1826
vn 0.1310 0.9558 -0.2633
vn 0.1311 0.9557 -0.2635
vn 0.1542 0.8905 -0.4280
vn 0.0007 1.0000 0.0005
vn 0.9972 0.0004 0.0743
vn 0.9972 0.0001 0.0746
vn 0.8372 0.0018 0.5469
vn 0.9981 0.0000 0.0615
vn 0.2848 0.9407 0.1842
vn 0.3513 0.9360 0.0234
vn 0.3515 0.9359 0.0227
vn 0.3521 0.9357 0.0218
vn 0.3522 0.9357 0.0218
vn 0.7504 0.3173 0.5799
vn 0.7503 0.3174 0.5798
vn 0.7503 0.3175 0.5798
usemtl SidewalkRedDiffuse.001
s 1
f 1/1/1 3/2/1 2/3/2
f 4/4/2 1/1/1 2/3/2
f 5/5/2 4/4/2 2/3/2
f 6/6/3 5/5/2 2/3/2
f 7/7/4 6/6/3 2/3/2
f 8/8/2 7/7/4 2/3/2
f 9/9/2 7/7/4 8/8/2
f 9/9/2 8/8/2 10/10/2
f 11/11/2 7/7/4 9/9/2
f 12/12/2 7/7/4 11/11/2
f 7/7/2 12/12/2 13/13/2
f 14/14/5 16/15/5 15/16/5
f 15/16/5 16/15/5 17/17/5
f 18/18/6 15/16/5 19/19/7
f 19/19/7 15/16/5 17/17/8
f 19/19/7 17/17/8 20/20/9
f 20/20/9 17/17/8 21/21/10
f 20/20/9 21/21/10 11/11/11
f 11/11/11 21/21/10 12/12/12
f 21/21/10 13/13/13 12/12/12
f 22/22/14 13/13/15 21/21/10
f 17/17/8 22/22/14 21/21/10
f 16/15/16 22/22/14 17/17/8
f 19/19/17 23/23/17 18/18/6
f 24/24/17 23/23/17 19/19/17
f 11/11/18 9/9/19 20/20/20
f 20/20/20 9/9/19 25/25/19
f 9/9/19 26/26/21 25/25/19
f 10/10/22 26/26/21 9/9/19
f 26/26/23 10/10/24 27/27/25
f 10/10/24 8/8/26 27/27/25
f 27/27/25 8/8/26 28/28/27
f 8/8/26 2/3/28 28/28/27
f 28/28/27 2/3/28 29/29/29
f 30/30/30 29/29/29 2/3/28
f 2/3/31 31/31/31 30/30/32
f 3/2/31 31/31/31 2/3/31
f 28/28/27 32/32/33 27/27/34
f 32/32/33 26/26/35 27/27/34
f 33/33/35 26/26/35 32/32/33
f 26/26/35 33/33/35 25/25/36
f 25/25/36 33/33/35 24/24/36
f 25/25/36 24/24/36 20/20/37
f 20/20/37 24/24/36 19/19/38
f 34/34/39 32/32/33 28/28/27
f 28/28/27 35/35/40 34/34/39
f 29/29/41 35/35/40 28/28/27
f 30/30/42 35/35/40 29/29/41
f 36/36/43 35/35/40 30/30/42
f 30/30/42 37/37/44 36/36/43
f 31/31/42 37/37/44 30/30/42
f 34/34/39 38/38/45 32/32/46
f 34/34/39 39/39/47 38/38/45
f 32/32/46 38/38/45 40/40/48
f 35/35/49 39/39/47 34/34/39
f 40/40/48 33/33/50 32/32/46
f 41/41/50 33/33/50 40/40/48
f 33/33/50 41/41/50 24/24/50
f 24/24/50 41/41/50 23/23/50
f 39/39/47 35/35/49 42/42/51
f 42/42/51 35/35/49 36/36/52
f 43/43/53 42/42/51 36/36/52
f 37/37/53 43/43/53 36/36/52
f 44/44/53 42/42/51 43/43/53
f 45/45/54 47/46/55 46/47/54
f 45/45/54 46/47/54 48/48/56
f 49/49/54 46/47/54 47/46/54
f 49/49/54 47/46/54 50/50/57
f 49/49/54 50/50/57 51/51/57
f 52/52/58 54/53/59 53/54/59
f 55/55/60 54/53/59 52/52/58
f 55/55/60 52/52/58 56/56/61
f 56/56/61 52/52/58 57/57/61
f 57/57/61 58/58/62 56/56/61
f 59/59/62 58/58/62 57/57/61
f 58/58/62 59/59/62 43/43/63
f 37/37/63 58/58/62 43/43/63
f 44/44/63 43/43/63 59/59/62
f 54/53/64 55/55/65 60/60/64
f 60/60/64 55/55/65 61/61/66
f 61/61/66 55/55/65 62/62/67
f 62/62/67 55/55/65 56/56/68
f 56/56/68 63/63/69 62/62/67
f 58/58/70 63/63/69 56/56/68
f 63/63/69 58/58/70 31/31/71
f 31/31/71 58/58/70 37/37/71
f 64/64/72 65/65/73 45/45/72
f 45/45/72 65/65/73 47/46/73
f 45/45/74 48/48/75 64/64/76
f 64/64/76 48/48/75 66/66/77
f 48/48/75 54/53/78 66/66/77
f 66/66/77 54/53/78 60/60/78
f 67/67/79 68/68/80 64/64/79
f 64/64/79 68/68/80 65/65/80
f 65/65/80 68/68/80 7/69/81
f 65/65/80 7/69/81 69/70/82
f 5/5/83 6/6/84 61/61/83
f 61/61/83 6/6/84 60/60/84
f 62/62/85 5/5/86 61/61/86
f 4/4/87 5/5/86 62/62/85
f 62/62/85 1/1/88 4/4/87
f 63/63/89 1/1/88 62/62/85
f 1/1/88 63/63/89 3/2/90
f 3/2/90 63/63/89 31/31/90
f 67/67/4 6/6/3 68/68/91
f 68/68/91 6/6/3 7/7/4
f 70/71/92 48/48/93 46/47/94
f 48/48/93 70/71/92 54/53/95
f 54/53/95 70/71/92 53/54/95
f 64/64/96 66/66/97 67/67/98
f 66/66/97 60/60/99 67/67/98
f 67/67/98 60/60/99 6/6/100
f 47/46/101 69/70/102 50/50/102
f 47/46/101 65/65/103 69/70/102
