# Blender v2.92.0 OBJ File: 'sanfrancisco.blend'
# www.blender.org
mtllib Straight_77.mtl
o Straight_77_Scene.4882
v -61.210220 0.000061 125.338203
v -61.210236 0.000061 -125.338196
v 61.210266 0.000061 -125.338196
v 61.210281 0.000061 125.338203
vt 0.000000 0.498647
vt 0.244841 1.000000
vt 0.000000 1.000000
vt 0.244841 0.498647
vn 0.0000 1.0000 0.0000
usemtl SFRoadArrowsMatrerial.002
s 1
f 1/1/1 3/2/1 2/3/1
f 1/1/1 4/4/1 3/2/1
