# Blender v2.92.0 OBJ File: 'sanfrancisco.blend'
# www.blender.org
mtllib Straight_249.mtl
o Straight_249_Scene.5093
v -61.210251 0.000015 125.338181
v -61.210258 0.000015 -125.338181
v 61.210251 0.000015 -125.338181
v 61.210251 0.000031 125.338181
vt 0.000000 0.498647
vt 0.244841 1.000000
vt 0.000000 1.000000
vt 0.244841 0.498647
vn -0.0000 1.0000 -0.0000
usemtl SFRoadArrowsMatrerial.002
s 1
f 1/1/1 3/2/1 2/3/1
f 1/1/1 4/4/1 3/2/1
