# Blender v2.92.0 OBJ File: 'sanfrancisco.blend'
# www.blender.org
mtllib TurnRight_19.mtl
o TurnRight_19_Scene.5108
v -68.587006 0.000000 125.338188
v 109.725357 0.000015 -125.338181
v 109.725342 0.000015 125.338173
v -68.587021 0.000031 -125.338181
v -109.725357 0.000031 125.338188
v -109.725357 0.000015 -125.338188
vt 0.643375 0.498647
vt 1.000000 0.498647
vt 1.000000 1.000000
vt 0.643375 1.000000
vt 0.561099 0.498647
vt 0.561099 1.000000
vn 0.0000 1.0000 0.0000
usemtl SFRoadArrowsMatrerial.002
s 1
f 1/1/1 3/2/1 2/3/1
f 1/1/1 2/3/1 4/4/1
f 5/5/1 1/1/1 4/4/1
f 5/5/1 4/4/1 6/6/1
