# Blender MTL File: 'sanfrancisco.blend'
# Material Count: 1

newmtl Window06EmissionOnMaterial.002
Ns 179.999996
Ka 1.000000 1.000000 1.000000
Kd 1.000000 1.000000 1.000000
Ks 0.500000 0.500000 0.500000
Ke 1.000000 1.000000 1.000000
Ni 1.450000
d 1.000000
illum 2
map_Kd Window06Diffuse.png
map_d Window06Diffuse.png
norm Window06Normal.png 
map_ka Window06EmissionOff.png 
