# Blender v2.92.0 OBJ File: 'sanfrancisco.blend'
# www.blender.org
mtllib WIndow05EmissionOff.mtl
o WIndow05EmissionOff_Scene.3532
v 1488.570801 262.700012 -1179.999756
v 1188.570801 262.700012 -1179.999756
v 1188.570801 12.699982 -1179.999756
v 1488.570801 12.699989 -1179.999756
v 1015.713928 262.699982 -1179.999756
v 715.714417 262.699982 -1180.000000
v 715.714417 12.699989 -1180.000000
v 1015.713928 12.699989 -1179.999756
v 150.000061 262.699982 -1180.000000
v -149.999878 262.699982 -1180.000000
v -149.999878 12.699989 -1180.000000
v 150.000061 12.699997 -1180.000000
v -322.857056 262.700012 -1180.000000
v -622.857056 262.700012 -1180.000000
v -622.856934 12.699989 -1180.000000
v -322.856934 12.699989 -1180.000000
v -1188.570923 262.700012 -1179.999878
v -1488.570801 262.700012 -1179.999878
v -1488.570801 12.699989 -1179.999878
v -1188.570801 12.699997 -1179.999878
v 1503.124756 660.999939 -1174.999756
v 1253.124878 660.999878 -1174.999756
v 1253.125000 436.000000 -1174.999756
v 1503.124756 436.000000 -1174.999756
v 1109.375000 660.999878 -1174.999756
v 859.374939 661.000000 -1175.000000
v 859.375000 436.000000 -1175.000000
v 1109.375000 436.000000 -1174.999756
v 715.624939 661.000000 -1175.000000
v 465.624939 661.000000 -1175.000000
v 465.624908 436.000000 -1175.000000
v 715.624939 436.000000 -1175.000000
v 321.874969 661.000000 -1175.000000
v 71.875000 661.000000 -1175.000000
v 71.875000 436.000000 -1175.000000
v 321.875000 436.000000 -1175.000000
v -71.875000 660.999939 -1175.000000
v -321.875122 660.999939 -1175.000000
v -321.875122 435.999939 -1175.000000
v -71.875000 435.999939 -1175.000000
v -859.375000 660.999939 -1174.999878
v -1109.375000 661.000000 -1174.999878
v -1109.375000 436.000000 -1174.999878
v -859.375000 436.000000 -1174.999878
v -1253.125000 661.000000 -1174.999878
v -1503.125000 660.999939 -1174.999878
v -1503.125000 436.000000 -1174.999878
v -1253.125000 436.000000 -1174.999878
v 1503.124756 1010.999878 -1174.999756
v 1253.125000 1010.999878 -1174.999756
v 1253.124878 785.999817 -1174.999756
v 1503.124756 785.999878 -1174.999756
v 715.625000 1010.999878 -1175.000000
v 465.624939 1010.999878 -1175.000000
v 465.624939 785.999939 -1175.000000
v 715.624939 785.999939 -1175.000000
v 321.874969 1010.999878 -1175.000000
v 71.874939 1010.999878 -1175.000000
v 71.875000 785.999939 -1175.000000
v 321.874969 785.999939 -1175.000000
v -71.875000 1010.999878 -1175.000000
v -321.875122 1010.999878 -1175.000000
v -321.875122 785.999878 -1175.000000
v -71.875000 785.999878 -1175.000000
v -465.625000 1010.999878 -1175.000000
v -715.624878 1010.999756 -1174.999878
v -715.625000 785.999878 -1174.999878
v -465.625000 785.999878 -1175.000000
v -859.374878 1010.999756 -1174.999878
v -1109.375000 1010.999878 -1174.999878
v -1109.375000 785.999939 -1174.999878
v -859.375000 785.999878 -1174.999878
v -1253.125000 1010.999878 -1174.999878
v -1503.125000 1010.999878 -1174.999878
v -1503.125000 785.999878 -1174.999878
v -1253.125000 785.999939 -1174.999878
v 1503.124756 1360.999878 -1174.999756
v 1253.125000 1360.999878 -1174.999756
v 1253.125000 1135.999878 -1174.999756
v 1503.124756 1135.999878 -1174.999756
v 1109.375000 1360.999878 -1174.999756
v 859.375000 1360.999878 -1175.000000
v 859.375000 1136.000000 -1175.000000
v 1109.375000 1135.999878 -1174.999756
v 715.625000 1360.999878 -1175.000000
v 465.624939 1360.999878 -1175.000000
v 465.624939 1136.000000 -1175.000000
v 715.625000 1136.000000 -1175.000000
v 321.874939 1360.999878 -1175.000000
v 71.874939 1360.999878 -1175.000000
v 71.874939 1136.000000 -1175.000000
v 321.874969 1136.000000 -1175.000000
v -71.875000 1360.999878 -1175.000000
v -321.875000 1360.999878 -1175.000000
v -321.875000 1136.000000 -1175.000000
v -71.875000 1136.000000 -1175.000000
v -465.625000 1360.999878 -1175.000000
v -715.624878 1360.999756 -1174.999878
v -715.624878 1135.999878 -1174.999878
v -465.625000 1136.000000 -1175.000000
v -859.374878 1360.999756 -1174.999878
v -1109.375000 1360.999756 -1174.999878
v -1109.375000 1136.000000 -1174.999878
v -859.374878 1135.999878 -1174.999878
v 1503.124756 1710.999756 -1174.999756
v 1253.125000 1710.999756 -1174.999756
v 1253.125000 1485.999878 -1174.999756
v 1503.124756 1485.999878 -1174.999756
v 1109.375000 1710.999756 -1174.999756
v 859.375000 1710.999756 -1175.000000
v 859.375000 1485.999878 -1175.000000
v 1109.375000 1485.999878 -1174.999756
v 715.624939 1710.999756 -1175.000000
v 465.624939 1710.999756 -1175.000000
v 465.624939 1485.999878 -1175.000000
v 715.625000 1485.999878 -1175.000000
v 321.874969 1710.999756 -1175.000000
v 71.874939 1710.999756 -1175.000000
v 71.874939 1485.999878 -1175.000000
v 321.874939 1485.999878 -1175.000000
v -71.875000 1710.999756 -1175.000000
v -321.875000 1710.999756 -1175.000000
v -321.875000 1485.999878 -1175.000000
v -71.875000 1485.999878 -1175.000000
v -465.625000 1710.999756 -1175.000000
v -715.624878 1710.999634 -1174.999878
v -715.624878 1485.999756 -1174.999878
v -465.625000 1485.999878 -1175.000000
v -859.374878 1710.999634 -1174.999878
v -1109.375000 1710.999634 -1174.999878
v -1109.375000 1485.999756 -1174.999878
v -859.374878 1485.999756 -1174.999878
v -1253.125000 1710.999634 -1174.999878
v -1503.125244 1710.999634 -1174.999878
v -1503.125000 1485.999756 -1174.999878
v -1253.125000 1485.999756 -1174.999878
v 1503.125000 2060.999512 -1174.999756
v 1253.124878 2060.999512 -1174.999756
v 1253.125000 1835.999756 -1174.999756
v 1503.125000 1835.999756 -1174.999756
v 1109.375000 2060.999512 -1174.999756
v 859.375000 2060.999512 -1175.000000
v 859.375000 1835.999756 -1175.000000
v 1109.375000 1835.999756 -1174.999756
v 715.624939 2060.999512 -1175.000000
v 465.624908 2060.999512 -1175.000000
v 465.624939 1835.999756 -1175.000000
v 715.624939 1835.999756 -1175.000000
v 321.875000 2060.999512 -1175.000000
v 71.875061 2060.999512 -1175.000000
v 71.874939 1835.999756 -1175.000000
v 321.874969 1835.999756 -1175.000000
v -71.875000 2060.999512 -1175.000000
v -321.875000 2060.999512 -1175.000000
v -321.875000 1835.999756 -1175.000000
v -71.875000 1835.999756 -1175.000000
v -465.625000 2060.999512 -1175.000000
v -715.624878 2060.999512 -1174.999878
v -715.624878 1835.999634 -1174.999878
v -465.625000 1835.999756 -1175.000000
v -1253.125000 2060.999512 -1174.999878
v -1503.125000 2060.999512 -1174.999878
v -1503.125000 1835.999634 -1174.999878
v -1253.125000 1835.999634 -1174.999878
v -1579.999756 262.700012 -595.999939
v -1579.999756 262.700012 -295.999969
v -1579.999756 12.699997 -295.999969
v -1579.999756 12.699997 -595.999939
v -1579.999756 262.700012 295.999908
v -1579.999756 262.700012 596.000000
v -1579.999756 12.699997 596.000000
v -1579.999756 12.699997 295.999908
v -1579.999756 262.700012 782.000000
v -1579.999756 262.700012 1082.000000
v -1579.999756 12.699997 1082.000000
v -1579.999756 12.699997 782.000000
v -1575.000000 660.999939 -1104.166504
v -1575.000000 660.999939 -854.166870
v -1575.000000 436.000000 -854.166870
v -1575.000000 436.000000 -1104.166504
v -1575.000000 660.999939 -712.499878
v -1575.000000 660.999939 -462.499969
v -1575.000000 436.000000 -462.499969
v -1575.000000 436.000000 -712.499878
v -1575.000000 660.999939 -320.832947
v -1575.000000 660.999939 -70.833000
v -1575.000000 436.000000 -70.833000
v -1575.000000 436.000000 -320.832947
v -1575.000000 660.999939 70.833000
v -1575.000000 660.999939 320.832886
v -1575.000000 436.000000 320.832886
v -1575.000000 436.000000 70.833000
v -1575.000000 660.999939 462.499969
v -1575.000000 660.999939 712.500000
v -1575.000000 436.000000 712.500000
v -1575.000000 436.000000 462.499969
v -1575.000000 660.999939 854.166992
v -1575.000000 660.999939 1104.166870
v -1575.000000 436.000000 1104.166870
v -1575.000000 436.000000 854.166992
v -1575.000000 1010.999878 -1104.166504
v -1575.000000 1010.999878 -854.166870
v -1575.000000 785.999878 -854.166870
v -1575.000000 785.999878 -1104.166504
v -1575.000000 1010.999878 -712.499878
v -1575.000000 1010.999878 -462.499969
v -1575.000000 785.999878 -462.499969
v -1575.000000 785.999878 -712.499878
v -1575.000000 1010.999878 -320.832947
v -1575.000000 1010.999878 -70.833000
v -1575.000000 785.999878 -70.833000
v -1575.000000 785.999878 -320.832947
v -1575.000000 1010.999878 70.833000
v -1575.000000 1010.999878 320.832886
v -1575.000000 785.999878 320.832886
v -1575.000000 785.999878 70.833000
v -1575.000000 1010.999878 854.166992
v -1575.000000 1010.999878 1104.166870
v -1575.000000 785.999878 1104.166870
v -1575.000000 785.999878 854.166992
v -1575.000000 1360.999756 -712.499878
v -1575.000000 1360.999756 -462.499969
v -1575.000000 1136.000000 -462.499969
v -1575.000000 1136.000000 -712.499878
v -1575.000000 1360.999756 -320.832947
v -1575.000000 1360.999756 -70.833000
v -1575.000000 1136.000000 -70.833000
v -1575.000000 1136.000000 -320.832947
v -1575.000000 1360.999756 70.833000
v -1575.000000 1360.999756 320.832886
v -1575.000000 1136.000000 320.832886
v -1575.000000 1136.000000 70.833000
v -1575.000000 1360.999756 462.499969
v -1575.000000 1360.999756 712.500000
v -1575.000000 1136.000000 712.500000
v -1575.000000 1136.000000 462.499969
v -1575.000244 1710.999634 -1104.166504
v -1575.000000 1710.999634 -854.166870
v -1575.000000 1485.999756 -854.166870
v -1575.000000 1485.999756 -1104.166504
v -1575.000000 1710.999634 -712.499878
v -1575.000000 1710.999634 -462.499969
v -1575.000000 1485.999756 -462.499969
v -1575.000000 1485.999756 -712.499878
v -1575.000000 1710.999634 -320.832947
v -1575.000000 1710.999634 -70.833000
v -1575.000000 1485.999756 -70.833000
v -1575.000000 1485.999756 -320.832947
v -1575.000000 1710.999634 70.833000
v -1575.000000 1710.999634 320.832886
v -1575.000000 1485.999756 320.832886
v -1575.000000 1485.999756 70.833000
v -1575.000000 1710.999634 462.499969
v -1575.000000 1710.999634 712.500000
v -1575.000000 1485.999756 712.500000
v -1575.000000 1485.999756 462.499969
v -1575.000000 1710.999634 854.166992
v -1575.000000 1710.999634 1104.166870
v -1575.000000 1485.999756 1104.166870
v -1575.000000 1485.999756 854.166992
v -1575.000000 2060.999512 -1104.166504
v -1575.000000 2060.999512 -854.166870
v -1574.999756 1835.999634 -854.166870
v -1575.000000 1835.999634 -1104.166504
v -1575.000000 2060.999512 -712.499878
v -1574.999756 2060.999512 -462.499969
v -1574.999756 1835.999634 -462.499969
v -1574.999756 1835.999634 -712.499878
v -1574.999756 2060.999512 -320.832947
v -1574.999756 2060.999512 -70.833000
v -1574.999756 1835.999634 -70.833000
v -1574.999756 1835.999634 -320.832947
v -1574.999756 2060.999512 70.833000
v -1574.999756 2060.999512 320.832886
v -1574.999756 1835.999634 320.832886
v -1574.999756 1835.999634 70.833000
v -1574.999756 2060.999512 462.499969
v -1574.999756 2060.999512 712.500000
v -1574.999756 1835.999634 712.500000
v -1574.999756 1835.999634 462.499969
v -1574.999756 2060.999512 854.166992
v -1574.999756 2060.999512 1104.166870
v -1574.999756 1835.999634 1104.166870
v -1574.999756 1835.999634 854.166992
vt 0.000000 1.000000
vt 1.000000 0.000000
vt 1.000000 1.000000
vt 0.000000 0.000000
vt 0.000000 1.000000
vt 1.000000 0.000000
vt 1.000000 1.000000
vt 0.000000 0.000000
vt 0.000000 1.000000
vt 1.000000 0.000000
vt 1.000000 1.000000
vt 0.000000 0.000000
vt 0.000000 1.000000
vt 1.000000 0.000000
vt 1.000000 1.000000
vt 0.000000 0.000000
vt 0.000000 1.000000
vt 1.000000 0.000000
vt 1.000000 1.000000
vt 0.000000 0.000000
vt 0.000000 1.000000
vt 1.000000 0.000000
vt 1.000000 1.000000
vt 0.000000 0.000000
vt 0.000000 1.000000
vt 1.000000 0.000000
vt 1.000000 1.000000
vt 0.000000 0.000000
vt 0.000000 1.000000
vt 1.000000 0.000000
vt 1.000000 1.000000
vt 0.000000 0.000000
vt 0.000000 1.000000
vt 1.000000 0.000000
vt 1.000000 1.000000
vt 0.000000 0.000000
vt 0.000000 1.000000
vt 1.000000 0.000000
vt 1.000000 1.000000
vt 0.000000 0.000000
vt 0.000000 1.000000
vt 1.000000 0.000000
vt 1.000000 1.000000
vt 0.000000 0.000000
vt 0.000000 1.000000
vt 1.000000 0.000000
vt 1.000000 1.000000
vt 0.000000 0.000000
vt 0.000000 1.000000
vt 1.000000 0.000000
vt 1.000000 1.000000
vt 0.000000 0.000000
vt 0.000000 1.000000
vt 1.000000 0.000000
vt 1.000000 1.000000
vt 0.000000 0.000000
vt 0.000000 1.000000
vt 1.000000 0.000000
vt 1.000000 1.000000
vt 0.000000 0.000000
vt 0.000000 1.000000
vt 1.000000 0.000000
vt 1.000000 1.000000
vt 0.000000 0.000000
vt 0.000000 1.000000
vt 1.000000 0.000000
vt 1.000000 1.000000
vt 0.000000 0.000000
vt 0.000000 1.000000
vt 1.000000 0.000000
vt 1.000000 1.000000
vt 0.000000 0.000000
vt 0.000000 1.000000
vt 1.000000 0.000000
vt 1.000000 1.000000
vt 0.000000 0.000000
vt 0.000000 1.000000
vt 1.000000 0.000000
vt 1.000000 1.000000
vt 0.000000 0.000000
vt 0.000000 1.000000
vt 1.000000 0.000000
vt 1.000000 1.000000
vt 0.000000 0.000000
vt 0.000000 1.000000
vt 1.000000 0.000000
vt 1.000000 1.000000
vt 0.000000 0.000000
vt 0.000000 1.000000
vt 1.000000 0.000000
vt 1.000000 1.000000
vt 0.000000 0.000000
vt 0.000000 1.000000
vt 1.000000 0.000000
vt 1.000000 1.000000
vt 0.000000 0.000000
vt 0.000000 1.000000
vt 1.000000 0.000000
vt 1.000000 1.000000
vt 0.000000 0.000000
vt 0.000000 1.000000
vt 1.000000 0.000000
vt 1.000000 1.000000
vt 0.000000 0.000000
vt 0.000000 1.000000
vt 1.000000 0.000000
vt 1.000000 1.000000
vt 0.000000 0.000000
vt 0.000000 1.000000
vt 1.000000 0.000000
vt 1.000000 1.000000
vt 0.000000 0.000000
vt 0.000000 1.000000
vt 1.000000 0.000000
vt 1.000000 1.000000
vt 0.000000 0.000000
vt 0.000000 1.000000
vt 1.000000 0.000000
vt 1.000000 1.000000
vt 0.000000 0.000000
vt 0.000000 1.000000
vt 1.000000 0.000000
vt 1.000000 1.000000
vt 0.000000 0.000000
vt 0.000000 1.000000
vt 1.000000 0.000000
vt 1.000000 1.000000
vt 0.000000 0.000000
vt 0.000000 1.000000
vt 1.000000 0.000000
vt 1.000000 1.000000
vt 0.000000 0.000000
vt 0.000000 1.000000
vt 1.000000 0.000000
vt 1.000000 1.000000
vt 0.000000 0.000000
vt 0.000000 1.000000
vt 1.000000 0.000000
vt 1.000000 1.000000
vt 0.000000 0.000000
vt 0.000000 1.000000
vt 1.000000 0.000000
vt 1.000000 1.000000
vt 0.000000 0.000000
vt 0.000000 1.000000
vt 1.000000 0.000000
vt 1.000000 1.000000
vt 0.000000 0.000000
vt 0.000000 1.000000
vt 1.000000 0.000000
vt 1.000000 1.000000
vt 0.000000 0.000000
vt 0.000000 1.000000
vt 1.000000 0.000000
vt 1.000000 1.000000
vt 0.000000 0.000000
vt 0.000000 1.000000
vt 1.000000 0.000000
vt 1.000000 1.000000
vt 0.000000 0.000000
vt 0.000000 1.000000
vt 1.000000 0.000000
vt 1.000000 1.000000
vt 0.000000 0.000000
vt 0.000000 1.000000
vt 1.000000 0.000000
vt 1.000000 1.000000
vt 0.000000 0.000000
vt 0.000000 1.000000
vt 1.000000 0.000000
vt 1.000000 1.000000
vt 0.000000 0.000000
vt 0.000000 1.000000
vt 1.000000 0.000000
vt 1.000000 1.000000
vt 0.000000 0.000000
vt 0.000000 1.000000
vt 1.000000 0.000000
vt 1.000000 1.000000
vt 0.000000 0.000000
vt 0.000000 1.000000
vt 1.000000 0.000000
vt 1.000000 1.000000
vt 0.000000 0.000000
vt 0.000000 1.000000
vt 1.000000 0.000000
vt 1.000000 1.000000
vt 0.000000 0.000000
vt 0.000000 1.000000
vt 1.000000 0.000000
vt 1.000000 1.000000
vt 0.000000 0.000000
vt 0.000000 1.000000
vt 1.000000 0.000000
vt 1.000000 1.000000
vt 0.000000 0.000000
vt 0.000000 1.000000
vt 1.000000 0.000000
vt 1.000000 1.000000
vt 0.000000 0.000000
vt 0.000000 1.000000
vt 1.000000 0.000000
vt 1.000000 1.000000
vt 0.000000 0.000000
vt 0.000000 1.000000
vt 1.000000 0.000000
vt 1.000000 1.000000
vt 0.000000 0.000000
vt 0.000000 1.000000
vt 1.000000 0.000000
vt 1.000000 1.000000
vt 0.000000 0.000000
vt 0.000000 1.000000
vt 1.000000 0.000000
vt 1.000000 1.000000
vt 0.000000 0.000000
vt 0.000000 1.000000
vt 1.000000 0.000000
vt 1.000000 1.000000
vt 0.000000 0.000000
vt 0.000000 1.000000
vt 1.000000 0.000000
vt 1.000000 1.000000
vt 0.000000 0.000000
vt 0.000000 1.000000
vt 1.000000 0.000000
vt 1.000000 1.000000
vt 0.000000 0.000000
vt 0.000000 1.000000
vt 1.000000 0.000000
vt 1.000000 1.000000
vt 0.000000 0.000000
vt 0.000000 1.000000
vt 1.000000 0.000000
vt 1.000000 1.000000
vt 0.000000 0.000000
vt 0.000000 1.000000
vt 1.000000 0.000000
vt 1.000000 1.000000
vt 0.000000 0.000000
vt 0.000000 1.000000
vt 1.000000 0.000000
vt 1.000000 1.000000
vt 0.000000 0.000000
vt 0.000000 1.000000
vt 1.000000 0.000000
vt 1.000000 1.000000
vt 0.000000 0.000000
vt 0.000000 1.000000
vt 1.000000 0.000000
vt 1.000000 1.000000
vt 0.000000 0.000000
vt 0.000000 1.000000
vt 1.000000 0.000000
vt 1.000000 1.000000
vt 0.000000 0.000000
vt 0.000000 1.000000
vt 1.000000 0.000000
vt 1.000000 1.000000
vt 0.000000 0.000000
vt 0.000000 1.000000
vt 1.000000 0.000000
vt 1.000000 1.000000
vt 0.000000 0.000000
vt 0.000000 1.000000
vt 1.000000 0.000000
vt 1.000000 1.000000
vt 0.000000 0.000000
vt 0.000000 1.000000
vt 1.000000 0.000000
vt 1.000000 1.000000
vt 0.000000 0.000000
vt 0.000000 1.000000
vt 1.000000 0.000000
vt 1.000000 1.000000
vt 0.000000 0.000000
vt 0.000000 1.000000
vt 1.000000 0.000000
vt 1.000000 1.000000
vt 0.000000 0.000000
vt 0.000000 1.000000
vt 1.000000 0.000000
vt 1.000000 1.000000
vt 0.000000 0.000000
vn -0.0000 0.0000 -1.0000
vn -1.0000 0.0000 0.0000
usemtl WIndow05AllEmissionOffMaterial.002
s 1
f 1/1/1 3/2/1 2/3/1
f 1/1/1 4/4/1 3/2/1
f 5/5/1 7/6/1 6/7/1
f 5/5/1 8/8/1 7/6/1
f 9/9/1 11/10/1 10/11/1
f 9/9/1 12/12/1 11/10/1
f 13/13/1 15/14/1 14/15/1
f 13/13/1 16/16/1 15/14/1
f 17/17/1 19/18/1 18/19/1
f 17/17/1 20/20/1 19/18/1
f 21/21/1 23/22/1 22/23/1
f 21/21/1 24/24/1 23/22/1
f 25/25/1 27/26/1 26/27/1
f 25/25/1 28/28/1 27/26/1
f 29/29/1 31/30/1 30/31/1
f 29/29/1 32/32/1 31/30/1
f 33/33/1 35/34/1 34/35/1
f 33/33/1 36/36/1 35/34/1
f 37/37/1 39/38/1 38/39/1
f 37/37/1 40/40/1 39/38/1
f 41/41/1 43/42/1 42/43/1
f 41/41/1 44/44/1 43/42/1
f 45/45/1 47/46/1 46/47/1
f 45/45/1 48/48/1 47/46/1
f 49/49/1 51/50/1 50/51/1
f 49/49/1 52/52/1 51/50/1
f 53/53/1 55/54/1 54/55/1
f 53/53/1 56/56/1 55/54/1
f 57/57/1 59/58/1 58/59/1
f 57/57/1 60/60/1 59/58/1
f 61/61/1 63/62/1 62/63/1
f 61/61/1 64/64/1 63/62/1
f 65/65/1 67/66/1 66/67/1
f 65/65/1 68/68/1 67/66/1
f 69/69/1 71/70/1 70/71/1
f 69/69/1 72/72/1 71/70/1
f 73/73/1 75/74/1 74/75/1
f 73/73/1 76/76/1 75/74/1
f 77/77/1 79/78/1 78/79/1
f 77/77/1 80/80/1 79/78/1
f 81/81/1 83/82/1 82/83/1
f 81/81/1 84/84/1 83/82/1
f 85/85/1 87/86/1 86/87/1
f 85/85/1 88/88/1 87/86/1
f 89/89/1 91/90/1 90/91/1
f 89/89/1 92/92/1 91/90/1
f 93/93/1 95/94/1 94/95/1
f 93/93/1 96/96/1 95/94/1
f 97/97/1 99/98/1 98/99/1
f 97/97/1 100/100/1 99/98/1
f 101/101/1 103/102/1 102/103/1
f 101/101/1 104/104/1 103/102/1
f 105/105/1 107/106/1 106/107/1
f 105/105/1 108/108/1 107/106/1
f 109/109/1 111/110/1 110/111/1
f 109/109/1 112/112/1 111/110/1
f 113/113/1 115/114/1 114/115/1
f 113/113/1 116/116/1 115/114/1
f 117/117/1 119/118/1 118/119/1
f 117/117/1 120/120/1 119/118/1
f 121/121/1 123/122/1 122/123/1
f 121/121/1 124/124/1 123/122/1
f 125/125/1 127/126/1 126/127/1
f 125/125/1 128/128/1 127/126/1
f 129/129/1 131/130/1 130/131/1
f 129/129/1 132/132/1 131/130/1
f 133/133/1 135/134/1 134/135/1
f 133/133/1 136/136/1 135/134/1
f 137/137/1 139/138/1 138/139/1
f 137/137/1 140/140/1 139/138/1
f 141/141/1 143/142/1 142/143/1
f 141/141/1 144/144/1 143/142/1
f 145/145/1 147/146/1 146/147/1
f 145/145/1 148/148/1 147/146/1
f 149/149/1 151/150/1 150/151/1
f 149/149/1 152/152/1 151/150/1
f 153/153/1 155/154/1 154/155/1
f 153/153/1 156/156/1 155/154/1
f 157/157/1 159/158/1 158/159/1
f 157/157/1 160/160/1 159/158/1
f 161/161/1 163/162/1 162/163/1
f 161/161/1 164/164/1 163/162/1
f 165/165/2 167/166/2 166/167/2
f 165/165/2 168/168/2 167/166/2
f 169/169/2 171/170/2 170/171/2
f 169/169/2 172/172/2 171/170/2
f 173/173/2 175/174/2 174/175/2
f 173/173/2 176/176/2 175/174/2
f 177/177/2 179/178/2 178/179/2
f 177/177/2 180/180/2 179/178/2
f 181/181/2 183/182/2 182/183/2
f 181/181/2 184/184/2 183/182/2
f 185/185/2 187/186/2 186/187/2
f 185/185/2 188/188/2 187/186/2
f 189/189/2 191/190/2 190/191/2
f 189/189/2 192/192/2 191/190/2
f 193/193/2 195/194/2 194/195/2
f 193/193/2 196/196/2 195/194/2
f 197/197/2 199/198/2 198/199/2
f 197/197/2 200/200/2 199/198/2
f 201/201/2 203/202/2 202/203/2
f 201/201/2 204/204/2 203/202/2
f 205/205/2 207/206/2 206/207/2
f 205/205/2 208/208/2 207/206/2
f 209/209/2 211/210/2 210/211/2
f 209/209/2 212/212/2 211/210/2
f 213/213/2 215/214/2 214/215/2
f 213/213/2 216/216/2 215/214/2
f 217/217/2 219/218/2 218/219/2
f 217/217/2 220/220/2 219/218/2
f 221/221/2 223/222/2 222/223/2
f 221/221/2 224/224/2 223/222/2
f 225/225/2 227/226/2 226/227/2
f 225/225/2 228/228/2 227/226/2
f 229/229/2 231/230/2 230/231/2
f 229/229/2 232/232/2 231/230/2
f 233/233/2 235/234/2 234/235/2
f 233/233/2 236/236/2 235/234/2
f 237/237/2 239/238/2 238/239/2
f 237/237/2 240/240/2 239/238/2
f 241/241/2 243/242/2 242/243/2
f 241/241/2 244/244/2 243/242/2
f 245/245/2 247/246/2 246/247/2
f 245/245/2 248/248/2 247/246/2
f 249/249/2 251/250/2 250/251/2
f 249/249/2 252/252/2 251/250/2
f 253/253/2 255/254/2 254/255/2
f 253/253/2 256/256/2 255/254/2
f 257/257/2 259/258/2 258/259/2
f 257/257/2 260/260/2 259/258/2
f 261/261/2 263/262/2 262/263/2
f 261/261/2 264/264/2 263/262/2
f 265/265/2 267/266/2 266/267/2
f 265/265/2 268/268/2 267/266/2
f 269/269/2 271/270/2 270/271/2
f 269/269/2 272/272/2 271/270/2
f 273/273/2 275/274/2 274/275/2
f 273/273/2 276/276/2 275/274/2
f 277/277/2 279/278/2 278/279/2
f 277/277/2 280/280/2 279/278/2
f 281/281/2 283/282/2 282/283/2
f 281/281/2 284/284/2 283/282/2
