# Blender v2.92.0 OBJ File: 'sanfrancisco.blend'
# www.blender.org
mtllib Window08EmissionOn_10.mtl
o Window08EmissionOn_10_Scene.3986
v -713.757080 254.550018 511.849548
v -630.312744 254.550018 572.232361
v -630.312988 103.550011 572.232361
v -713.756836 103.549995 511.849548
v 121.460693 254.550049 507.954651
v 182.532837 254.550018 425.013733
v 182.532837 103.550011 425.013733
v 121.460571 103.550011 507.954651
v 693.565674 254.550018 -269.009766
v 754.637878 254.549988 -351.950562
v 754.637878 103.550011 -351.950562
v 693.565613 103.550011 -269.009766
v 598.214722 514.549988 -139.515656
v 659.286926 514.549988 -222.456406
v 659.286926 363.549988 -222.456406
v 598.214844 363.550018 -139.515656
v 788.916443 1034.549927 -398.503723
v 849.988342 1034.550049 -481.444641
v 849.988281 883.549988 -481.444641
v 788.916382 883.549988 -398.503723
v 808.090332 254.549988 -745.316772
v 724.520142 254.550018 -805.525757
v 724.520142 103.549995 -805.525757
v 808.090332 103.550011 -745.316772
v 546.494995 514.550049 -933.784851
v 462.925049 514.549988 -993.993835
v 462.925049 363.549988 -993.993835
v 546.494995 363.550018 -933.784851
v 5.861938 254.549988 -690.123840
v -54.808838 254.550018 -606.888550
v -54.808960 103.549995 -606.888550
v 5.861938 103.549995 -690.123840
v -89.255249 254.550018 -559.631531
v -149.926025 254.550049 -476.396667
v -149.926147 103.549995 -476.396667
v -89.255127 103.549995 -559.631531
v -469.723877 514.550049 -37.663452
v -530.394531 514.549988 45.571480
v -530.394775 363.549988 45.571480
v -469.723877 363.550018 -37.663452
v 196.096191 1034.550049 -951.107788
v 135.425171 1034.550049 -867.872803
v 135.425293 883.549988 -867.872803
v 196.096191 883.549988 -951.107788
vt 0.000000 1.000000
vt 1.000000 0.000000
vt 1.000000 1.000000
vt 0.000000 0.000000
vt 0.000000 1.000000
vt 1.000000 0.000000
vt 1.000000 1.000000
vt 0.000000 0.000000
vt 0.000000 1.000000
vt 1.000000 0.000000
vt 1.000000 1.000000
vt 0.000000 0.000000
vt 0.000000 1.000000
vt 1.000000 0.000000
vt 1.000000 1.000000
vt 0.000000 0.000000
vt 0.000000 1.000000
vt 1.000000 0.000000
vt 1.000000 1.000000
vt 0.000000 0.000000
vt 0.000000 1.000000
vt 1.000000 0.000000
vt 1.000000 1.000000
vt 0.000000 0.000000
vt 0.000000 1.000000
vt 1.000000 0.000000
vt 1.000000 1.000000
vt 0.000000 0.000000
vt 0.000000 1.000000
vt 1.000000 0.000000
vt 1.000000 1.000000
vt 0.000000 0.000000
vt 0.000000 1.000000
vt 1.000000 0.000000
vt 1.000000 1.000000
vt 0.000000 0.000000
vt 0.000000 1.000000
vt 1.000000 0.000000
vt 1.000000 1.000000
vt 0.000000 0.000000
vt 0.000000 1.000000
vt 1.000000 0.000000
vt 1.000000 1.000000
vt 0.000000 0.000000
vn -0.5862 0.0000 0.8101
vn 0.8053 -0.0000 0.5929
vn 0.5846 0.0000 -0.8114
vn -0.8081 0.0000 -0.5890
usemtl Window08EmissionOnMaterial.002
s 1
f 1/1/1 3/2/1 2/3/1
f 1/1/1 4/4/1 3/2/1
f 5/5/2 7/6/2 6/7/2
f 5/5/2 8/8/2 7/6/2
f 9/9/2 11/10/2 10/11/2
f 9/9/2 12/12/2 11/10/2
f 13/13/2 15/14/2 14/15/2
f 13/13/2 16/16/2 15/14/2
f 17/17/2 19/18/2 18/19/2
f 17/17/2 20/20/2 19/18/2
f 21/21/3 23/22/3 22/23/3
f 21/21/3 24/24/3 23/22/3
f 25/25/3 27/26/3 26/27/3
f 25/25/3 28/28/3 27/26/3
f 29/29/4 31/30/4 30/31/4
f 29/29/4 32/32/4 31/30/4
f 33/33/4 35/34/4 34/35/4
f 33/33/4 36/36/4 35/34/4
f 37/37/4 39/38/4 38/39/4
f 37/37/4 40/40/4 39/38/4
f 41/41/4 43/42/4 42/43/4
f 41/41/4 44/44/4 43/42/4
