# Blender v2.92.0 OBJ File: 'sanfrancisco.blend'
# www.blender.org
mtllib Window03EmissionOn_22.mtl
o Window03EmissionOn_22_Scene.3727
v -1684.999756 318.999878 1202.859131
v -1684.999756 318.999878 1402.859375
v -1684.999756 143.999878 1402.859375
v -1684.999756 143.999878 1202.859131
v -1684.999756 318.999878 -100.000000
v -1684.999756 318.999878 99.999985
v -1684.999756 143.999878 99.999985
v -1684.999756 143.999878 -100.000000
v 1685.000000 318.999878 -551.429565
v 1685.000000 318.999878 -751.429504
v 1685.000000 143.999939 -751.429504
v 1685.000122 143.999939 -551.429565
v 1684.999878 318.999878 2054.288818
v 1684.999878 318.999878 1854.288940
v 1684.999878 143.999939 1854.288940
v 1684.999878 143.999939 2054.288818
vt 0.000000 1.000000
vt 1.000000 0.000000
vt 1.000000 1.000000
vt 0.000000 0.000000
vt 0.000000 1.000000
vt 1.000000 0.000000
vt 1.000000 1.000000
vt 0.000000 0.000000
vt 0.000000 1.000000
vt 1.000000 0.000000
vt 1.000000 1.000000
vt 0.000000 0.000000
vt 0.000000 1.000000
vt 1.000000 0.000000
vt 1.000000 1.000000
vt 0.000000 0.000000
vn -1.0000 0.0000 0.0000
vn 1.0000 0.0000 -0.0000
usemtl Window03EmissionOnMaterial.002
s 1
f 1/1/1 3/2/1 2/3/1
f 1/1/1 4/4/1 3/2/1
f 5/5/1 7/6/1 6/7/1
f 5/5/1 8/8/1 7/6/1
f 9/9/2 11/10/2 10/11/2
f 9/9/2 12/12/2 11/10/2
f 13/13/2 15/14/2 14/15/2
f 13/13/2 16/16/2 15/14/2
