# Blender v2.92.0 OBJ File: 'sanfrancisco.blend'
# www.blender.org
mtllib Window07RedEmissionOn_15.mtl
o Window07RedEmissionOn_15_Scene.4353
v -175.703094 547.500000 -839.999817
v -275.703094 547.500000 -839.999817
v -275.703094 397.499939 -839.999817
v -175.703094 397.499939 -839.999817
v -789.999878 247.499939 -364.999939
v -789.999878 247.499939 -265.000000
v -789.999878 97.499969 -265.000000
v -789.999878 97.499969 -364.999939
v -789.999878 547.499939 684.999939
v -789.999878 547.499939 784.999939
v -789.999878 397.500000 784.999939
v -789.999878 397.500000 684.999939
v 175.703140 547.500000 839.999878
v 275.703125 547.500000 839.999878
v 275.703156 397.499939 839.999878
v 175.703140 397.499939 839.999878
v 627.203125 247.499908 839.999878
v 727.203125 247.499939 839.999878
v 727.203125 97.500000 839.999878
v 627.203125 97.499969 839.999878
v 789.999878 547.499939 -55.000000
v 789.999878 547.499939 -154.999985
v 789.999878 397.499939 -154.999985
v 789.999878 397.499939 -55.000000
v 789.999878 547.499939 -474.999969
v 789.999878 547.499939 -575.000000
v 789.999878 397.499939 -575.000000
v 789.999878 397.499939 -474.999969
vt 0.000000 1.000000
vt 1.000000 0.000000
vt 1.000000 1.000000
vt 0.000000 0.000000
vt 0.000000 1.000000
vt 1.000000 0.000000
vt 1.000000 1.000000
vt 0.000000 0.000000
vt 0.000000 1.000000
vt 1.000000 0.000000
vt 1.000000 1.000000
vt 0.000000 0.000000
vt 0.000000 1.000000
vt 1.000000 0.000000
vt 1.000000 1.000000
vt 0.000000 0.000000
vt 0.000000 1.000000
vt 1.000000 0.000000
vt 1.000000 1.000000
vt 0.000000 0.000000
vt 0.000000 1.000000
vt 1.000000 0.000000
vt 1.000000 1.000000
vt 0.000000 0.000000
vt 0.000000 1.000000
vt 1.000000 0.000000
vt 1.000000 1.000000
vt 0.000000 0.000000
vn 0.0000 0.0000 -1.0000
vn -1.0000 0.0000 0.0000
vn 0.0000 0.0000 1.0000
vn 1.0000 0.0000 0.0000
usemtl Window07RedEmissionOnMaterial.002
s 1
f 1/1/1 3/2/1 2/3/1
f 1/1/1 4/4/1 3/2/1
f 5/5/2 7/6/2 6/7/2
f 5/5/2 8/8/2 7/6/2
f 9/9/2 11/10/2 10/11/2
f 9/9/2 12/12/2 11/10/2
f 13/13/3 15/14/3 14/15/3
f 13/13/3 16/16/3 15/14/3
f 17/17/3 19/18/3 18/19/3
f 17/17/3 20/20/3 19/18/3
f 21/21/4 23/22/4 22/23/4
f 21/21/4 24/24/4 23/22/4
f 25/25/4 27/26/4 26/27/4
f 25/25/4 28/28/4 27/26/4
