# Blender MTL File: 'sanfrancisco.blend'
# Material Count: 1

newmtl Window07RedEmissionOnMaterial.002
Ns 179.999996
Ka 1.000000 1.000000 1.000000
Kd 1.000000 0.806604 0.806604
Ks 0.500000 0.500000 0.500000
Ke 1.000000 1.000000 1.000000
Ni 1.450000
d 1.000000
illum 2
map_Kd Window07Diffuse.png
map_d Window07Diffuse.png
norm Window07Normal.png 
map_ka Window07EmissionOff.png 
