# Blender v2.92.0 OBJ File: 'sanfrancisco.blend'
# www.blender.org
mtllib Window00EmissionOn_100.mtl
o Window00EmissionOn_100_Scene.4584
v -34.031250 267.500000 1188.003906
v 65.968735 267.500000 1113.003906
v 65.968735 142.499985 1113.003906
v -34.031219 142.499985 1188.003906
v -1037.625000 267.499969 1614.273315
v -921.531250 267.499969 1567.855347
v -921.531128 142.500000 1567.855347
v -1037.624878 142.499985 1614.273315
v -545.125000 780.299866 1406.503784
v -429.031219 780.299866 1360.081909
v -429.031158 655.299866 1360.081909
v -545.124878 655.299866 1406.503784
v -304.437408 505.299988 1310.214722
v -188.328125 505.299988 1263.792725
v -188.328125 380.299957 1263.792725
v -304.437408 380.299957 1310.214722
v 525.968750 505.299927 755.503784
v 625.968750 505.299927 680.503784
v 625.968689 380.299957 680.503784
v 525.968750 380.299957 755.503784
v 874.468628 230.299988 384.003845
v 949.468628 230.299988 284.003906
v 949.468628 105.299988 284.003906
v 874.468628 105.299988 384.003845
v 1018.468750 780.299866 192.003876
v 1093.468750 780.299866 92.003883
v 1093.468750 655.299988 92.003883
v 1018.468750 655.299988 192.003876
v 1279.968628 780.299866 -455.496002
v 1279.968628 780.299866 -580.496094
v 1279.968628 655.299988 -580.496094
v 1279.968628 655.299988 -455.496002
v 1279.968750 505.299988 -919.495911
v 1279.968750 505.299988 -1044.495972
v 1279.968750 380.299988 -1044.495972
v 1279.968750 380.299988 -919.495911
v 985.265625 780.299805 -1272.445068
v 862.265503 780.299927 -1250.085815
v 862.265503 655.299927 -1250.085815
v 985.265625 655.299927 -1272.445068
v 505.062439 230.299988 -1185.146362
v 382.062439 230.299988 -1162.785034
v 382.062439 105.299973 -1162.785034
v 505.062439 105.299988 -1185.146362
v 264.968781 230.299988 -1141.495972
v 142.062500 230.300018 -1119.136597
v 142.062515 105.299988 -1119.136597
v 264.968750 105.299988 -1141.495972
v -215.124969 780.299927 -1054.206909
v -338.124969 780.299927 -1031.845581
v -338.124969 655.299927 -1031.845581
v -215.124969 655.299927 -1054.206909
v -695.328003 1055.300049 -966.906128
v -818.234375 1055.300049 -944.546753
v -818.234375 930.299744 -944.546753
v -695.328003 930.299744 -966.906128
v -885.828125 505.299988 -874.466675
v -895.328125 505.299988 -749.835876
v -895.328125 380.299957 -749.835876
v -885.828125 380.299957 -874.466675
v -957.328125 230.299988 56.472633
v -966.937378 230.299988 181.105438
v -966.937378 105.299973 181.105438
v -957.328125 105.299973 56.472633
v -993.124878 505.299988 521.953064
v -1002.734375 505.299988 646.574158
v -1002.734375 380.299957 646.574158
v -993.124878 380.299957 521.953064
v -1028.937500 780.299866 987.425598
v -1038.531250 780.299866 1112.054565
v -1038.531250 655.299866 1112.054565
v -1028.937500 655.299866 987.425598
v -1046.828125 230.299988 1220.152222
v -1056.437500 230.299988 1344.792847
v -1056.437500 105.299988 1344.792847
v -1046.828125 105.299988 1220.152222
v -695.328003 505.299988 -966.906128
v -818.234375 505.299988 -944.546753
v -818.234253 380.299957 -944.546753
v -695.328003 380.299988 -966.906128
vt 0.000000 1.000000
vt 1.000000 0.000000
vt 1.000000 1.000000
vt 0.000000 0.000000
vt 0.000000 1.000000
vt 1.000000 0.000000
vt 1.000000 1.000000
vt 0.000000 0.000000
vt 0.000000 1.000000
vt 1.000000 0.000000
vt 1.000000 1.000000
vt 0.000000 0.000000
vt 0.000000 1.000000
vt 1.000000 0.000000
vt 1.000000 1.000000
vt 0.000000 0.000000
vt 0.000000 1.000000
vt 1.000000 0.000000
vt 1.000000 1.000000
vt 0.000000 0.000000
vt 0.000000 1.000000
vt 1.000000 0.000000
vt 1.000000 1.000000
vt 0.000000 0.000000
vt 0.000000 1.000000
vt 1.000000 0.000000
vt 1.000000 1.000000
vt 0.000000 0.000000
vt 0.000000 1.000000
vt 1.000000 0.000000
vt 1.000000 1.000000
vt 0.000000 0.000000
vt 0.000000 1.000000
vt 1.000000 0.000000
vt 1.000000 1.000000
vt 0.000000 0.000000
vt 0.000000 1.000000
vt 1.000000 0.000000
vt 1.000000 1.000000
vt 0.000000 0.000000
vt 0.000000 1.000000
vt 1.000000 0.000000
vt 1.000000 1.000000
vt 0.000000 0.000000
vt 0.000000 1.000000
vt 1.000000 0.000000
vt 1.000000 1.000000
vt 0.000000 0.000000
vt 0.000000 1.000000
vt 1.000000 0.000000
vt 1.000000 1.000000
vt 0.000000 0.000000
vt 0.000000 1.000000
vt 1.000000 0.000000
vt 1.000000 1.000000
vt 0.000000 0.000000
vt 0.000000 1.000000
vt 1.000000 0.000000
vt 1.000000 1.000000
vt 0.000000 0.000000
vt 0.000000 1.000000
vt 1.000000 0.000000
vt 1.000000 1.000000
vt 0.000000 0.000000
vt 0.000000 1.000000
vt 1.000000 0.000000
vt 1.000000 1.000000
vt 0.000000 0.000000
vt 0.000000 1.000000
vt 1.000000 0.000000
vt 1.000000 1.000000
vt 0.000000 0.000000
vt 0.000000 1.000000
vt 1.000000 0.000000
vt 1.000000 1.000000
vt 0.000000 0.000000
vt 0.000000 1.000000
vt 1.000000 0.000000
vt 1.000000 1.000000
vt 0.000000 0.000000
vn 0.6000 0.0000 0.8000
vn 0.3713 0.0000 0.9285
vn 0.3712 0.0000 0.9285
vn 0.8000 0.0000 0.6000
vn 1.0000 0.0000 0.0000
vn -0.1789 0.0000 -0.9839
vn -0.1788 0.0000 -0.9839
vn -0.1790 -0.0000 -0.9839
vn -0.9971 -0.0000 -0.0763
vn -0.9971 0.0000 -0.0766
vn -0.9970 0.0000 -0.0769
vn -0.9971 0.0000 -0.0768
usemtl Window00EmissionOnMaterial.002
s 1
f 1/1/1 3/2/1 2/3/1
f 1/1/1 4/4/1 3/2/1
f 5/5/2 7/6/2 6/7/2
f 5/5/2 8/8/2 7/6/2
f 9/9/2 11/10/2 10/11/2
f 9/9/2 12/12/2 11/10/2
f 13/13/3 15/14/3 14/15/3
f 13/13/3 16/16/3 15/14/3
f 17/17/1 19/18/1 18/19/1
f 17/17/1 20/20/1 19/18/1
f 21/21/4 23/22/4 22/23/4
f 21/21/4 24/24/4 23/22/4
f 25/25/4 27/26/4 26/27/4
f 25/25/4 28/28/4 27/26/4
f 29/29/5 31/30/5 30/31/5
f 29/29/5 32/32/5 31/30/5
f 33/33/5 35/34/5 34/35/5
f 33/33/5 36/36/5 35/34/5
f 37/37/6 39/38/6 38/39/7
f 37/37/6 40/40/6 39/38/6
f 41/41/6 43/42/6 42/43/6
f 41/41/6 44/44/6 43/42/6
f 45/45/8 47/46/8 46/47/8
f 45/45/8 48/48/8 47/46/8
f 49/49/6 51/50/6 50/51/6
f 49/49/6 52/52/6 51/50/6
f 53/53/8 55/54/8 54/55/8
f 53/53/8 56/56/8 55/54/8
f 57/57/9 59/58/9 58/59/10
f 57/57/9 60/60/10 59/58/9
f 61/61/11 63/62/11 62/63/11
f 61/61/11 64/64/11 63/62/11
f 65/65/11 67/66/11 66/67/11
f 65/65/11 68/68/11 67/66/11
f 69/69/12 71/70/12 70/71/12
f 69/69/12 72/72/12 71/70/12
f 73/73/11 75/74/11 74/75/11
f 73/73/11 76/76/11 75/74/11
f 77/77/8 79/78/8 78/79/8
f 77/77/8 80/80/8 79/78/8
