# Blender v2.92.0 OBJ File: 'sanfrancisco.blend'
# www.blender.org
mtllib Window04EmissionOff_6.mtl
o Window04EmissionOff_6_Scene.3686
v -350.799927 541.049927 1775.999878
v -250.799866 541.049927 1775.999878
v -250.799866 391.049988 1775.999878
v -350.799927 391.049988 1775.999878
v -200.399963 541.049927 1775.999878
v -100.399902 541.049927 1775.999878
v -100.399902 391.049988 1775.999878
v -200.399963 391.049988 1775.999878
v -49.999939 541.049927 1775.999878
v 50.000031 541.049927 1775.999878
v 50.000031 391.049988 1775.999878
v -49.999939 391.049988 1775.999878
v 100.400055 541.049927 1775.999878
v 200.400024 541.049927 1775.999878
v 200.400024 391.050018 1775.999878
v 100.400055 391.049988 1775.999878
v 250.800018 541.049927 1775.999878
v 350.800049 541.049927 1775.999878
v 350.799988 391.050018 1775.999878
v 250.800018 391.050018 1775.999878
v -350.799927 841.049805 1775.999878
v -250.799866 841.049805 1775.999878
v -250.799866 691.049805 1775.999878
v -350.799927 691.049805 1775.999878
v -49.999939 841.049866 1775.999878
v 50.000092 841.049866 1775.999878
v 50.000031 691.049866 1775.999878
v -49.999939 691.049866 1775.999878
v 100.400055 841.049866 1775.999878
v 200.400055 841.049866 1775.999878
v 200.400055 691.049866 1775.999878
v 100.400055 691.049866 1775.999878
v -350.799927 1141.050049 1775.999878
v -250.799866 1141.050049 1775.999878
v -250.799866 991.049744 1775.999878
v -350.799927 991.049744 1775.999878
v -200.399841 1141.050049 1775.999878
v -100.399902 1141.050049 1775.999878
v -100.399902 991.049805 1775.999878
v -200.399963 991.049744 1775.999878
v -49.999939 1141.050049 1775.999878
v 50.000061 1141.050049 1775.999878
v 50.000061 991.049805 1775.999878
v -49.999939 991.049805 1775.999878
v 250.800018 1141.050049 1775.999878
v 350.799988 1141.050049 1775.999878
v 350.800018 991.049805 1775.999878
v 250.799988 991.049805 1775.999878
v 376.000000 1141.050049 1748.782837
v 376.000000 1141.050049 1648.782837
v 376.000000 991.049805 1648.782837
v 376.000031 991.049805 1748.782837
v 376.000000 1141.050049 1594.347778
v 376.000000 1141.050049 1494.347778
v 376.000000 991.049805 1494.347778
v 376.000000 991.049805 1594.347778
v 376.000000 1141.050049 1439.912598
v 376.000031 1141.050049 1339.912842
v 376.000031 991.049805 1339.912842
v 376.000000 991.049805 1439.912598
v 376.000031 1141.050049 1285.477783
v 376.000031 1141.050049 1185.477905
v 376.000031 991.049805 1185.477905
v 376.000031 991.049805 1285.477783
v 376.000000 1141.050049 1131.042847
v 376.000000 1141.050049 1031.042847
v 376.000031 991.049805 1031.042847
v 376.000031 991.049805 1131.042847
v 376.000000 1141.050049 976.608521
v 376.000000 1141.050049 876.608521
v 376.000000 991.049805 876.608521
v 376.000000 991.049805 976.608521
v 376.000000 1141.050049 822.173828
v 376.000000 1141.050049 722.173828
v 376.000000 991.049805 722.173828
v 376.000000 991.049805 822.173828
v 376.000000 1141.050049 667.739075
v 376.000000 1141.050049 567.739014
v 376.000000 991.049805 567.739014
v 376.000000 991.049805 667.739075
v 376.000000 1141.050049 513.304260
v 376.000031 1141.050049 413.304199
v 376.000061 991.049805 413.304199
v 376.000000 991.049805 513.304260
v 376.000031 1141.050049 358.869507
v 376.000031 1141.050049 258.869568
v 376.000031 991.049805 258.869568
v 376.000061 991.049805 358.869507
v 376.000000 1141.050049 49.999977
v 376.000000 1141.050049 -50.000015
v 376.000000 991.049805 -50.000015
v 376.000031 991.049805 49.999977
v 376.000000 1141.050049 -104.434792
v 376.000000 1141.050049 -204.434799
v 376.000000 991.049805 -204.434799
v 376.000000 991.049805 -104.434792
v 376.000000 1141.050049 -258.869568
v 376.000000 1141.050049 -358.869568
v 376.000000 991.049805 -358.869568
v 376.000000 991.049805 -258.869568
v 376.000000 1141.050049 -413.304260
v 376.000061 1141.050049 -513.304321
v 376.000061 991.049805 -513.304321
v 376.000000 991.049805 -413.304260
v 376.000061 1141.050049 -567.739014
v 376.000031 1141.050049 -667.739075
v 376.000061 991.049805 -667.739075
v 376.000061 991.049805 -567.739014
v 376.000031 1141.050049 -722.173767
v 376.000031 1141.050049 -822.173767
v 376.000031 991.049805 -822.173767
v 376.000061 991.049805 -722.173767
v 376.000031 1141.050049 -876.608459
v 376.000000 1141.050049 -976.608459
v 376.000031 991.049805 -976.608459
v 376.000031 991.049805 -876.608459
v 376.000000 1141.050049 -1031.042847
v 376.000000 1141.050049 -1131.042847
v 376.000000 991.049805 -1131.042847
v 376.000031 991.049805 -1031.042847
v 376.000000 1141.050049 -1185.477905
v 376.000000 1141.050049 -1285.477783
v 376.000000 991.049805 -1285.477783
v 376.000000 991.049805 -1185.477905
v 376.000000 1141.050049 -1339.912720
v 376.000031 1141.050049 -1439.912598
v 376.000031 991.049805 -1439.912598
v 376.000000 991.049805 -1339.912720
v 376.000000 1141.050049 -1648.782715
v 376.000000 1141.050049 -1748.782715
v 376.000031 991.049805 -1748.782715
v 376.000031 991.049805 -1648.782715
vt 0.000000 1.000000
vt 1.000000 0.000000
vt 1.000000 1.000000
vt 0.000000 0.000000
vt 0.000000 1.000000
vt 1.000000 0.000000
vt 1.000000 1.000000
vt 0.000000 0.000000
vt 0.000000 1.000000
vt 1.000000 0.000000
vt 1.000000 1.000000
vt 0.000000 0.000000
vt 0.000000 1.000000
vt 1.000000 0.000000
vt 1.000000 1.000000
vt 0.000000 0.000000
vt 0.000000 1.000000
vt 1.000000 0.000000
vt 1.000000 1.000000
vt 0.000000 0.000000
vt 0.000000 1.000000
vt 1.000000 0.000000
vt 1.000000 1.000000
vt 0.000000 0.000000
vt 0.000000 1.000000
vt 1.000000 0.000000
vt 1.000000 1.000000
vt 0.000000 0.000000
vt 0.000000 1.000000
vt 1.000000 0.000000
vt 1.000000 1.000000
vt 0.000000 0.000000
vt 0.000000 1.000000
vt 1.000000 0.000000
vt 1.000000 1.000000
vt 0.000000 0.000000
vt 0.000000 1.000000
vt 1.000000 0.000000
vt 1.000000 1.000000
vt 0.000000 0.000000
vt 0.000000 1.000000
vt 1.000000 0.000000
vt 1.000000 1.000000
vt 0.000000 0.000000
vt 0.000000 1.000000
vt 1.000000 0.000000
vt 1.000000 1.000000
vt 0.000000 0.000000
vt 0.000000 1.000000
vt 1.000000 0.000000
vt 1.000000 1.000000
vt 0.000000 0.000000
vt 0.000000 1.000000
vt 1.000000 0.000000
vt 1.000000 1.000000
vt 0.000000 0.000000
vt 0.000000 1.000000
vt 1.000000 0.000000
vt 1.000000 1.000000
vt 0.000000 0.000000
vt 0.000000 1.000000
vt 1.000000 0.000000
vt 1.000000 1.000000
vt 0.000000 0.000000
vt 0.000000 1.000000
vt 1.000000 0.000000
vt 1.000000 1.000000
vt 0.000000 0.000000
vt 0.000000 1.000000
vt 1.000000 0.000000
vt 1.000000 1.000000
vt 0.000000 0.000000
vt 0.000000 1.000000
vt 1.000000 0.000000
vt 1.000000 1.000000
vt 0.000000 0.000000
vt 0.000000 1.000000
vt 1.000000 0.000000
vt 1.000000 1.000000
vt 0.000000 0.000000
vt 0.000000 1.000000
vt 1.000000 0.000000
vt 1.000000 1.000000
vt 0.000000 0.000000
vt 0.000000 1.000000
vt 1.000000 0.000000
vt 1.000000 1.000000
vt 0.000000 0.000000
vt 0.000000 1.000000
vt 1.000000 0.000000
vt 1.000000 1.000000
vt 0.000000 0.000000
vt 0.000000 1.000000
vt 1.000000 0.000000
vt 1.000000 1.000000
vt 0.000000 0.000000
vt 0.000000 1.000000
vt 1.000000 0.000000
vt 1.000000 1.000000
vt 0.000000 0.000000
vt 0.000000 1.000000
vt 1.000000 0.000000
vt 1.000000 1.000000
vt 0.000000 0.000000
vt 0.000000 1.000000
vt 1.000000 0.000000
vt 1.000000 1.000000
vt 0.000000 0.000000
vt 0.000000 1.000000
vt 1.000000 0.000000
vt 1.000000 1.000000
vt 0.000000 0.000000
vt 0.000000 1.000000
vt 1.000000 0.000000
vt 1.000000 1.000000
vt 0.000000 0.000000
vt 0.000000 1.000000
vt 1.000000 0.000000
vt 1.000000 1.000000
vt 0.000000 0.000000
vt 0.000000 1.000000
vt 1.000000 0.000000
vt 1.000000 1.000000
vt 0.000000 0.000000
vt 0.000000 1.000000
vt 1.000000 0.000000
vt 1.000000 1.000000
vt 0.000000 0.000000
vt 0.000000 1.000000
vt 1.000000 0.000000
vt 1.000000 1.000000
vt 0.000000 0.000000
vn 0.0000 0.0000 1.0000
vn 1.0000 0.0000 -0.0000
usemtl Window04EmissionOffMaterial.002
s 1
f 1/1/1 3/2/1 2/3/1
f 1/1/1 4/4/1 3/2/1
f 5/5/1 7/6/1 6/7/1
f 5/5/1 8/8/1 7/6/1
f 9/9/1 11/10/1 10/11/1
f 9/9/1 12/12/1 11/10/1
f 13/13/1 15/14/1 14/15/1
f 13/13/1 16/16/1 15/14/1
f 17/17/1 19/18/1 18/19/1
f 17/17/1 20/20/1 19/18/1
f 21/21/1 23/22/1 22/23/1
f 21/21/1 24/24/1 23/22/1
f 25/25/1 27/26/1 26/27/1
f 25/25/1 28/28/1 27/26/1
f 29/29/1 31/30/1 30/31/1
f 29/29/1 32/32/1 31/30/1
f 33/33/1 35/34/1 34/35/1
f 33/33/1 36/36/1 35/34/1
f 37/37/1 39/38/1 38/39/1
f 37/37/1 40/40/1 39/38/1
f 41/41/1 43/42/1 42/43/1
f 41/41/1 44/44/1 43/42/1
f 45/45/1 47/46/1 46/47/1
f 45/45/1 48/48/1 47/46/1
f 49/49/2 51/50/2 50/51/2
f 49/49/2 52/52/2 51/50/2
f 53/53/2 55/54/2 54/55/2
f 53/53/2 56/56/2 55/54/2
f 57/57/2 59/58/2 58/59/2
f 57/57/2 60/60/2 59/58/2
f 61/61/2 63/62/2 62/63/2
f 61/61/2 64/64/2 63/62/2
f 65/65/2 67/66/2 66/67/2
f 65/65/2 68/68/2 67/66/2
f 69/69/2 71/70/2 70/71/2
f 69/69/2 72/72/2 71/70/2
f 73/73/2 75/74/2 74/75/2
f 73/73/2 76/76/2 75/74/2
f 77/77/2 79/78/2 78/79/2
f 77/77/2 80/80/2 79/78/2
f 81/81/2 83/82/2 82/83/2
f 81/81/2 84/84/2 83/82/2
f 85/85/2 87/86/2 86/87/2
f 85/85/2 88/88/2 87/86/2
f 89/89/2 91/90/2 90/91/2
f 89/89/2 92/92/2 91/90/2
f 93/93/2 95/94/2 94/95/2
f 93/93/2 96/96/2 95/94/2
f 97/97/2 99/98/2 98/99/2
f 97/97/2 100/100/2 99/98/2
f 101/101/2 103/102/2 102/103/2
f 101/101/2 104/104/2 103/102/2
f 105/105/2 107/106/2 106/107/2
f 105/105/2 108/108/2 107/106/2
f 109/109/2 111/110/2 110/111/2
f 109/109/2 112/112/2 111/110/2
f 113/113/2 115/114/2 114/115/2
f 113/113/2 116/116/2 115/114/2
f 117/117/2 119/118/2 118/119/2
f 117/117/2 120/120/2 119/118/2
f 121/121/2 123/122/2 122/123/2
f 121/121/2 124/124/2 123/122/2
f 125/125/2 127/126/2 126/127/2
f 125/125/2 128/128/2 127/126/2
f 129/129/2 131/130/2 130/131/2
f 129/129/2 132/132/2 131/130/2
