# Blender v2.92.0 OBJ File: 'sanfrancisco.blend'
# www.blender.org
mtllib Window03EmissionOn_77.mtl
o Window03EmissionOn_77_Scene.4514
v -2239.589844 316.699951 798.317932
v -2239.589844 316.699951 1198.317871
v -2239.589844 66.699974 1198.317871
v -2239.589844 66.699974 798.317932
vt 0.000000 1.000000
vt 1.000000 0.000000
vt 1.000000 1.000000
vt 0.000000 0.000000
vn -1.0000 0.0000 0.0000
usemtl Window03EmissionOnMaterial.002
s 1
f 1/1/1 3/2/1 2/3/1
f 1/1/1 4/4/1 3/2/1
