# Blender v2.92.0 OBJ File: 'sanfrancisco.blend'
# www.blender.org
mtllib Window09WhiteEmissionOff_28.mtl
o Window09WhiteEmissionOff_28_Scene.4495
v 1698.037354 316.699982 -1239.589966
v 1298.037720 316.699982 -1239.589966
v 1298.037720 66.699989 -1239.589966
v 1698.037476 66.699989 -1239.589966
v -299.345184 316.700012 -1239.589966
v -699.345215 316.699982 -1239.589966
v -699.345093 66.700005 -1239.589966
v -299.345184 66.699989 -1239.589966
v -1298.036865 316.700012 -1239.590088
v -1698.036865 316.699982 -1239.590088
v -1698.036865 66.699989 -1239.590088
v -1298.036743 66.699989 -1239.590088
v -2239.590332 316.700012 298.822327
v -2239.590332 316.700012 698.822327
v -2239.590332 66.699989 698.822327
v -2239.590332 66.699989 298.822327
vt 0.000000 1.000000
vt 1.000000 0.000000
vt 1.000000 1.000000
vt 0.000000 0.000000
vt 0.000000 1.000000
vt 1.000000 0.000000
vt 1.000000 1.000000
vt 0.000000 0.000000
vt 0.000000 1.000000
vt 1.000000 0.000000
vt 1.000000 1.000000
vt 0.000000 0.000000
vt 0.000000 1.000000
vt 1.000000 0.000000
vt 1.000000 1.000000
vt 0.000000 0.000000
vn 0.0000 0.0000 -1.0000
vn -1.0000 0.0000 0.0000
usemtl Window09WhiteEmissionOffMaterial.002
s 1
f 1/1/1 3/2/1 2/3/1
f 1/1/1 4/4/1 3/2/1
f 5/5/1 7/6/1 6/7/1
f 5/5/1 8/8/1 7/6/1
f 9/9/1 11/10/1 10/11/1
f 9/9/1 12/12/1 11/10/1
f 13/13/2 15/14/2 14/15/2
f 13/13/2 16/16/2 15/14/2
