# Blender v2.92.0 OBJ File: 'sanfrancisco.blend'
# www.blender.org
mtllib Window08EmissionOff_10.mtl
o Window08EmissionOff_10_Scene.3987
v 938.887451 254.550049 -651.083130
v 855.317505 254.549988 -711.291809
v 855.317505 103.549995 -711.291809
v 938.887390 103.550011 -651.083130
v 677.292419 254.550018 -839.550781
v 593.722656 254.549988 -899.759766
v 593.722656 103.550011 -899.759766
v 677.292480 103.549995 -839.550781
v 546.494995 254.549988 -933.784851
v 462.925049 254.550018 -993.993835
v 462.925049 103.549995 -993.993835
v 546.494873 103.549995 -933.784851
v 415.697388 254.550018 -1028.019775
v 332.127563 254.549988 -1088.227783
v 332.127563 103.550011 -1088.227783
v 415.697510 103.549995 -1028.019775
v 938.887451 514.549988 -651.083130
v 855.317505 514.549988 -711.291809
v 855.317505 363.549988 -711.291809
v 938.887451 363.549988 -651.083130
v 808.090332 514.549988 -745.316772
v 724.520142 514.549988 -805.525757
v 724.520203 363.549988 -805.525757
v 808.090332 363.549957 -745.316772
v 677.292480 514.549988 -839.550781
v 593.722534 514.549988 -899.759766
v 593.722534 363.550018 -899.759766
v 677.292480 363.549988 -839.550781
v 415.697510 514.550049 -1028.019775
v 332.127563 514.550049 -1088.227783
v 332.127686 363.549988 -1088.227783
v 415.697388 363.549988 -1028.019775
v 938.887390 774.550049 -651.083130
v 855.317505 774.549988 -711.291809
v 855.317505 623.550049 -711.291809
v 938.887451 623.549988 -651.083130
v 808.090332 774.549988 -745.316772
v 724.520081 774.549988 -805.525757
v 724.520203 623.549988 -805.525757
v 808.090332 623.549927 -745.316772
v 677.292419 774.549927 -839.550781
v 593.722534 774.550049 -899.759766
v 593.722656 623.549988 -899.759766
v 677.292480 623.549988 -839.550781
v 546.494873 774.549927 -933.784851
v 462.925049 774.550049 -993.993835
v 462.925049 623.549927 -993.993835
v 546.494873 623.549988 -933.784851
v 415.697510 774.549988 -1028.019775
v 332.127563 774.549927 -1088.227783
v 332.127563 623.549988 -1088.227783
v 415.697388 623.549988 -1028.019775
v 938.887390 1034.550049 -651.083130
v 855.317505 1034.550049 -711.291809
v 855.317444 883.549927 -711.291809
v 938.887390 883.549988 -651.083130
v 808.090332 1034.550049 -745.316772
v 724.520081 1034.550049 -805.525757
v 724.520142 883.549927 -805.525757
v 808.090271 883.549988 -745.316772
v 677.292419 1034.549927 -839.550781
v 593.722534 1034.550049 -899.759766
v 593.722534 883.549988 -899.759766
v 677.292419 883.549927 -839.550781
v 546.494995 1034.549927 -933.784851
v 462.925049 1034.550049 -993.993835
v 462.925049 883.549988 -993.993835
v 546.494995 883.549927 -933.784851
v 415.697510 1034.549927 -1028.019775
v 332.127563 1034.550049 -1088.227783
v 332.127563 883.549927 -1088.227783
v 415.697510 883.549988 -1028.019775
v 291.213257 254.549988 -1081.599854
v 230.542480 254.549988 -998.364807
v 230.542358 103.550011 -998.364807
v 291.213379 103.549995 -1081.599854
v 196.096191 254.550018 -951.107788
v 135.425171 254.549988 -867.872803
v 135.425293 103.550011 -867.872803
v 196.096191 103.549995 -951.107788
v 100.979126 254.549988 -820.615784
v 40.308105 254.549988 -737.380798
v 40.308105 103.550011 -737.380798
v 100.979004 103.550011 -820.615784
v -184.372314 254.550018 -429.139526
v -245.043213 254.549988 -345.904602
v -245.043091 103.550011 -345.904602
v -184.372314 103.549995 -429.139526
v -279.489502 254.550018 -298.647461
v -340.160278 254.550018 -215.412659
v -340.160400 103.549995 -215.412659
v -279.489380 103.550011 -298.647461
v -374.606567 254.549988 -168.155457
v -435.277344 254.549988 -84.920654
v -435.277344 103.549995 -84.920654
v -374.606567 103.550011 -168.155457
v -469.723633 254.549988 -37.663452
v -530.394531 254.550018 45.571472
v -530.394531 103.549995 45.571472
v -469.723633 103.550011 -37.663452
v -564.840820 254.549988 92.828644
v -625.511719 254.550018 176.063568
v -625.511719 103.549995 176.063568
v -564.840820 103.550011 92.828644
v -659.958008 254.550018 223.320633
v -720.628662 254.550018 306.555603
v -720.628906 103.550011 306.555603
v -659.958008 103.549995 223.320633
v 291.213257 514.549988 -1081.599854
v 230.542480 514.550049 -998.364807
v 230.542480 363.549988 -998.364807
v 291.213379 363.549988 -1081.599854
v 196.096191 514.550049 -951.107788
v 135.425293 514.549988 -867.872803
v 135.425293 363.549988 -867.872803
v 196.096069 363.549988 -951.107788
v 100.979004 514.549988 -820.615784
v 40.308228 514.549988 -737.380798
v 40.307983 363.549988 -737.380798
v 100.979004 363.549988 -820.615784
v 5.861816 514.549988 -690.123840
v -54.808960 514.550049 -606.888550
v -54.808960 363.549988 -606.888550
v 5.861938 363.549988 -690.123840
v -89.255127 514.549988 -559.631531
v -149.926147 514.549988 -476.396667
v -149.926025 363.549988 -476.396667
v -89.255127 363.549957 -559.631531
v -184.372192 514.549988 -429.139526
v -245.043213 514.549988 -345.904602
v -245.043091 363.550018 -345.904602
v -184.372437 363.549988 -429.139526
v -279.489624 514.549988 -298.647461
v -340.160278 514.549988 -215.412659
v -340.160400 363.549988 -215.412659
v -279.489502 363.549988 -298.647461
v -374.606567 514.549988 -168.155457
v -435.277344 514.549988 -84.920654
v -435.277344 363.549988 -84.920654
v -374.606567 363.549988 -168.155457
v -564.840820 514.549988 92.828644
v -625.511719 514.549988 176.063568
v -625.511475 363.549988 176.063568
v -564.840576 363.549988 92.828644
v -659.958008 514.549988 223.320633
v -720.628906 514.550049 306.555603
v -720.628906 363.549988 306.555603
v -659.958008 363.549988 223.320633
v 291.213379 774.549988 -1081.599854
v 230.542480 774.549927 -998.364807
v 230.542358 623.549988 -998.364807
v 291.213257 623.549988 -1081.599854
v 196.096069 774.549988 -951.107788
v 135.425171 774.550049 -867.872803
v 135.425293 623.549927 -867.872803
v 196.096191 623.549988 -951.107788
v 100.979126 774.549988 -820.615784
v 40.308105 774.549988 -737.380798
v 40.308228 623.549988 -737.380798
v 100.979004 623.549988 -820.615784
v 5.862061 774.549988 -690.123840
v -54.808960 774.549988 -606.888550
v -54.808960 623.549988 -606.888550
v 5.861938 623.549988 -690.123840
v -89.255249 774.549988 -559.631531
v -149.926025 774.549927 -476.396667
v -149.926025 623.549988 -476.396667
v -89.255127 623.549988 -559.631531
v -184.372314 774.549988 -429.139526
v -245.043213 774.549988 -345.904602
v -245.043213 623.549988 -345.904602
v -184.372437 623.549988 -429.139526
v -279.489380 774.549988 -298.647461
v -340.160278 774.549988 -215.412659
v -340.160400 623.550049 -215.412659
v -279.489502 623.549988 -298.647461
v -374.606567 774.549988 -168.155457
v -435.277344 774.549927 -84.920654
v -435.277344 623.549988 -84.920654
v -374.606567 623.549988 -168.155457
v -469.723877 774.549988 -37.663452
v -530.394531 774.550049 45.571480
v -530.394775 623.549927 45.571480
v -469.723633 623.550049 -37.663452
v -564.840820 774.549927 92.828644
v -625.511475 774.549988 176.063568
v -625.511475 623.550049 176.063568
v -564.840576 623.549988 92.828644
v -659.958008 774.550049 223.320633
v -720.628906 774.549927 306.555603
v -720.628662 623.549988 306.555603
v -659.958008 623.549927 223.320633
v 291.213379 1034.550049 -1081.599854
v 230.542480 1034.549927 -998.364807
v 230.542358 883.549927 -998.364807
v 291.213379 883.549988 -1081.599854
v 100.979126 1034.549927 -820.615784
v 40.308105 1034.549927 -737.380798
v 40.308228 883.549927 -737.380798
v 100.979126 883.549927 -820.615784
v 5.861938 1034.550049 -690.123840
v -54.808838 1034.549927 -606.888550
v -54.809082 883.549988 -606.888550
v 5.861938 883.549988 -690.123840
v -89.255249 1034.549927 -559.631531
v -149.926147 1034.550049 -476.396667
v -149.926147 883.549988 -476.396667
v -89.255127 883.549927 -559.631531
v -184.372314 1034.549927 -429.139526
v -245.043213 1034.550049 -345.904602
v -245.043091 883.549927 -345.904602
v -184.372192 883.549988 -429.139526
v -279.489502 1034.550049 -298.647461
v -340.160278 1034.550049 -215.412659
v -340.160278 883.549927 -215.412659
v -279.489502 883.549988 -298.647461
v -374.606689 1034.550049 -168.155457
v -435.277344 1034.550049 -84.920654
v -435.277344 883.549988 -84.920654
v -374.606567 883.549927 -168.155457
v -469.723877 1034.550049 -37.663452
v -530.394531 1034.550049 45.571480
v -530.394775 883.549988 45.571480
v -469.723633 883.549988 -37.663452
v -564.841064 1034.550049 92.828644
v -625.511475 1034.549927 176.063568
v -625.511719 883.549927 176.063568
v -564.840820 883.549927 92.828644
v -659.957764 1034.550049 223.320633
v -720.628662 1034.549927 306.555603
v -720.628662 883.549927 306.555603
v -659.958008 883.549988 223.320633
v -713.756836 514.549988 511.849548
v -630.312744 514.549988 572.232361
v -630.312988 363.549988 572.232361
v -713.756836 363.549988 511.849548
v -713.757080 774.550049 511.849548
v -630.312744 774.549988 572.232361
v -630.312744 623.549988 572.232361
v -713.757080 623.549927 511.849548
v -713.757080 1034.550049 511.849548
v -630.312744 1034.549927 572.232361
v -630.312988 883.549927 572.232361
v -713.757080 883.549988 511.849548
v -338.581787 254.550018 786.814575
v -253.727539 254.549988 845.199036
v -253.727661 103.549995 845.199036
v -338.582031 103.550011 786.814575
v -338.581909 514.550049 786.814575
v -253.727783 514.550049 845.199036
v -253.727661 363.549988 845.199036
v -338.581787 363.549988 786.814575
v -338.581787 774.549927 786.814575
v -253.727783 774.550049 845.199036
v -253.727661 623.549988 845.199036
v -338.581787 623.549988 786.814575
v -338.581909 1034.549927 786.814575
v -253.727539 1034.550049 845.199036
v -253.727783 883.549988 845.199036
v -338.582031 883.549927 786.814575
v -69.241089 254.550018 766.942810
v -8.168823 254.550018 684.001953
v -8.168945 103.549995 684.001953
v -69.241089 103.550011 766.942810
v 26.109497 254.550018 637.448730
v 87.181763 254.549988 554.507874
v 87.181885 103.550011 554.507874
v 26.109619 103.550011 637.448730
v 216.811401 254.549988 378.460571
v 277.883667 254.550018 295.519714
v 277.883545 103.550011 295.519714
v 216.811279 103.549995 378.460571
v 312.162231 254.550018 248.966568
v 373.234375 254.550018 166.025681
v 373.234375 103.550011 166.025681
v 312.162231 103.549995 248.966568
v 407.513184 254.549988 119.472473
v 468.585327 254.550018 36.531647
v 468.585327 103.550011 36.531647
v 407.513184 103.549995 119.472473
v 502.864014 254.550018 -10.021545
v 563.936157 254.549988 -92.962425
v 563.936157 103.550011 -92.962425
v 502.864014 103.549995 -10.021545
v 598.214844 254.549988 -139.515656
v 659.286926 254.549988 -222.456406
v 659.286865 103.549995 -222.456406
v 598.214783 103.550011 -139.515656
v 788.916443 254.550018 -398.503723
v 849.988281 254.549988 -481.444641
v 849.988342 103.550011 -481.444641
v 788.916443 103.550011 -398.503723
v 884.267334 254.550018 -527.997742
v 945.339478 254.550018 -610.938660
v 945.339417 103.550011 -610.938660
v 884.267334 103.549995 -527.997742
v -69.241211 514.549988 766.942810
v -8.168945 514.550049 684.001953
v -8.168945 363.549988 684.001953
v -69.241089 363.549988 766.942810
v 26.109741 514.549988 637.448730
v 87.181763 514.550049 554.507874
v 87.181885 363.549988 554.507874
v 26.109619 363.549988 637.448730
v 121.460571 514.549988 507.954651
v 182.532837 514.549988 425.013733
v 182.532715 363.549988 425.013733
v 121.460693 363.549988 507.954651
v 216.811401 514.549988 378.460571
v 277.883667 514.549988 295.519714
v 277.883667 363.549988 295.519714
v 216.811523 363.549988 378.460571
v 312.162231 514.549988 248.966568
v 373.234497 514.549988 166.025681
v 373.234375 363.549988 166.025681
v 312.162354 363.549988 248.966568
v 407.513062 514.550049 119.472473
v 468.585205 514.549988 36.531647
v 468.585327 363.549988 36.531647
v 407.513062 363.550018 119.472473
v 502.864014 514.549988 -10.021545
v 563.936157 514.549988 -92.962425
v 563.936157 363.550018 -92.962425
v 502.864136 363.549988 -10.021545
v 693.565674 514.549988 -269.009766
v 754.637939 514.550049 -351.950562
v 754.637878 363.550018 -351.950562
v 693.565613 363.549957 -269.009766
v 788.916443 514.550049 -398.503723
v 849.988281 514.549988 -481.444641
v 849.988342 363.549988 -481.444641
v 788.916443 363.550018 -398.503723
v 884.267334 514.549988 -527.997742
v 945.339478 514.549988 -610.938660
v 945.339478 363.550018 -610.938660
v 884.267395 363.549957 -527.997742
v -69.241089 774.549927 766.942810
v -8.169067 774.549988 684.001953
v -8.168945 623.549988 684.001953
v -69.241211 623.549988 766.942810
v 26.109741 774.549988 637.448730
v 87.182007 774.549927 554.507874
v 87.181763 623.549988 554.507874
v 26.109619 623.549988 637.448730
v 121.460571 774.550049 507.954651
v 182.532837 774.550049 425.013733
v 182.532715 623.549927 425.013733
v 121.460693 623.549988 507.954651
v 216.811401 774.549988 378.460571
v 277.883667 774.549988 295.519714
v 277.883545 623.550049 295.519714
v 216.811279 623.550049 378.460571
v 312.162354 774.549927 248.966568
v 373.234497 774.549988 166.025681
v 373.234375 623.549988 166.025681
v 312.162231 623.549988 248.966568
v 407.513062 774.549988 119.472473
v 468.585327 774.549927 36.531647
v 468.585327 623.549988 36.531647
v 407.513184 623.550049 119.472473
v 502.864014 774.549988 -10.021545
v 563.936157 774.550049 -92.962425
v 563.936157 623.549988 -92.962425
v 502.864014 623.549988 -10.021545
v 598.214783 774.549988 -139.515656
v 659.286926 774.549988 -222.456406
v 659.286865 623.550049 -222.456406
v 598.214783 623.549988 -139.515656
v 693.565613 774.549988 -269.009766
v 754.637878 774.549927 -351.950562
v 754.637878 623.549988 -351.950562
v 693.565674 623.549988 -269.009766
v 788.916443 774.549988 -398.503723
v 849.988220 774.549988 -481.444641
v 849.988342 623.549927 -481.444641
v 788.916443 623.549988 -398.503723
v 884.267273 774.549988 -527.997742
v 945.339417 774.549988 -610.938660
v 945.339478 623.549988 -610.938660
v 884.267395 623.549988 -527.997742
v -69.241089 1034.550049 766.942810
v -8.168823 1034.550049 684.001953
v -8.168945 883.549988 684.001953
v -69.241089 883.549927 766.942810
v 26.109619 1034.549927 637.448730
v 87.181885 1034.550049 554.507874
v 87.181885 883.549927 554.507874
v 26.109619 883.549988 637.448730
v 121.460693 1034.550049 507.954651
v 182.532715 1034.550049 425.013733
v 182.532837 883.549988 425.013733
v 121.460571 883.549988 507.954651
v 216.811401 1034.550049 378.460571
v 277.883667 1034.550049 295.519714
v 277.883545 883.549927 295.519714
v 216.811523 883.549927 378.460571
v 312.162231 1034.549927 248.966568
v 373.234375 1034.549927 166.025681
v 373.234497 883.549988 166.025681
v 312.162354 883.549866 248.966568
v 407.513184 1034.550049 119.472473
v 468.585205 1034.549927 36.531647
v 468.585327 883.549927 36.531647
v 407.513062 883.549988 119.472473
v 502.864014 1034.550049 -10.021545
v 563.936157 1034.550049 -92.962425
v 563.936157 883.549988 -92.962425
v 502.864136 883.549988 -10.021545
v 598.214722 1034.549927 -139.515656
v 659.286865 1034.549927 -222.456406
v 659.286987 883.549927 -222.456406
v 598.214844 883.549927 -139.515656
v 693.565613 1034.550049 -269.009766
v 754.637878 1034.550049 -351.950562
v 754.637878 883.549988 -351.950562
v 693.565613 883.549988 -269.009766
v 884.267273 1034.549927 -527.997742
v 945.339417 1034.550049 -610.938660
v 945.339417 883.549988 -610.938660
v 884.267334 883.549927 -527.997742
vt 0.000000 1.000000
vt 1.000000 0.000000
vt 1.000000 1.000000
vt 0.000000 0.000000
vt 0.000000 1.000000
vt 1.000000 0.000000
vt 1.000000 1.000000
vt 0.000000 0.000000
vt 0.000000 1.000000
vt 1.000000 0.000000
vt 1.000000 1.000000
vt 0.000000 0.000000
vt 0.000000 1.000000
vt 1.000000 0.000000
vt 1.000000 1.000000
vt 0.000000 0.000000
vt 0.000000 1.000000
vt 1.000000 0.000000
vt 1.000000 1.000000
vt 0.000000 0.000000
vt 0.000000 1.000000
vt 1.000000 0.000000
vt 1.000000 1.000000
vt 0.000000 0.000000
vt 0.000000 1.000000
vt 1.000000 0.000000
vt 1.000000 1.000000
vt 0.000000 0.000000
vt 0.000000 1.000000
vt 1.000000 0.000000
vt 1.000000 1.000000
vt 0.000000 0.000000
vt 0.000000 1.000000
vt 1.000000 0.000000
vt 1.000000 1.000000
vt 0.000000 0.000000
vt 0.000000 1.000000
vt 1.000000 0.000000
vt 1.000000 1.000000
vt 0.000000 0.000000
vt 0.000000 1.000000
vt 1.000000 0.000000
vt 1.000000 1.000000
vt 0.000000 0.000000
vt 0.000000 1.000000
vt 1.000000 0.000000
vt 1.000000 1.000000
vt 0.000000 0.000000
vt 0.000000 1.000000
vt 1.000000 0.000000
vt 1.000000 1.000000
vt 0.000000 0.000000
vt 0.000000 1.000000
vt 1.000000 0.000000
vt 1.000000 1.000000
vt 0.000000 0.000000
vt 0.000000 1.000000
vt 1.000000 0.000000
vt 1.000000 1.000000
vt 0.000000 0.000000
vt 0.000000 1.000000
vt 1.000000 0.000000
vt 1.000000 1.000000
vt 0.000000 0.000000
vt 0.000000 1.000000
vt 1.000000 0.000000
vt 1.000000 1.000000
vt 0.000000 0.000000
vt 0.000000 1.000000
vt 1.000000 0.000000
vt 1.000000 1.000000
vt 0.000000 0.000000
vt 0.000000 1.000000
vt 1.000000 0.000000
vt 1.000000 1.000000
vt 0.000000 0.000000
vt 0.000000 1.000000
vt 1.000000 0.000000
vt 1.000000 1.000000
vt 0.000000 0.000000
vt 0.000000 1.000000
vt 1.000000 0.000000
vt 1.000000 1.000000
vt 0.000000 0.000000
vt 0.000000 1.000000
vt 1.000000 0.000000
vt 1.000000 1.000000
vt 0.000000 0.000000
vt 0.000000 1.000000
vt 1.000000 0.000000
vt 1.000000 1.000000
vt 0.000000 0.000000
vt 0.000000 1.000000
vt 1.000000 0.000000
vt 1.000000 1.000000
vt 0.000000 0.000000
vt 0.000000 1.000000
vt 1.000000 0.000000
vt 1.000000 1.000000
vt 0.000000 0.000000
vt 0.000000 1.000000
vt 1.000000 0.000000
vt 1.000000 1.000000
vt 0.000000 0.000000
vt 0.000000 1.000000
vt 1.000000 0.000000
vt 1.000000 1.000000
vt 0.000000 0.000000
vt 0.000000 1.000000
vt 1.000000 0.000000
vt 1.000000 1.000000
vt 0.000000 0.000000
vt 0.000000 1.000000
vt 1.000000 0.000000
vt 1.000000 1.000000
vt 0.000000 0.000000
vt 0.000000 1.000000
vt 1.000000 0.000000
vt 1.000000 1.000000
vt 0.000000 0.000000
vt 0.000000 1.000000
vt 1.000000 0.000000
vt 1.000000 1.000000
vt 0.000000 0.000000
vt 0.000000 1.000000
vt 1.000000 0.000000
vt 1.000000 1.000000
vt 0.000000 0.000000
vt 0.000000 1.000000
vt 1.000000 0.000000
vt 1.000000 1.000000
vt 0.000000 0.000000
vt 0.000000 1.000000
vt 1.000000 0.000000
vt 1.000000 1.000000
vt 0.000000 0.000000
vt 0.000000 1.000000
vt 1.000000 0.000000
vt 1.000000 1.000000
vt 0.000000 0.000000
vt 0.000000 1.000000
vt 1.000000 0.000000
vt 1.000000 1.000000
vt 0.000000 0.000000
vt 0.000000 1.000000
vt 1.000000 0.000000
vt 1.000000 1.000000
vt 0.000000 0.000000
vt 0.000000 1.000000
vt 1.000000 0.000000
vt 1.000000 1.000000
vt 0.000000 0.000000
vt 0.000000 1.000000
vt 1.000000 0.000000
vt 1.000000 1.000000
vt 0.000000 0.000000
vt 0.000000 1.000000
vt 1.000000 0.000000
vt 1.000000 1.000000
vt 0.000000 0.000000
vt 0.000000 1.000000
vt 1.000000 0.000000
vt 1.000000 1.000000
vt 0.000000 0.000000
vt 0.000000 1.000000
vt 1.000000 0.000000
vt 1.000000 1.000000
vt 0.000000 0.000000
vt 0.000000 1.000000
vt 1.000000 0.000000
vt 1.000000 1.000000
vt 0.000000 0.000000
vt 0.000000 1.000000
vt 1.000000 0.000000
vt 1.000000 1.000000
vt 0.000000 0.000000
vt 0.000000 1.000000
vt 1.000000 0.000000
vt 1.000000 1.000000
vt 0.000000 0.000000
vt 0.000000 1.000000
vt 1.000000 0.000000
vt 1.000000 1.000000
vt 0.000000 0.000000
vt 0.000000 1.000000
vt 1.000000 0.000000
vt 1.000000 1.000000
vt 0.000000 0.000000
vt 0.000000 1.000000
vt 1.000000 0.000000
vt 1.000000 1.000000
vt 0.000000 0.000000
vt 0.000000 1.000000
vt 1.000000 0.000000
vt 1.000000 1.000000
vt 0.000000 0.000000
vt 0.000000 1.000000
vt 1.000000 0.000000
vt 1.000000 1.000000
vt 0.000000 0.000000
vt 0.000000 1.000000
vt 1.000000 0.000000
vt 1.000000 1.000000
vt 0.000000 0.000000
vt 0.000000 1.000000
vt 1.000000 0.000000
vt 1.000000 1.000000
vt 0.000000 0.000000
vt 0.000000 1.000000
vt 1.000000 0.000000
vt 1.000000 1.000000
vt 0.000000 0.000000
vt 0.000000 1.000000
vt 1.000000 0.000000
vt 1.000000 1.000000
vt 0.000000 0.000000
vt 0.000000 1.000000
vt 1.000000 0.000000
vt 1.000000 1.000000
vt 0.000000 0.000000
vt 0.000000 1.000000
vt 1.000000 0.000000
vt 1.000000 1.000000
vt 0.000000 0.000000
vt 0.000000 1.000000
vt 1.000000 0.000000
vt 1.000000 1.000000
vt 0.000000 0.000000
vt 0.000000 1.000000
vt 1.000000 0.000000
vt 1.000000 1.000000
vt 0.000000 0.000000
vt 0.000000 1.000000
vt 1.000000 0.000000
vt 1.000000 1.000000
vt 0.000000 0.000000
vt 0.000000 1.000000
vt 1.000000 0.000000
vt 1.000000 1.000000
vt 0.000000 0.000000
vt 0.000000 1.000000
vt 1.000000 0.000000
vt 1.000000 1.000000
vt 0.000000 0.000000
vt 0.000000 1.000000
vt 1.000000 0.000000
vt 1.000000 1.000000
vt 0.000000 0.000000
vt 0.000000 1.000000
vt 1.000000 0.000000
vt 1.000000 1.000000
vt 0.000000 0.000000
vt 0.000000 1.000000
vt 1.000000 0.000000
vt 1.000000 1.000000
vt 0.000000 0.000000
vt 0.000000 1.000000
vt 1.000000 0.000000
vt 1.000000 1.000000
vt 0.000000 0.000000
vt 0.000000 1.000000
vt 1.000000 0.000000
vt 1.000000 1.000000
vt 0.000000 0.000000
vt 0.000000 1.000000
vt 1.000000 0.000000
vt 1.000000 1.000000
vt 0.000000 0.000000
vt 0.000000 1.000000
vt 1.000000 0.000000
vt 1.000000 1.000000
vt 0.000000 0.000000
vt 0.000000 1.000000
vt 1.000000 0.000000
vt 1.000000 1.000000
vt 0.000000 0.000000
vt 0.000000 1.000000
vt 1.000000 0.000000
vt 1.000000 1.000000
vt 0.000000 0.000000
vt 0.000000 1.000000
vt 1.000000 0.000000
vt 1.000000 1.000000
vt 0.000000 0.000000
vt 0.000000 1.000000
vt 1.000000 0.000000
vt 1.000000 1.000000
vt 0.000000 0.000000
vt 0.000000 1.000000
vt 1.000000 0.000000
vt 1.000000 1.000000
vt 0.000000 0.000000
vt 0.000000 1.000000
vt 1.000000 0.000000
vt 1.000000 1.000000
vt 0.000000 0.000000
vt 0.000000 1.000000
vt 1.000000 0.000000
vt 1.000000 1.000000
vt 0.000000 0.000000
vt 0.000000 1.000000
vt 1.000000 0.000000
vt 1.000000 1.000000
vt 0.000000 0.000000
vt 0.000000 1.000000
vt 1.000000 0.000000
vt 1.000000 1.000000
vt 0.000000 0.000000
vt 0.000000 1.000000
vt 1.000000 0.000000
vt 1.000000 1.000000
vt 0.000000 0.000000
vt 0.000000 1.000000
vt 1.000000 0.000000
vt 1.000000 1.000000
vt 0.000000 0.000000
vt 0.000000 1.000000
vt 1.000000 0.000000
vt 1.000000 1.000000
vt 0.000000 0.000000
vt 0.000000 1.000000
vt 1.000000 0.000000
vt 1.000000 1.000000
vt 0.000000 0.000000
vt 0.000000 1.000000
vt 1.000000 0.000000
vt 1.000000 1.000000
vt 0.000000 0.000000
vt 0.000000 1.000000
vt 1.000000 0.000000
vt 1.000000 1.000000
vt 0.000000 0.000000
vt 0.000000 1.000000
vt 1.000000 0.000000
vt 1.000000 1.000000
vt 0.000000 0.000000
vt 0.000000 1.000000
vt 1.000000 0.000000
vt 1.000000 1.000000
vt 0.000000 0.000000
vt 0.000000 1.000000
vt 1.000000 0.000000
vt 1.000000 1.000000
vt 0.000000 0.000000
vt 0.000000 1.000000
vt 1.000000 0.000000
vt 1.000000 1.000000
vt 0.000000 0.000000
vt 0.000000 1.000000
vt 1.000000 0.000000
vt 1.000000 1.000000
vt 0.000000 0.000000
vt 0.000000 1.000000
vt 1.000000 0.000000
vt 1.000000 1.000000
vt 0.000000 0.000000
vt 0.000000 1.000000
vt 1.000000 0.000000
vt 1.000000 1.000000
vt 0.000000 0.000000
vt 0.000000 1.000000
vt 1.000000 0.000000
vt 1.000000 1.000000
vt 0.000000 0.000000
vt 0.000000 1.000000
vt 1.000000 0.000000
vt 1.000000 1.000000
vt 0.000000 0.000000
vt 0.000000 1.000000
vt 1.000000 0.000000
vt 1.000000 1.000000
vt 0.000000 0.000000
vt 0.000000 1.000000
vt 1.000000 0.000000
vt 1.000000 1.000000
vt 0.000000 0.000000
vt 0.000000 1.000000
vt 1.000000 0.000000
vt 1.000000 1.000000
vt 0.000000 0.000000
vt 0.000000 1.000000
vt 1.000000 0.000000
vt 1.000000 1.000000
vt 0.000000 0.000000
vt 0.000000 1.000000
vt 1.000000 0.000000
vt 1.000000 1.000000
vt 0.000000 0.000000
vt 0.000000 1.000000
vt 1.000000 0.000000
vt 1.000000 1.000000
vt 0.000000 0.000000
vt 0.000000 1.000000
vt 1.000000 0.000000
vt 1.000000 1.000000
vt 0.000000 0.000000
vt 0.000000 1.000000
vt 1.000000 0.000000
vt 1.000000 1.000000
vt 0.000000 0.000000
vt 0.000000 1.000000
vt 1.000000 0.000000
vt 1.000000 1.000000
vt 0.000000 0.000000
vt 0.000000 1.000000
vt 1.000000 0.000000
vt 1.000000 1.000000
vt 0.000000 0.000000
vt 0.000000 1.000000
vt 1.000000 0.000000
vt 1.000000 1.000000
vt 0.000000 0.000000
vt 0.000000 1.000000
vt 1.000000 0.000000
vt 1.000000 1.000000
vt 0.000000 0.000000
vt 0.000000 1.000000
vt 1.000000 0.000000
vt 1.000000 1.000000
vt 0.000000 0.000000
vn 0.5846 -0.0000 -0.8114
vn 0.5845 0.0000 -0.8114
vn -0.8081 0.0000 -0.5890
vn -0.5862 0.0000 0.8101
vn -0.5668 0.0000 0.8238
vn 0.8053 -0.0000 0.5929
usemtl Window08EmissionOffMaterial.002
s 1
f 1/1/1 3/2/1 2/3/2
f 1/1/1 4/4/1 3/2/1
f 5/5/1 7/6/1 6/7/1
f 5/5/1 8/8/1 7/6/1
f 9/9/1 11/10/1 10/11/1
f 9/9/1 12/12/1 11/10/1
f 13/13/2 15/14/2 14/15/2
f 13/13/2 16/16/2 15/14/2
f 17/17/2 19/18/2 18/19/2
f 17/17/2 20/20/1 19/18/2
f 21/21/1 23/22/1 22/23/1
f 21/21/1 24/24/1 23/22/1
f 25/25/1 27/26/1 26/27/1
f 25/25/1 28/28/1 27/26/1
f 29/29/2 31/30/2 30/31/2
f 29/29/2 32/32/2 31/30/2
f 33/33/2 35/34/2 34/35/2
f 33/33/2 36/36/1 35/34/2
f 37/37/1 39/38/1 38/39/1
f 37/37/1 40/40/1 39/38/1
f 41/41/1 43/42/1 42/43/1
f 41/41/1 44/44/1 43/42/1
f 45/45/1 47/46/1 46/47/1
f 45/45/1 48/48/1 47/46/1
f 49/49/2 51/50/2 50/51/2
f 49/49/2 52/52/2 51/50/2
f 53/53/2 55/54/2 54/55/2
f 53/53/2 56/56/2 55/54/2
f 57/57/1 59/58/1 58/59/1
f 57/57/1 60/60/1 59/58/1
f 61/61/1 63/62/1 62/63/1
f 61/61/1 64/64/1 63/62/1
f 65/65/1 67/66/1 66/67/1
f 65/65/1 68/68/1 67/66/1
f 69/69/2 71/70/2 70/71/2
f 69/69/2 72/72/2 71/70/2
f 73/73/3 75/74/3 74/75/3
f 73/73/3 76/76/3 75/74/3
f 77/77/3 79/78/3 78/79/3
f 77/77/3 80/80/3 79/78/3
f 81/81/3 83/82/3 82/83/3
f 81/81/3 84/84/3 83/82/3
f 85/85/3 87/86/3 86/87/3
f 85/85/3 88/88/3 87/86/3
f 89/89/3 91/90/3 90/91/3
f 89/89/3 92/92/3 91/90/3
f 93/93/3 95/94/3 94/95/3
f 93/93/3 96/96/3 95/94/3
f 97/97/3 99/98/3 98/99/3
f 97/97/3 100/100/3 99/98/3
f 101/101/3 103/102/3 102/103/3
f 101/101/3 104/104/3 103/102/3
f 105/105/3 107/106/3 106/107/3
f 105/105/3 108/108/3 107/106/3
f 109/109/3 111/110/3 110/111/3
f 109/109/3 112/112/3 111/110/3
f 113/113/3 115/114/3 114/115/3
f 113/113/3 116/116/3 115/114/3
f 117/117/3 119/118/3 118/119/3
f 117/117/3 120/120/3 119/118/3
f 121/121/3 123/122/3 122/123/3
f 121/121/3 124/124/3 123/122/3
f 125/125/3 127/126/3 126/127/3
f 125/125/3 128/128/3 127/126/3
f 129/129/3 131/130/3 130/131/3
f 129/129/3 132/132/3 131/130/3
f 133/133/3 135/134/3 134/135/3
f 133/133/3 136/136/3 135/134/3
f 137/137/3 139/138/3 138/139/3
f 137/137/3 140/140/3 139/138/3
f 141/141/3 143/142/3 142/143/3
f 141/141/3 144/144/3 143/142/3
f 145/145/3 147/146/3 146/147/3
f 145/145/3 148/148/3 147/146/3
f 149/149/3 151/150/3 150/151/3
f 149/149/3 152/152/3 151/150/3
f 153/153/3 155/154/3 154/155/3
f 153/153/3 156/156/3 155/154/3
f 157/157/3 159/158/3 158/159/3
f 157/157/3 160/160/3 159/158/3
f 161/161/3 163/162/3 162/163/3
f 161/161/3 164/164/3 163/162/3
f 165/165/3 167/166/3 166/167/3
f 165/165/3 168/168/3 167/166/3
f 169/169/3 171/170/3 170/171/3
f 169/169/3 172/172/3 171/170/3
f 173/173/3 175/174/3 174/175/3
f 173/173/3 176/176/3 175/174/3
f 177/177/3 179/178/3 178/179/3
f 177/177/3 180/180/3 179/178/3
f 181/181/3 183/182/3 182/183/3
f 181/181/3 184/184/3 183/182/3
f 185/185/3 187/186/3 186/187/3
f 185/185/3 188/188/3 187/186/3
f 189/189/3 191/190/3 190/191/3
f 189/189/3 192/192/3 191/190/3
f 193/193/3 195/194/3 194/195/3
f 193/193/3 196/196/3 195/194/3
f 197/197/3 199/198/3 198/199/3
f 197/197/3 200/200/3 199/198/3
f 201/201/3 203/202/3 202/203/3
f 201/201/3 204/204/3 203/202/3
f 205/205/3 207/206/3 206/207/3
f 205/205/3 208/208/3 207/206/3
f 209/209/3 211/210/3 210/211/3
f 209/209/3 212/212/3 211/210/3
f 213/213/3 215/214/3 214/215/3
f 213/213/3 216/216/3 215/214/3
f 217/217/3 219/218/3 218/219/3
f 217/217/3 220/220/3 219/218/3
f 221/221/3 223/222/3 222/223/3
f 221/221/3 224/224/3 223/222/3
f 225/225/3 227/226/3 226/227/3
f 225/225/3 228/228/3 227/226/3
f 229/229/3 231/230/3 230/231/3
f 229/229/3 232/232/3 231/230/3
f 233/233/4 235/234/4 234/235/4
f 233/233/4 236/236/4 235/234/4
f 237/237/4 239/238/4 238/239/4
f 237/237/4 240/240/4 239/238/4
f 241/241/4 243/242/4 242/243/4
f 241/241/4 244/244/4 243/242/4
f 245/245/5 247/246/5 246/247/5
f 245/245/5 248/248/5 247/246/5
f 249/249/5 251/250/5 250/251/5
f 249/249/5 252/252/5 251/250/5
f 253/253/5 255/254/5 254/255/5
f 253/253/5 256/256/5 255/254/5
f 257/257/5 259/258/5 258/259/5
f 257/257/5 260/260/5 259/258/5
f 261/261/6 263/262/6 262/263/6
f 261/261/6 264/264/6 263/262/6
f 265/265/6 267/266/6 266/267/6
f 265/265/6 268/268/6 267/266/6
f 269/269/6 271/270/6 270/271/6
f 269/269/6 272/272/6 271/270/6
f 273/273/6 275/274/6 274/275/6
f 273/273/6 276/276/6 275/274/6
f 277/277/6 279/278/6 278/279/6
f 277/277/6 280/280/6 279/278/6
f 281/281/6 283/282/6 282/283/6
f 281/281/6 284/284/6 283/282/6
f 285/285/6 287/286/6 286/287/6
f 285/285/6 288/288/6 287/286/6
f 289/289/6 291/290/6 290/291/6
f 289/289/6 292/292/6 291/290/6
f 293/293/6 295/294/6 294/295/6
f 293/293/6 296/296/6 295/294/6
f 297/297/6 299/298/6 298/299/6
f 297/297/6 300/300/6 299/298/6
f 301/301/6 303/302/6 302/303/6
f 301/301/6 304/304/6 303/302/6
f 305/305/6 307/306/6 306/307/6
f 305/305/6 308/308/6 307/306/6
f 309/309/6 311/310/6 310/311/6
f 309/309/6 312/312/6 311/310/6
f 313/313/6 315/314/6 314/315/6
f 313/313/6 316/316/6 315/314/6
f 317/317/6 319/318/6 318/319/6
f 317/317/6 320/320/6 319/318/6
f 321/321/6 323/322/6 322/323/6
f 321/321/6 324/324/6 323/322/6
f 325/325/6 327/326/6 326/327/6
f 325/325/6 328/328/6 327/326/6
f 329/329/6 331/330/6 330/331/6
f 329/329/6 332/332/6 331/330/6
f 333/333/6 335/334/6 334/335/6
f 333/333/6 336/336/6 335/334/6
f 337/337/6 339/338/6 338/339/6
f 337/337/6 340/340/6 339/338/6
f 341/341/6 343/342/6 342/343/6
f 341/341/6 344/344/6 343/342/6
f 345/345/6 347/346/6 346/347/6
f 345/345/6 348/348/6 347/346/6
f 349/349/6 351/350/6 350/351/6
f 349/349/6 352/352/6 351/350/6
f 353/353/6 355/354/6 354/355/6
f 353/353/6 356/356/6 355/354/6
f 357/357/6 359/358/6 358/359/6
f 357/357/6 360/360/6 359/358/6
f 361/361/6 363/362/6 362/363/6
f 361/361/6 364/364/6 363/362/6
f 365/365/6 367/366/6 366/367/6
f 365/365/6 368/368/6 367/366/6
f 369/369/6 371/370/6 370/371/6
f 369/369/6 372/372/6 371/370/6
f 373/373/6 375/374/6 374/375/6
f 373/373/6 376/376/6 375/374/6
f 377/377/6 379/378/6 378/379/6
f 377/377/6 380/380/6 379/378/6
f 381/381/6 383/382/6 382/383/6
f 381/381/6 384/384/6 383/382/6
f 385/385/6 387/386/6 386/387/6
f 385/385/6 388/388/6 387/386/6
f 389/389/6 391/390/6 390/391/6
f 389/389/6 392/392/6 391/390/6
f 393/393/6 395/394/6 394/395/6
f 393/393/6 396/396/6 395/394/6
f 397/397/6 399/398/6 398/399/6
f 397/397/6 400/400/6 399/398/6
f 401/401/6 403/402/6 402/403/6
f 401/401/6 404/404/6 403/402/6
f 405/405/6 407/406/6 406/407/6
f 405/405/6 408/408/6 407/406/6
f 409/409/6 411/410/6 410/411/6
f 409/409/6 412/412/6 411/410/6
f 413/413/6 415/414/6 414/415/6
f 413/413/6 416/416/6 415/414/6
f 417/417/6 419/418/6 418/419/6
f 417/417/6 420/420/6 419/418/6
