# Blender v2.92.0 OBJ File: 'sanfrancisco.blend'
# www.blender.org
mtllib Window03TilingEmissionOn.mtl
o Window03TilingEmissionOn_Scene.3610
v 825.714050 543.430176 2229.999756
v 1425.714111 543.430054 2229.999756
v 1425.714111 368.429993 2229.999756
v 825.714050 368.429932 2229.999756
v 117.142975 543.430176 2229.999756
v 717.143005 543.430176 2229.999756
v 717.143005 368.429932 2229.999756
v 117.142975 368.429993 2229.999756
v -2717.143066 1703.429810 2230.000000
v -2117.143066 1703.430054 2229.999756
v -2117.143066 1528.429932 2229.999756
v -2717.143066 1528.429932 2230.000000
v 825.714111 4603.430176 2229.999756
v 1425.714111 4603.430176 2229.999756
v 1425.714111 4428.430176 2229.999756
v 825.714111 4428.430176 2229.999756
v -3480.000000 4893.430176 -1415.000000
v -3480.000000 4893.430176 -814.999878
v -3480.000000 4718.430176 -814.999878
v -3480.000000 4718.430176 -1415.000000
v -3480.000000 4603.430176 814.999939
v -3480.000000 4603.430176 1415.000000
v -3480.000000 4428.430176 1415.000000
v -3480.000000 4428.430176 814.999939
v -3480.000244 3153.429688 71.666977
v -3480.000244 3153.429688 671.666687
v -3480.000000 2978.429199 671.666687
v -3480.000244 2978.429199 71.666977
v -3480.000244 1123.430054 -2158.333008
v -3480.000244 1123.430054 -1558.332886
v -3480.000244 948.430054 -1558.332886
v -3480.000244 948.430054 -2158.333008
v -3480.000000 543.430176 1558.333252
v -3480.000000 543.430176 2158.333252
v -3480.000000 368.429993 2158.333252
v -3480.000000 368.429993 1558.333252
v -3425.714111 543.430176 2230.000000
v -2825.713379 543.430176 2230.000000
v -2825.713379 368.429993 2230.000000
v -3425.714111 368.429993 2230.000000
v -2117.143066 4603.430176 -2230.000244
v -2717.143066 4603.430176 -2230.000000
v -2717.143066 4428.430176 -2230.000000
v -2117.143066 4428.430176 -2230.000244
v 717.142944 3443.429688 -2230.000000
v 117.142975 3443.429688 -2230.000000
v 117.142975 3268.429688 -2230.000000
v 717.142944 3268.429688 -2230.000000
v -2825.713623 2283.429688 -2230.000000
v -3425.714355 2283.429688 -2230.000000
v -3425.714355 2108.429688 -2230.000000
v -2825.713623 2108.429688 -2230.000000
v 1425.714233 543.430054 -2230.000000
v 825.713989 543.430176 -2230.000000
v 825.713989 368.429932 -2230.000000
v 1425.714233 368.429993 -2230.000000
v 1479.999756 4603.430176 2158.333252
v 1480.000000 4603.430176 1558.333252
v 1480.000000 4428.430176 1558.333252
v 1479.999756 4428.430176 2158.333252
v 1479.999756 4023.430176 -814.999878
v 1479.999756 4023.430176 -1415.000000
v 1479.999756 3848.430176 -1415.000000
v 1479.999756 3848.430176 -814.999878
v 1480.000000 1993.430054 -71.667000
v 1480.000000 1993.430054 -671.666931
v 1480.000000 1818.430054 -671.666931
v 1480.000000 1818.430054 -71.667000
v 1480.000000 1993.430054 671.666687
v 1480.000000 1993.430054 71.666977
v 1480.000000 1818.430054 71.666977
v 1480.000000 1818.430054 671.666687
v 3480.000244 543.430054 -814.999817
v 3480.000244 543.430054 -1414.999878
v 3480.000244 368.429993 -1414.999878
v 3480.000244 368.429993 -814.999817
v 3480.000244 833.429810 2158.333008
v 3480.000244 833.429810 1558.333252
v 3480.000244 658.429932 1558.333252
v 3480.000244 658.429932 2158.333008
v -3480.000000 2283.429688 814.999939
v -3480.000000 2283.429688 1415.000000
v -3480.000000 2108.429688 1415.000000
v -3480.000000 2108.429688 814.999939
vt 0.000000 1.000000
vt 1.000000 0.000000
vt 1.000000 1.000000
vt 0.000000 0.000000
vt 0.000000 1.000000
vt 1.000000 0.000000
vt 1.000000 1.000000
vt 0.000000 0.000000
vt 0.000000 1.000000
vt 1.000000 0.000000
vt 1.000000 1.000000
vt 0.000000 0.000000
vt 0.000000 1.000000
vt 1.000000 0.000000
vt 1.000000 1.000000
vt 0.000000 0.000000
vt 0.000000 1.000000
vt 1.000000 0.000000
vt 1.000000 1.000000
vt 0.000000 0.000000
vt 0.000000 1.000000
vt 1.000000 0.000000
vt 1.000000 1.000000
vt 0.000000 0.000000
vt 0.000000 1.000000
vt 1.000000 0.000000
vt 1.000000 1.000000
vt 0.000000 0.000000
vt 0.000000 1.000000
vt 1.000000 0.000000
vt 1.000000 1.000000
vt 0.000000 0.000000
vt 0.000000 1.000000
vt 1.000000 0.000000
vt 1.000000 1.000000
vt 0.000000 0.000000
vt 0.000000 1.000000
vt 1.000000 0.000000
vt 1.000000 1.000000
vt 0.000000 0.000000
vt 0.000000 1.000000
vt 1.000000 0.000000
vt 1.000000 1.000000
vt 0.000000 0.000000
vt 0.000000 1.000000
vt 1.000000 0.000000
vt 1.000000 1.000000
vt 0.000000 0.000000
vt 0.000000 1.000000
vt 1.000000 0.000000
vt 1.000000 1.000000
vt 0.000000 0.000000
vt 0.000000 1.000000
vt 1.000000 0.000000
vt 1.000000 1.000000
vt 0.000000 0.000000
vt 0.000000 1.000000
vt 1.000000 0.000000
vt 1.000000 1.000000
vt 0.000000 0.000000
vt 0.000000 1.000000
vt 1.000000 0.000000
vt 1.000000 1.000000
vt 0.000000 0.000000
vt 0.000000 1.000000
vt 1.000000 0.000000
vt 1.000000 1.000000
vt 0.000000 0.000000
vt 0.000000 1.000000
vt 1.000000 0.000000
vt 1.000000 1.000000
vt 0.000000 0.000000
vt 0.000000 1.000000
vt 1.000000 0.000000
vt 1.000000 1.000000
vt 0.000000 0.000000
vt 0.000000 1.000000
vt 1.000000 0.000000
vt 1.000000 1.000000
vt 0.000000 0.000000
vt 0.000000 1.000000
vt 1.000000 0.000000
vt 1.000000 1.000000
vt 0.000000 0.000000
vn -0.0000 0.0000 1.0000
vn -1.0000 0.0000 0.0000
vn -0.0000 0.0000 -1.0000
vn 1.0000 0.0000 0.0000
usemtl Window03TilingEmissionOnMaterial.002
s 1
f 1/1/1 3/2/1 2/3/1
f 1/1/1 4/4/1 3/2/1
f 5/5/1 7/6/1 6/7/1
f 5/5/1 8/8/1 7/6/1
f 9/9/1 11/10/1 10/11/1
f 9/9/1 12/12/1 11/10/1
f 13/13/1 15/14/1 14/15/1
f 13/13/1 16/16/1 15/14/1
f 17/17/2 19/18/2 18/19/2
f 17/17/2 20/20/2 19/18/2
f 21/21/2 23/22/2 22/23/2
f 21/21/2 24/24/2 23/22/2
f 25/25/2 27/26/2 26/27/2
f 25/25/2 28/28/2 27/26/2
f 29/29/2 31/30/2 30/31/2
f 29/29/2 32/32/2 31/30/2
f 33/33/2 35/34/2 34/35/2
f 33/33/2 36/36/2 35/34/2
f 37/37/1 39/38/1 38/39/1
f 37/37/1 40/40/1 39/38/1
f 41/41/3 43/42/3 42/43/3
f 41/41/3 44/44/3 43/42/3
f 45/45/3 47/46/3 46/47/3
f 45/45/3 48/48/3 47/46/3
f 49/49/3 51/50/3 50/51/3
f 49/49/3 52/52/3 51/50/3
f 53/53/3 55/54/3 54/55/3
f 53/53/3 56/56/3 55/54/3
f 57/57/4 59/58/4 58/59/4
f 57/57/4 60/60/4 59/58/4
f 61/61/4 63/62/4 62/63/4
f 61/61/4 64/64/4 63/62/4
f 65/65/4 67/66/4 66/67/4
f 65/65/4 68/68/4 67/66/4
f 69/69/4 71/70/4 70/71/4
f 69/69/4 72/72/4 71/70/4
f 73/73/4 75/74/4 74/75/4
f 73/73/4 76/76/4 75/74/4
f 77/77/4 79/78/4 78/79/4
f 77/77/4 80/80/4 79/78/4
f 81/81/2 83/82/2 82/83/2
f 81/81/2 84/84/2 83/82/2
