# Blender MTL File: 'sanfrancisco.blend'
# Material Count: 1

newmtl Window09WhiteEmissionOnMaterial.002
Ns 179.999996
Ka 1.000000 1.000000 1.000000
Kd 1.000000 1.000000 1.000000
Ks 0.500000 0.500000 0.500000
Ke 1.000000 1.000000 1.000000
Ni 1.450000
d 1.000000
illum 2
map_Kd Window09Diffuse.png
map_d Window09Diffuse.png
norm Window09Normal.png 
map_ka Window09EmissionOff.png 
