# Blender v2.92.0 OBJ File: 'sanfrancisco.blend'
# www.blender.org
mtllib Window09WhiteTiling_25EmissionOff_1.mtl
o Window09WhiteTiling_25EmissionOff_1_Scene.4144
v 913.096924 186.449982 -437.982330
v 829.062927 186.449982 -497.541504
v 829.062927 43.450073 -497.541504
v 913.096985 43.450043 -437.982330
v 736.318909 186.449982 -563.274292
v 652.284973 186.449997 -622.833496
v 652.284912 43.450012 -622.833496
v 736.318848 43.450012 -563.274292
v 559.540833 186.449997 -688.566223
v 475.506927 186.449982 -748.125488
v 475.506927 43.449997 -748.125488
v 559.540771 43.449997 -688.566223
v 382.762726 186.449982 -813.858398
v 298.728821 186.449997 -873.417542
v 298.728790 43.449997 -873.417542
v 382.762726 43.450012 -813.858398
v 913.097046 408.449951 -437.982330
v 829.062988 408.449982 -497.541504
v 829.062927 265.450012 -497.541504
v 913.096985 265.450012 -437.982330
v 559.540833 408.449921 -688.566223
v 475.506927 408.449951 -748.125488
v 475.506927 265.450012 -748.125488
v 559.540833 265.450012 -688.566223
v 382.762756 408.449951 -813.858398
v 298.728851 408.449982 -873.417542
v 298.728790 265.450012 -873.417542
v 382.762726 265.450012 -813.858398
v 913.097046 630.450073 -437.982330
v 829.062927 630.450012 -497.541504
v 829.062927 487.449951 -497.541504
v 913.096985 487.449951 -437.982330
v 736.318848 630.450012 -563.274292
v 652.284973 630.450012 -622.833557
v 652.284973 487.449982 -622.833557
v 736.318909 487.449951 -563.274292
v 559.540771 630.450012 -688.566284
v 475.506927 630.450012 -748.125488
v 475.506927 487.449951 -748.125488
v 559.540833 487.449951 -688.566223
v 205.984650 630.450012 -939.150269
v 121.950829 630.449951 -998.709595
v 121.950813 487.449982 -998.709595
v 205.984589 487.449951 -939.150269
v 913.096985 852.449951 -437.982361
v 829.062988 852.450012 -497.541504
v 829.062988 709.450012 -497.541504
v 913.096924 709.449951 -437.982330
v 559.540833 852.450012 -688.566284
v 475.506927 852.449951 -748.125549
v 475.506989 709.450012 -748.125549
v 559.540771 709.449951 -688.566284
v 382.762756 852.450012 -813.858459
v 298.728851 852.449951 -873.417542
v 298.728790 709.450012 -873.417542
v 382.762726 709.449951 -813.858398
v 205.984650 852.449951 -939.150269
v 121.950844 852.449951 -998.709595
v 121.950813 709.449951 -998.709595
v 205.984589 709.449951 -939.150269
v 913.096863 1074.449951 -437.982361
v 829.062988 1074.449951 -497.541534
v 829.062866 931.450012 -497.541504
v 913.096863 931.449951 -437.982361
v 736.318909 1074.449951 -563.274292
v 652.284851 1074.449951 -622.833557
v 652.284912 931.450073 -622.833557
v 736.318848 931.450012 -563.274292
v 559.540833 1074.449951 -688.566284
v 475.506866 1074.449951 -748.125549
v 475.506866 931.450073 -748.125549
v 559.540771 931.450012 -688.566284
v 382.762695 1074.449951 -813.858459
v 298.728790 1074.449951 -873.417603
v 298.728821 931.449951 -873.417542
v 382.762726 931.449951 -813.858459
v 205.984619 1074.449951 -939.150269
v 121.950844 1074.449951 -998.709595
v 121.950783 931.450073 -998.709595
v 205.984589 931.450012 -939.150269
v 41.366432 186.449997 -983.371338
v -18.239510 186.449982 -899.370483
v -18.239517 43.450012 -899.370483
v 41.366425 43.450005 -983.371338
v -214.663361 186.450012 -622.556396
v -274.269348 186.449982 -538.555786
v -274.269379 43.450005 -538.555786
v -214.663361 43.450012 -622.556396
v -342.678314 186.450058 -442.149017
v -402.284210 186.450043 -358.148254
v -402.284241 43.450043 -358.148254
v -342.678253 43.450012 -442.149017
v -598.708069 186.450012 -81.334259
v -658.314087 186.450027 2.666519
v -658.314087 43.450012 2.666512
v -598.708130 43.450012 -81.334259
v -726.722961 186.450043 99.073158
v -786.328918 186.450012 183.073944
v -786.328979 43.450012 183.073944
v -726.722961 43.450012 99.073158
v -854.737793 186.450043 279.480560
v -914.343750 186.449951 363.481384
v -914.343750 43.450073 363.481354
v -854.737732 43.450073 279.480530
v 41.366432 408.449951 -983.371338
v -18.239464 408.449951 -899.370483
v -18.239540 265.450012 -899.370483
v 41.366417 265.450012 -983.371338
v -86.648460 408.449951 -802.963867
v -146.254395 408.449982 -718.963013
v -146.254364 265.450012 -718.963013
v -86.648483 265.450012 -802.963867
v -214.663361 408.450012 -622.556396
v -274.269379 408.449982 -538.555786
v -274.269379 265.450043 -538.555786
v -214.663391 265.450043 -622.556396
v -342.678314 408.449982 -442.149017
v -402.284241 408.449982 -358.148254
v -402.284241 265.450043 -358.148254
v -342.678314 265.450043 -442.149017
v -470.693268 408.449982 -261.741638
v -530.299133 408.449951 -177.740936
v -530.299194 265.450012 -177.740936
v -470.693268 265.450012 -261.741638
v -598.708069 408.449951 -81.334259
v -658.314026 408.449982 2.666512
v -658.314148 265.450043 2.666519
v -598.708130 265.450012 -81.334259
v -854.737793 408.450073 279.480530
v -914.343750 408.449982 363.481384
v -914.343811 265.450043 363.481384
v -854.737793 265.450043 279.480560
v 41.366432 630.450012 -983.371338
v -18.239494 630.450012 -899.370483
v -18.239494 487.449951 -899.370483
v 41.366447 487.449951 -983.371338
v -86.648491 630.449951 -802.963867
v -146.254364 630.450073 -718.963013
v -146.254395 487.449982 -718.963013
v -86.648476 487.449921 -802.963867
v -214.663391 630.450012 -622.556396
v -274.269379 630.450073 -538.555725
v -274.269379 487.449982 -538.555786
v -214.663361 487.449982 -622.556396
v -342.678314 630.450073 -442.148987
v -402.284271 630.450073 -358.148224
v -402.284210 487.449982 -358.148224
v -342.678284 487.449982 -442.149017
v -470.693298 630.450012 -261.741638
v -530.299133 630.450012 -177.740936
v -530.299194 487.449982 -177.740936
v -470.693268 487.449951 -261.741638
v -598.708130 630.450073 -81.334259
v -658.314026 630.450012 2.666519
v -658.314087 487.450012 2.666519
v -598.708069 487.449921 -81.334259
v -854.737732 630.450012 279.480530
v -914.343811 630.450073 363.481354
v -914.343811 487.449951 363.481354
v -854.737854 487.449982 279.480530
v 41.366432 852.449951 -983.371338
v -18.239525 852.450012 -899.370483
v -18.239525 709.449951 -899.370483
v 41.366432 709.449951 -983.371338
v -86.648491 852.450073 -802.963867
v -146.254395 852.450073 -718.963013
v -146.254364 709.449951 -718.963013
v -86.648460 709.450012 -802.963867
v -214.663361 852.450012 -622.556396
v -274.269379 852.450012 -538.555725
v -274.269409 709.450073 -538.555725
v -214.663422 709.450073 -622.556396
v -470.693268 852.450012 -261.741608
v -530.299133 852.449951 -177.740936
v -530.299194 709.450012 -177.740936
v -470.693268 709.449951 -261.741638
v -598.708069 852.450012 -81.334259
v -658.314026 852.450012 2.666512
v -658.314087 709.450012 2.666512
v -598.708130 709.450073 -81.334259
v -726.722961 852.449951 99.073158
v -786.328979 852.450012 183.073944
v -786.328979 709.450012 183.073944
v -726.722961 709.450012 99.073158
v -854.737793 852.449951 279.480530
v -914.343811 852.450012 363.481354
v -914.343811 709.450012 363.481354
v -854.737854 709.450012 279.480530
v 41.366432 1074.450073 -983.371338
v -18.239494 1074.450073 -899.370483
v -18.239555 931.450073 -899.370483
v 41.366432 931.450012 -983.371338
v -86.648521 1074.449951 -802.963867
v -146.254364 1074.449951 -718.963013
v -146.254425 931.450073 -718.963013
v -86.648491 931.450073 -802.963867
v -214.663300 1074.449951 -622.556396
v -274.269348 1074.449951 -538.555786
v -274.269379 931.450012 -538.555725
v -214.663391 931.450012 -622.556396
v -342.678314 1074.449951 -442.148987
v -402.284210 1074.449951 -358.148224
v -402.284241 931.450073 -358.148224
v -342.678314 931.450073 -442.148987
v -470.693268 1074.449951 -261.741638
v -530.299133 1074.449951 -177.740936
v -530.299133 931.450012 -177.740936
v -470.693268 931.450073 -261.741638
v -598.708069 1074.449951 -81.334259
v -658.314087 1074.449951 2.666512
v -658.314087 931.450073 2.666519
v -598.708069 931.450012 -81.334259
v -726.722900 1074.449951 99.073158
v -786.328979 1074.449951 183.073944
v -786.329041 931.450073 183.073944
v -726.722961 931.450012 99.073158
v -904.302063 186.450043 443.178223
v -820.374451 186.450012 502.887146
v -820.374451 43.450012 502.887146
v -904.302063 43.450043 443.178192
v -559.472961 186.449966 688.501526
v -475.545380 186.450012 748.210510
v -475.545441 43.449997 748.210510
v -559.472961 43.449982 688.501526
v -387.058624 186.450043 811.163208
v -303.130981 186.450012 870.872314
v -303.130981 43.450005 870.872314
v -387.058594 43.449997 811.163208
v -214.643982 186.449997 933.824890
v -130.716461 186.449982 993.533813
v -130.716461 43.450005 993.533813
v -214.643982 43.450012 933.824890
v -904.302063 408.450012 443.178223
v -820.374451 408.450043 502.887146
v -820.374512 265.450043 502.887146
v -904.302124 265.450073 443.178223
v -731.887512 408.449982 565.839905
v -647.959900 408.450012 625.548889
v -647.959900 265.450012 625.548889
v -731.887512 265.450012 565.839905
v -559.472900 408.449951 688.501526
v -475.545410 408.449982 748.210510
v -475.545441 265.450012 748.210510
v -559.472961 265.450012 688.501526
v -214.643982 408.450012 933.824890
v -130.716492 408.449982 993.533813
v -130.716476 265.450012 993.533813
v -214.643982 265.450043 933.824890
v -904.302124 630.450012 443.178192
v -820.374512 630.450012 502.887146
v -820.374512 487.449951 502.887146
v -904.302124 487.450012 443.178192
v -731.887512 630.450012 565.839905
v -647.959900 630.450012 625.548889
v -647.959900 487.449982 625.548889
v -731.887512 487.450012 565.839905
v -559.472961 630.450012 688.501526
v -475.545410 630.450012 748.210510
v -475.545441 487.449951 748.210510
v -559.472961 487.449951 688.501526
v -214.644012 630.450073 933.824890
v -130.716492 630.450073 993.533813
v -130.716492 487.449982 993.533813
v -214.643982 487.449982 933.824890
v -904.302124 852.449951 443.178192
v -820.374512 852.449951 502.887146
v -820.374573 709.450012 502.887146
v -904.302063 709.449951 443.178192
v -731.887512 852.449951 565.839905
v -647.959900 852.449951 625.548889
v -647.959900 709.450012 625.548889
v -731.887512 709.449951 565.839905
v -559.472900 852.449951 688.501526
v -475.545380 852.449951 748.210510
v -475.545410 709.450012 748.210510
v -559.472961 709.449951 688.501526
v -387.058563 852.450012 811.163208
v -303.130951 852.449951 870.872314
v -303.130981 709.450073 870.872314
v -387.058594 709.450012 811.163208
v -214.643982 852.450012 933.824890
v -130.716461 852.449951 993.533813
v -130.716492 709.450012 993.533813
v -214.643951 709.449951 933.824890
v -904.302063 1074.449829 443.178192
v -820.374451 1074.449829 502.887207
v -820.374512 931.449951 502.887207
v -904.302124 931.449951 443.178192
v -559.472900 1074.449951 688.501526
v -475.545349 1074.449951 748.210510
v -475.545380 931.450012 748.210510
v -559.472961 931.450012 688.501526
v -387.058594 1074.449951 811.163208
v -303.130981 1074.449951 870.872314
v -303.130981 931.450012 870.872314
v -387.058624 931.450012 811.163208
v -214.643951 1074.449951 933.824890
v -130.716461 1074.449951 993.533813
v -130.716461 931.450073 993.533813
v -214.644012 931.450073 933.824890
v -51.329712 186.449997 977.160767
v 9.461189 186.449997 894.013489
v 9.461174 43.450005 894.013489
v -51.329716 43.450012 977.160767
v 210.102203 186.449997 619.585144
v 270.893005 186.449997 536.437805
v 270.892975 43.450005 536.437805
v 210.102203 43.450005 619.585144
v 471.534088 186.450012 262.009399
v 532.325073 186.449982 178.862244
v 532.325073 43.449982 178.862244
v 471.534088 43.449997 262.009399
v 602.250183 186.450012 83.221687
v 663.041016 186.449982 0.074432
v 663.041016 43.449982 0.074432
v 602.250122 43.449982 83.221687
v 732.966125 186.449997 -95.566116
v 793.757019 186.450043 -178.713333
v 793.757019 43.450043 -178.713318
v 732.966064 43.449982 -95.566116
v 863.682007 186.450012 -274.353943
v 924.472900 186.450012 -357.501251
v 924.472961 43.450043 -357.501251
v 863.682068 43.450043 -274.353943
v -51.329720 408.450012 977.160767
v 9.461174 408.449951 894.013489
v 9.461159 265.450012 894.013489
v -51.329704 265.450012 977.160767
v 79.386253 408.449951 798.372803
v 140.177124 408.449951 715.225708
v 140.177124 265.450012 715.225708
v 79.386253 265.450012 798.372803
v 210.102203 408.449951 619.585144
v 270.893036 408.449951 536.437805
v 270.893005 265.450012 536.437805
v 210.102203 265.450012 619.585144
v 340.818146 408.449951 440.797211
v 401.608978 408.449951 357.649994
v 401.608948 265.450012 357.649994
v 340.818115 265.450043 440.797211
v 471.534149 408.449951 262.009399
v 532.325134 408.450012 178.862244
v 532.325134 265.450012 178.862244
v 471.534088 265.449982 262.009399
v 602.250183 408.449982 83.221687
v 663.041077 408.450012 0.074432
v 663.041016 265.450012 0.074425
v 602.250122 265.450012 83.221687
v 732.966064 408.449921 -95.566116
v 793.756958 408.449982 -178.713318
v 793.757019 265.450043 -178.713333
v 732.966125 265.450012 -95.566116
v 863.682068 408.450012 -274.353943
v 924.472961 408.450012 -357.501251
v 924.472961 265.450073 -357.501251
v 863.682068 265.450012 -274.353943
v -51.329765 630.450012 977.160767
v 9.461159 630.450073 894.013489
v 9.461143 487.449951 894.013489
v -51.329735 487.449982 977.160767
v 79.386208 630.450073 798.372803
v 140.177094 630.449951 715.225708
v 140.177124 487.449951 715.225708
v 79.386192 487.449951 798.372803
v 210.102203 630.449951 619.585144
v 270.892975 630.450012 536.437805
v 270.893036 487.449951 536.437805
v 210.102173 487.449951 619.585144
v 340.818115 630.450012 440.797211
v 401.608978 630.449951 357.649994
v 401.608978 487.449951 357.649994
v 340.818115 487.449951 440.797211
v 471.534088 630.450012 262.009399
v 532.325073 630.449951 178.862244
v 532.325073 487.449951 178.862244
v 471.534149 487.450012 262.009399
v 732.966125 630.450012 -95.566116
v 793.757019 630.450012 -178.713333
v 793.757019 487.449951 -178.713333
v 732.966125 487.449951 -95.566124
v 863.682007 630.450012 -274.353943
v 924.473022 630.450012 -357.501251
v 924.472961 487.449921 -357.501251
v 863.682007 487.449951 -274.353943
v -51.329704 852.449951 977.160767
v 9.461220 852.449951 894.013489
v 9.461128 709.450012 894.013489
v -51.329796 709.450012 977.160767
v 79.386208 852.450012 798.372803
v 140.177124 852.449951 715.225708
v 140.177094 709.449951 715.225708
v 79.386208 709.450012 798.372803
v 210.102234 852.450012 619.585144
v 270.893066 852.450073 536.437805
v 270.893036 709.450073 536.437805
v 210.102203 709.449951 619.585144
v 340.818237 852.449951 440.797211
v 401.608978 852.450012 357.649994
v 401.609009 709.450012 357.649994
v 340.818146 709.450073 440.797211
v 471.534210 852.450073 262.009399
v 532.325134 852.450012 178.862244
v 532.325134 709.450012 178.862244
v 471.534088 709.449951 262.009399
v 602.250183 852.449951 83.221703
v 663.041077 852.449951 0.074432
v 663.041016 709.450012 0.074432
v 602.250183 709.450073 83.221687
v 732.966125 852.449951 -95.566124
v 793.757019 852.450012 -178.713333
v 793.756958 709.449951 -178.713333
v 732.966125 709.450012 -95.566116
v -51.329735 1074.449951 977.160767
v 9.461189 1074.449829 894.013489
v 9.461159 931.449951 894.013489
v -51.329765 931.450012 977.160767
v 79.386299 1074.449951 798.372803
v 140.177155 1074.449951 715.225708
v 140.177155 931.450012 715.225708
v 79.386238 931.449951 798.372803
v 210.102264 1074.449951 619.585144
v 270.893097 1074.450073 536.437744
v 270.893036 931.450073 536.437805
v 210.102203 931.450012 619.585144
v 471.534149 1074.449951 262.009399
v 532.325134 1074.449951 178.862244
v 532.325073 931.450012 178.862244
v 471.534088 931.450073 262.009399
v 602.250122 1074.449951 83.221687
v 663.041016 1074.449951 0.074432
v 663.040955 931.449951 0.074432
v 602.250183 931.450073 83.221687
v 732.966125 1074.449951 -95.566116
v 793.757019 1074.449951 -178.713333
v 793.757019 931.450012 -178.713333
v 732.966125 931.450012 -95.566116
v 863.681946 1074.449829 -274.353943
v 924.472839 1074.449829 -357.501282
v 924.472839 931.450012 -357.501282
v 863.681946 931.450012 -274.353943
vt 0.000000 1.000000
vt 1.356555 0.000000
vt 1.356555 1.000000
vt 0.000000 0.000000
vt 0.000000 1.000000
vt 1.356555 0.000000
vt 1.356555 1.000000
vt 0.000000 0.000000
vt 0.000000 1.000000
vt 1.356555 0.000000
vt 1.356555 1.000000
vt 0.000000 0.000000
vt 0.000000 1.000000
vt 1.356555 0.000000
vt 1.356555 1.000000
vt 0.000000 0.000000
vt 0.000000 1.000000
vt 1.356555 0.000000
vt 1.356555 1.000000
vt 0.000000 0.000000
vt 0.000000 1.000000
vt 1.356555 0.000000
vt 1.356555 1.000000
vt 0.000000 0.000000
vt 0.000000 1.000000
vt 1.356555 0.000000
vt 1.356555 1.000000
vt 0.000000 0.000000
vt 0.000000 1.000000
vt 1.356555 0.000000
vt 1.356555 1.000000
vt 0.000000 0.000000
vt 0.000000 1.000000
vt 1.356555 0.000000
vt 1.356555 1.000000
vt 0.000000 0.000000
vt 0.000000 1.000000
vt 1.356555 0.000000
vt 1.356555 1.000000
vt 0.000000 0.000000
vt 0.000000 1.000000
vt 1.356555 0.000000
vt 1.356555 1.000000
vt 0.000000 0.000000
vt 0.000000 1.000000
vt 1.356555 0.000000
vt 1.356555 1.000000
vt 0.000000 0.000000
vt 0.000000 1.000000
vt 1.356555 0.000000
vt 1.356555 1.000000
vt 0.000000 0.000000
vt 0.000000 1.000000
vt 1.356555 0.000000
vt 1.356555 1.000000
vt 0.000000 0.000000
vt 0.000000 1.000000
vt 1.356555 0.000000
vt 1.356555 1.000000
vt 0.000000 0.000000
vt 0.000000 1.000000
vt 1.356555 0.000000
vt 1.356555 1.000000
vt 0.000000 0.000000
vt 0.000000 1.000000
vt 1.356555 0.000000
vt 1.356555 1.000000
vt 0.000000 0.000000
vt 0.000000 1.000000
vt 1.356555 0.000000
vt 1.356555 1.000000
vt 0.000000 0.000000
vt 0.000000 1.000000
vt 1.356555 0.000000
vt 1.356555 1.000000
vt 0.000000 0.000000
vt 0.000000 1.000000
vt 1.356555 0.000000
vt 1.356555 1.000000
vt 0.000000 0.000000
vt 0.000000 1.000000
vt 1.356555 0.000000
vt 1.356555 1.000000
vt 0.000000 0.000000
vt 0.000000 1.000000
vt 1.356555 0.000000
vt 1.356555 1.000000
vt 0.000000 0.000000
vt 0.000000 1.000000
vt 1.356555 0.000000
vt 1.356555 1.000000
vt 0.000000 0.000000
vt 0.000000 1.000000
vt 1.356555 0.000000
vt 1.356555 1.000000
vt 0.000000 0.000000
vt 0.000000 1.000000
vt 1.356555 0.000000
vt 1.356555 1.000000
vt 0.000000 0.000000
vt 0.000000 1.000000
vt 1.356555 0.000000
vt 1.356555 1.000000
vt 0.000000 0.000000
vt 0.000000 1.000000
vt 1.356555 0.000000
vt 1.356555 1.000000
vt 0.000000 0.000000
vt 0.000000 1.000000
vt 1.356555 0.000000
vt 1.356555 1.000000
vt 0.000000 0.000000
vt 0.000000 1.000000
vt 1.356555 0.000000
vt 1.356555 1.000000
vt 0.000000 0.000000
vt 0.000000 1.000000
vt 1.356555 0.000000
vt 1.356555 1.000000
vt 0.000000 0.000000
vt 0.000000 1.000000
vt 1.356555 0.000000
vt 1.356555 1.000000
vt 0.000000 0.000000
vt 0.000000 1.000000
vt 1.356555 0.000000
vt 1.356555 1.000000
vt 0.000000 0.000000
vt 0.000000 1.000000
vt 1.356555 0.000000
vt 1.356555 1.000000
vt 0.000000 0.000000
vt 0.000000 1.000000
vt 1.356555 0.000000
vt 1.356555 1.000000
vt 0.000000 0.000000
vt 0.000000 1.000000
vt 1.356555 0.000000
vt 1.356555 1.000000
vt 0.000000 0.000000
vt 0.000000 1.000000
vt 1.356555 0.000000
vt 1.356555 1.000000
vt 0.000000 0.000000
vt 0.000000 1.000000
vt 1.356555 0.000000
vt 1.356555 1.000000
vt 0.000000 0.000000
vt 0.000000 1.000000
vt 1.356555 0.000000
vt 1.356555 1.000000
vt 0.000000 0.000000
vt 0.000000 1.000000
vt 1.356555 0.000000
vt 1.356555 1.000000
vt 0.000000 0.000000
vt 0.000000 1.000000
vt 1.356555 0.000000
vt 1.356555 1.000000
vt 0.000000 0.000000
vt 0.000000 1.000000
vt 1.356555 0.000000
vt 1.356555 1.000000
vt 0.000000 0.000000
vt 0.000000 1.000000
vt 1.356555 0.000000
vt 1.356555 1.000000
vt 0.000000 0.000000
vt 0.000000 1.000000
vt 1.356555 0.000000
vt 1.356555 1.000000
vt 0.000000 0.000000
vt 0.000000 1.000000
vt 1.356555 0.000000
vt 1.356555 1.000000
vt 0.000000 0.000000
vt 0.000000 1.000000
vt 1.356555 0.000000
vt 1.356555 1.000000
vt 0.000000 0.000000
vt 0.000000 1.000000
vt 1.356555 0.000000
vt 1.356555 1.000000
vt 0.000000 0.000000
vt 0.000000 1.000000
vt 1.356555 0.000000
vt 1.356555 1.000000
vt 0.000000 0.000000
vt 0.000000 1.000000
vt 1.356555 0.000000
vt 1.356555 1.000000
vt 0.000000 0.000000
vt 0.000000 1.000000
vt 1.356555 0.000000
vt 1.356555 1.000000
vt 0.000000 0.000000
vt 0.000000 1.000000
vt 1.356555 0.000000
vt 1.356555 1.000000
vt 0.000000 0.000000
vt 0.000000 1.000000
vt 1.356555 0.000000
vt 1.356555 1.000000
vt 0.000000 0.000000
vt 0.000000 1.000000
vt 1.356555 0.000000
vt 1.356555 1.000000
vt 0.000000 0.000000
vt 0.000000 1.000000
vt 1.356555 0.000000
vt 1.356555 1.000000
vt 0.000000 0.000000
vt 0.000000 1.000000
vt 1.356555 0.000000
vt 1.356555 1.000000
vt 0.000000 0.000000
vt 0.000000 1.000000
vt 1.356555 0.000000
vt 1.356555 1.000000
vt 0.000000 0.000000
vt 0.000000 1.000000
vt 1.356555 0.000000
vt 1.356555 1.000000
vt 0.000000 0.000000
vt 0.000000 1.000000
vt 1.356555 0.000000
vt 1.356555 1.000000
vt 0.000000 0.000000
vt 0.000000 1.000000
vt 1.356555 0.000000
vt 1.356555 1.000000
vt 0.000000 0.000000
vt 0.000000 1.000000
vt 1.356555 0.000000
vt 1.356555 1.000000
vt 0.000000 0.000000
vt 0.000000 1.000000
vt 1.356555 0.000000
vt 1.356555 1.000000
vt 0.000000 0.000000
vt 0.000000 1.000000
vt 1.356555 0.000000
vt 1.356555 1.000000
vt 0.000000 0.000000
vt 0.000000 1.000000
vt 1.356555 0.000000
vt 1.356555 1.000000
vt 0.000000 0.000000
vt 0.000000 1.000000
vt 1.356555 0.000000
vt 1.356555 1.000000
vt 0.000000 0.000000
vt 0.000000 1.000000
vt 1.356555 0.000000
vt 1.356555 1.000000
vt 0.000000 0.000000
vt 0.000000 1.000000
vt 1.356555 0.000000
vt 1.356555 1.000000
vt 0.000000 0.000000
vt 0.000000 1.000000
vt 1.356555 0.000000
vt 1.356555 1.000000
vt 0.000000 0.000000
vt 0.000000 1.000000
vt 1.356555 0.000000
vt 1.356555 1.000000
vt 0.000000 0.000000
vt 0.000000 1.000000
vt 1.356555 0.000000
vt 1.356555 1.000000
vt 0.000000 0.000000
vt 0.000000 1.000000
vt 1.356555 0.000000
vt 1.356555 1.000000
vt 0.000000 0.000000
vt 0.000000 1.000000
vt 1.356555 0.000000
vt 1.356555 1.000000
vt 0.000000 0.000000
vt 0.000000 1.000000
vt 1.356555 0.000000
vt 1.356555 1.000000
vt 0.000000 0.000000
vt 0.000000 1.000000
vt 1.356555 0.000000
vt 1.356555 1.000000
vt 0.000000 0.000000
vt 0.000000 1.000000
vt 1.356555 0.000000
vt 1.356555 1.000000
vt 0.000000 0.000000
vt 0.000000 1.000000
vt 1.356555 0.000000
vt 1.356555 1.000000
vt 0.000000 0.000000
vt 0.000000 1.000000
vt 1.356555 0.000000
vt 1.356555 1.000000
vt 0.000000 0.000000
vt 0.000000 1.000000
vt 1.356555 0.000000
vt 1.356555 1.000000
vt 0.000000 0.000000
vt 0.000000 1.000000
vt 1.356555 0.000000
vt 1.356555 1.000000
vt 0.000000 0.000000
vt 0.000000 1.000000
vt 1.356555 0.000000
vt 1.356555 1.000000
vt 0.000000 0.000000
vt 0.000000 1.000000
vt 1.356555 0.000000
vt 1.356555 1.000000
vt 0.000000 0.000000
vt 0.000000 1.000000
vt 1.356555 0.000000
vt 1.356555 1.000000
vt 0.000000 0.000000
vt 0.000000 1.000000
vt 1.356555 0.000000
vt 1.356555 1.000000
vt 0.000000 0.000000
vt 0.000000 1.000000
vt 1.356555 0.000000
vt 1.356555 1.000000
vt 0.000000 0.000000
vt 0.000000 1.000000
vt 1.356555 0.000000
vt 1.356555 1.000000
vt 0.000000 0.000000
vt 0.000000 1.000000
vt 1.356555 0.000000
vt 1.356555 1.000000
vt 0.000000 0.000000
vt 0.000000 1.000000
vt 1.356555 0.000000
vt 1.356555 1.000000
vt 0.000000 0.000000
vt 0.000000 1.000000
vt 1.356555 0.000000
vt 1.356555 1.000000
vt 0.000000 0.000000
vt 0.000000 1.000000
vt 1.356555 0.000000
vt 1.356555 1.000000
vt 0.000000 0.000000
vt 0.000000 1.000000
vt 1.356555 0.000000
vt 1.356555 1.000000
vt 0.000000 0.000000
vt 0.000000 1.000000
vt 1.356555 0.000000
vt 1.356555 1.000000
vt 0.000000 0.000000
vt 0.000000 1.000000
vt 1.356555 0.000000
vt 1.356555 1.000000
vt 0.000000 0.000000
vt 0.000000 1.000000
vt 1.356555 0.000000
vt 1.356555 1.000000
vt 0.000000 0.000000
vt 0.000000 1.000000
vt 1.356555 0.000000
vt 1.356555 1.000000
vt 0.000000 0.000000
vt 0.000000 1.000000
vt 1.356555 0.000000
vt 1.356555 1.000000
vt 0.000000 0.000000
vt 0.000000 1.000000
vt 1.356555 0.000000
vt 1.356555 1.000000
vt 0.000000 0.000000
vt 0.000000 1.000000
vt 1.356555 0.000000
vt 1.356555 1.000000
vt 0.000000 0.000000
vt 0.000000 1.000000
vt 1.356555 0.000000
vt 1.356555 1.000000
vt 0.000000 0.000000
vt 0.000000 1.000000
vt 1.356555 0.000000
vt 1.356555 1.000000
vt 0.000000 0.000000
vt 0.000000 1.000000
vt 1.356555 0.000000
vt 1.356555 1.000000
vt 0.000000 0.000000
vt 0.000000 1.000000
vt 1.356555 0.000000
vt 1.356555 1.000000
vt 0.000000 0.000000
vt 0.000000 1.000000
vt 1.356555 0.000000
vt 1.356555 1.000000
vt 0.000000 0.000000
vt 0.000000 1.000000
vt 1.356555 0.000000
vt 1.356555 1.000000
vt 0.000000 0.000000
vt 0.000000 1.000000
vt 1.356555 0.000000
vt 1.356555 1.000000
vt 0.000000 0.000000
vt 0.000000 1.000000
vt 1.356555 0.000000
vt 1.356555 1.000000
vt 0.000000 0.000000
vt 0.000000 1.000000
vt 1.356555 0.000000
vt 1.356555 1.000000
vt 0.000000 0.000000
vt 0.000000 1.000000
vt 1.356555 0.000000
vt 1.356555 1.000000
vt 0.000000 0.000000
vt 0.000000 1.000000
vt 1.356555 0.000000
vt 1.356555 1.000000
vt 0.000000 0.000000
vt 0.000000 1.000000
vt 1.356555 0.000000
vt 1.356555 1.000000
vt 0.000000 0.000000
vt 0.000000 1.000000
vt 1.356555 0.000000
vt 1.356555 1.000000
vt 0.000000 0.000000
vt 0.000000 1.000000
vt 1.356555 0.000000
vt 1.356555 1.000000
vt 0.000000 0.000000
vt 0.000000 1.000000
vt 1.356555 0.000000
vt 1.356555 1.000000
vt 0.000000 0.000000
vn 0.5782 0.0000 -0.8159
vn -0.8155 0.0000 -0.5787
vn -0.5797 0.0000 0.8148
vn 0.8073 -0.0000 0.5902
usemtl Window09WhiteTiling_25EmissionOffMaterial.002
s 1
f 1/1/1 3/2/1 2/3/1
f 1/1/1 4/4/1 3/2/1
f 5/5/1 7/6/1 6/7/1
f 5/5/1 8/8/1 7/6/1
f 9/9/1 11/10/1 10/11/1
f 9/9/1 12/12/1 11/10/1
f 13/13/1 15/14/1 14/15/1
f 13/13/1 16/16/1 15/14/1
f 17/17/1 19/18/1 18/19/1
f 17/17/1 20/20/1 19/18/1
f 21/21/1 23/22/1 22/23/1
f 21/21/1 24/24/1 23/22/1
f 25/25/1 27/26/1 26/27/1
f 25/25/1 28/28/1 27/26/1
f 29/29/1 31/30/1 30/31/1
f 29/29/1 32/32/1 31/30/1
f 33/33/1 35/34/1 34/35/1
f 33/33/1 36/36/1 35/34/1
f 37/37/1 39/38/1 38/39/1
f 37/37/1 40/40/1 39/38/1
f 41/41/1 43/42/1 42/43/1
f 41/41/1 44/44/1 43/42/1
f 45/45/1 47/46/1 46/47/1
f 45/45/1 48/48/1 47/46/1
f 49/49/1 51/50/1 50/51/1
f 49/49/1 52/52/1 51/50/1
f 53/53/1 55/54/1 54/55/1
f 53/53/1 56/56/1 55/54/1
f 57/57/1 59/58/1 58/59/1
f 57/57/1 60/60/1 59/58/1
f 61/61/1 63/62/1 62/63/1
f 61/61/1 64/64/1 63/62/1
f 65/65/1 67/66/1 66/67/1
f 65/65/1 68/68/1 67/66/1
f 69/69/1 71/70/1 70/71/1
f 69/69/1 72/72/1 71/70/1
f 73/73/1 75/74/1 74/75/1
f 73/73/1 76/76/1 75/74/1
f 77/77/1 79/78/1 78/79/1
f 77/77/1 80/80/1 79/78/1
f 81/81/2 83/82/2 82/83/2
f 81/81/2 84/84/2 83/82/2
f 85/85/2 87/86/2 86/87/2
f 85/85/2 88/88/2 87/86/2
f 89/89/2 91/90/2 90/91/2
f 89/89/2 92/92/2 91/90/2
f 93/93/2 95/94/2 94/95/2
f 93/93/2 96/96/2 95/94/2
f 97/97/2 99/98/2 98/99/2
f 97/97/2 100/100/2 99/98/2
f 101/101/2 103/102/2 102/103/2
f 101/101/2 104/104/2 103/102/2
f 105/105/2 107/106/2 106/107/2
f 105/105/2 108/108/2 107/106/2
f 109/109/2 111/110/2 110/111/2
f 109/109/2 112/112/2 111/110/2
f 113/113/2 115/114/2 114/115/2
f 113/113/2 116/116/2 115/114/2
f 117/117/2 119/118/2 118/119/2
f 117/117/2 120/120/2 119/118/2
f 121/121/2 123/122/2 122/123/2
f 121/121/2 124/124/2 123/122/2
f 125/125/2 127/126/2 126/127/2
f 125/125/2 128/128/2 127/126/2
f 129/129/2 131/130/2 130/131/2
f 129/129/2 132/132/2 131/130/2
f 133/133/2 135/134/2 134/135/2
f 133/133/2 136/136/2 135/134/2
f 137/137/2 139/138/2 138/139/2
f 137/137/2 140/140/2 139/138/2
f 141/141/2 143/142/2 142/143/2
f 141/141/2 144/144/2 143/142/2
f 145/145/2 147/146/2 146/147/2
f 145/145/2 148/148/2 147/146/2
f 149/149/2 151/150/2 150/151/2
f 149/149/2 152/152/2 151/150/2
f 153/153/2 155/154/2 154/155/2
f 153/153/2 156/156/2 155/154/2
f 157/157/2 159/158/2 158/159/2
f 157/157/2 160/160/2 159/158/2
f 161/161/2 163/162/2 162/163/2
f 161/161/2 164/164/2 163/162/2
f 165/165/2 167/166/2 166/167/2
f 165/165/2 168/168/2 167/166/2
f 169/169/2 171/170/2 170/171/2
f 169/169/2 172/172/2 171/170/2
f 173/173/2 175/174/2 174/175/2
f 173/173/2 176/176/2 175/174/2
f 177/177/2 179/178/2 178/179/2
f 177/177/2 180/180/2 179/178/2
f 181/181/2 183/182/2 182/183/2
f 181/181/2 184/184/2 183/182/2
f 185/185/2 187/186/2 186/187/2
f 185/185/2 188/188/2 187/186/2
f 189/189/2 191/190/2 190/191/2
f 189/189/2 192/192/2 191/190/2
f 193/193/2 195/194/2 194/195/2
f 193/193/2 196/196/2 195/194/2
f 197/197/2 199/198/2 198/199/2
f 197/197/2 200/200/2 199/198/2
f 201/201/2 203/202/2 202/203/2
f 201/201/2 204/204/2 203/202/2
f 205/205/2 207/206/2 206/207/2
f 205/205/2 208/208/2 207/206/2
f 209/209/2 211/210/2 210/211/2
f 209/209/2 212/212/2 211/210/2
f 213/213/2 215/214/2 214/215/2
f 213/213/2 216/216/2 215/214/2
f 217/217/3 219/218/3 218/219/3
f 217/217/3 220/220/3 219/218/3
f 221/221/3 223/222/3 222/223/3
f 221/221/3 224/224/3 223/222/3
f 225/225/3 227/226/3 226/227/3
f 225/225/3 228/228/3 227/226/3
f 229/229/3 231/230/3 230/231/3
f 229/229/3 232/232/3 231/230/3
f 233/233/3 235/234/3 234/235/3
f 233/233/3 236/236/3 235/234/3
f 237/237/3 239/238/3 238/239/3
f 237/237/3 240/240/3 239/238/3
f 241/241/3 243/242/3 242/243/3
f 241/241/3 244/244/3 243/242/3
f 245/245/3 247/246/3 246/247/3
f 245/245/3 248/248/3 247/246/3
f 249/249/3 251/250/3 250/251/3
f 249/249/3 252/252/3 251/250/3
f 253/253/3 255/254/3 254/255/3
f 253/253/3 256/256/3 255/254/3
f 257/257/3 259/258/3 258/259/3
f 257/257/3 260/260/3 259/258/3
f 261/261/3 263/262/3 262/263/3
f 261/261/3 264/264/3 263/262/3
f 265/265/3 267/266/3 266/267/3
f 265/265/3 268/268/3 267/266/3
f 269/269/3 271/270/3 270/271/3
f 269/269/3 272/272/3 271/270/3
f 273/273/3 275/274/3 274/275/3
f 273/273/3 276/276/3 275/274/3
f 277/277/3 279/278/3 278/279/3
f 277/277/3 280/280/3 279/278/3
f 281/281/3 283/282/3 282/283/3
f 281/281/3 284/284/3 283/282/3
f 285/285/3 287/286/3 286/287/3
f 285/285/3 288/288/3 287/286/3
f 289/289/3 291/290/3 290/291/3
f 289/289/3 292/292/3 291/290/3
f 293/293/3 295/294/3 294/295/3
f 293/293/3 296/296/3 295/294/3
f 297/297/3 299/298/3 298/299/3
f 297/297/3 300/300/3 299/298/3
f 301/301/4 303/302/4 302/303/4
f 301/301/4 304/304/4 303/302/4
f 305/305/4 307/306/4 306/307/4
f 305/305/4 308/308/4 307/306/4
f 309/309/4 311/310/4 310/311/4
f 309/309/4 312/312/4 311/310/4
f 313/313/4 315/314/4 314/315/4
f 313/313/4 316/316/4 315/314/4
f 317/317/4 319/318/4 318/319/4
f 317/317/4 320/320/4 319/318/4
f 321/321/4 323/322/4 322/323/4
f 321/321/4 324/324/4 323/322/4
f 325/325/4 327/326/4 326/327/4
f 325/325/4 328/328/4 327/326/4
f 329/329/4 331/330/4 330/331/4
f 329/329/4 332/332/4 331/330/4
f 333/333/4 335/334/4 334/335/4
f 333/333/4 336/336/4 335/334/4
f 337/337/4 339/338/4 338/339/4
f 337/337/4 340/340/4 339/338/4
f 341/341/4 343/342/4 342/343/4
f 341/341/4 344/344/4 343/342/4
f 345/345/4 347/346/4 346/347/4
f 345/345/4 348/348/4 347/346/4
f 349/349/4 351/350/4 350/351/4
f 349/349/4 352/352/4 351/350/4
f 353/353/4 355/354/4 354/355/4
f 353/353/4 356/356/4 355/354/4
f 357/357/4 359/358/4 358/359/4
f 357/357/4 360/360/4 359/358/4
f 361/361/4 363/362/4 362/363/4
f 361/361/4 364/364/4 363/362/4
f 365/365/4 367/366/4 366/367/4
f 365/365/4 368/368/4 367/366/4
f 369/369/4 371/370/4 370/371/4
f 369/369/4 372/372/4 371/370/4
f 373/373/4 375/374/4 374/375/4
f 373/373/4 376/376/4 375/374/4
f 377/377/4 379/378/4 378/379/4
f 377/377/4 380/380/4 379/378/4
f 381/381/4 383/382/4 382/383/4
f 381/381/4 384/384/4 383/382/4
f 385/385/4 387/386/4 386/387/4
f 385/385/4 388/388/4 387/386/4
f 389/389/4 391/390/4 390/391/4
f 389/389/4 392/392/4 391/390/4
f 393/393/4 395/394/4 394/395/4
f 393/393/4 396/396/4 395/394/4
f 397/397/4 399/398/4 398/399/4
f 397/397/4 400/400/4 399/398/4
f 401/401/4 403/402/4 402/403/4
f 401/401/4 404/404/4 403/402/4
f 405/405/4 407/406/4 406/407/4
f 405/405/4 408/408/4 407/406/4
f 409/409/4 411/410/4 410/411/4
f 409/409/4 412/412/4 411/410/4
f 413/413/4 415/414/4 414/415/4
f 413/413/4 416/416/4 415/414/4
f 417/417/4 419/418/4 418/419/4
f 417/417/4 420/420/4 419/418/4
f 421/421/4 423/422/4 422/423/4
f 421/421/4 424/424/4 423/422/4
f 425/425/4 427/426/4 426/427/4
f 425/425/4 428/428/4 427/426/4
f 429/429/4 431/430/4 430/431/4
f 429/429/4 432/432/4 431/430/4
f 433/433/4 435/434/4 434/435/4
f 433/433/4 436/436/4 435/434/4
f 437/437/4 439/438/4 438/439/4
f 437/437/4 440/440/4 439/438/4
