# Blender v2.92.0 OBJ File: 'sanfrancisco.blend'
# www.blender.org
mtllib Window01ATiling_5EmissionOff_8.mtl
o Window01ATiling_5EmissionOff_8_Scene.4647
v 2739.589600 316.700012 1136.142944
v 2739.589600 316.700012 886.142944
v 2739.589355 66.700012 886.142944
v 2739.589355 66.700012 1136.142944
v 2739.589600 316.700012 125.000206
v 2739.589600 316.700012 -124.999786
v 2739.589355 66.700012 -124.999786
v 2739.589355 66.700012 125.000206
vt 0.000000 1.000000
vt 1.000000 0.000000
vt 1.000000 1.000000
vt 0.000000 0.000000
vt 0.000000 1.000000
vt 1.000000 0.000000
vt 1.000000 1.000000
vt 0.000000 0.000000
vn 1.0000 -0.0000 0.0000
usemtl Window01ATiling_5EmissionOffMaterial.002
s 1
f 1/1/1 3/2/1 2/3/1
f 1/1/1 4/4/1 3/2/1
f 5/5/1 7/6/1 6/7/1
f 5/5/1 8/8/1 7/6/1
