# Blender v2.92.0 OBJ File: 'sanfrancisco.blend'
# www.blender.org
mtllib Window07RedEmissionOn_5.mtl
o Window07RedEmissionOn_5_Scene.3680
v -320.399841 893.190002 1875.999878
v -220.399902 893.190002 1875.999878
v -220.399902 743.189941 1875.999878
v -320.399841 743.189941 1875.999878
v 490.800171 893.190063 1875.999878
v 590.800110 893.190063 1875.999878
v 590.800110 743.190002 1875.999878
v 490.800171 743.190002 1875.999878
v -590.799744 573.189941 1875.999878
v -490.799866 573.190002 1875.999878
v -490.799866 423.189972 1875.999878
v -590.799866 423.189941 1875.999878
vt 0.000000 1.000000
vt 1.000000 0.000000
vt 1.000000 1.000000
vt 0.000000 0.000000
vt 0.000000 1.000000
vt 1.000000 0.000000
vt 1.000000 1.000000
vt 0.000000 0.000000
vt 0.000000 1.000000
vt 1.000000 0.000000
vt 1.000000 1.000000
vt 0.000000 0.000000
vn 0.0000 0.0000 1.0000
usemtl Window07RedEmissionOnMaterial.002
s 1
f 1/1/1 3/2/1 2/3/1
f 1/1/1 4/4/1 3/2/1
f 5/5/1 7/6/1 6/7/1
f 5/5/1 8/8/1 7/6/1
f 9/9/1 11/10/1 10/11/1
f 9/9/1 12/12/1 11/10/1
