# Blender v2.92.0 OBJ File: 'sanfrancisco.blend'
# www.blender.org
mtllib Window03EmissionOn_75.mtl
o Window03EmissionOn_75_Scene.4404
v 75.000061 693.749939 -2234.999756
v -74.999939 693.749939 -2234.999756
v -74.999878 543.749939 -2234.999756
v 75.000061 543.750000 -2234.999756
v -1484.999756 318.749969 -913.121033
v -1484.999756 318.749969 -763.121094
v -1484.999756 168.749969 -763.121033
v -1484.999756 168.749969 -913.120972
v -1485.000000 318.749969 -354.371033
v -1485.000000 318.750000 -204.371063
v -1484.999756 168.750000 -204.371078
v -1484.999756 168.749969 -354.371033
v -1484.999756 693.749878 763.120972
v -1484.999756 693.749878 913.120911
v -1484.999756 543.749939 913.120789
v -1484.999756 543.749939 763.120911
v 1113.000000 693.749817 2234.999756
v 1263.000000 693.749878 2234.999756
v 1263.000000 543.750000 2234.999756
v 1113.000000 543.749939 2234.999756
v 1484.999878 693.749878 913.128723
v 1484.999878 693.749878 763.128784
v 1484.999878 543.749939 763.128784
v 1484.999878 543.749939 913.128723
v 1485.000000 693.749939 354.378906
v 1485.000000 693.749878 204.378860
v 1485.000000 543.749939 204.378830
v 1485.000000 543.750000 354.378906
v 1485.000000 318.749939 -763.121033
v 1485.000000 318.749939 -913.120911
v 1485.000000 168.749939 -913.120911
v 1485.000000 168.749939 -763.121033
v 1484.999878 318.749939 -1880.620728
v 1484.999878 318.749939 -2030.620728
v 1484.999878 168.749939 -2030.620728
v 1484.999878 168.749939 -1880.620728
vt 0.000000 1.000000
vt 1.000000 0.000000
vt 1.000000 1.000000
vt 0.000000 0.000000
vt 0.000000 1.000000
vt 1.000000 0.000000
vt 1.000000 1.000000
vt 0.000000 0.000000
vt 0.000000 1.000000
vt 1.000000 0.000000
vt 1.000000 1.000000
vt 0.000000 0.000000
vt 0.000000 1.000000
vt 1.000000 0.000000
vt 1.000000 1.000000
vt 0.000000 0.000000
vt 0.000000 1.000000
vt 1.000000 0.000000
vt 1.000000 1.000000
vt 0.000000 0.000000
vt 0.000000 1.000000
vt 1.000000 0.000000
vt 1.000000 1.000000
vt 0.000000 0.000000
vt 0.000000 1.000000
vt 1.000000 0.000000
vt 1.000000 1.000000
vt 0.000000 0.000000
vt 0.000000 1.000000
vt 1.000000 0.000000
vt 1.000000 1.000000
vt 0.000000 0.000000
vt 0.000000 1.000000
vt 1.000000 0.000000
vt 1.000000 1.000000
vt 0.000000 0.000000
vn 0.0000 0.0000 -1.0000
vn -1.0000 0.0000 0.0000
vn -0.0000 0.0000 1.0000
vn 1.0000 0.0000 0.0000
usemtl Window03EmissionOnMaterial.002
s 1
f 1/1/1 3/2/1 2/3/1
f 1/1/1 4/4/1 3/2/1
f 5/5/2 7/6/2 6/7/2
f 5/5/2 8/8/2 7/6/2
f 9/9/2 11/10/2 10/11/2
f 9/9/2 12/12/2 11/10/2
f 13/13/2 15/14/2 14/15/2
f 13/13/2 16/16/2 15/14/2
f 17/17/3 19/18/3 18/19/3
f 17/17/3 20/20/3 19/18/3
f 21/21/4 23/22/4 22/23/4
f 21/21/4 24/24/4 23/22/4
f 25/25/4 27/26/4 26/27/4
f 25/25/4 28/28/4 27/26/4
f 29/29/4 31/30/4 30/31/4
f 29/29/4 32/32/4 31/30/4
f 33/33/4 35/34/4 34/35/4
f 33/33/4 36/36/4 35/34/4
